{
    "@class": "com.kony.gen.viz.model.component.KVizButton",
    "DNDConfig": null,
    "__markedForDelete__": true,
    "__parentReadjusting__": false,
    "_height_": {
        "type": "string",
        "value": "20%"
    },
    "_left_": {
        "type": "string",
        "value": "5%"
    },
    "_margin_": [
        6,
        6,
        6,
        6
    ],
    "_padding_": [
        0,
        0,
        0,
        0
    ],
    "_skin_": "scbc5804b50f4392928eec8b75a9f6a6",
    "_text_": "",
    "_top_": {
        "type": "string",
        "value": "35%"
    },
    "_width_": {
        "type": "string",
        "value": "7%"
    },
    "canUpdateUI": true,
    "containerweight": 100,
    "contentalignment": 5,
    "displaytext": true,
    "focusskin": "scbc5804b50f4392928eec8b75a9f6a6",
    "id": "btnCardReplace",
    "ide_onClick": "AS_Button_c7ca4e3e7add4bce9b729f478b7cceb4",
    "info": null,
    "isvisible": false,
    "kuid": "fa31addf37fc47df8e238197c6d7f710",
    "name": "kony.ui.Button",
    "parent": "flxCardCancellationOptions",
    "pf": "frmCancelCardKA",
    "wType": "Button",
    "zindex": 2
}