{
    "@class": "com.kony.gen.viz.model.component.KVizRichText",
    "DNDConfig": null,
    "__parentReadjusting__": false,
    "_height_": {
        "type": "ref",
        "value": "preferred"
    },
    "_left_": {
        "type": "string",
        "value": "0%"
    },
    "_margin_": [
        0,
        0,
        0,
        0
    ],
    "_padding_": [
        0,
        0,
        0,
        0
    ],
    "_skin_": "s63518157ffe443c97b3e03d9afd4918",
    "_text_": "RichText",
    "_top_": {
        "type": "string",
        "value": "0dp"
    },
    "_width_": {
        "type": "string",
        "value": "95%"
    },
    "_wrapping_": 2,
    "canUpdateUI": true,
    "containerweight": 100,
    "contentalignment": 4,
    "id": "richtxtTermsandConditions",
    "info": null,
    "isvisible": true,
    "kuid": "j71023b7b4f24d26ada2c7e74b8315f0",
    "name": "kony.ui.RichText",
    "parent": "flxTncBody",
    "pf": "frmApplyNewCardsConfirmKA",
    "wType": "RichText",
    "widgetalignment": 5,
    "zindex": 3
}