{
    "@class": "com.kony.gen.viz.model.component.KVizButton",
    "DNDConfig": null,
    "__parentReadjusting__": false,
    "_height_": {
        "type": "string",
        "value": "100dp"
    },
    "_left_": {
        "type": "string",
        "value": "0dp"
    },
    "_margin_": [
        6,
        6,
        6,
        6
    ],
    "_padding_": [
        0,
        0,
        0,
        0
    ],
    "_render_": true,
    "_skin_": "s54ad9e8f4a74167a1d6d5a61d75bac7",
    "_text_": "Delete",
    "_width_": {
        "type": "string",
        "value": "100dp"
    },
    "android": {
        "render": true
    },
    "canUpdateUI": true,
    "centery": {
        "type": "string",
        "value": "50%"
    },
    "containerId": true,
    "containerweight": 100,
    "contentalignment": 5,
    "displaytext": false,
    "focusskin": "s54ad9e8f4a74167a1d6d5a61d75bac7",
    "id": "btnDeleteKA",
    "ide_onClick": "AS_Button_b616e3930d014803a060a8d7412fffab",
    "info": null,
    "iphone": {
        "render": true
    },
    "isvisible": true,
    "kuid": "2cc2d47078f2482c8f155f732f969f7f",
    "name": "kony.ui.Button",
    "parent": "flxSegMsgSwipe",
    "pf": "segMessagesTmplKA",
    "spaan": {
        "render": true
    },
    "spabb": {
        "render": true
    },
    "spaip": {
        "render": true
    },
    "spawinphone8": {
        "render": true
    },
    "wType": "Button",
    "winphone8": {
        "render": true
    },
    "zindex": 1
}