{
  "operationConfig" : {
    "name" : "getQrCode3886",
    "type" : "MappedToBackend",
    "cachable" : false,
    "smsEnabled" : false,
    "security" : "authorized_app_user",
    "responseEncoding" : "UTF-8",
    "httpMethod" : "GET",
    "decodeResponseBody" : false,
    "iMapping" : "<?xml version=\"1.0\" encoding=\"UTF-8\" standalone=\"yes\"?><mapper xmlns=\"http://www.kony.com/ns/mapper\">  <map inputpath=\"request_in\" outputpath=\"request_out\">    <set-param inputpath=\"id\" outputpath=\"id\"/>    <set-param inputpath=\"AtmId\" outputpath=\"AtmId\"/>    <set-param inputpath=\"timestamp\" outputpath=\"timestamp\"/>  </map></mapper>",
    "oMapping" : "<?xml version=\"1.0\" encoding=\"UTF-8\" standalone=\"yes\"?><mapper xmlns=\"http://www.kony.com/ns/mapper\">  <map inputpath=\"response_in\" outputpath=\"response_out\">    <map inputpath=\"QrCode\" outputpath=\"QrCode\">      <set-param inputpath=\"id\" outputpath=\"id\"/>    </map>  </map></mapper>",
    "applyCommonMapping" : true,
    "backendMeta" : {
      "serviceVersion" : "1.0",
      "operationName" : "getQrCode",
      "serviceName" : "RetailBankingBEServices"
    },
    "relationshipHierarchyMapping" : {
      "children" : [ ],
      "name" : "QrCode",
      "selected" : true
    },
    "requestXmlMappingOverride" : true,
    "responseXmlMappingOverride" : true
  }
}