{
    "@class": "com.kony.gen.viz.model.component.KVizButton",
    "DNDConfig": null,
    "_margin_": [
        5,
        2,
        5,
        2
    ],
    "_padding_": [
        1,
        1,
        1,
        1
    ],
    "_skin_": "s064afd968c64abb94c8e379d3f4c61f",
    "_text_": "",
    "canUpdateUI": true,
    "containerWeightLocked": false,
    "containerweight": 50,
    "contentalignment": 5,
    "displaytext": true,
    "donotUpdateContainerWeight": false,
    "focusskin": "s17e292d54bd48bd8bd8a070c6c1819a",
    "hexpand": true,
    "id": "btnSingleOkay",
    "ide_onClick": "AS_Button_cbc321b69fff43d1953ad3163ba632ab",
    "info": null,
    "isvisible": true,
    "kuid": "aec7993b6f174ce0b51a693fb9076329",
    "margininpixel": false,
    "name": "kony.ui.Button",
    "paddInPixel": [
        5.88,
        5.88,
        5.88,
        5.88
    ],
    "paddinginpixel": false,
    "parent": "hbxSingleOk",
    "pf": "popupCommonAlert",
    "texti18n": "i18n.NUO.OKay",
    "vexpand": false,
    "wType": "Button"
}