{
    "@class": "com.kony.gen.viz.model.container.KVizHBox",
    "DNDConfig": null,
    "_margin_": [
        0,
        2,
        0,
        0
    ],
    "_orientation_": 1,
    "_padding_": [
        0,
        0,
        0,
        0
    ],
    "_percent_": true,
    "_position_": 3,
    "_skin_": "s066e1f55806426ca40936afa9e01f49",
    "allboxes": [],
    "canUpdateUI": true,
    "children": [
        "lblAlertHeader"
    ],
    "containerweight": 100,
    "contextmenu": null,
    "id": "hbxAlertHeader",
    "info": null,
    "isvisible": true,
    "kuid": "h0fe4cccbda14ba5ac60becd0ab4e67c",
    "layouttype": 0,
    "margininpixel": false,
    "name": "kony.ui.Box",
    "paddinginpixel": false,
    "parent": "popupCommonAlert",
    "pf": "popupCommonAlert",
    "wType": "HBox",
    "widgetalignment": 5
}