{
    "@class": "com.kony.gen.viz.model.container.KVizForm",
    "DNDConfig": null,
    "_margin_": [
        0,
        0,
        0,
        0
    ],
    "_orientation_": 1,
    "_padding_": [
        0,
        0,
        0,
        0
    ],
    "_percent_": true,
    "_skin_": "sac3203c6540497284615c23ffe67264",
    "_title_": "",
    "addWidgetsdone": false,
    "allboxes": [],
    "android": {
        "inTransitionConfig": {
            "animation": 1
        },
        "outTransitionConfig": {
            "animation": 8
        },
        "psp": {
            "windowSoftInputMode": 2
        }
    },
    "canUpdateUI": true,
    "children": [
        "hbxAlertHeader",
        "lineSortpopup",
        "hbxAlertBody",
        "hbxSingleOk",
        "hbxTwoButtons"
    ],
    "containerweight": 80,
    "currentLocale": "en",
    "desktopweb": {
        "psp": {
            "titleBarConfig": {
                "closeIcon": "close.png",
                "maxIcon": "max.png",
                "minIcon": "min.png"
            }
        }
    },
    "device": "iPhoneXS",
    "displayorientation": 3,
    "enabledforidletimeout": false,
    "id": "popupCommonAlert",
    "info": null,
    "initdone": false,
    "inputaccessoryviewtype": 4,
    "intransitionconfig": {
        "transitionDirection": "fromBottom",
        "transitionEffect": "transitionMoveIn"
    },
    "invokedProperty": "footers",
    "iphone": {
        "inTransitionConfig": {
            "transitionDirection": "fromBottom",
            "transitionEffect": "transitionMoveIn"
        },
        "outTransitionConfig": {
            "transitionDirection": "fromTop",
            "transitionEffect": "transitionMoveOut"
        }
    },
    "ismodal": true,
    "isvisible": true,
    "kuid": "a858ead763084439955bc861790ad001",
    "name": "kony.ui.Popup",
    "outtransitionconfig": {
        "transitionDirection": "fromTop",
        "transitionEffect": "transitionMoveOut"
    },
    "paddinginpixel": false,
    "platform": "iphone",
    "prevDevice": "GalaxyS5",
    "prevPlatform": "android",
    "retainscrollposition": false,
    "shellCSS": "iOS_iPhoneXS",
    "spa": {
        "inTransitionConfig": {
            "popupTransition": "none"
        },
        "outTransitionConfig": {
            "popupTransition": "none"
        }
    },
    "titlebar": true,
    "transparencybehindthepopup": 50,
    "wType": "Popup",
    "winphone8": {
        "inTransitionConfig": {
            "inTransition": "slidein"
        },
        "outTransitionConfig": {
            "outTransition": "slideout"
        }
    }
}