{
    "@class": "com.kony.gen.viz.model.component.KVizButton",
    "DNDConfig": null,
    "__parentReadjusting__": false,
    "_height_": {
        "type": "string",
        "value": "50dp"
    },
    "_left_": {
        "type": "string",
        "value": "5dp"
    },
    "_margin_": [
        6,
        6,
        6,
        6
    ],
    "_padding_": [
        0,
        0,
        0,
        0
    ],
    "_skin_": "s6ba61c1f3b24f2d9a607a6d158dd307",
    "_text_": "Cancel",
    "_top_": {
        "type": "string",
        "value": "0dp"
    },
    "_width_": {
        "type": "string",
        "value": "60dp"
    },
    "canUpdateUI": true,
    "containerweight": 100,
    "contentalignment": 5,
    "displaytext": true,
    "focusskin": "s6ba61c1f3b24f2d9a607a6d158dd307",
    "id": "btnCancel",
    "info": null,
    "isvisible": true,
    "kuid": "i6fcff6738584c24bf19d4da81afd240",
    "name": "kony.ui.Button",
    "parent": "flxiosTitleBarKA",
    "pf": "frmCardlessSendMessage",
    "wType": "Button",
    "zindex": 1
}