{
    "DNDConfig": null,
    "__parentReadjusting__": false,
    "_height_": {
        "type": "string",
        "value": "25dp"
    },
    "_margin_": [
        0,
        0,
        0,
        0
    ],
    "_orientation_": 6,
    "_padding_": [
        0,
        0,
        0,
        0
    ],
    "_percent_": true,
    "_right_": {
        "type": "string",
        "value": "5%"
    },
    "_skin_": "s8cee9ddcb344024afcc0f0e0d2a9e37",
    "_top_": {
        "type": "string",
        "value": "0dp"
    },
    "_width_": {
        "type": "string",
        "value": "44dp"
    },
    "allboxes": [],
    "autogrowmode": 0,
    "canUpdateUI": true,
    "centery": {
        "type": "string",
        "value": "50%"
    },
    "children": [
        "CopyflxInnerEnabled0b8f37886274244",
        "CopyflxLineEnabled0df75cffbf74b49"
    ],
    "clipbounds": true,
    "containerweight": 100,
    "enablescrolling": true,
    "id": "flxAlertMorningBalanceEnable",
    "ide_onClick": "AS_FlexContainer_ac67fe22d13a4a80b7c3143e1951ac41",
    "info": null,
    "isvisible": true,
    "kuid": "dbfb498f1df04bf7a20eeda45379e5f4",
    "layouttype": 2,
    "name": "kony.ui.FlexContainer",
    "parent": "flxAlertMorningBalance",
    "pf": "frmAlertsKA",
    "snapgridsize": 10,
    "snaptogrid": true,
    "wType": "FlexContainer",
    "widgetalignment": 1,
    "zindex": 1
}