{
    "@class": "com.kony.gen.viz.model.container.KVizSegment2",
    "DNDConfig": null,
    "__parentReadjusting__": false,
    "_bounces_": false,
    "_data_": [
        [
            {
                "lblHeaderKA": {
                    "@class": "com.viz.ide.model.segment.SimpleTextSegmentData",
                    "i18nkey": "i18n.settings.generalAlerts",
                    "text": "General Alerts"
                }
            },
            [
                {
                    "HiddenLbl": {
                        "@class": "com.viz.ide.model.segment.SimpleTextSegmentData",
                        "text": ""
                    },
                    "imgicontick": {
                        "@class": "com.viz.ide.model.segment.ImageSegmentData",
                        "src": "right_chevron_icon.png"
                    },
                    "lblPageNameKA": {
                        "@class": "com.viz.ide.model.segment.SimpleTextSegmentData",
                        "i18nkey": "i18n.settings.SecurityAlerts",
                        "text": "Security Alerts"
                    }
                },
                {
                    "HiddenLbl": {
                        "@class": "com.viz.ide.model.segment.SimpleTextSegmentData",
                        "text": ""
                    },
                    "imgicontick": {
                        "@class": "com.viz.ide.model.segment.ImageSegmentData",
                        "src": "right_chevron_icon.png"
                    },
                    "lblPageNameKA": {
                        "@class": "com.viz.ide.model.segment.SimpleTextSegmentData",
                        "i18nkey": "i18n.settings.dealsAlerts",
                        "text": "Deals Alerts"
                    }
                }
            ]
        ]
    ],
    "_height_": {
        "type": "ref",
        "value": "preferred"
    },
    "_indicator_": "none",
    "_left_": {
        "type": "string",
        "value": "0dp"
    },
    "_margin_": [
        0,
        0,
        0,
        0
    ],
    "_orientation_": 2,
    "_padding_": [
        0,
        0,
        0,
        0
    ],
    "_render_": true,
    "_top_": {
        "type": "string",
        "value": "0dp"
    },
    "_width_": {
        "type": "string",
        "value": "100%"
    },
    "android": {
        "render": true
    },
    "autogrowmode": 1,
    "canUpdateUI": true,
    "containerweight": 100,
    "counter": "01",
    "editstyle": "none",
    "focusedindex": null,
    "focuseditem": null,
    "generatedtemplate": "b4d3cced842c4af380c7d52ba7070134",
    "groupcells": false,
    "hasSections": true,
    "id": "generalAlerts",
    "ide_onRowClick": "AS_Segment_35614b8c54b144e9bb127a26c7b1bcec",
    "info": null,
    "ipad": {
        "psp": {
            "indicator": "rowselect"
        }
    },
    "iphone": {
        "psp": {
            "bounces": false,
            "editStyle": "none",
            "indicator": "none",
            "searchBy": null,
            "showProgressIndicator": false
        },
        "render": true
    },
    "isvisible": true,
    "kuid": "85b665c972af4da4a66f565f5e430593",
    "masterdata": {},
    "name": "kony.ui.SegmentedUI2",
    "needpageindicator": true,
    "onrowclick": "AS_Segment_cc56effc9e3b43f6815689c6b7c03f12",
    "pageoffdotimage": "pageoffdot.png",
    "pageondotimage": "pageondot.png",
    "paginationconfig": {
        "position": "bottom"
    },
    "parent": "alertsTypes",
    "pf": "frmAlertsKA",
    "retainselection": false,
    "rowTemplateId": "d5a33392e4ff4f0bbe32e346bb9228e9",
    "rowcounter": 1,
    "rowfocusskin": "s5fa38be22fb4f22b7c642b08276ab82",
    "rowskin": "sd2ca277651a46c0ba82f3226859f5a6",
    "rowtemplate": "container",
    "screenlevelwidget": false,
    "searchBy": null,
    "seccounter": 0,
    "sectionHeaderTemplateId": "12354dd64f814198a16f1050bdf37bc7",
    "sectionheaderskin": "s67621b8a82d49f285da06b4f5a0c993",
    "sectionheadertemplate": "Copycontainer087f3a0994b334a",
    "selectedRows": null,
    "selectedState": false,
    "selectedindex": null,
    "selectedindices": null,
    "selecteditems": null,
    "selectedsectionindex": 0,
    "selectionbehavior": "default",
    "separatorcolor": "64646400",
    "separatorrequired": false,
    "separatorthickness": 0,
    "showprogressindicator": false,
    "showscrollbars": false,
    "spaan": {
        "render": true
    },
    "spabb": {
        "render": true
    },
    "spaip": {
        "render": true
    },
    "spawinphone8": {
        "render": true
    },
    "viewtype": "tableview",
    "vizProps": {},
    "wType": "Segment",
    "widgetalignment": 5,
    "widgetdatamap": {
        "Copycontainer087f3a0994b334a": "Copycontainer087f3a0994b334a",
        "HiddenLbl": "HiddenLbl",
        "contactListDivider": "contactListDivider",
        "container": "container",
        "imgicontick": "imgicontick",
        "lblHeaderKA": "lblHeaderKA",
        "lblPageNameKA": "lblPageNameKA"
    },
    "winphone8": {
        "render": true
    }
}