{
    "@class": "com.kony.gen.viz.model.component.KVizRichText",
    "DNDConfig": null,
    "__parentReadjusting__": false,
    "_height_": {
        "type": "string",
        "value": "50dp"
    },
    "_left_": {
        "type": "string",
        "value": "0dp"
    },
    "_margin_": [
        0,
        0,
        0,
        0
    ],
    "_padding_": [
        0,
        0,
        0,
        0
    ],
    "_render_": true,
    "_right_": {
        "type": "number",
        "value": "0"
    },
    "_skin_": "s27f45dfe6db408289fb6eac95f8bfcb",
    "_text_": "These Alerts will help you to manage your accounts efficiently. More secured service is our intention.",
    "_top_": {
        "type": "string",
        "value": "0dp"
    },
    "_width_": {
        "type": "string",
        "value": "90%"
    },
    "_wrapping_": 2,
    "android": {
        "render": true
    },
    "canUpdateUI": true,
    "centerx": {
        "type": "string",
        "value": "50.00%"
    },
    "containerweight": 100,
    "contentalignment": 5,
    "id": "RichText024982103203046",
    "info": null,
    "iphone": {
        "render": true
    },
    "isvisible": true,
    "kuid": "3f9ba07a17244ab785d6d75e59f0e300",
    "name": "kony.ui.RichText",
    "parent": "TextFieldFlex",
    "pf": "frmAlertsKA",
    "spaan": {
        "render": true
    },
    "spabb": {
        "render": true
    },
    "spaip": {
        "render": true
    },
    "spawinphone8": {
        "render": true
    },
    "wType": "RichText",
    "widgetalignment": 5,
    "winphone8": {
        "render": true
    },
    "zindex": 1
}