{
  "operationConfig" : {
    "name" : "DeAndReDeviceReg3546",
    "type" : "MappedToBackend",
    "cachable" : false,
    "smsEnabled" : false,
    "security" : "authorized_app_user",
    "responseEncoding" : "UTF-8",
    "httpMethod" : "GET",
    "decodeResponseBody" : false,
    "iMapping" : "<?xml version=\"1.0\" encoding=\"UTF-8\" standalone=\"yes\"?><mapper xmlns=\"http://www.kony.com/ns/mapper\">                <map inputpath=\"request_in\" outputpath=\"request_out\">                                <set-param inputpath=\"ksid\" outputpath=\"ksid\"/>                                <set-param inputpath=\"Language\" outputpath=\"Language\"/>                                <set-param inputpath=\"user_id\" outputpath=\"user_id\"/>                                <set-param inputpath=\"appid\" outputpath=\"appid\"/>                                <set-param inputpath=\"custId\" outputpath=\"custId\"/>                                <set-param inputpath=\"devInfo\" outputpath=\"devInfo\"/>                                <set-param inputpath=\"deviceId\" outputpath=\"deviceId\"/>                </map></mapper>",
    "oMapping" : "<?xml version=\"1.0\" encoding=\"UTF-8\" standalone=\"yes\"?><mapper xmlns=\"http://www.kony.com/ns/mapper\">              <map inputpath=\"response_in\" outputpath=\"response_out\">                            <set-param inputpath=\"statusCode\" outputpath=\"statusCode\"/>                            <set-param inputpath=\"soft_token\" outputpath=\"soft_token\"/>                            <set-param inputpath=\"statusType\" outputpath=\"statusType\"/>                            <set-param inputpath=\"statusMessage\" outputpath=\"statusMessage\"/>              </map></mapper>",
    "applyCommonMapping" : false,
    "backendMeta" : {
      "serviceVersion" : "1.0",
      "operationName" : "DeAndReDeviceReg",
      "serviceName" : "BOJRestServices"
    },
    "relationshipHierarchyMapping" : {
      "children" : [ ],
      "name" : "DeviceRegistration",
      "selected" : true
    },
    "requestXmlMappingOverride" : true,
    "responseXmlMappingOverride" : true
  }
}