{
    "@class": "com.kony.gen.viz.model.component.KVizLabel",
    "DNDConfig": null,
    "__parentReadjusting__": false,
    "_height_": {
        "type": "string",
        "value": "100%"
    },
    "_left_": {
        "type": "string",
        "value": "0%"
    },
    "_margin_": [
        1,
        1,
        1,
        1
    ],
    "_padding_": [
        0,
        0,
        0,
        0
    ],
    "_skin_": "s3f495fa17da40f590ae91fa0014cd8c",
    "_text_": "",
    "_width_": {
        "type": "ref",
        "value": "preferred"
    },
    "_wrapping_": 2,
    "android": {
        "textStyle": {
            "letterSpacing": 0,
            "strikeThrough": false
        }
    },
    "canUpdateUI": true,
    "containerweight": 100,
    "contentalignment": 4,
    "id": "StepLabel",
    "info": null,
    "ipad": {
        "psp": {
            "wrapping": 2
        }
    },
    "iphone": {
        "psp": {
            "wrapping": 2
        }
    },
    "iscustomlayout": true,
    "isvisible": true,
    "kuid": "796334f021ab4adab6e44eb3ad9daa6c",
    "name": "kony.ui.Label",
    "parent": "stepCountLabel",
    "pf": "frmPinEntryStep1",
    "retaincontentalignment": false,
    "retainflexpositionproperties": false,
    "texti18n": "i18n.pinLogin.stepLabel",
    "textstyle": {},
    "tooltip": "",
    "wType": "Label",
    "zindex": 1
}