{
    "@class": "com.kony.gen.viz.model.container.KVizScrollFlexForm",
    "DNDConfig": null,
    "_margin_": [
        0,
        0,
        0,
        0
    ],
    "_padding_": [
        0,
        0,
        0,
        0
    ],
    "_skin_": "sa78f807450f4caa9e85beb57dd1c111",
    "_title_": "",
    "accessibilityconfig": {},
    "addWidgetsdone": false,
    "allboxes": [],
    "android": {
        "ide_onDeviceBack": "AS_Form_8d8ea179414745f485866a4050a6693d",
        "inTransitionConfig": {
            "formAnimation": 0
        },
        "needAppMenu": false,
        "psp": {
            "onDeviceMenu": "AS_Form_36f818564a294a66b86fb333e4b1f795"
        }
    },
    "annotationId": "7b1aa8fceb6b4070833e9eab879b0e5e",
    "bounces": false,
    "bounceszoom": false,
    "canUpdateUI": true,
    "children": [
        "apScrollEnable",
        "apScrollDisable",
        "flxIconMove"
    ],
    "configurestatusbarstyle": false,
    "containerweight": 100,
    "currentLocale": "en",
    "desktopweb": {
        "needAppMenu": false
    },
    "device": "Pixel2",
    "displayorientation": 1,
    "enabled": false,
    "enabledforidletimeout": false,
    "enablescrolling": false,
    "headeroverlap": false,
    "id": "frmLoginKA",
    "ide_init": "AS_Form_e5b00d71e5f040f883b75f4dfe934ce0",
    "ide_onHide": "AS_Form_74464c2c52764e5d850c5a24347dece8",
    "ide_postShow": "AS_Form_43ed594f831e4c9ebca6b1228100b93b",
    "ide_preShow": "AS_Form_733a752c59cd457298be1e214ef75bd5",
    "info": null,
    "initdone": false,
    "inputaccessoryviewtype": 4,
    "invokedProperty": "headers",
    "ipad": {
        "psp": {
            "inputAccessoryViewType": 4
        }
    },
    "iphone": {
        "inTransitionConfig": {
            "transitionDirection": "none",
            "transitionEffect": "transitionFade"
        },
        "needAppMenu": false,
        "psp": {
            "bouncesZoom": false,
            "configureStatusBarStyle": true,
            "inputAccessoryViewType": 3,
            "statusBarHidden": false,
            "statusBarStyle": "STATUS_BAR_STYLE_LIGHT_CONTENT",
            "titleBarAttributes": {
                "barStyle": 0,
                "hidesBackButton": true,
                "kuid": "f6d7777566db4b83bb4861b382f38cc8",
                "leftBarButtonItems": [
                    {
                        "kuid": "ge2b69d4f9174dabaae96a8677a2cf49",
                        "leftButtonText": "Back",
                        "leftTitle": "Back",
                        "prevFormTitle": false,
                        "titleBarLeftSideView": "button",
                        "type": 4
                    }
                ],
                "leftItemsSupplementBackButton": true,
                "prompt": "",
                "renderTitleText": true,
                "rightBarButtonItems": [
                    {
                        "enabled": true,
                        "info": {
                            "title": "Edit"
                        },
                        "kuid": "d0b1114b5b554a9a82e180162d926f4c",
                        "style": 0,
                        "tintColor": "33333300",
                        "type": 1
                    }
                ],
                "tintColor": "33333300",
                "translucent": true
            }
        },
        "titleBar": false
    },
    "isvisible": true,
    "kuid": "7b1aa8fceb6b4070833e9eab879b0e5e",
    "layouttype": 2,
    "name": "kony.ui.Form2",
    "needappmenu": true,
    "onhide": "AS_Form_74464c2c52764e5d850c5a24347dece8",
    "orientation": 1,
    "paddinginpixel": false,
    "percent": true,
    "platform": "android",
    "postshow": "AS_Form_43ed594f831e4c9ebca6b1228100b93b",
    "preshow": "AS_Form_733a752c59cd457298be1e214ef75bd5",
    "prevDevice": "GalaxyS8Plus",
    "prevPlatform": "iphone",
    "retainscrollposition": false,
    "shellCSS": "and_Pixel2",
    "snapgridsize": 10,
    "snaptogrid": true,
    "spa": {
        "inTransitionConfig": {
            "formTransition": "none"
        }
    },
    "spaan": {
        "needAppMenu": false
    },
    "spabb": {
        "needAppMenu": false
    },
    "spaip": {
        "needAppMenu": false
    },
    "spawinphone8": {
        "needAppMenu": false
    },
    "statusbarstyle": "STATUS_BAR_STYLE_LIGHT_CONTENT",
    "titleBarSkin": "sf9d12b1e1d546169560d8b1b80caf35",
    "titlebar": true,
    "type": 3,
    "wType": "Form",
    "winphone8": {
        "inTransitionConfig": {
            "inTransition": "none",
            "transitionMode": "none",
            "transitionSpeed": 0
        },
        "needAppMenu": false
    }
}