{
    "DNDConfig": null,
    "__parentReadjusting__": false,
    "_height_": {
        "type": "string",
        "value": "100%"
    },
    "_margin_": [
        0,
        0,
        0,
        0
    ],
    "_orientation_": 6,
    "_padding_": [
        0,
        0,
        0,
        0
    ],
    "_percent_": true,
    "_skin_": "s72b13af1f654cbe9de1b6abf2f222d1",
    "_width_": {
        "type": "string",
        "value": "100%"
    },
    "allboxes": [],
    "autogrowmode": 0,
    "canUpdateUI": true,
    "centerx": {
        "type": "string",
        "value": "50%"
    },
    "centery": {
        "type": "string",
        "value": "50%"
    },
    "children": [
        "CopyLabel0bb54a46fada348",
        "CopyImage0d1f28bec43d04c",
        "CopyButton0baa14173445846",
        "CopyButton0i6a3444a98ef40"
    ],
    "clipbounds": true,
    "containerweight": 100,
    "enablescrolling": true,
    "id": "logInFacialAuthScreen1",
    "info": null,
    "isvisible": false,
    "kuid": "f478a3fb5e44481985b8568217a6c7e5",
    "layouttype": 4,
    "name": "kony.ui.FlexContainer",
    "parent": "loginfacialAuthScreen",
    "pf": "frmLoginKA",
    "snapgridsize": 10,
    "snaptogrid": true,
    "wType": "FlexContainer",
    "widgetalignment": 1,
    "zindex": 50
}