{
    "DNDConfig": null,
    "__parentReadjusting__": false,
    "_height_": {
        "type": "string",
        "value": "25dp"
    },
    "_margin_": [
        0,
        0,
        0,
        0
    ],
    "_orientation_": 6,
    "_padding_": [
        0,
        0,
        0,
        0
    ],
    "_percent_": true,
    "_right_": {
        "type": "string",
        "value": "5%"
    },
    "_skin_": "sbcfe7bb08044eec8c39d165593571dc",
    "_top_": {
        "type": "string",
        "value": "0dp"
    },
    "_width_": {
        "type": "string",
        "value": "44dp"
    },
    "allboxes": [],
    "autogrowmode": 0,
    "canUpdateUI": true,
    "centery": {
        "type": "string",
        "value": "50%"
    },
    "children": [
        "flxInnerDisabled",
        "flxILineDisabled"
    ],
    "clipbounds": true,
    "containerweight": 100,
    "enablescrolling": true,
    "id": "flxSMSNotificationDIsabled",
    "ide_onClick": "AS_FlexContainer_f1e10794092045d596fd821aae1b1052",
    "info": null,
    "isvisible": false,
    "kuid": "a4c8a65de63845bf93249f8183c5dbfe",
    "layouttype": 2,
    "name": "kony.ui.FlexContainer",
    "parent": "flxSMSNotification",
    "pf": "frmSMSNotification",
    "snapgridsize": 10,
    "snaptogrid": true,
    "wType": "FlexContainer",
    "widgetalignment": 1,
    "zindex": 1
}