{
    "DNDConfig": null,
    "_height_": {
        "type": "string",
        "value": "60dp"
    },
    "_margin_": [
        0,
        0,
        0,
        0
    ],
    "_padding_": [
        0,
        0,
        0,
        0
    ],
    "_skin_": "sd71d196025543d4a06972669a62082f",
    "allboxes": [],
    "autogrowmode": 0,
    "canUpdateUI": true,
    "children": [
        "lblContact",
        "lblType",
        "lblAccountNumberKA",
        "lblRowSeparator"
    ],
    "clipbounds": true,
    "containerId": true,
    "containerweight": 100,
    "enabled": false,
    "enablescrolling": true,
    "id": "Copycontainer03f00119dae464d",
    "info": null,
    "isTemplate": true,
    "isvisible": true,
    "kuid": "65223db329c84b85a24225503bd05f42",
    "layouttype": 2,
    "name": "kony.ui.FlexContainer",
    "orientation": 6,
    "parent": "segTransferAddExternal",
    "percent": true,
    "pf": "segTransferAddExternal",
    "snapgridsize": 10,
    "snaptogrid": true,
    "wType": "FlexContainer",
    "widgetalignment": 1
}