{
  "appleprodmode" : "true",
  "iphonecertprod" : {
    "name" : "PRODPUSHNEW.p12",
    "passwd" : "BOJ@1234"
  },
  "android" : {
    "key" : "AIzaSyCGMSdaEFg9AzUUhMjRJ4ErhQRPgcfpVG8"
  },
  "iphoneDevCertNameModified" : false,
  "iphoneProdCertNameModified" : true,
  "ipadDevCertNameModified" : false,
  "ipadProdCertNameModified" : false
}