{
    "@class": "com.kony.gen.viz.model.container.KVizScrollFlexForm",
    "DNDConfig": null,
    "_margin_": [
        0,
        0,
        0,
        0
    ],
    "_padding_": [
        0,
        0,
        0,
        0
    ],
    "_render_": true,
    "_skin_": "s514062a92a0453ca21729ccedd369c7",
    "_title_": null,
    "addWidgetsdone": false,
    "allboxes": [],
    "android": {
        "render": true
    },
    "canUpdateUI": true,
    "children": [
        "Copycontainer0743583703d9f4f"
    ],
    "containerId": true,
    "containerweight": 100,
    "currentLocale": "en",
    "device": "iPhone6",
    "displayorientation": 3,
    "enabled": false,
    "enabledforidletimeout": false,
    "id": "segmentWithSwitch",
    "info": null,
    "initdone": false,
    "inputaccessoryviewtype": 4,
    "intransitionconfig": {
        "formTransition": "None"
    },
    "iphone": {
        "render": true
    },
    "isvisible": true,
    "kuid": "9f3adc8bf8174d019c3db6d4ac0065d5",
    "name": "kony.ui.Form2",
    "needappmenu": true,
    "orientation": 1,
    "outtransitionconfig": {
        "formTransition": "None"
    },
    "paddinginpixel": false,
    "percent": true,
    "platform": "iphone",
    "prevDevice": "GalaxyS5",
    "prevPlatform": "android",
    "retainscrollposition": false,
    "shellCSS": "iOS_iPhone6",
    "spa": {
        "render": false
    },
    "spaan": {
        "render": true
    },
    "spabb": {
        "render": false
    },
    "spaip": {
        "render": true
    },
    "spawinphone8": {
        "render": true
    },
    "titleBarSkin": "sf9d12b1e1d546169560d8b1b80caf35",
    "titlebar": true,
    "type": 3,
    "wType": "Form",
    "winphone8": {
        "render": true
    }
}