{
    "@class": "com.kony.gen.viz.model.component.KVizButton",
    "DNDConfig": null,
    "__parentReadjusting__": false,
    "_height_": {
        "type": "string",
        "value": "50dp"
    },
    "_left_": {
        "type": "string",
        "value": "45dp"
    },
    "_margin_": [
        6,
        6,
        6,
        6
    ],
    "_padding_": [
        0,
        0,
        0,
        0
    ],
    "_skin_": "s51d68053cae4eba826625de179be4ae",
    "_text_": "SET UP PIN...",
    "_top_": {
        "type": "string",
        "value": "50dp"
    },
    "_width_": {
        "type": "string",
        "value": "260dp"
    },
    "canUpdateUI": true,
    "centerx": {
        "type": "string",
        "value": "50%"
    },
    "containerweight": 100,
    "contentalignment": 5,
    "displaytext": true,
    "focusskin": "sbe13586f59d4a768bfe23c1b619f8c6",
    "id": "Button074ef6a5b805c40",
    "ide_onClick": "AS_Button_6fc94f24cc2c40bdb7467b3b9a25f45b",
    "info": null,
    "isvisible": true,
    "kuid": "16050f6292334f92b813c38dc9b5e28a",
    "name": "kony.ui.Button",
    "parent": "mainContent",
    "pf": "frmSetUpPinSettings",
    "wType": "Button",
    "zindex": 1
}