{
    "appPreviewCode": "39QFY",
    "assetPlatform": "Visualizer",
    "assetVersion": "1.0.0",
    "createdBy": "rajeev.saxena@kony.com",
    "createdMFVersion": "7.3.0.3",
    "createdVizVersion": "8.4.102",
    "currentMFVersion": "7.3.0.3",
    "currentVizVersion": "8.4.110",
    "itemCategory": "app",
    "itemGuid": "haec320a429945e4abd7677b460776d0",
    "itemName": "konyRetailBanking",
    "libraryVersion": "libver4",
    "modifiedBy": "rajeev.saxena@kony.com"
}