{
    "@class": "com.kony.gen.viz.model.component.KVizButton",
    "DNDConfig": null,
    "__parentReadjusting__": false,
    "_height_": {
        "type": "string",
        "value": "90%"
    },
    "_left_": {
        "type": "string",
        "value": "80%"
    },
    "_margin_": [
        6,
        6,
        6,
        6
    ],
    "_padding_": [
        0,
        0,
        0,
        0
    ],
    "_skin_": "s2ded24412f34132b3f0f811c378f250",
    "_text_": "H",
    "_top_": {
        "type": "string",
        "value": "0dp"
    },
    "_width_": {
        "type": "string",
        "value": "10%"
    },
    "canUpdateUI": true,
    "containerweight": 100,
    "contentalignment": 5,
    "disabledSkins": {},
    "displaytext": true,
    "focusskin": "s2ded24412f34132b3f0f811c378f250",
    "id": "btnHistoryPayment",
    "ide_onClick": "AS_Button_j32e139de27741d99e33de932d6d5b90",
    "info": null,
    "iscustomlayout": true,
    "isvisible": true,
    "kuid": "eace585d60824c2daa58e3087104dc8c",
    "name": "kony.ui.Button",
    "parent": "flxHeader",
    "pf": "frmIPSManageBene",
    "retainflexpositionproperties": true,
    "wType": "Button",
    "zindex": 1
}