{
    "active": 1,
    "comments": {
        "3ef26f9acd5b475cb1fdad0f87db5781": {
            "6c61-25f9-0a76-f4f7-53f1-426a": {
                "commentId": "6c61-25f9-0a76-f4f7-53f1-426a",
                "widgetId": "3ef26f9acd5b475cb1fdad0f87db5781",
                "formId": "3ef26f9acd5b475cb1fdad0f87db5781",
                "createdOn": 1455795685000,
                "createdById": "9e2ba773-764b-4757-99cd-6b860a7cc1a6",
                "createdBy": "Naveen Nooka",
                "createdByEmail": "naveen.nooka@kony.com",
                "lastModifiedTime": 1455875590000,
                "comment": "color of thjs button - doesnt natxh thenw",
                "commentSrc": "visualizer",
                "active": 0,
                "channel": "mobile"
            },
            "ac35-dacd-6540-e5ff-2219-d9ea": {
                "commentId": "ac35-dacd-6540-e5ff-2219-d9ea",
                "widgetId": "3ef26f9acd5b475cb1fdad0f87db5781",
                "formId": "3ef26f9acd5b475cb1fdad0f87db5781",
                "createdOn": 1464203106000,
                "createdById": "6315d99a-64e3-48ec-86ab-23d3db507b49",
                "createdBy": "Try It",
                "createdByEmail": "tryit@kony.com",
                "lastModifiedTime": 1464203106000,
                "comment": "this is good",
                "commentSrc": "functional preview",
                "active": 1,
                "channel": "mobile"
            }
        }
    }
}