{
    "active": 1,
    "comments": {
        "ac09c32a534449b3b0961f8e48e26015": {
            "fdf9-9263-5e4c-b06c-22ca-adac": {
                "commentId": "fdf9-9263-5e4c-b06c-22ca-adac",
                "widgetId": "ac09c32a534449b3b0961f8e48e26015",
                "formId": "ac09c32a534449b3b0961f8e48e26015",
                "createdOn": 1455790063000,
                "createdById": "9e2ba773-764b-4757-99cd-6b860a7cc1a6",
                "createdBy": "Naveen Nooka",
                "createdByEmail": "naveen.nooka@kony.com",
                "lastModifiedTime": 1455790063000,
                "comment": "show results from last 60 days",
                "commentSrc": "visualizer",
                "active": 1,
                "channel": "mobile"
            }
        }
    }
}