{
    "@class": "com.kony.gen.viz.model.component.KVizButton",
    "DNDConfig": null,
    "__parentReadjusting__": false,
    "_height_": {
        "type": "string",
        "value": "50dp"
    },
    "_left_": {
        "type": "string",
        "value": "0dp"
    },
    "_margin_": [
        6,
        6,
        6,
        6
    ],
    "_padding_": [
        0,
        0,
        0,
        0
    ],
    "_skin_": "s8488317e14b4b6b85f42f1bc65515c3",
    "_text_": "Close",
    "_top_": {
        "type": "string",
        "value": "0dp"
    },
    "_width_": {
        "type": "string",
        "value": "70dp"
    },
    "canUpdateUI": true,
    "centery": {
        "type": "string",
        "value": "50%"
    },
    "containerweight": 100,
    "contentalignment": 5,
    "displaytext": true,
    "focusskin": "s5955df47e55441d97fae92d614c51b0",
    "id": "btnClose",
    "ide_onClick": "AS_Button_c8632779fb04485b9f63f37753b3adf4",
    "info": null,
    "isvisible": true,
    "kuid": "fa765b6321984ecfb1e1867b573bf1dc",
    "name": "kony.ui.Button",
    "parent": "flxHeader",
    "pf": "frmChatBots",
    "wType": "Button",
    "zindex": 1
}