{
    "@class": "com.kony.gen.viz.model.component.KVizButton",
    "DNDConfig": null,
    "__parentReadjusting__": false,
    "_height_": {
        "type": "string",
        "value": "50dp"
    },
    "_margin_": [
        6,
        6,
        6,
        6
    ],
    "_padding_": [
        0,
        0,
        0,
        12
    ],
    "_skin_": "s369ab04a83040bc808b21001c014f1a",
    "_text_": "x",
    "_width_": {
        "type": "string",
        "value": "100%"
    },
    "canUpdateUI": true,
    "centerx": {
        "type": "string",
        "value": "50%"
    },
    "centery": {
        "type": "string",
        "value": "50%"
    },
    "containerweight": 100,
    "contentalignment": 5,
    "displaytext": true,
    "focusskin": "sd291eaf83084ea781b9988b6f1fc66d",
    "id": "btnEfawatercoom",
    "ide_onClick": "AS_Button_f187734a44b84a2992ba932b0c2d49a9",
    "info": null,
    "isvisible": true,
    "kuid": "eb68e675a52148da9ce5a096b780f736",
    "name": "kony.ui.Button",
    "paddinginpixel": false,
    "parent": "flxEfawatercoom",
    "pf": "Form1",
    "wType": "Button",
    "zindex": 1
}