{
  "operationConfig" : {
    "name" : "getAccounts9635",
    "type" : "MappedToBackend",
    "cachable" : false,
    "smsEnabled" : false,
    "security" : "authorized_app_user",
    "responseEncoding" : "UTF-8",
    "httpMethod" : "GET",
    "decodeResponseBody" : false,
    "iMapping" : "<?xml version=\"1.0\" encoding=\"UTF-8\" standalone=\"yes\"?><mapper xmlns=\"http://www.kony.com/ns/mapper\">    <map inputpath=\"request_in\" outputpath=\"request_out\">        <set-param inputpath=\"accountID\" outputpath=\"accountID\"/>    </map></mapper>",
    "oMapping" : "<?xml version=\"1.0\" encoding=\"UTF-8\" standalone=\"yes\"?><mapper xmlns=\"http://www.kony.com/ns/mapper\">    <map inputpath=\"response_in\" outputpath=\"response_out\">        <set-param inputpath=\"success\" outputpath=\"success\"/>        <set-param inputpath=\"errmsg\" outputpath=\"errmsg\"/>        <map inputpath=\"Accounts\" outputpath=\"PFMAccounts\">            <set-param inputpath=\"supportBillPay\" outputpath=\"supportBillPay\"/>            <set-param inputpath=\"accountName\" outputpath=\"accountName\"/>            <set-param inputpath=\"dueDate\" outputpath=\"dueDate\"/>            <set-param inputpath=\"bankName\" outputpath=\"bankName\"/>            <set-param inputpath=\"availablePoints\" outputpath=\"availablePoints\"/>            <set-param inputpath=\"supportDeposit\" outputpath=\"supportDeposit\"/>            <set-param inputpath=\"availableBalance\" outputpath=\"availableBalance\"/>            <set-param inputpath=\"isPFM\" outputpath=\"isPFM\"/>            <set-param inputpath=\"accountID\" outputpath=\"accountID\"/>            <set-param inputpath=\"principalValue\" outputpath=\"principalValue\"/>            <set-param inputpath=\"maturityDate\" outputpath=\"maturityDate\"/>            <set-param inputpath=\"supportTransferTo\" outputpath=\"supportTransferTo\"/>            <set-param inputpath=\"openingDate\" outputpath=\"openingDate\"/>            <set-param inputpath=\"outstandingBalance\" outputpath=\"outstandingBalance\"/>            <set-param inputpath=\"interestRate\" outputpath=\"interestRate\"/>            <set-param inputpath=\"nickName\" outputpath=\"nickName\"/>            <set-param inputpath=\"currentBalance\" outputpath=\"currentBalance\"/>            <set-param inputpath=\"accountType\" outputpath=\"accountType\"/>            <set-param inputpath=\"minimumDue\" outputpath=\"minimumDue\"/>            <set-param inputpath=\"transferLimit\" outputpath=\"transferLimit\"/>            <set-param inputpath=\"lastStatementBalance\" outputpath=\"lastStatementBalance\"/>            <set-param inputpath=\"creditCardNumber\" outputpath=\"creditCardNumber\"/>            <set-param inputpath=\"transactionLimit\" outputpath=\"transactionLimit\"/>            <set-param inputpath=\"supportTransferFrom\" outputpath=\"supportTransferFrom\"/>            <set-param inputpath=\"paymentTerm\" outputpath=\"paymentTerm\"/>            <set-param inputpath=\"currencyCode\" outputpath=\"currencyCode\"/>        </map>    </map></mapper>",
    "applyCommonMapping" : false,
    "backendMeta" : {
      "serviceVersion" : "1.0",
      "operationName" : "getAccounts",
      "serviceName" : "RetailBankingBEServices"
    },
    "relationshipHierarchyMapping" : {
      "children" : [ ],
      "name" : "PFMAccounts",
      "selected" : true
    },
    "requestXmlMappingOverride" : false,
    "responseXmlMappingOverride" : false
  }
}