{
    "@class": "com.kony.gen.viz.model.component.KVizLabel",
    "DNDConfig": null,
    "__parentReadjusting__": false,
    "_height_": {
        "type": "ref",
        "value": "preferred"
    },
    "_margin_": [
        1,
        1,
        1,
        1
    ],
    "_padding_": [
        0,
        0,
        0,
        0
    ],
    "_skin_": "sc3f6592831d43b5964f136e413e976e",
    "_text_": "",
    "_width_": {
        "type": "ref",
        "value": "preferred"
    },
    "_wrapping_": 2,
    "canUpdateUI": true,
    "centerx": {
        "type": "string",
        "value": "50.00%"
    },
    "centery": {
        "type": "string",
        "value": "50.20%"
    },
    "containerweight": 100,
    "contentalignment": 5,
    "enabled": false,
    "id": "lblTouchIdHeader",
    "info": null,
    "ipad": {
        "psp": {
            "wrapping": 2
        }
    },
    "iphone": {
        "psp": {
            "wrapping": 2
        }
    },
    "isvisible": true,
    "kuid": "f1dce6325e4a46349275d8472b03d4a4",
    "name": "kony.ui.Label",
    "parent": "flxHeader",
    "pf": "frmUserSettingsSiri",
    "texti18n": "i18n.siri.header",
    "tooltip": "",
    "wType": "Label"
}