{
  "type" : "svcdriven",
  "custom" : false,
  "junction" : false,
  "customizable" : false,
  "verbs" : {
    "get" : "getMapping",
    "update" : "updateMapping",
    "create" : "createMapping",
    "delete" : "deleteMapping"
  },
  "entityProperties" : {
    "BatchMode" : "buffer",
    "designTimeBackendMeta" : {
    },
    "backendMeta" : {
    }
  }
}