{
    "@class": "com.kony.gen.viz.model.component.KVizSwitch",
    "DNDConfig": null,
    "__parentReadjusting__": false,
    "_height_": {
        "type": "string",
        "value": "32dp"
    },
    "_margin_": [
        0,
        0,
        0,
        0
    ],
    "_padding_": [
        0,
        0,
        0,
        0
    ],
    "_render_": true,
    "_right_": {
        "type": "string",
        "value": "10dp"
    },
    "_skin_": "s76ff61aef1d4b5b86c2641d87a9f5d0",
    "_top_": {
        "type": "string",
        "value": "13dp"
    },
    "_width_": {
        "type": "string",
        "value": "50dp"
    },
    "android": {
        "render": false
    },
    "canUpdateUI": true,
    "centery": {
        "type": "string",
        "value": "50.35%"
    },
    "containerweight": 100,
    "id": "SwitchAlert",
    "ide_onSlide": "AS_Switch_cc072f30bb294c15a0ec51090a76cf51",
    "info": null,
    "iphone": {
        "render": true
    },
    "isvisible": true,
    "kiosk": {
        "render": false
    },
    "kuid": "4ad453ae196a421abdd6451741ae6a41",
    "leftsidetext": "ON",
    "name": "kony.ui.Switch",
    "onslide": null,
    "osPlatform": "iphone",
    "osVersion": "iOS7",
    "parent": "AccAlertsSwitchFlexKA",
    "pf": "frmAccountAlertsKA",
    "rightsidetext": "OFF",
    "selectedindex": 1,
    "spaan": {
        "render": false
    },
    "spabb": {
        "render": false
    },
    "spaip": {
        "render": true
    },
    "spawinphone8": {
        "render": false
    },
    "wType": "Switch",
    "widgetalignment": 5,
    "winphone8": {
        "render": false
    },
    "zindex": 1
}