{
    "@class": "com.kony.gen.viz.model.component.KVizTextBox2",
    "DNDConfig": null,
    "__parentReadjusting__": false,
    "_bottom_": {
        "type": "string",
        "value": "4%"
    },
    "_height_": {
        "type": "string",
        "value": "60%"
    },
    "_margin_": [
        0,
        0,
        0,
        0
    ],
    "_padding_": [
        3,
        0,
        0,
        0
    ],
    "_placeholder_": "",
    "_skin_": "s029998596d3421892d0917ea7492e1d",
    "_text_": "",
    "_width_": {
        "type": "string",
        "value": "100%"
    },
    "accessibilityconfig": {
        "a11yLabel": "Enter your Username"
    },
    "android": {
        "ide_onEndEditing": "AS_TextField_i37a3abfc0b64025ba959bad7416aa78",
        "onEndEditing": "AS_TextField_ja28486c7a3043998424fea66ecabfa6"
    },
    "autocapitalize": "none",
    "autocomplete": false,
    "autocorrect": false,
    "autofilter": false,
    "canUpdateUI": true,
    "centerx": "50%",
    "containerheight": "",
    "containerheightmode": 1,
    "containerweight": 100,
    "contentalignment": 4,
    "disabledSkins": {},
    "focusskin": "s029998596d3421892d0917ea7492e1d",
    "id": "tbxEmail",
    "ide_onDone": "AS_TextField_be9aaea0f7ed4846b70d621bf4969c15",
    "ide_onTextChange": "AS_TextField_g9fb3b3833144211b28dd2c6447f38c4",
    "ide_onTouchEnd": "AS_TextField_bd1a1df65be5427d9e44909204c14021",
    "info": null,
    "iphone": {
        "ide_onEndEditing": "AS_TextField_g73174f11e1845008bdeed5e297af2e1",
        "onBeginEditing": "AS_TextField_c0713df9ccfc44dba27a3f28bca350b8",
        "onEndEditing": "AS_TextField_c0713df9ccfc44dba27a3f28bca350b8",
        "psp": {
            "keyboardActionLabel": 4
        }
    },
    "isvisible": true,
    "keyboardactionlabel": 4,
    "keyboardstyle": "emailpad",
    "keyboardtype": "A",
    "kuid": "e6b5eb02f0904d419400d5d636720cab",
    "maxtextlength": 25,
    "mode": "A",
    "name": "kony.ui.TextBox2",
    "parent": "flxEmail",
    "pf": "frmAddExternalAccountKA",
    "securetextentry": false,
    "textinputmode": "A",
    "viewtype": "default",
    "wType": "TextField",
    "zindex": 1
}