{
    "@class": "com.kony.gen.viz.model.component.KVizTextBox2",
    "DNDConfig": null,
    "__parentReadjusting__": false,
    "_bottom_": {
        "type": "string",
        "value": "4%"
    },
    "_height_": {
        "type": "string",
        "value": "60%"
    },
    "_margin_": [
        0,
        0,
        0,
        0
    ],
    "_padding_": [
        3,
        0,
        0,
        0
    ],
    "_placeholder_": "",
    "_skin_": "s029998596d3421892d0917ea7492e1d",
    "_text_": "",
    "_width_": {
        "type": "string",
        "value": "100%"
    },
    "accessibilityconfig": {
        "a11yLabel": "Enter your Username"
    },
    "android": {
        "ide_onEndEditing": "AS_TextField_f9b387b3d23f4bbca5341230ef029008",
        "onEndEditing": "AS_TextField_f22940afad26433d8e45a70811274f96",
        "psp": {
            "keyboardActionLabel": 12
        }
    },
    "autocapitalize": "words",
    "autocomplete": false,
    "autocorrect": false,
    "autofilter": false,
    "canUpdateUI": true,
    "centerx": "50%",
    "containerheight": "",
    "containerheightmode": 1,
    "containerweight": 100,
    "contentalignment": 4,
    "disabledSkins": {},
    "focusskin": "s029998596d3421892d0917ea7492e1d",
    "id": "txtBenficiryNameKA",
    "ide_onDone": "AS_TextField_fbc1b9c4744d4af5a85c67acc1147aa1",
    "ide_onTextChange": "AS_TextField_c849b6c4edde4136b42c36d424dcf212",
    "ide_onTouchEnd": "AS_TextField_h9cabf573bdd4be3b659170adc1f5285",
    "info": null,
    "iphone": {
        "ide_onEndEditing": "AS_TextField_g4f4e0cfa73d4b58bc8dcb4a4a1b673f",
        "onBeginEditing": "AS_TextField_c0713df9ccfc44dba27a3f28bca350b8",
        "onEndEditing": "AS_TextField_c0713df9ccfc44dba27a3f28bca350b8",
        "psp": {
            "keyboardActionLabel": 1,
            "showCloseButton": false,
            "showProgressIndicator": false
        }
    },
    "isvisible": true,
    "keyboardactionlabel": 4,
    "keyboardtype": "A",
    "kuid": "j6ea48ca351b40deacfb3094d617a61f",
    "maxtextlength": 35,
    "mode": "A",
    "name": "kony.ui.TextBox2",
    "parent": "flxBenficiryNameKA",
    "pf": "frmAddExternalAccountKA",
    "securetextentry": false,
    "showoprogressindicator": false,
    "textinputmode": "A",
    "viewtype": "default",
    "wType": "TextField",
    "zindex": 1
}