{
    "@class": "com.kony.gen.viz.model.component.KVizLabel",
    "DNDConfig": null,
    "__parentReadjusting__": false,
    "_height_": {
        "type": "ref",
        "value": "preferred"
    },
    "_margin_": [
        1,
        1,
        1,
        1
    ],
    "_padding_": [
        0,
        0,
        0,
        0
    ],
    "_skin_": "s94c6b278d1243898f734f4f2316f2c8",
    "_text_": "More",
    "_top_": {
        "type": "string",
        "value": "34dp"
    },
    "_width_": {
        "type": "ref",
        "value": "preferred"
    },
    "_wrapping_": 2,
    "canUpdateUI": true,
    "centerx": {
        "type": "string",
        "value": "50%"
    },
    "containerId": true,
    "containerweight": 100,
    "contentalignment": 4,
    "enabled": false,
    "id": "CopyLabel0fa87e35583714a",
    "info": null,
    "ipad": {
        "psp": {
            "wrapping": 2
        }
    },
    "iphone": {
        "psp": {
            "wrapping": 2
        }
    },
    "isvisible": true,
    "kuid": "2aff67d175d64c898b1672ef518db84e",
    "name": "kony.ui.Label",
    "parent": "CopyFlexContainer0419cabfa34b74c",
    "pf": "tabBarDeposits",
    "texti18n": "i18n.common.more",
    "tooltip": "",
    "wType": "Label",
    "zindex": 1
}