{
    "DNDConfig": null,
    "__parentReadjusting__": false,
    "_height_": {
        "type": "ref",
        "value": "preferred"
    },
    "_left_": {
        "type": "string",
        "value": "7.84%"
    },
    "_margin_": [
        0,
        0,
        0,
        0
    ],
    "_orientation_": 6,
    "_padding_": [
        0,
        0,
        0,
        0
    ],
    "_percent_": true,
    "_skin_": "s9c993eee1b04e9bb1a208e2b207902b",
    "_top_": {
        "type": "string",
        "value": "140dp"
    },
    "_width_": {
        "type": "string",
        "value": "100%"
    },
    "allboxes": [],
    "autogrowmode": 1,
    "canUpdateUI": true,
    "centerx": {
        "type": "string",
        "value": "50.01%"
    },
    "children": [
        "CopyflxMoreOption0e148330049a044",
        "CopyflxMoreOption0i8a60a30a7714b",
        "CopyflxMoreOption0b5d391d43a5a41",
        "CopyflxMoreOption0gca0166108a949",
        "CopyflxMoreOption0jb23f1a5856e4e",
        "CopyflxMoreOption0fb97a396345b44",
        "CopyflxMoreOption0b2846dabfe6446",
        "CopyflxMoreOption0h4e2eeea332040",
        "CopylineDivider0g919817bdea14d",
        "CopycollapseButton0f54c28f7434547"
    ],
    "clipbounds": true,
    "containerweight": 100,
    "enablescrolling": true,
    "id": "CopyflxMore0dcd89fda4fe54d",
    "info": null,
    "isvisible": false,
    "kuid": "if7220d242da49ed80bf33c51fc23cff",
    "layouttype": 2,
    "name": "kony.ui.FlexContainer",
    "parent": "CopyaccountDetailsOverview0dd1fa608aee343",
    "pf": "frmAccountDetailKA",
    "snapgridsize": 10,
    "snaptogrid": true,
    "vizProps": {},
    "wType": "FlexContainer",
    "widgetalignment": 1,
    "zindex": 10
}