{
    "DNDConfig": null,
    "__parentReadjusting__": false,
    "_height_": {
        "type": "string",
        "value": "100dp"
    },
    "_margin_": [
        0,
        0,
        0,
        0
    ],
    "_padding_": [
        0,
        0,
        0,
        0
    ],
    "_right_": {
        "type": "string",
        "value": "10%"
    },
    "_skin_": "sea3237c8c1f4d00a700dfbca8bea354",
    "_top_": {
        "type": "string",
        "value": "360dp"
    },
    "_width_": {
        "type": "string",
        "value": "33%"
    },
    "allboxes": [],
    "autogrowmode": 0,
    "canUpdateUI": true,
    "children": [
        "Copyflxm0ad0b9f1e54204c",
        "CopyMorebtn0ga05785316504f",
        "CopyMoreHiddenKey0i4e1d3ae3b604f"
    ],
    "clipbounds": false,
    "containerweight": 100,
    "enabled": false,
    "enablescrolling": true,
    "id": "CopyflxMoreOption0jde7342b28be4c",
    "info": null,
    "isvisible": true,
    "kuid": "fb6d065d5c9a4d4eb2d9184f6ed223ca",
    "layouttype": 2,
    "name": "kony.ui.FlexContainer",
    "orientation": 6,
    "parent": "CopyflxMore0bcc6938bdc5340",
    "percent": true,
    "pf": "frmAccountDetailKA",
    "snapgridsize": 10,
    "snaptogrid": true,
    "wType": "FlexContainer",
    "widgetalignment": 1,
    "zindex": 1
}