{
    "@class": "com.kony.gen.viz.model.container.KVizSegment2",
    "DNDConfig": null,
    "__parentReadjusting__": false,
    "_bottom_": {
        "type": "string",
        "value": "5dp"
    },
    "_data_": [
        {
            "ImgWithDraw": {
                "@class": "com.viz.ide.model.segment.ImageSegmentData",
                "src": "pending.png"
            },
            "Imgcheck": {
                "@class": "com.viz.ide.model.segment.ImageSegmentData",
                "src": "checkf.png"
            },
            "chevron": {
                "@class": "com.viz.ide.model.segment.ImageSegmentData",
                "src": "right_chevron_icon.png"
            },
            "lblExpiryTime": {
                "@class": "com.viz.ide.model.segment.SimpleTextSegmentData",
                "text": "21h:22m"
            },
            "lblLastTransaction": {
                "@class": "com.viz.ide.model.segment.SimpleTextSegmentData",
                "text": "Payment to City of Austin"
            },
            "lblSepKA": {
                "@class": "com.viz.ide.model.segment.SimpleTextSegmentData",
                "text": "Label"
            },
            "transactionAmount": {
                "@class": "com.viz.ide.model.segment.SimpleTextSegmentData",
                "text": "$155.00"
            },
            "transactionAmountSI": {
                "@class": "com.viz.ide.model.segment.SimpleTextSegmentData",
                "text": "$155.00"
            },
            "transactionDate": {
                "@class": "com.viz.ide.model.segment.SimpleTextSegmentData",
                "text": "Oct 10, 2015 - Recurring Monthly"
            },
            "transactionName": {
                "@class": "com.viz.ide.model.segment.SimpleTextSegmentData",
                "text": "Payment to City of Austin"
            }
        },
        {
            "ImgWithDraw": {
                "@class": "com.viz.ide.model.segment.ImageSegmentData",
                "src": "pending.png"
            },
            "Imgcheck": {
                "@class": "com.viz.ide.model.segment.ImageSegmentData",
                "src": "checkf.png"
            },
            "chevron": {
                "@class": "com.viz.ide.model.segment.ImageSegmentData",
                "src": "right_chevron_icon.png"
            },
            "lblExpiryTime": {
                "@class": "com.viz.ide.model.segment.SimpleTextSegmentData",
                "text": "21h:22m"
            },
            "lblLastTransaction": {
                "@class": "com.viz.ide.model.segment.SimpleTextSegmentData",
                "text": "Payment to City of Austin"
            },
            "lblSepKA": {
                "@class": "com.viz.ide.model.segment.SimpleTextSegmentData",
                "text": "Label"
            },
            "transactionAmount": {
                "@class": "com.viz.ide.model.segment.SimpleTextSegmentData",
                "text": "$155.00"
            },
            "transactionAmountSI": {
                "@class": "com.viz.ide.model.segment.SimpleTextSegmentData",
                "text": "$155.00"
            },
            "transactionDate": {
                "@class": "com.viz.ide.model.segment.SimpleTextSegmentData",
                "text": "Oct 10, 2015 - Recurring Monthly"
            },
            "transactionName": {
                "@class": "com.viz.ide.model.segment.SimpleTextSegmentData",
                "text": "Payment to City of Austin"
            }
        },
        {
            "ImgWithDraw": {
                "@class": "com.viz.ide.model.segment.ImageSegmentData",
                "src": "pending.png"
            },
            "Imgcheck": {
                "@class": "com.viz.ide.model.segment.ImageSegmentData",
                "src": "checkf.png"
            },
            "chevron": {
                "@class": "com.viz.ide.model.segment.ImageSegmentData",
                "src": "right_chevron_icon.png"
            },
            "lblExpiryTime": {
                "@class": "com.viz.ide.model.segment.SimpleTextSegmentData",
                "text": "21h:22m"
            },
            "lblLastTransaction": {
                "@class": "com.viz.ide.model.segment.SimpleTextSegmentData",
                "text": "Payment to City of Austin"
            },
            "lblSepKA": {
                "@class": "com.viz.ide.model.segment.SimpleTextSegmentData",
                "text": "Label"
            },
            "transactionAmount": {
                "@class": "com.viz.ide.model.segment.SimpleTextSegmentData",
                "text": "$155.00"
            },
            "transactionAmountSI": {
                "@class": "com.viz.ide.model.segment.SimpleTextSegmentData",
                "text": "$155.00"
            },
            "transactionDate": {
                "@class": "com.viz.ide.model.segment.SimpleTextSegmentData",
                "text": "Oct 10, 2015 - Recurring Monthly"
            },
            "transactionName": {
                "@class": "com.viz.ide.model.segment.SimpleTextSegmentData",
                "text": "Payment to City of Austin"
            }
        },
        {
            "ImgWithDraw": {
                "@class": "com.viz.ide.model.segment.ImageSegmentData",
                "src": "pending.png"
            },
            "Imgcheck": {
                "@class": "com.viz.ide.model.segment.ImageSegmentData",
                "src": "checkf.png"
            },
            "chevron": {
                "@class": "com.viz.ide.model.segment.ImageSegmentData",
                "src": "right_chevron_icon.png"
            },
            "lblExpiryTime": {
                "@class": "com.viz.ide.model.segment.SimpleTextSegmentData",
                "text": "21h:22m"
            },
            "lblLastTransaction": {
                "@class": "com.viz.ide.model.segment.SimpleTextSegmentData",
                "text": "Payment to City of Austin"
            },
            "lblSepKA": {
                "@class": "com.viz.ide.model.segment.SimpleTextSegmentData",
                "text": "Label"
            },
            "transactionAmount": {
                "@class": "com.viz.ide.model.segment.SimpleTextSegmentData",
                "text": "$155.00"
            },
            "transactionAmountSI": {
                "@class": "com.viz.ide.model.segment.SimpleTextSegmentData",
                "text": "$155.00"
            },
            "transactionDate": {
                "@class": "com.viz.ide.model.segment.SimpleTextSegmentData",
                "text": "Oct 10, 2015 - Recurring Monthly"
            },
            "transactionName": {
                "@class": "com.viz.ide.model.segment.SimpleTextSegmentData",
                "text": "Payment to City of Austin"
            }
        },
        {
            "ImgWithDraw": {
                "@class": "com.viz.ide.model.segment.ImageSegmentData",
                "src": "pending.png"
            },
            "Imgcheck": {
                "@class": "com.viz.ide.model.segment.ImageSegmentData",
                "src": "checkf.png"
            },
            "chevron": {
                "@class": "com.viz.ide.model.segment.ImageSegmentData",
                "src": "right_chevron_icon.png"
            },
            "lblExpiryTime": {
                "@class": "com.viz.ide.model.segment.SimpleTextSegmentData",
                "text": "21h:22m"
            },
            "lblLastTransaction": {
                "@class": "com.viz.ide.model.segment.SimpleTextSegmentData",
                "text": "Payment to City of Austin"
            },
            "lblSepKA": {
                "@class": "com.viz.ide.model.segment.SimpleTextSegmentData",
                "text": "Label"
            },
            "transactionAmount": {
                "@class": "com.viz.ide.model.segment.SimpleTextSegmentData",
                "text": "$155.00"
            },
            "transactionAmountSI": {
                "@class": "com.viz.ide.model.segment.SimpleTextSegmentData",
                "text": "$155.00"
            },
            "transactionDate": {
                "@class": "com.viz.ide.model.segment.SimpleTextSegmentData",
                "text": "Oct 10, 2015 - Recurring Monthly"
            },
            "transactionName": {
                "@class": "com.viz.ide.model.segment.SimpleTextSegmentData",
                "text": "Payment to City of Austin"
            }
        }
    ],
    "_height_": {
        "type": "ref",
        "value": "preferred"
    },
    "_indicator_": "none",
    "_left_": {
        "type": "string",
        "value": "50%"
    },
    "_margin_": [
        0,
        0,
        0,
        0
    ],
    "_orientation_": 2,
    "_padding_": [
        0,
        0,
        0,
        0
    ],
    "_top_": {
        "type": "string",
        "value": "0dp"
    },
    "_width_": {
        "type": "string",
        "value": "50%"
    },
    "autogrowmode": 1,
    "canUpdateUI": true,
    "containerweight": 100,
    "counter": "04",
    "focusedindex": null,
    "focuseditem": null,
    "groupcells": false,
    "hasSections": false,
    "id": "CopyscheduledTransactionSegment0a11e23f6e97241",
    "ide_onRowClick": "AS_Segment_bfc100fb39be4403ab64ad39fe497641",
    "info": null,
    "ipad": {
        "psp": {
            "indicator": "rowselect"
        }
    },
    "iphone": {
        "psp": {
            "bounces": false,
            "indicator": "none"
        }
    },
    "isvisible": false,
    "kuid": "cf37ede42aa046be979fa1ce3474a667",
    "masterdata": {},
    "name": "kony.ui.SegmentedUI2",
    "needpageindicator": true,
    "pageoffdotimage": "pageoffdot.png",
    "pageondotimage": "pageondot.png",
    "paginationconfig": {
        "position": "bottom"
    },
    "parent": "flxDealsSegment",
    "pf": "frmAccountDetailKA",
    "retainselection": false,
    "rowTemplateId": "4729a0b3bf674e91a02f9522ef2985ae",
    "rowcounter": 4,
    "rowfocusskin": "s5fa38be22fb4f22b7c642b08276ab82",
    "rowskin": "sd2ca277651a46c0ba82f3226859f5a6",
    "rowtemplate": "CopyFlexContainer011baa9bcad7141",
    "screenlevelwidget": false,
    "seccounter": 0,
    "sectionHeaderTemplateId": null,
    "sectionheaderskin": "s67621b8a82d49f285da06b4f5a0c993",
    "selectedRows": null,
    "selectedState": false,
    "selectedindex": null,
    "selectedindices": null,
    "selecteditems": null,
    "selectedsectionindex": 0,
    "selectionbehavior": "default",
    "separatorcolor": "ffffff00",
    "separatorrequired": true,
    "separatorthickness": 0,
    "showscrollbars": false,
    "viewtype": "tableview",
    "vizProps": {},
    "wType": "Segment",
    "widgetalignment": 5,
    "widgetdatamap": {
        "CopyFlexContainer011baa9bcad7141": "CopyFlexContainer011baa9bcad7141",
        "ImgWithDraw": "ImgWithDraw",
        "Imgcheck": "Imgcheck",
        "chevron": "chevron",
        "flxImageandNameKA": "flxImageandNameKA",
        "lblExpiryTime": "lblExpiryTime",
        "lblLastTransaction": "lblLastTransaction",
        "lblNoData": "lblNoData",
        "lblSepKA": "lblSepKA",
        "transactionAmount": "transactionAmount",
        "transactionAmountSI": "transactionAmountSI",
        "transactionDate": "transactionDate",
        "transactionName": "transactionName"
    }
}