{
    "DNDConfig": null,
    "__parentReadjusting__": false,
    "_height_": {
        "type": "string",
        "value": "40dp"
    },
    "_left_": {
        "type": "string",
        "value": "0dp"
    },
    "_margin_": [
        0,
        0,
        0,
        0
    ],
    "_padding_": [
        0,
        0,
        0,
        0
    ],
    "_skin_": "s522075c7961463dbb56113600c43cb1",
    "_top_": {
        "type": "string",
        "value": "180dp"
    },
    "_width_": {
        "type": "string",
        "value": "100%"
    },
    "allboxes": [],
    "autogrowmode": 0,
    "canUpdateUI": true,
    "children": [
        "CopyscheduledTabButton0a2f2f886eae247",
        "CopyrecentTabButton0b7db9fe3d78245",
        "CopytabDeselectedIndicator0e2c60280207f49",
        "CopytabSelectedIndicator0ace0c91e16c945",
        "CopylistDivider0ccf01f4e36ac49",
        "lblDealsListView",
        "lblDealsInfoView"
    ],
    "clipbounds": true,
    "containerweight": 100,
    "enabled": false,
    "enablescrolling": true,
    "id": "flxDealsTabs",
    "info": null,
    "isvisible": true,
    "kuid": "f621be2353d0442f99f1835a674945ea",
    "layouttype": 2,
    "name": "kony.ui.FlexContainer",
    "orientation": 6,
    "parent": "flxDealsTitleBarDetails",
    "percent": true,
    "pf": "frmAccountDetailKA",
    "snapgridsize": 10,
    "snaptogrid": true,
    "wType": "FlexContainer",
    "widgetalignment": 1,
    "zindex": 1
}