{
    "DNDConfig": null,
    "__parentReadjusting__": false,
    "_height_": {
        "type": "string",
        "value": "17%"
    },
    "_margin_": [
        0,
        0,
        0,
        0
    ],
    "_orientation_": 6,
    "_padding_": [
        0,
        0,
        0,
        0
    ],
    "_percent_": true,
    "_skin_": "s388f0c575ef4d08ac3a5ed0a4b90085",
    "_width_": {
        "type": "string",
        "value": "6%"
    },
    "allboxes": [],
    "autogrowmode": 0,
    "canUpdateUI": true,
    "centerx": {
        "type": "string",
        "value": "68%"
    },
    "centery": {
        "type": "string",
        "value": "65%"
    },
    "children": [
        "imgSortAmountDesc"
    ],
    "clipbounds": true,
    "containerweight": 100,
    "enablescrolling": true,
    "id": "flxSortAmountDesc",
    "ide_onClick": "AS_FlexContainer_b61193b754714114b3a95c7b7effb557",
    "info": null,
    "isvisible": true,
    "kuid": "e8834bab838841a6b509420a929d6877",
    "layouttype": 2,
    "name": "kony.ui.FlexContainer",
    "parent": "flxAccountDetailsSort",
    "pf": "frmAccountDetailKA",
    "snapgridsize": 10,
    "snaptogrid": true,
    "wType": "FlexContainer",
    "widgetalignment": 1,
    "zindex": 1
}