{
    "DNDConfig": null,
    "__parentReadjusting__": false,
    "_height_": {
        "type": "string",
        "value": "10%"
    },
    "_left_": {
        "type": "string",
        "value": "0%"
    },
    "_margin_": [
        0,
        0,
        0,
        0
    ],
    "_orientation_": 6,
    "_padding_": [
        0,
        0,
        0,
        0
    ],
    "_percent_": true,
    "_skin_": "s388f0c575ef4d08ac3a5ed0a4b90085",
    "_top_": {
        "type": "string",
        "value": "0%"
    },
    "_width_": {
        "type": "string",
        "value": "100%"
    },
    "allboxes": [],
    "autogrowmode": 0,
    "canUpdateUI": true,
    "children": [
        "lblUnclearedTransactions",
        "flxUnClearedFundsDownArrow",
        "lblUnClearedTransactionTotal"
    ],
    "clipbounds": true,
    "containerweight": 100,
    "enablescrolling": true,
    "id": "flxUnClearedTransactions",
    "ide_onClick": "AS_FlexContainer_fe50fb1ff5af40699315301599553287",
    "info": null,
    "isvisible": true,
    "kuid": "cae1b87f68a8411c9b5dd8adaf836787",
    "layouttype": 2,
    "name": "kony.ui.FlexContainer",
    "parent": "flxSegmentWrapper",
    "pf": "frmAccountDetailKA",
    "snapgridsize": 10,
    "snaptogrid": true,
    "wType": "FlexContainer",
    "widgetalignment": 1,
    "zindex": 2
}