{
    "@class": "com.kony.gen.viz.model.component.KVizLabel",
    "DNDConfig": null,
    "__parentReadjusting__": false,
    "_height_": {
        "type": "ref",
        "value": "preferred"
    },
    "_left_": {
        "type": "string",
        "value": "55%"
    },
    "_margin_": [
        1,
        1,
        1,
        1
    ],
    "_padding_": [
        0,
        0,
        0,
        0
    ],
    "_skin_": "s30052e795c44f88abe7ea7eb2305e4e",
    "_text_": "Loans",
    "_top_": {
        "type": "string",
        "value": "3dp"
    },
    "_width_": {
        "type": "ref",
        "value": "preferred"
    },
    "_wrapping_": 2,
    "android": {
        "textStyle": {
            "letterSpacing": 0,
            "strikeThrough": false
        }
    },
    "canUpdateUI": true,
    "centery": {
        "type": "string",
        "value": "50%"
    },
    "containerweight": 100,
    "contentalignment": 4,
    "id": "lblDealsLoans",
    "ide_onTouchEnd": "AS_Label_h4266fb6dc3d444dab4c3d29efbd4dde",
    "info": null,
    "ipad": {
        "psp": {
            "wrapping": 2
        }
    },
    "iphone": {
        "psp": {
            "wrapping": 2
        }
    },
    "isvisible": true,
    "kuid": "i0b046d2fa3841f8b572d15ff56001b9",
    "name": "kony.ui.Label",
    "parent": "flxDealsAccountBar",
    "pf": "frmAccountDetailKA",
    "textstyle": {},
    "tooltip": "",
    "wType": "Label",
    "zindex": 1
}