{
    "@class": "com.kony.gen.viz.model.component.KVizButton",
    "DNDConfig": null,
    "__parentReadjusting__": false,
    "_height_": {
        "type": "string",
        "value": "14dp"
    },
    "_margin_": [
        6,
        6,
        6,
        6
    ],
    "_padding_": [
        0,
        0,
        0,
        0
    ],
    "_right_": {
        "type": "string",
        "value": "0dp"
    },
    "_skin_": "s95e3b18b3bb4bf2949f26bd334f2fb5",
    "_text_": "",
    "_width_": {
        "type": "string",
        "value": "18dp"
    },
    "canUpdateUI": true,
    "centery": {
        "type": "string",
        "value": "50%"
    },
    "containerweight": 100,
    "contentalignment": 5,
    "displaytext": true,
    "focusskin": "s95e3b18b3bb4bf2949f26bd334f2fb5",
    "id": "btnInFeedAdClose",
    "ide_onClick": "AS_Button_d06f9b340950432b9e8798cd1de95a43",
    "info": null,
    "isvisible": true,
    "kuid": "c06c4a8098c34af8a5751c214dc59079",
    "name": "kony.ui.Button",
    "parent": "flxInFeedAds",
    "pf": "frmAccountsLandingKA",
    "wType": "Button",
    "zindex": 100
}