{
    "@class": "com.kony.gen.viz.model.component.KVizButton",
    "DNDConfig": null,
    "__parentReadjusting__": false,
    "_height_": {
        "type": "string",
        "value": "60dp"
    },
    "_margin_": [
        6,
        6,
        6,
        6
    ],
    "_padding_": [
        0,
        0,
        0,
        0
    ],
    "_render_": true,
    "_right_": {
        "type": "string",
        "value": "5%"
    },
    "_skin_": "s0aa44764bc8464da74d20a85680330d",
    "_text_": "A",
    "_width_": {
        "type": "string",
        "value": "60dp"
    },
    "android": {
        "render": true
    },
    "canUpdateUI": true,
    "centery": {
        "type": "string",
        "value": "90%"
    },
    "containerweight": 100,
    "contentalignment": 5,
    "displaytext": true,
    "focusskin": "s0aa44764bc8464da74d20a85680330d",
    "id": "btnNotification",
    "ide_onClick": "AS_Button_c0d38695780f4d85be603425d748fd93",
    "info": null,
    "iphone": {
        "render": true
    },
    "isvisible": false,
    "kuid": "a9a4e72cbe154a31a1ced6e6205f4290",
    "name": "kony.ui.Button",
    "parent": "flxAccountsMain",
    "pf": "frmAccountsLandingKA",
    "spaan": {
        "render": true
    },
    "spabb": {
        "render": true
    },
    "spaip": {
        "render": true
    },
    "spawinphone8": {
        "render": true
    },
    "wType": "Button",
    "winphone8": {
        "render": true
    },
    "zindex": 1
}