{
    "@class": "com.kony.gen.viz.model.component.KVizButton",
    "DNDConfig": null,
    "__parentReadjusting__": false,
    "_bottom_": {
        "type": "number",
        "value": "50"
    },
    "_height_": {
        "type": "string",
        "value": "50dp"
    },
    "_left_": {
        "type": "string",
        "value": "46dp"
    },
    "_margin_": [
        6,
        6,
        6,
        6
    ],
    "_padding_": [
        0,
        0,
        0,
        0
    ],
    "_skin_": "s3b73bca9f794ec3ab4acf03e44e8f17",
    "_text_": "Open Deposite",
    "_width_": {
        "type": "string",
        "value": "260dp"
    },
    "canUpdateUI": true,
    "containerweight": 100,
    "contentalignment": 5,
    "displaytext": true,
    "focusskin": "s10149300144466da99cbf92f4fdacc8",
    "id": "Button0cff661d9151644",
    "ide_onClick": "AS_Button_bb7e3a6b233a404a97f8e15a06c5b6cb",
    "info": null,
    "isvisible": false,
    "kuid": "gd4a064701594a449e78731187e4ef5d",
    "name": "kony.ui.Button",
    "parent": "flxDeals",
    "pf": "frmAccountsLandingKA",
    "wType": "Button",
    "zindex": 999
}