{
    "DNDConfig": null,
    "__parentReadjusting__": false,
    "_height_": {
        "type": "string",
        "value": "44dp"
    },
    "_left_": {
        "type": "string",
        "value": "0dp"
    },
    "_margin_": [
        0,
        0,
        0,
        0
    ],
    "_orientation_": 6,
    "_padding_": [
        0,
        0,
        0,
        0
    ],
    "_percent_": true,
    "_skin_": "s06f3ea31fb840bcaf26cb0034b0f096",
    "_top_": {
        "type": "string",
        "value": "180dp"
    },
    "_width_": {
        "type": "string",
        "value": "100%"
    },
    "allboxes": [],
    "autogrowmode": 0,
    "canUpdateUI": true,
    "children": [
        "imgInFeedAd",
        "btnInFeedAdClose",
        "flxAdClickArea"
    ],
    "clipbounds": true,
    "containerweight": 100,
    "enablescrolling": true,
    "id": "flxInFeedAds",
    "info": null,
    "isvisible": false,
    "kuid": "f97ecb942c3d4660a7a64b895431e0d6",
    "layouttype": 2,
    "name": "kony.ui.FlexContainer",
    "parent": "frmAccountsLandingKA",
    "pf": "frmAccountsLandingKA",
    "snapgridsize": 10,
    "snaptogrid": true,
    "wType": "FlexContainer",
    "widgetalignment": 1,
    "zindex": 1
}