{
    "@class": "com.kony.gen.viz.model.container.KVizSegment2",
    "DNDConfig": null,
    "__parentReadjusting__": false,
    "_bottom_": {
        "type": "string",
        "value": "0%"
    },
    "_data_": [
        [
            {
                "CopylblIncommingRing0ac2c9e9c52d147": {
                    "@class": "com.viz.ide.model.segment.SimpleTextSegmentData",
                    "i18nkey": "i18n.common.reverseback",
                    "text": ""
                },
                "Label0bed5640cdb4b46": {
                    "@class": "com.viz.ide.model.segment.SimpleTextSegmentData",
                    "text": "Label"
                },
                "amountAccount1": {
                    "@class": "com.viz.ide.model.segment.SimpleTextSegmentData",
                    "text": "00.00"
                },
                "amountcurrBal": {
                    "@class": "com.viz.ide.model.segment.SimpleTextSegmentData",
                    "text": "$00.00"
                },
                "amtOutsatndingBal": {
                    "@class": "com.viz.ide.model.segment.SimpleTextSegmentData",
                    "text": "$00.00"
                },
                "btnNav": {
                    "@class": "com.viz.ide.model.segment.SimpleTextSegmentData",
                    "text": "L"
                },
                "dummyAccountName": {
                    "@class": "com.viz.ide.model.segment.SimpleTextSegmentData",
                    "text": ""
                },
                "dummyAccountNumber": {
                    "@class": "com.viz.ide.model.segment.SimpleTextSegmentData",
                    "text": ""
                },
                "isPFMLabel": {
                    "@class": "com.viz.ide.model.segment.SimpleTextSegmentData",
                    "text": ""
                },
                "lblAccNumber": {
                    "@class": "com.viz.ide.model.segment.SimpleTextSegmentData",
                    "text": ""
                },
                "lblAccountID": {
                    "@class": "com.viz.ide.model.segment.SimpleTextSegmentData",
                    "text": "Label"
                },
                "lblBankName": {
                    "@class": "com.viz.ide.model.segment.SimpleTextSegmentData",
                    "text": ""
                },
                "lblColorKA": {
                    "@class": "com.viz.ide.model.segment.SimpleTextSegmentData",
                    "text": ""
                },
                "lblCurrency": {
                    "@class": "com.viz.ide.model.segment.SimpleTextSegmentData",
                    "text": "JOD"
                },
                "lblIncommingRing": {
                    "@class": "com.viz.ide.model.segment.SimpleTextSegmentData",
                    "text": "s"
                },
                "lblMobile": {
                    "@class": "com.viz.ide.model.segment.SimpleTextSegmentData",
                    "text": ""
                },
                "lblRowSeparator": {
                    "@class": "com.viz.ide.model.segment.SimpleTextSegmentData",
                    "text": ""
                },
                "nameAccount1": {
                    "@class": "com.viz.ide.model.segment.SimpleTextSegmentData",
                    "text": "<p>tqwwqwqeqweqweqwewe qweqweqweqweqweqwe qweqweqwe</p><img align = \"left\" src=\"mapblue.png\" />\n                        "
                },
                "nameAccount12": {
                    "@class": "com.viz.ide.model.segment.SimpleTextSegmentData",
                    "text": "Account Name"
                },
                "typeAccount": {
                    "@class": "com.viz.ide.model.segment.SimpleTextSegmentData",
                    "text": "Available Balance"
                },
                "typeKA": {
                    "@class": "com.viz.ide.model.segment.SimpleTextSegmentData",
                    "text": ""
                }
            },
            [
                {
                    "Button0hf394843f2a54f": {
                        "@class": "com.viz.ide.model.segment.SimpleTextSegmentData",
                        "text": ""
                    },
                    "lblNoData": {
                        "@class": "com.viz.ide.model.segment.SimpleTextSegmentData",
                        "text": ""
                    },
                    "lblTransAmount": {
                        "@class": "com.viz.ide.model.segment.SimpleTextSegmentData",
                        "text": ""
                    },
                    "lblTransDate": {
                        "@class": "com.viz.ide.model.segment.SimpleTextSegmentData",
                        "text": ""
                    },
                    "lblTransId": {
                        "@class": "com.viz.ide.model.segment.SimpleTextSegmentData",
                        "text": ""
                    },
                    "lblTransName": {
                        "@class": "com.viz.ide.model.segment.SimpleTextSegmentData",
                        "text": ""
                    }
                }
            ]
        ],
        [
            {
                "CopylblIncommingRing0ac2c9e9c52d147": {
                    "@class": "com.viz.ide.model.segment.SimpleTextSegmentData",
                    "i18nkey": "i18n.common.reverseback",
                    "text": ""
                },
                "Label0bed5640cdb4b46": {
                    "@class": "com.viz.ide.model.segment.SimpleTextSegmentData",
                    "text": "Label"
                },
                "amountAccount1": {
                    "@class": "com.viz.ide.model.segment.SimpleTextSegmentData",
                    "text": "00.00"
                },
                "amountcurrBal": {
                    "@class": "com.viz.ide.model.segment.SimpleTextSegmentData",
                    "text": "$00.00"
                },
                "amtOutsatndingBal": {
                    "@class": "com.viz.ide.model.segment.SimpleTextSegmentData",
                    "text": "$00.00"
                },
                "btnNav": {
                    "@class": "com.viz.ide.model.segment.SimpleTextSegmentData",
                    "text": "L"
                },
                "dummyAccountName": {
                    "@class": "com.viz.ide.model.segment.SimpleTextSegmentData",
                    "text": ""
                },
                "dummyAccountNumber": {
                    "@class": "com.viz.ide.model.segment.SimpleTextSegmentData",
                    "text": ""
                },
                "isPFMLabel": {
                    "@class": "com.viz.ide.model.segment.SimpleTextSegmentData",
                    "text": ""
                },
                "lblAccNumber": {
                    "@class": "com.viz.ide.model.segment.SimpleTextSegmentData",
                    "text": ""
                },
                "lblAccountID": {
                    "@class": "com.viz.ide.model.segment.SimpleTextSegmentData",
                    "text": "Label"
                },
                "lblBankName": {
                    "@class": "com.viz.ide.model.segment.SimpleTextSegmentData",
                    "text": ""
                },
                "lblColorKA": {
                    "@class": "com.viz.ide.model.segment.SimpleTextSegmentData",
                    "text": ""
                },
                "lblCurrency": {
                    "@class": "com.viz.ide.model.segment.SimpleTextSegmentData",
                    "text": "JOD"
                },
                "lblIncommingRing": {
                    "@class": "com.viz.ide.model.segment.SimpleTextSegmentData",
                    "text": "s"
                },
                "lblMobile": {
                    "@class": "com.viz.ide.model.segment.SimpleTextSegmentData",
                    "text": ""
                },
                "lblRowSeparator": {
                    "@class": "com.viz.ide.model.segment.SimpleTextSegmentData",
                    "text": ""
                },
                "nameAccount1": {
                    "@class": "com.viz.ide.model.segment.SimpleTextSegmentData",
                    "text": "<p>t</p><img align = \"left\" src=\"mapblue.png\" />\n                        "
                },
                "nameAccount12": {
                    "@class": "com.viz.ide.model.segment.SimpleTextSegmentData",
                    "text": "Account Name"
                },
                "typeAccount": {
                    "@class": "com.viz.ide.model.segment.SimpleTextSegmentData",
                    "text": "Available Balance"
                },
                "typeKA": {
                    "@class": "com.viz.ide.model.segment.SimpleTextSegmentData",
                    "text": ""
                }
            },
            [
                {
                    "Button0hf394843f2a54f": {
                        "@class": "com.viz.ide.model.segment.SimpleTextSegmentData",
                        "text": ""
                    },
                    "lblNoData": {
                        "@class": "com.viz.ide.model.segment.SimpleTextSegmentData",
                        "text": ""
                    },
                    "lblTransAmount": {
                        "@class": "com.viz.ide.model.segment.SimpleTextSegmentData",
                        "text": ""
                    },
                    "lblTransDate": {
                        "@class": "com.viz.ide.model.segment.SimpleTextSegmentData",
                        "text": ""
                    },
                    "lblTransId": {
                        "@class": "com.viz.ide.model.segment.SimpleTextSegmentData",
                        "text": ""
                    },
                    "lblTransName": {
                        "@class": "com.viz.ide.model.segment.SimpleTextSegmentData",
                        "text": ""
                    }
                }
            ]
        ]
    ],
    "_indicator_": "none",
    "_left_": {
        "type": "string",
        "value": "0dp"
    },
    "_margin_": [
        0,
        0,
        0,
        0
    ],
    "_orientation_": 2,
    "_padding_": [
        0,
        0,
        0,
        0
    ],
    "_top_": {
        "type": "string",
        "value": "0%"
    },
    "_width_": {
        "type": "string",
        "value": "100%"
    },
    "autogrowmode": 0,
    "canUpdateUI": true,
    "centerx": {
        "type": "string",
        "value": "50%"
    },
    "containerweight": 100,
    "counter": "10",
    "disabledSkins": {
        "rowFocusSkin": "s5fa38be22fb4f22b7c642b08276ab82",
        "sectionHeaderSkin": "sfa7f115d30e4183ab3e347ebe6185c6"
    },
    "focusedindex": null,
    "focuseditem": null,
    "groupcells": false,
    "hasSections": true,
    "hiddencolumns": {},
    "id": "segAccountsKA",
    "info": null,
    "ipad": {
        "psp": {
            "indicator": "rowselect"
        }
    },
    "iphone": {
        "psp": {
            "bounces": false,
            "enableDictionary": false,
            "indicator": "none",
            "showProgressIndicator": false
        }
    },
    "iscustomlayout": false,
    "isvisible": true,
    "kuid": "b10fc51b08e74ca28ec1062b5ae1817c",
    "masterdata": {},
    "name": "kony.ui.SegmentedUI2",
    "needpageindicator": true,
    "pageoffdotimage": "pageoffdot.png",
    "pageondotimage": "pageondot.png",
    "paginationconfig": {
        "position": "bottom"
    },
    "parent": "accountsInnerScroll",
    "pf": "frmAccountsLandingKA",
    "retainflexpositionproperties": false,
    "retainselection": false,
    "rowTemplateId": "b3afce64bda8409eb41dfa6d27d369f9",
    "rowcounter": 0,
    "rowskin": "sd2ca277651a46c0ba82f3226859f5a6",
    "rowtemplate": "flxTrans",
    "screenlevelwidget": false,
    "seccounter": 1,
    "sectionHeaderTemplateId": "d6ec8423e4fc4a0ea9253aafc6a0dd46",
    "sectionheadertemplate": "yourAccount1",
    "selectedRows": null,
    "selectedState": false,
    "selectedindex": null,
    "selectedindices": null,
    "selecteditems": null,
    "selectedsectionindex": 0,
    "selectionbehavior": "default",
    "separatorcolor": "072c4800",
    "separatorrequired": true,
    "separatorthickness": 1,
    "showprogressindicator": false,
    "showscrollbars": true,
    "viewtype": "tableview",
    "vizProps": {},
    "wType": "Segment",
    "widgetalignment": 5,
    "widgetdatamap": {
        "Button0hf394843f2a54f": "Button0hf394843f2a54f",
        "CopylblIncommingRing0ac2c9e9c52d147": "CopylblIncommingRing0ac2c9e9c52d147",
        "Label0bed5640cdb4b46": "Label0bed5640cdb4b46",
        "amountAccount1": "amountAccount1",
        "amountcurrBal": "amountcurrBal",
        "amtOutsatndingBal": "amtOutsatndingBal",
        "btnNav": "btnNav",
        "btnNav1": "btnNav1",
        "dummyAccountName": "dummyAccountName",
        "dummyAccountNumber": "dummyAccountNumber",
        "flxLine": "flxLine",
        "flxSet": "flxSet",
        "flxTrans": "flxTrans",
        "flxamount": "flxamount",
        "isPFMLabel": "isPFMLabel",
        "lblAccNumber": "lblAccNumber",
        "lblAccountID": "lblAccountID",
        "lblBankName": "lblBankName",
        "lblColorKA": "lblColorKA",
        "lblCurrency": "lblCurrency",
        "lblIncommingRing": "lblIncommingRing",
        "lblMobile": "lblMobile",
        "lblNoData": "lblNoData",
        "lblRowSeparator": "lblRowSeparator",
        "lblTransAmount": "lblTransAmount",
        "lblTransDate": "lblTransDate",
        "lblTransId": "lblTransId",
        "lblTransName": "lblTransName",
        "nameAccount1": "nameAccount1",
        "nameAccount12": "nameAccount12",
        "nameContainer": "nameContainer",
        "typeAccount": "typeAccount",
        "typeKA": "typeKA",
        "yourAccount1": "yourAccount1"
    },
    "zindex": 1
}