{
  "operationConfig" : {
    "name" : "prGetExternalTransferComm2435",
    "type" : "MappedToBackend",
    "cachable" : false,
    "smsEnabled" : false,
    "security" : "authorized_app_user",
    "responseEncoding" : "UTF-8",
    "httpMethod" : "GET",
    "decodeResponseBody" : false,
    "iMapping" : "<?xml version=\"1.0\" encoding=\"UTF-8\" standalone=\"yes\"?><mapper xmlns=\"http://www.kony.com/ns/mapper\">  <map inputpath=\"request_in\" outputpath=\"request_out\">    <set-param inputpath=\"frequencyEndDate\" outputpath=\"frequencyEndDate\"/>    <set-param inputpath=\"fromAccountNumber\" outputpath=\"fromAccountNumber\"/>    <set-param inputpath=\"frequencyStartDate\" outputpath=\"frequencyStartDate\"/>    <set-param inputpath=\"BenAddress2\" outputpath=\"BenAddress2\"/>    <set-param inputpath=\"BenAddress1\" outputpath=\"BenAddress1\"/>    <set-param inputpath=\"BenAddress3\" outputpath=\"BenAddress3\"/>    <set-param inputpath=\"SourceBranchCode\" outputpath=\"SourceBranchCode\"/>    <set-param inputpath=\"p_ben_bank_city\" outputpath=\"p_ben_bank_city\"/>    <set-param inputpath=\"p_imb_name\" outputpath=\"p_imb_name\"/>    <set-param inputpath=\"referenceId\" outputpath=\"referenceId\"/>    <set-param inputpath=\"p_national_crear_code\" outputpath=\"p_national_crear_code\"/>    <set-param inputpath=\"p_remmit_purpose\" outputpath=\"p_remmit_purpose\"/>    <set-param inputpath=\"BenCity\" outputpath=\"BenCity\"/>    <set-param inputpath=\"p_imb_addr2\" outputpath=\"p_imb_addr2\"/>    <set-param inputpath=\"usr\" outputpath=\"usr\"/>    <set-param inputpath=\"p_imb_addr1\" outputpath=\"p_imb_addr1\"/>    <set-param inputpath=\"custId\" outputpath=\"custId\"/>    <set-param inputpath=\"SwiftCode\" outputpath=\"SwiftCode\"/>    <set-param inputpath=\"p_ben_bank_country\" outputpath=\"p_ben_bank_country\"/>    <set-param inputpath=\"p_ben_branch_code\" outputpath=\"p_ben_branch_code\"/>    <set-param inputpath=\"amount\" outputpath=\"amount\"/>    <set-param inputpath=\"p_deal_ref_no\" outputpath=\"p_deal_ref_no\"/>    <set-param inputpath=\"toAccountType\" outputpath=\"toAccountType\"/>    <set-param inputpath=\"pass\" outputpath=\"pass\"/>    <set-param inputpath=\"p_pay_mode\" outputpath=\"p_pay_mode\"/>    <set-param inputpath=\"p_trans_amt_ccy\" outputpath=\"p_trans_amt_ccy\"/>    <set-param inputpath=\"BenCountry\" outputpath=\"BenCountry\"/>    <set-param inputpath=\"p_ben_bank_name\" outputpath=\"p_ben_bank_name\"/>    <set-param inputpath=\"p_imb_country\" outputpath=\"p_imb_country\"/>    <set-param inputpath=\"BenBranchCode\" outputpath=\"BenBranchCode\"/>    <set-param inputpath=\"toAccountName\" outputpath=\"toAccountName\"/>    <set-param inputpath=\"p_ben_bank_addr2\" outputpath=\"p_ben_bank_addr2\"/>    <set-param inputpath=\"p_ben_bank_addr1\" outputpath=\"p_ben_bank_addr1\"/>    <set-param inputpath=\"transactionsNotes\" outputpath=\"transactionsNotes\"/>    <set-param inputpath=\"toAccountNumber\" outputpath=\"toAccountNumber\"/>    <set-param inputpath=\"p_imb_city\" outputpath=\"p_imb_city\"/>    <set-param inputpath=\"p_pmt_details2\" outputpath=\"p_pmt_details2\"/>    <set-param inputpath=\"p_corresp_charges\" outputpath=\"p_corresp_charges\"/>    <set-param inputpath=\"p_imb_swift_code\" outputpath=\"p_imb_swift_code\"/>    <set-param inputpath=\"frequencyType\" outputpath=\"frequencyType\"/>    <set-param inputpath=\"p_pmt_details1\" outputpath=\"p_pmt_details1\"/>    <set-param inputpath=\"p_pmt_details4\" outputpath=\"p_pmt_details4\"/>    <set-param inputpath=\"p_pmt_details3\" outputpath=\"p_pmt_details3\"/>    <set-param inputpath=\"p_national_crear_code_type\" outputpath=\"p_national_crear_code_type\"/>    <set-param inputpath=\"p_iban\" outputpath=\"p_iban\"/>  </map></mapper>",
    "oMapping" : "<?xml version=\"1.0\" encoding=\"UTF-8\" standalone=\"yes\"?><mapper xmlns=\"http://www.kony.com/ns/mapper\">  <map inputpath=\"response_in\" outputpath=\"response_out\">    <set-param inputpath=\"bankComm\" outputpath=\"bankComm\"/>    <set-param inputpath=\"othComm\" outputpath=\"othComm\"/>    <set-param inputpath=\"swiftComm\" outputpath=\"swiftComm\"/>    <set-param inputpath=\"ErrorCode\" outputpath=\"ErrorCode\"/>    <set-param inputpath=\"referenceId\" outputpath=\"referenceId\"/>    <set-param inputpath=\"exchComm\" outputpath=\"exchComm\"/>  </map></mapper>",
    "applyCommonMapping" : false,
    "backendMeta" : {
      "serviceVersion" : "1.0",
      "operationName" : "prGetExternalTransferComm",
      "serviceName" : "prGetExternalTransferComm"
    },
    "relationshipHierarchyMapping" : {
      "children" : [ ],
      "name" : "Transactions",
      "selected" : true
    },
    "requestXmlMappingOverride" : true,
    "responseXmlMappingOverride" : true
  }
}