{
  "operationConfig" : {
    "name" : "getUserCompletedBillHistory4883",
    "type" : "MappedToBackend",
    "cachable" : false,
    "smsEnabled" : false,
    "security" : "authorized_app_user",
    "responseEncoding" : "UTF-8",
    "httpMethod" : "GET",
    "decodeResponseBody" : false,
    "iMapping" : "<?xml version=\"1.0\" encoding=\"UTF-8\" standalone=\"yes\"?><mapper xmlns=\"http://www.kony.com/ns/mapper\">  <map inputpath=\"request_in\" outputpath=\"request_out\">    <set-param inputpath=\"offset\" outputpath=\"offset\"/>    <set-param inputpath=\"limit\" outputpath=\"limit\"/>  </map></mapper>",
    "oMapping" : "<?xml version=\"1.0\" encoding=\"UTF-8\" standalone=\"yes\"?><mapper xmlns=\"http://www.kony.com/ns/mapper\">  <map inputpath=\"response_in\" outputpath=\"response_out\">    <map inputpath=\"Transactions\" outputpath=\"Transactions\">      <set-param inputpath=\"payeeNickName\" outputpath=\"payeeNickName\"/>      <set-param inputpath=\"amount\" outputpath=\"amount\"/>      <set-param inputpath=\"fromAccountNumber\" outputpath=\"fromAccountNumber\"/>      <set-param inputpath=\"fromAccountName\" outputpath=\"fromAccountName\"/>      <set-param inputpath=\"transactionDate\" outputpath=\"transactionDate\"/>      <set-param inputpath=\"billDueAmount\" outputpath=\"billDueAmount\"/>      <set-param inputpath=\"referenceId\" outputpath=\"referenceId\"/>      <set-param inputpath=\"payeeName\" outputpath=\"payeeName\"/>      <set-param inputpath=\"statusDescription\" outputpath=\"statusDescription\"/>      <set-param inputpath=\"transactionsNotes\" outputpath=\"transactionsNotes\"/>      <set-param inputpath=\"toAccountNumber\" outputpath=\"toAccountNumber\"/>      <set-param inputpath=\"billerCategoryName\" outputpath=\"billerCategoryName\"/>      <set-param inputpath=\"billid\" outputpath=\"billid\"/>      <set-param inputpath=\"billDueDate\" outputpath=\"billDueDate\"/>    </map>  </map></mapper>",
    "applyCommonMapping" : true,
    "backendMeta" : {
      "serviceVersion" : "1.0",
      "operationName" : "getUserCompletedBillHistory",
      "serviceName" : "RetailBankingBEServices"
    },
    "relationshipHierarchyMapping" : {
      "children" : [ ],
      "name" : "Transactions",
      "selected" : true
    },
    "requestXmlMappingOverride" : true,
    "responseXmlMappingOverride" : true
  }
}