{
    "@class": "com.kony.gen.viz.model.component.KVizLabel",
    "DNDConfig": null,
    "__parentReadjusting__": false,
    "_height_": {
        "type": "string",
        "value": "100%"
    },
    "_margin_": [
        1,
        1,
        1,
        1
    ],
    "_padding_": [
        0,
        0,
        0,
        0
    ],
    "_skin_": "s10e6568beb345e9b0c469689c3d0c12",
    "_text_": "O",
    "_top_": {
        "type": "string",
        "value": "-14dp"
    },
    "_width_": {
        "type": "string",
        "value": "10%"
    },
    "_wrapping_": 2,
    "android": {
        "textStyle": {
            "letterSpacing": 0,
            "strikeThrough": false
        }
    },
    "canUpdateUI": true,
    "centerx": {
        "type": "string",
        "value": "92.00%"
    },
    "containerweight": 100,
    "contentalignment": 5,
    "id": "lbCloseChange",
    "ide_onTouchEnd": "AS_Label_i239b1551a444d51bb873749a0442bc7",
    "info": null,
    "ipad": {
        "psp": {
            "wrapping": 2
        }
    },
    "iphone": {
        "psp": {
            "wrapping": 2
        }
    },
    "isvisible": false,
    "kuid": "h4442ac19e994b85a4a943147a70bf60",
    "name": "kony.ui.Label",
    "parent": "flxHead",
    "pf": "frmEnrolluserLandingKA",
    "textstyle": {},
    "tooltip": "",
    "wType": "Label",
    "zindex": 1
}