{
    "@class": "com.kony.gen.viz.model.component.KVizLabel",
    "DNDConfig": null,
    "__parentReadjusting__": false,
    "_height_": {
        "type": "string",
        "value": "25%"
    },
    "_left_": {
        "type": "string",
        "value": "0%"
    },
    "_margin_": [
        1,
        1,
        1,
        1
    ],
    "_padding_": [
        1,
        0,
        1,
        0
    ],
    "_skin_": "s76c51fc8d2f482a87942f38cb296cff",
    "_text_": "",
    "_top_": {
        "type": "string",
        "value": "2%"
    },
    "_width_": {
        "type": "ref",
        "value": "preferred"
    },
    "_wrapping_": 2,
    "accessibilityconfig": {
        "a11yLabel": "Click here if that's not your number"
    },
    "android": {
        "textStyle": {
            "letterSpacing": 0,
            "strikeThrough": false
        }
    },
    "canUpdateUI": true,
    "centerx": {
        "type": "string",
        "value": "50%"
    },
    "containerweight": 100,
    "contentalignment": 5,
    "id": "lblDontKnowUsername",
    "ide_onTouchEnd": "AS_Label_bc5da0260e7d48eeb402a9cb5811f3d4",
    "info": null,
    "ipad": {
        "psp": {
            "wrapping": 2
        }
    },
    "iphone": {
        "psp": {
            "wrapping": 2
        }
    },
    "isvisible": true,
    "kuid": "eea0b2eb383a4a47b5d647c1396518fb",
    "name": "kony.ui.Label",
    "paddinginpixel": false,
    "parent": "flxForgotusername",
    "pf": "frmEnrolluserLandingKA",
    "texti18n": "i18n.common.dontusername",
    "textstyle": {},
    "tooltip": "",
    "wType": "Label",
    "zindex": 1
}