{
    "@class": "com.kony.gen.viz.model.component.KVizListBox",
    "DNDConfig": null,
    "__parentReadjusting__": false,
    "_height_": {
        "type": "string",
        "value": "40dp"
    },
    "_left_": {
        "type": "string",
        "value": "17dp"
    },
    "_margin_": [
        0,
        0,
        0,
        0
    ],
    "_padding_": [
        0,
        0,
        0,
        0
    ],
    "_skin_": "scca46a18cb1497b8873e17843148a3c",
    "_top_": {
        "type": "string",
        "value": "28dp"
    },
    "_width_": {
        "type": "string",
        "value": "90%"
    },
    "canUpdateUI": true,
    "containerweight": 100,
    "contentalignment": 4,
    "context": {
        "channel": "mobile",
        "formID": "frmEnrolluserLandingKA",
        "ispercent": true,
        "platform": "android",
        "templateType": "forms",
        "topLevelBox": null
    },
    "dropdownimage": "dropdown.png",
    "groupcells": false,
    "id": "lstboxquestn3",
    "info": null,
    "isvisible": true,
    "kuid": "11d194a979d24cee9b82f31c63a80882",
    "masterdata": [
        [
            "lb1",
            "Select a quesiton here.."
        ],
        [
            "lb2",
            "What is your first vehicle colour?"
        ],
        [
            "lb3",
            "What is your first mobile number?"
        ],
        [
            "Key233",
            "What is your favourite food?"
        ],
        [
            "Key857",
            "Who is your first teacher?"
        ],
        [
            "Key293",
            "Who is your best friend?"
        ]
    ],
    "name": "kony.ui.ListBox",
    "parent": "flxquestion3",
    "pf": "frmEnrolluserLandingKA",
    "selectedkey": "lb1",
    "selectedkeys": null,
    "selectedkeyvalue": [
        "lb1",
        "Select a quesiton here.."
    ],
    "selectedkeyvalues": null,
    "size": 18,
    "viewconfig": {
        "toggleViewConfig": {
            "viewStyle": 0
        }
    },
    "viewtype": 0,
    "wType": "ListBox",
    "zindex": 1
}