{
    "@class": "com.kony.gen.viz.model.component.KVizTextBox2",
    "DNDConfig": null,
    "__parentReadjusting__": false,
    "_bottom_": {
        "type": "string",
        "value": "4%"
    },
    "_height_": {
        "type": "string",
        "value": "60%"
    },
    "_margin_": [
        0,
        0,
        0,
        0
    ],
    "_padding_": [
        3,
        0,
        0,
        0
    ],
    "_placeholder_": "",
    "_skin_": "s029998596d3421892d0917ea7492e1d",
    "_text_": "",
    "_width_": {
        "type": "string",
        "value": "100%"
    },
    "accessibilityconfig": {},
    "android": {
        "ide_onEndEditing": "AS_TextField_j3d7047f81944175aef75ea8e83400c5",
        "onEndEditing": "AS_TextField_ja28486c7a3043998424fea66ecabfa6",
        "psp": {
            "keyboardActionLabel": 4
        }
    },
    "autocapitalize": "none",
    "autocomplete": false,
    "autocorrect": false,
    "autofilter": false,
    "canUpdateUI": true,
    "centerx": "50%",
    "containerheight": "",
    "containerheightmode": 1,
    "containerweight": 100,
    "contentalignment": 4,
    "disabledSkins": {},
    "focusskin": "s029998596d3421892d0917ea7492e1d",
    "id": "tbxUsernameKA",
    "ide_onDone": "AS_TextField_e15c7c7bd578455698e45647494ae953",
    "ide_onTextChange": "AS_TextField_g8c4558d61504f45929cdd7509164e76",
    "ide_onTouchEnd": "AS_TextField_d31b3d8898b145f590b35bf2b135d102",
    "ide_onTouchStart": "AS_TextField_d0247259471d451f86d2bb3e04113e9c",
    "info": null,
    "iphone": {
        "ide_onEndEditing": "AS_TextField_ja28486c7a3043998424fea66ecabfa6",
        "onBeginEditing": "AS_TextField_c0713df9ccfc44dba27a3f28bca350b8",
        "onEndEditing": "AS_TextField_c0713df9ccfc44dba27a3f28bca350b8",
        "psp": {
            "keyboardActionLabel": 4,
            "pasteboardType": 1,
            "showClearButton": false,
            "showCloseButton": false,
            "showProgressIndicator": false
        }
    },
    "isvisible": true,
    "keyboardactionlabel": 4,
    "keyboardtype": "A",
    "kuid": "j5a94755e2694c01870544d3914f9a36",
    "maxtextlength": "",
    "mode": "A",
    "name": "kony.ui.TextBox2",
    "parent": "flxUsername",
    "pasteboardtype": 1,
    "pf": "frmEnrolluserLandingKA",
    "securetextentry": false,
    "textinputmode": "A",
    "viewtype": "default",
    "wType": "TextField",
    "zindex": 1
}