{
    "@class": "com.kony.gen.viz.model.component.KVizLabel",
    "DNDConfig": null,
    "__parentReadjusting__": false,
    "_height_": {
        "type": "ref",
        "value": "preferred"
    },
    "_left_": {
        "type": "string",
        "value": "8%"
    },
    "_margin_": [
        1,
        1,
        1,
        1
    ],
    "_padding_": [
        0,
        0,
        0,
        0
    ],
    "_skin_": "s74c66cc041f4980b1bf5f7ad82fe572",
    "_text_": "Label",
    "_top_": {
        "type": "string",
        "value": "20%"
    },
    "_width_": {
        "type": "ref",
        "value": "preferred"
    },
    "_wrapping_": 2,
    "android": {
        "textStyle": {
            "letterSpacing": 0,
            "strikeThrough": false
        }
    },
    "canUpdateUI": true,
    "containerweight": 100,
    "contentalignment": 4,
    "id": "CopyLabel0e2acff81a7cc46",
    "info": null,
    "ipad": {
        "psp": {
            "wrapping": 2
        }
    },
    "iphone": {
        "psp": {
            "wrapping": 2
        }
    },
    "isvisible": true,
    "kuid": "acde0d24c29f48188492a2321d674775",
    "name": "kony.ui.Label",
    "parent": "flxCardsFilterScreen",
    "pf": "frmCardStatementKA",
    "texti18n": "i18n.filtertransaction.year",
    "tooltip": "",
    "wType": "Label",
    "zindex": 1
}