{
    "DNDConfig": null,
    "__parentReadjusting__": false,
    "_height_": {
        "type": "string",
        "value": "30%"
    },
    "_left_": {
        "type": "string",
        "value": "0%"
    },
    "_margin_": [
        0,
        0,
        0,
        0
    ],
    "_orientation_": 6,
    "_padding_": [
        0,
        0,
        0,
        0
    ],
    "_percent_": true,
    "_skin_": "sa3bdf39cb43420287e6a256e0a410d5",
    "_top_": {
        "type": "string",
        "value": "70%"
    },
    "_width_": {
        "type": "string",
        "value": "100%"
    },
    "allboxes": [],
    "autogrowmode": 0,
    "canUpdateUI": true,
    "children": [
        "lblSortby",
        "flxLine1",
        "lblSortDate",
        "flxSortDateAsc",
        "flxSortDateDesc",
        "lblSortAmount",
        "flxSortAmountAsc",
        "flxSortAmountDesc"
    ],
    "clipbounds": true,
    "containerweight": 100,
    "enablescrolling": true,
    "id": "flxAccountDetailsSort",
    "info": null,
    "isvisible": true,
    "kuid": "f874c635d6714f1586515133a1f812a7",
    "layouttype": 2,
    "name": "kony.ui.FlexContainer",
    "parent": "flxAccountdetailsSortContainer",
    "pf": "frmCardStatementKA",
    "snapgridsize": 10,
    "snaptogrid": true,
    "wType": "FlexContainer",
    "widgetalignment": 1,
    "zindex": 3
}