{
    "@class": "com.kony.gen.viz.model.component.KVizLabel",
    "DNDConfig": null,
    "__parentReadjusting__": false,
    "_height_": {
        "type": "ref",
        "value": "preferred"
    },
    "_margin_": [
        1,
        1,
        1,
        1
    ],
    "_padding_": [
        2,
        1,
        2,
        1
    ],
    "_skin_": "s2f7d20a94b34fd7bae45d1655ca7e41",
    "_text_": "Done",
    "_width_": {
        "type": "ref",
        "value": "preferred"
    },
    "_wrapping_": 2,
    "android": {
        "textStyle": {
            "letterSpacing": 0,
            "strikeThrough": false
        }
    },
    "canUpdateUI": true,
    "centerx": {
        "type": "string",
        "value": "49%"
    },
    "centery": {
        "type": "string",
        "value": "50%"
    },
    "containerweight": 100,
    "contentalignment": 5,
    "id": "Label0d6e6be1b179e44",
    "info": null,
    "ipad": {
        "psp": {
            "wrapping": 2
        }
    },
    "iphone": {
        "psp": {
            "wrapping": 2
        }
    },
    "isvisible": true,
    "kuid": "d8f9f0dc8e004a0ab4d450c1d47313c1",
    "name": "kony.ui.Label",
    "paddinginpixel": false,
    "parent": "flxFilterDone",
    "pf": "frmCardStatementKA",
    "texti18n": "i18n.overview.buttonDone",
    "tooltip": "",
    "wType": "Label",
    "zindex": 1
}