{
    "@class": "com.kony.gen.viz.model.component.KVizTextBox2",
    "DNDConfig": null,
    "__parentReadjusting__": false,
    "_height_": {
        "type": "string",
        "value": "30dp"
    },
    "_left_": {
        "type": "string",
        "value": "8%"
    },
    "_margin_": [
        0,
        0,
        0,
        0
    ],
    "_padding_": [
        3,
        0,
        0,
        0
    ],
    "_placeholder_": "Search transaction",
    "_skin_": "s8466dd9ae2243d092680f806c9b361c",
    "_text_": "",
    "_top_": {
        "type": "string",
        "value": "13dp"
    },
    "_width_": {
        "type": "string",
        "value": "75%"
    },
    "android": {
        "psp": {
            "keyboardActionLabel": 1
        }
    },
    "autocapitalize": "none",
    "autocomplete": false,
    "autocorrect": false,
    "autofilter": false,
    "canUpdateUI": true,
    "centery": {
        "type": "string",
        "value": "50%"
    },
    "containerheight": "",
    "containerheightmode": 1,
    "containerweight": 100,
    "contentalignment": 4,
    "disabledSkins": {},
    "focusskin": "s8466dd9ae2243d092680f806c9b361c",
    "id": "txtSearch",
    "ide_onDone": "AS_TextField_efe4a90135394ed4b1d553c751818761",
    "info": null,
    "iphone": {
        "psp": {
            "pasteboardType": 1
        }
    },
    "isvisible": true,
    "keyboardactionlabel": 1,
    "keyboardtype": "A",
    "kuid": "af2c0d60aad04943892fb99ca7a71ba4",
    "maxtextlength": 30,
    "mode": "A",
    "name": "kony.ui.TextBox2",
    "parent": "flxExtraIcons",
    "pf": "frmCardStatementKA",
    "placeholderi18n": "i18n.search.SearchTransactions",
    "placeholderskin": "s2484680d5974fa68d5a96a96c6b37b6",
    "securetextentry": false,
    "textinputmode": "A",
    "viewtype": "default",
    "wType": "TextField",
    "zindex": 1
}