{
    "@class": "com.kony.gen.viz.model.component.KVizButton",
    "DNDConfig": null,
    "__parentReadjusting__": false,
    "_height_": {
        "type": "string",
        "value": "60dp"
    },
    "_margin_": [
        6,
        6,
        6,
        6
    ],
    "_padding_": [
        0,
        0,
        0,
        0
    ],
    "_right_": {
        "type": "string",
        "value": "5dp"
    },
    "_skin_": "s2862c07881f45d7a83129ef63b9095f",
    "_text_": "L",
    "_width_": {
        "type": "string",
        "value": "60dp"
    },
    "canUpdateUI": true,
    "centery": {
        "type": "string",
        "value": "50%"
    },
    "containerId": true,
    "containerweight": 100,
    "contentalignment": 5,
    "disabledSkins": {},
    "displaytext": true,
    "focusskin": "s2862c07881f45d7a83129ef63b9095f",
    "id": "btnNav",
    "ide_onClick": "AS_Button_h48f571d5a8746eb8cf3214344000957",
    "info": null,
    "iscustomlayout": true,
    "isvisible": false,
    "kuid": "e55ca73637a144508e5eec65b76db4ac",
    "name": "kony.ui.Button",
    "parent": "yourAccount1",
    "pf": "tmpAccountLandingKA",
    "retainflexpositionproperties": false,
    "wType": "Button",
    "zindex": 1
}