{
    "@class": "com.kony.gen.viz.model.container.KVizGroup",
    "DNDConfig": null,
    "__parentReadjusting__": false,
    "_height_": {
        "type": "string",
        "value": "98%"
    },
    "_left_": 0,
    "_margin_": [
        0,
        0,
        0,
        0
    ],
    "_opacity_": 100,
    "_orientation_": 6,
    "_padding_": [
        0,
        0,
        0,
        0
    ],
    "_percent_": true,
    "_skin_": "s14cc6772eab463497846821290620c6",
    "_spacing_": 2,
    "_top_": 0,
    "_width_": {
        "type": "string",
        "value": "98%"
    },
    "allboxes": [],
    "android": {
        "render": false
    },
    "canUpdateUI": true,
    "children": [
        "Label0jb5c2202020140"
    ],
    "clipbounds": true,
    "containerweight": 100,
    "desktopweb": {
        "render": false
    },
    "enablescrolling": true,
    "id": "Group0bcdf8de72a2541",
    "info": null,
    "ipad": {
        "render": false
    },
    "iphone": {
        "render": false
    },
    "isvisible": true,
    "kiosk": {
        "render": false
    },
    "kuid": "hb85bcc7858248abaa2e201802dd0f12",
    "layouttype": 3,
    "name": "kony.ui.Group",
    "paddinginpixel": true,
    "parent": "grpAImage",
    "pf": "frmWatMenuDemo",
    "snapgridsize": 10,
    "snaptogrid": false,
    "spaan": {
        "render": false
    },
    "spaandroidtablet": {
        "render": false
    },
    "spabb": {
        "render": false
    },
    "spaip": {
        "render": false
    },
    "spaipad": {
        "render": false
    },
    "spawindowstablet": {
        "render": false
    },
    "spawinphone8": {
        "render": false
    },
    "tabrcandroid": {
        "render": false
    },
    "wType": "Group",
    "widgetalignment": 5,
    "windows8": {
        "render": false
    },
    "winphone8": {
        "render": false
    }
}