{
    "@class": "com.kony.gen.viz.model.component.KVizButton",
    "DNDConfig": null,
    "__parentReadjusting__": false,
    "_height_": {
        "type": "string",
        "value": "50%"
    },
    "_left_": {
        "type": "string",
        "value": "0dp"
    },
    "_margin_": [
        6,
        6,
        6,
        6
    ],
    "_padding_": [
        0,
        0,
        0,
        0
    ],
    "_skin_": "sbdbc65107b746c7870a660f64d4b256",
    "_text_": "w",
    "_width_": {
        "type": "string",
        "value": "15%"
    },
    "canUpdateUI": true,
    "centery": {
        "type": "string",
        "value": "50%"
    },
    "containerweight": 100,
    "contentalignment": 5,
    "displaytext": true,
    "focusskin": "sbdbc65107b746c7870a660f64d4b256",
    "id": "btnDelete",
    "info": null,
    "isvisible": false,
    "kuid": "h8548beac3944d15a409c20f1532bb95",
    "name": "kony.ui.Button",
    "parent": "flxBiller",
    "pf": "frmBills",
    "wType": "Button",
    "zindex": 1
}