{
    "@class": "com.kony.gen.viz.model.component.KVizButton",
    "DNDConfig": null,
    "__parentReadjusting__": false,
    "_height_": {
        "type": "string",
        "value": "9%"
    },
    "_margin_": [
        6,
        6,
        6,
        6
    ],
    "_padding_": [
        0,
        0,
        0,
        0
    ],
    "_skin_": "sf7766faf6e34d0789442a84c1e76e1a",
    "_text_": "",
    "_width_": {
        "type": "string",
        "value": "70%"
    },
    "canUpdateUI": true,
    "centerx": {
        "type": "string",
        "value": "50%"
    },
    "centery": {
        "type": "string",
        "value": "90%"
    },
    "containerweight": 100,
    "contentalignment": 5,
    "displaytext": true,
    "focusskin": "sad5d6d4890b44858a39e4bf8a290332",
    "id": "btnConfirm",
    "ide_onClick": "AS_Button_f7c31b7e26e34a6c86cbdc68fd07f88f",
    "info": null,
    "isvisible": true,
    "kuid": "e563ebb33c44446b9255241fea4577e1",
    "name": "kony.ui.Button",
    "parent": "flxBody",
    "pf": "frmCardLinkedAccountsConfirm",
    "texti18n": "i18n.transfers.CONFIRM",
    "wType": "Button",
    "zindex": 1
}