{
    "@class": "com.kony.gen.viz.model.component.KVizLabel",
    "DNDConfig": null,
    "__parentReadjusting__": false,
    "_height_": {
        "type": "ref",
        "value": "preferred"
    },
    "_left_": {
        "type": "string",
        "value": "8dp"
    },
    "_margin_": [
        1,
        1,
        1,
        1
    ],
    "_padding_": [
        0,
        0,
        0,
        0
    ],
    "_skin_": "s5b504510a154e7fab1632164747adcf",
    "_text_": "Password changed successfully",
    "_top_": {
        "type": "string",
        "value": "7dp"
    },
    "_width_": {
        "type": "string",
        "value": "100%"
    },
    "_wrapping_": 2,
    "canUpdateUI": true,
    "containerweight": 100,
    "contentalignment": 5,
    "enabled": false,
    "id": "CopyLabel04e32e5c0a78845",
    "info": null,
    "ipad": {
        "psp": {
            "wrapping": 2
        }
    },
    "iphone": {
        "psp": {
            "wrapping": 2
        }
    },
    "isvisible": true,
    "kuid": "b27e5fe1747641b3ab0d27ed9b7901a7",
    "name": "kony.ui.Label",
    "parent": "FlexContainer00a3c07fadcbf4b",
    "pf": "frmConfirmationPasswordKA",
    "texti18n": "i18n.common.passwordChangedSuccessfully",
    "tooltip": "",
    "wType": "Label"
}