{
    "@class": "com.kony.gen.viz.model.component.KVizTextBox2",
    "DNDConfig": null,
    "__parentReadjusting__": false,
    "_height_": {
        "type": "number",
        "value": "38"
    },
    "_left_": {
        "type": "string",
        "value": "0dp"
    },
    "_margin_": [
        0,
        0,
        0,
        0
    ],
    "_padding_": [
        0,
        0,
        0,
        0
    ],
    "_placeholder_": "Enter Account Number here",
    "_right_": {
        "type": "number",
        "value": "0"
    },
    "_skin_": "s91685645d0c4a43826fdd5c95fe611d",
    "_text_": "",
    "_top_": {
        "type": "string",
        "value": "0dp"
    },
    "android": {},
    "autocapitalize": "none",
    "autocomplete": false,
    "autocorrect": false,
    "autofilter": false,
    "canUpdateUI": true,
    "containerheight": "",
    "containerheightmode": 1,
    "containerweight": 100,
    "contentalignment": 4,
    "enabled": false,
    "focusskin": "s16addfe9da944a3add187c9cd34aa56",
    "id": "newPayeeAccountNumberTextField",
    "info": null,
    "iphone": {},
    "isvisible": true,
    "keyboardstyle": "digitpad",
    "keyboardtype": "A",
    "kuid": "0b4777d859c946079dc27b1804c9588c",
    "mode": "N",
    "name": "kony.ui.TextBox2",
    "parent": "CopyusernameContainer09871c009dbc247",
    "pf": "frmAddNewPayeeKA",
    "placeholderi18n": "i18n.manage_payee.enterAmountNumberHere",
    "placeholderskin": "sfa36c5ffd8f4b39894ae352f59c3406",
    "securetextentry": false,
    "textinputmode": "N",
    "viewtype": "default",
    "wType": "TextField"
}