{
    "DNDConfig": null,
    "__parentReadjusting__": false,
    "_height_": {
        "type": "string",
        "value": "92%"
    },
    "_left_": {
        "type": "string",
        "value": "0dp"
    },
    "_margin_": [
        0,
        0,
        0,
        0
    ],
    "_padding_": [
        0,
        0,
        0,
        0
    ],
    "_skin_": "s33c2b827d6745b5a56322e35bc3c999",
    "_top_": {
        "type": "string",
        "value": "0dp"
    },
    "_width_": {
        "type": "string",
        "value": "100%"
    },
    "allboxes": [],
    "allowhorizontalbounce": false,
    "allowverticalbounce": true,
    "bounces": false,
    "canUpdateUI": true,
    "children": [
        "Label013c1b33ed19c4a",
        "Button074ef6a5b805c40"
    ],
    "clipbounds": true,
    "containerweight": 100,
    "decelerat": false,
    "dragg": false,
    "enabled": false,
    "enablescrolling": true,
    "horizontalscrollindicator": true,
    "id": "mainContent",
    "info": null,
    "isvisible": true,
    "kuid": "e5a1fa5e185a42f495fa500087add56d",
    "layouttype": 4,
    "name": "kony.ui.FlexScrollContainer",
    "orientation": 6,
    "pagingenabled": false,
    "parent": "flxMain",
    "percent": true,
    "pf": "frmSetupFaceIdSettingsKA",
    "scrolldirection": 2,
    "snapgridsize": 10,
    "snaptogrid": true,
    "track": false,
    "verticalscrollindicator": false,
    "wType": "FlexScrollContainer",
    "widgetalignment": 1,
    "zindex": 1
}