{
    "@class": "com.kony.gen.viz.model.component.KVizDateField",
    "DNDConfig": null,
    "Image": "tran.png",
    "__id": "frmNewTransferKA_calTo",
    "__input": "calTo",
    "__parentReadjusting__": false,
    "_data_": null,
    "_date_": [
        null,
        null,
        null
    ],
    "_height_": {
        "type": "string",
        "value": "45%"
    },
    "_left_": {
        "type": "string",
        "value": "19dp"
    },
    "_margin_": [
        0,
        0,
        0,
        0
    ],
    "_mode_": 0,
    "_padding_": [
        0,
        0,
        0,
        0
    ],
    "_placeholder_": "",
    "_skin_": "s1585072198542caae714008cc878949",
    "_top_": {
        "type": "string",
        "value": "50%"
    },
    "_width_": {
        "type": "string",
        "value": "157dp"
    },
    "advview": "default",
    "android": {},
    "calendaricon": "tran.png",
    "canUpdateUI": true,
    "containerweight": 100,
    "contentalignment": 4,
    "datecomponents": null,
    "dateeditable": true,
    "dateformat": "dd/MM/yyyy",
    "datesGroup": [],
    "datesState": 0,
    "day": null,
    "daytextalignmentincell": 5,
    "displayedMonths": [
        12,
        2017
    ],
    "entereddate": null,
    "format": "dd/MM/yyyy",
    "formatteddate": null,
    "hidedaysheader": false,
    "hidemonthsheader": false,
    "hour": null,
    "id": "calTo",
    "ide_onSelection": "AS_Calendar_ba360bf6fc8045dda03c706a890d5753",
    "info": null,
    "invokedProperty": "rightNavigationImage",
    "iphone": {
        "psp": {
            "mode": 0
        }
    },
    "isvisible": true,
    "kuid": "b25b00b981c5422c9f1cf44a6c85b1ae",
    "luadate": [
        "10",
        "2",
        "2018"
    ],
    "minutes": null,
    "month": null,
    "monthsinrow": 3,
    "name": "kony.ui.Calendar",
    "navigatorAlert": "Invalid Selection",
    "noofmonths": 1,
    "pagedate": "/2018",
    "parent": "frmToDate",
    "pf": "frmNewTransferKA",
    "popupHeight": "auto",
    "popupWidth": "auto",
    "seconds": null,
    "selectdate": "//2018",
    "startDay": 0,
    "startdate": "",
    "viewconfig": {
        "gridConfig": {
            "allowWeekendSelectable": true,
            "leftNavigationImage": "directions_turn_left.png",
            "rightNavigationImage": "directions_turn_right.png"
        }
    },
    "viewtype": "default",
    "wType": "Calendar",
    "widgetalignment": 5,
    "widths": [
        "14.2857%;",
        "14.2857%;",
        "14.2857%;",
        "14.2857%;",
        "14.2857%;",
        "14.2857%;",
        "14.2857%;"
    ],
    "year": null,
    "zindex": 1
}