{
    "@class": "com.kony.gen.viz.model.component.KVizLabel",
    "DNDConfig": null,
    "__parentReadjusting__": false,
    "_bottom_": {
        "type": "string",
        "value": "0%"
    },
    "_height_": {
        "type": "string",
        "value": "42%"
    },
    "_left_": {
        "type": "string",
        "value": "21%"
    },
    "_margin_": [
        1,
        1,
        1,
        1
    ],
    "_padding_": [
        0,
        0,
        0,
        0
    ],
    "_skin_": "s231bb69aad4400cbe997bd094070519",
    "_text_": "",
    "_top_": {
        "type": "string",
        "value": "8.99%"
    },
    "_width_": {
        "type": "string",
        "value": "70%"
    },
    "_wrapping_": 2,
    "android": {
        "textStyle": {
            "letterSpacing": 0,
            "strikeThrough": false
        }
    },
    "canUpdateUI": true,
    "containerweight": 100,
    "contentalignment": 4,
    "id": "lblAccountName2",
    "info": null,
    "ipad": {
        "psp": {
            "wrapping": 2
        }
    },
    "iphone": {
        "psp": {
            "wrapping": 2
        }
    },
    "isvisible": false,
    "kuid": "fff487b34c584432b3c4e83f738d4968",
    "name": "kony.ui.Label",
    "paddinginpixel": false,
    "parent": "flxAcc2",
    "pf": "frmNewTransferKA",
    "textstyle": {},
    "tooltip": "",
    "wType": "Label",
    "zindex": 1
}