{
    "@class": "com.kony.gen.viz.model.component.KVizLabel",
    "DNDConfig": null,
    "__parentReadjusting__": false,
    "_height_": {
        "type": "ref",
        "value": "preferred"
    },
    "_left_": {
        "type": "string",
        "value": "2%"
    },
    "_margin_": [
        1,
        1,
        1,
        1
    ],
    "_padding_": [
        0,
        0,
        0,
        0
    ],
    "_skin_": "s231bb69aad4400cbe997bd094070519",
    "_text_": "",
    "_top_": {
        "type": "string",
        "value": "40%"
    },
    "_width_": {
        "type": "ref",
        "value": "preferred"
    },
    "_wrapping_": 2,
    "android": {
        "textStyle": {
            "letterSpacing": 0,
            "strikeThrough": false
        }
    },
    "canUpdateUI": true,
    "containerweight": 100,
    "contentalignment": 4,
    "id": "lblDescription",
    "info": null,
    "ipad": {
        "psp": {
            "wrapping": 2
        }
    },
    "iphone": {
        "psp": {
            "wrapping": 2
        }
    },
    "isvisible": true,
    "kuid": "gcf02c34808b45418cdc7ff50b2dac89",
    "name": "kony.ui.Label",
    "parent": "flxDescription",
    "pf": "frmNewTransferKA",
    "texti18n": "i18n.Transfer.Desc",
    "textstyle": {},
    "tooltip": "",
    "wType": "Label",
    "zindex": 2
}