{
    "@class": "com.kony.gen.viz.model.component.KVizLabel",
    "DNDConfig": null,
    "__parentReadjusting__": false,
    "_height_": {
        "type": "ref",
        "value": "preferred"
    },
    "_left_": {
        "type": "string",
        "value": "5%"
    },
    "_margin_": [
        1,
        1,
        1,
        1
    ],
    "_padding_": [
        0,
        0,
        0,
        0
    ],
    "_skin_": "s54de195f433453ab0c1ee2c4d09a8ac",
    "_text_": "Transfer category",
    "_top_": {
        "type": "string",
        "value": "8%"
    },
    "_width_": {
        "type": "ref",
        "value": "preferred"
    },
    "_wrapping_": 2,
    "android": {
        "textStyle": {
            "letterSpacing": 0,
            "strikeThrough": false
        }
    },
    "canUpdateUI": true,
    "containerweight": 100,
    "contentalignment": 4,
    "id": "lblTransferCategoryTitle",
    "info": null,
    "ipad": {
        "psp": {
            "wrapping": 2
        }
    },
    "iphone": {
        "psp": {
            "wrapping": 2
        }
    },
    "isvisible": true,
    "kuid": "ia70117275f14d139647cd73afcff5a6",
    "name": "kony.ui.Label",
    "paddinginpixel": false,
    "parent": "flxPurpose",
    "pf": "frmNewTransferKA",
    "texti18n": "i18n.transfer.transfermainpurpose",
    "textstyle": {},
    "tooltip": "",
    "wType": "Label",
    "zindex": 1
}