{
    "@class": "com.kony.gen.viz.model.component.KVizListBox",
    "DNDConfig": null,
    "__parentReadjusting__": false,
    "_height_": {
        "type": "string",
        "value": "40dp"
    },
    "_left_": {
        "type": "string",
        "value": "17dp"
    },
    "_margin_": [
        0,
        0,
        0,
        0
    ],
    "_padding_": [
        0,
        0,
        0,
        0
    ],
    "_skin_": "s28bb058848447e3bdd7956bd53d7c38",
    "_top_": {
        "type": "string",
        "value": "27%"
    },
    "_width_": {
        "type": "string",
        "value": "90%"
    },
    "canUpdateUI": true,
    "containerweight": 100,
    "contentalignment": 4,
    "context": {
        "channel": "mobile",
        "formID": "frmNewTransferKA",
        "ispercent": true,
        "platform": "android",
        "templateType": "forms",
        "topLevelBox": null
    },
    "dropdownimage": "dropdown.png",
    "groupcells": false,
    "id": "lstPurposeOfTransfer",
    "info": null,
    "isvisible": false,
    "kuid": "d9de6bdeb7fc430db5c0f5927d304114",
    "masterdata": [
        [
            "lb1",
            "General Expenses"
        ],
        [
            "lb2",
            "General Expenses 2"
        ],
        [
            "lb3",
            "General Expenses 3"
        ],
        [
            "lb4",
            "General Expenses 4"
        ]
    ],
    "name": "kony.ui.ListBox",
    "parent": "flxPurpose",
    "pf": "frmNewTransferKA",
    "selectedkey": "lb1",
    "selectedkeys": null,
    "selectedkeyvalue": [
        "lb1",
        "General Expenses"
    ],
    "selectedkeyvalues": null,
    "size": 18,
    "viewconfig": {
        "toggleViewConfig": {
            "viewStyle": 0
        }
    },
    "viewtype": 0,
    "wType": "ListBox",
    "zindex": 1
}