{
    "@class": "com.kony.gen.viz.model.component.KVizTextBox2",
    "DNDConfig": null,
    "__parentReadjusting__": false,
    "_bottom_": {
        "type": "string",
        "value": "4%"
    },
    "_height_": {
        "type": "string",
        "value": "60%"
    },
    "_margin_": [
        0,
        0,
        0,
        0
    ],
    "_padding_": [
        3,
        0,
        0,
        0
    ],
    "_placeholder_": "",
    "_skin_": "s029998596d3421892d0917ea7492e1d",
    "_text_": "",
    "_width_": {
        "type": "string",
        "value": "100%"
    },
    "accessibilityconfig": {
        "a11yLabel": "Enter your Username"
    },
    "android": {
        "ide_onEndEditing": "AS_TextField_bc7e115dbfd148f3b3fcba6bbed61631",
        "onEndEditing": "AS_TextField_fe44563196884c23b4630531e783eb70"
    },
    "autocapitalize": "none",
    "autocomplete": false,
    "autocorrect": false,
    "autofilter": false,
    "canUpdateUI": true,
    "centerx": {
        "type": "string",
        "value": "50%"
    },
    "containerheight": "",
    "containerheightmode": 1,
    "containerweight": 100,
    "contentalignment": 4,
    "disabledSkins": {},
    "focusskin": "s029998596d3421892d0917ea7492e1d",
    "id": "txtNumRecurrences",
    "ide_onDone": "AS_TextField_c5a7dadb1ff643d4b6cfcfd6a1cb1b24",
    "ide_onTextChange": "AS_TextField_eda36ce490714eef8c395d979758a078",
    "ide_onTouchEnd": "AS_TextField_e3c04c46178f45fe87dc8bb8d34eba8a",
    "info": null,
    "iphone": {
        "ide_onEndEditing": "AS_TextField_b002edea3ca745f2a9cf443d08ff23d4",
        "onBeginEditing": "AS_TextField_c0713df9ccfc44dba27a3f28bca350b8",
        "onEndEditing": "AS_TextField_c0380b35076d449b8d238d381388f650"
    },
    "isvisible": true,
    "keyboardstyle": "A",
    "keyboardtype": "A",
    "kuid": "b80275cb58af4c53881d31a1d6fb2179",
    "maxtextlength": 2,
    "mode": "N",
    "name": "kony.ui.TextBox2",
    "parent": "CopyflxFrequency0d4dacf1e8f8646",
    "pf": "frmNewTransferKA",
    "securetextentry": false,
    "textinputmode": "N",
    "viewtype": "default",
    "wType": "TextField",
    "zindex": 10
}