{
    "@class": "com.kony.gen.viz.model.component.KVizLabel",
    "DNDConfig": null,
    "__parentReadjusting__": false,
    "_height_": {
        "type": "string",
        "value": "8%"
    },
    "_left_": {
        "type": "string",
        "value": "0dp"
    },
    "_margin_": [
        1,
        1,
        1,
        1
    ],
    "_padding_": [
        0,
        0,
        0,
        0
    ],
    "_skin_": "s8b20338ed1543158d53b990a27ebcf8",
    "_text_": "xyzBank Face ID authentication for",
    "_top_": {
        "type": "string",
        "value": "21%"
    },
    "_width_": {
        "type": "string",
        "value": "80%"
    },
    "_wrapping_": 2,
    "android": {
        "textStyle": {
            "letterSpacing": 0,
            "strikeThrough": false
        }
    },
    "canUpdateUI": true,
    "centerx": {
        "type": "string",
        "value": "50%"
    },
    "containerweight": 100,
    "contentalignment": 5,
    "id": "lbldesc",
    "info": null,
    "ipad": {
        "psp": {
            "wrapping": 2
        }
    },
    "iphone": {
        "psp": {
            "wrapping": 2
        }
    },
    "isvisible": true,
    "kuid": "ia67f765716e465eb125d0f2ddcedfef",
    "name": "kony.ui.Label",
    "parent": "flxHeader",
    "pf": "frmFacialAuthEnable",
    "texti18n": "i18n.xyzBankFaceIDauthenticationfor",
    "tooltip": "",
    "wType": "Label",
    "zindex": 1
}