{
    "@class": "com.kony.gen.viz.model.component.KVizButton",
    "DNDConfig": null,
    "__parentReadjusting__": false,
    "_height_": {
        "type": "string",
        "value": "100%"
    },
    "_margin_": [
        6,
        6,
        6,
        6
    ],
    "_padding_": [
        0,
        0,
        0,
        0
    ],
    "_right_": {
        "type": "string",
        "value": "0.00%"
    },
    "_skin_": "sef0e6318cb74729a63354552567c681",
    "_text_": "",
    "_top_": {
        "type": "string",
        "value": "0.18%"
    },
    "_width_": {
        "type": "string",
        "value": "20%"
    },
    "canUpdateUI": true,
    "containerweight": 100,
    "contentalignment": 5,
    "disabledSkins": {},
    "displaytext": true,
    "focusskin": "sef0e6318cb74729a63354552567c681",
    "id": "btnNext",
    "ide_onClick": "AS_Button_e6281b68c4d14d4a9f9899c33f489d70",
    "info": null,
    "iscustomlayout": true,
    "isvisible": true,
    "kuid": "fd1c7966243749a7bf35f8ebbfb2a57a",
    "name": "kony.ui.Button",
    "parent": "flxApplyNewCardHeader",
    "pf": "frmApplyNewCardsKA",
    "retainflexpositionproperties": true,
    "texti18n": "i18n.login.next",
    "wType": "Button",
    "zindex": 2
}