{
    "@class": "com.kony.gen.viz.model.component.KVizButton",
    "DNDConfig": null,
    "__parentReadjusting__": false,
    "_height_": {
        "type": "ref",
        "value": "preferred"
    },
    "_left_": {
        "type": "string",
        "value": "0%"
    },
    "_margin_": [
        6,
        6,
        6,
        6
    ],
    "_padding_": [
        0,
        0,
        0,
        0
    ],
    "_skin_": "sfdddcea6cff4d788f42120343a323ef",
    "_text_": "s",
    "_width_": {
        "type": "string",
        "value": "100%"
    },
    "canUpdateUI": true,
    "centery": {
        "type": "string",
        "value": "50%"
    },
    "containerweight": 100,
    "contentalignment": 4,
    "displaytext": true,
    "focusskin": "sfdddcea6cff4d788f42120343a323ef",
    "id": "btnReplacePrepaidCards",
    "ide_onClick": "AS_Button_gc92e32951044dac996be50be4c3c0ef",
    "info": null,
    "isvisible": true,
    "kuid": "e44cea8cb361458095ff8d69f22bd943",
    "name": "kony.ui.Button",
    "parent": "flxReplacePrepaidCards",
    "pf": "frmApplyNewCardsKA",
    "wType": "Button",
    "zindex": 1
}