{
    "DNDConfig": null,
    "__parentReadjusting__": false,
    "_height_": {
        "type": "string",
        "value": "90%"
    },
    "_left_": "0%",
    "_margin_": [
        0,
        0,
        0,
        0
    ],
    "_orientation_": 6,
    "_padding_": [
        0,
        0,
        0,
        0
    ],
    "_percent_": true,
    "_skin_": "s388f0c575ef4d08ac3a5ed0a4b90085",
    "_top_": {
        "type": "string",
        "value": "10%"
    },
    "_width_": {
        "type": "string",
        "value": "100%"
    },
    "allboxes": [],
    "autogrowmode": 0,
    "canUpdateUI": true,
    "children": [
        "lblAccountStaticText",
        "flxPrimaryDebitCard",
        "flxSuplementryDebitCard",
        "flxSticker",
        "flxReplaceDebitCards",
        "flxChequeBook",
        "flxPrimaryCreditCard",
        "flxSuplementryCreditCard",
        "flxPrimaryCreditCardReplace",
        "flxUpgradeCreditCard",
        "flxWearables",
        "flxWebChargeCard",
        "flxReplacePrepaidCards"
    ],
    "clipbounds": false,
    "containerweight": 100,
    "enablescrolling": true,
    "id": "flxApplynewCardsFirst",
    "info": null,
    "isvisible": false,
    "kuid": "be6f7cf337df40ebaacf6e8696f71156",
    "layouttype": 4,
    "name": "kony.ui.FlexContainer",
    "parent": "frmApplyNewCardsKA",
    "pf": "frmApplyNewCardsKA",
    "snapgridsize": 10,
    "snaptogrid": true,
    "wType": "FlexContainer",
    "widgetalignment": 1,
    "zindex": 2
}