{
    "DNDConfig": null,
    "__parentReadjusting__": false,
    "_height_": {
        "type": "string",
        "value": "2%"
    },
    "_left_": {
        "type": "string",
        "value": "0%"
    },
    "_margin_": [
        0,
        0,
        0,
        0
    ],
    "_orientation_": 6,
    "_padding_": [
        0,
        0,
        0,
        0
    ],
    "_percent_": true,
    "_skin_": "s82784405b234d5bbf1e4bace4032e86",
    "_top_": {
        "type": "string",
        "value": "86%"
    },
    "_width_": {
        "type": "string",
        "value": "100%"
    },
    "allboxes": [],
    "autogrowmode": 0,
    "canUpdateUI": true,
    "children": [],
    "clipbounds": true,
    "containerweight": 100,
    "enablescrolling": true,
    "id": "flxBorderRelationShip",
    "info": null,
    "isvisible": true,
    "kuid": "a771fff0987c433598fe2734d14a6cab",
    "layouttype": 2,
    "name": "kony.ui.FlexContainer",
    "parent": "flxRelationshipType",
    "pf": "frmApplyNewCardsKA",
    "snapgridsize": 10,
    "snaptogrid": true,
    "wType": "FlexContainer",
    "widgetalignment": 1,
    "zindex": 1
}