{
    "DNDConfig": null,
    "__parentReadjusting__": false,
    "_height_": {
        "type": "string",
        "value": "91%"
    },
    "_left_": {
        "type": "string",
        "value": "0%"
    },
    "_margin_": [
        0,
        0,
        0,
        0
    ],
    "_orientation_": 6,
    "_padding_": [
        0,
        0,
        0,
        0
    ],
    "_percent_": true,
    "_skin_": "s388f0c575ef4d08ac3a5ed0a4b90085",
    "_top_": {
        "type": "string",
        "value": "9%"
    },
    "_width_": {
        "type": "string",
        "value": "100%"
    },
    "allboxes": [],
    "autogrowmode": 0,
    "canUpdateUI": true,
    "children": [
        "Label0ff51e386d98042",
        "flxtimeperiod",
        "lblAmountRange",
        "FlexContainer0b0328c9555bb43",
        "CopyLabel0ge4b0af66b9b44",
        "flxIncomming",
        "flxOutgoing",
        "flxCard"
    ],
    "clipbounds": true,
    "containerweight": 100,
    "enablescrolling": true,
    "id": "flxFilterTransaction",
    "info": null,
    "isvisible": true,
    "kuid": "ba5b1cd9fe04405ea569549fa618c0c6",
    "layouttype": 2,
    "name": "kony.ui.FlexContainer",
    "parent": "frmFilterTransaction",
    "pf": "frmFilterTransaction",
    "snapgridsize": 10,
    "snaptogrid": true,
    "wType": "FlexContainer",
    "widgetalignment": 1,
    "zindex": 1
}