{
  "android": {
    "font_size": 86,
    "isForked": false
  },
  "background_color": "ffffffff",
  "bg_type": "one",
  "border_color": "ffffffff",
  "border_style": "plain",
  "border_type": 0,
  "border_width": 1,
  "desktopweb": {
    "font_size": 86,
    "isForked": false
  },
  "fontSizeInPx": false,
  "font_color": "424242ff",
  "font_name": "Cairo-Regular",
  "font_size": 86,
  "font_style": "normal",
  "font_weight": "normal",
  "ipad": {
    "font_size": 86,
    "isForked": false
  },
  "iphone": {
    "font_name": "Lato-Bold",
    "font_size": 86,
    "isForked": false
  },
  "isDefaultSkin": false,
  "kiosk": {
    "font_size": 86,
    "isForked": false
  },
  "kuid": "s0c1cb2398004c6aa1641d44430c4da5",
  "spaan": {
    "font_size": 86,
    "isForked": false
  },
  "spaandroidtablet": {
    "font_size": 86,
    "isForked": false
  },
  "spabb": {
    "font_size": 86,
    "isForked": false
  },
  "spaip": {
    "font_size": 86,
    "isForked": false
  },
  "spaipad": {
    "font_size": 86,
    "isForked": false
  },
  "spawindowstablet": {
    "font_size": 86,
    "isForked": false
  },
  "spawinphone8": {
    "font_size": 86,
    "isForked": false
  },
  "tabrcandroid": {
    "font_size": 86,
    "isForked": false
  },
  "wType": "TextField",
  "watchos": {
    "font_size": 86,
    "isForked": false
  },
  "windows8": {
    "font_size": 86,
    "isForked": false
  },
  "winphone8": {
    "font_size": 86,
    "isForked": false
  }
}