{
  "background_color": "072c4800",
  "bg_type": "one",
  "border_color": "000000ff",
  "border_style": "plain",
  "border_type": 0,
  "border_width": 0,
  "isDefaultSkin": false,
  "kuid": "s866fc8c76904445a4d8df6f2b5b02c8",
  "wType": "FlexContainer"
}