{
    "background_color": "00000000",
    "bg_type": "one",
    "border_color": "ffffff66",
    "border_style": "rc",
    "border_type": 0,
    "border_width": 1,
    "isDefaultSkin": false,
    "kuid": "s80fa73662024ec598c36f91a0bc29ac",
    "wType": "FlexContainer"
}