{
  "background_color": "00000000",
  "bg_type": "one",
  "border_color": "424242ff",
  "border_style": "plain",
  "border_type": 0,
  "border_width": 0,
  "font_color": "424242ff",
  "font_name": "Cairo-Regular",
  "font_size": 214,
  "font_style": "normal",
  "font_weight": "normal",
  "iphone": {
    "font_name": "Lato-HeavyItalic"
  },
  "isDefaultSkin": false,
  "kuid": "sfa79a93d23b49cb98d50bee1c1bfc1a",
  "wType": "Label"
}