{
  "background_color": "b3b3b3ff",
  "bg_type": "one",
  "border_color": "b3b3b3ff",
  "border_style": "plain",
  "border_type": 0,
  "border_width": 1,
  "isDefaultSkin": false,
  "kuid": "s2d70e1ee9dc4229ba6b2d824f1f543b",
  "wType": "FlexContainer"
}