{
  "background_color": "ffffff05",
  "bg_type": "one",
  "border_color": "000000ff",
  "border_style": "plain",
  "border_type": 0,
  "border_width": 0,
  "isDefaultSkin": false,
  "kuid": "sf11e43ab7bd4b70939ed7671368f2a8",
  "wType": "Segment"
}