{
  "android": {
    "border_color": "424242ff",
    "border_style": "plain",
    "border_type": 0,
    "border_width": 0,
    "font_color": "ffffff7f",
    "font_name": "Cairo-Regular",
    "font_size": 118,
    "font_style": "underline",
    "isForked": true
  },
  "background_color": "00000000",
  "bg_type": "one",
  "border_color": "424242ff",
  "border_style": "plain",
  "border_type": 0,
  "border_width": 0,
  "desktopweb": {
    "font_color": "ffffff7f",
    "font_name": "Cairo-Regular",
    "font_size": 118,
    "font_style": "underline",
    "isForked": true
  },
  "fontSizeInPx": false,
  "font_color": "ffffff7f",
  "font_name": "Cairo-Regular",
  "font_size": 110,
  "font_style": "normal",
  "font_weight": "normal",
  "ipad": {
    "border_color": "424242ff",
    "border_style": "plain",
    "border_type": 0,
    "border_width": 0,
    "font_color": "ffffff7f",
    "font_name": "Cairo-Regular",
    "font_size": 118,
    "isForked": true
  },
  "iphone": {
    "border_color": "424242ff",
    "border_style": "plain",
    "border_type": 0,
    "border_width": 0,
    "font_color": "ffffff7f",
    "font_name": "Cairo-Regular",
    "font_size": 118,
    "isForked": true
  },
  "isDefaultSkin": false,
  "kiosk": {
    "border_color": "424242ff",
    "border_style": "plain",
    "border_type": 0,
    "border_width": 0,
    "font_color": "ffffff7f",
    "font_name": "GenericMonospace",
    "font_size": 118,
    "font_style": "underline",
    "isForked": true
  },
  "kuid": "saf383e0cd424b688c9f98ca2121d307",
  "spaan": {
    "font_color": "ffffff7f",
    "font_name": "Cairo-Regular",
    "font_size": 118,
    "font_style": "underline",
    "isForked": true
  },
  "spaandroidtablet": {
    "font_color": "ffffff7f",
    "font_name": "Cairo-Regular",
    "font_size": 118,
    "font_style": "underline",
    "isForked": true
  },
  "spabb": {
    "font_color": "ffffff7f",
    "font_name": "Cairo-Regular",
    "font_size": 118,
    "font_style": "underline",
    "isForked": true
  },
  "spaip": {
    "font_color": "ffffff7f",
    "font_name": "Cairo-Regular",
    "font_size": 118,
    "font_style": "underline",
    "isForked": true
  },
  "spaipad": {
    "font_color": "ffffff7f",
    "font_name": "Cairo-Regular",
    "font_size": 118,
    "font_style": "underline",
    "isForked": true
  },
  "spawindowstablet": {
    "font_color": "ffffff7f",
    "font_name": "Cairo-Regular",
    "font_size": 118,
    "font_style": "underline",
    "isForked": true
  },
  "spawinphone8": {
    "font_color": "ffffff7f",
    "font_name": "Cairo-Regular",
    "font_size": 118,
    "font_style": "underline",
    "isForked": true
  },
  "tabrcandroid": {
    "border_color": "424242ff",
    "border_style": "plain",
    "border_type": 0,
    "border_width": 0,
    "font_color": "ffffff7f",
    "font_name": "Cairo-Regular",
    "font_size": 118,
    "font_style": "underline",
    "isForked": true
  },
  "wType": "Label",
  "watchos": {
    "font_color": "ffffff7f",
    "font_name": "Cairo-Regular",
    "font_size": 118,
    "isForked": true
  },
  "windows8": {
    "border_color": "424242ff",
    "border_style": "plain",
    "border_type": 0,
    "border_width": 0,
    "font_color": "ffffff7f",
    "font_name": "GenericMonospace",
    "font_size": 118,
    "font_style": "underline",
    "isForked": true
  },
  "winphone8": {
    "border_color": "424242ff",
    "border_style": "plain",
    "border_type": 0,
    "border_width": 0,
    "font_color": "ffffff7f",
    "font_name": "GenericMonospace",
    "font_size": 118,
    "font_style": "underline",
    "isForked": true
  }
}