{
  "background_color": "00000000",
  "bg_type": "one",
  "border_color": "424242ff",
  "border_style": "plain",
  "border_type": 0,
  "border_width": 0,
  "font_color": "424242ff",
  "font_name": "Cairo-Regular",
  "font_size": 214,
  "font_style": "normal",
  "font_weight": "normal",
  "iphone": {
    "font_name": "BOJ-Phase-II"
  },
  "isDefaultSkin": false,
  "kuid": "sd027fd6c7df496d893939577eea11d4",
  "wType": "Label"
}