{
  "background_color": "072c4800",
  "bg_type": "one",
  "border_color": "000000ff",
  "border_style": "plain",
  "border_type": 0,
  "border_width": 0,
  "isDefaultSkin": false,
  "kuid": "sa3532fcd9f74594b999d57f56a11201",
  "wType": "FlexScrollContainer"
}