{
    "android": {
        "font_name": "Cairo-Regular",
        "font_size": 135,
        "isForked": false
    },
    "background_color": "ffffff00",
    "bg_type": "one",
    "border_color": "282828ff",
    "border_style": "plain",
    "border_type": 0,
    "border_width": 0,
    "desktopweb": {
        "font_name": "Cairo-Regular",
        "font_size": 135,
        "isForked": false
    },
    "fontSizeInPx": false,
    "font_color": "ffffffff",
    "font_name": "Cairo-Regular",
    "font_size": 135,
    "font_style": "normal",
    "font_weight": "normal",
    "ipad": {
        "font_name": "Cairo-Regular",
        "font_size": 135,
        "isForked": false
    },
    "iphone": {
        "font_name": "Cairo-Regular",
        "font_size": 135,
        "isForked": false
    },
    "isDefaultSkin": false,
    "kiosk": {
        "font_name": "GenericMonospace",
        "font_size": 135,
        "isForked": false
    },
    "kuid": "s5dc7ab5f2094c178f9df4b115ee49a4",
    "spaan": {
        "font_name": "Cairo-Regular",
        "font_size": 135,
        "isForked": false
    },
    "spaandroidtablet": {
        "font_name": "Cairo-Regular",
        "font_size": 135,
        "isForked": false
    },
    "spabb": {
        "font_name": "Cairo-Regular",
        "font_size": 135,
        "isForked": false
    },
    "spaip": {
        "font_name": "Cairo-Regular",
        "font_size": 135,
        "isForked": false
    },
    "spaipad": {
        "font_name": "Cairo-Regular",
        "font_size": 135,
        "isForked": false
    },
    "spawindowstablet": {
        "font_name": "Cairo-Regular",
        "font_size": 135,
        "isForked": false
    },
    "spawinphone8": {
        "font_name": "Cairo-Regular",
        "font_size": 135,
        "isForked": false
    },
    "tabrcandroid": {
        "font_name": "Cairo-Regular",
        "font_size": 135,
        "isForked": false
    },
    "wType": "TextField",
    "watchos": {
        "font_name": "Cairo-Regular",
        "font_size": 135,
        "isForked": false
    },
    "windows8": {
        "font_name": "GenericMonospace",
        "font_size": 135,
        "isForked": false
    },
    "winphone8": {
        "font_name": "GenericMonospace",
        "font_size": 135,
        "isForked": false
    }
}