{
    "background_color": "ffffff66",
    "bg_type": "one",
    "border_color": "000000ff",
    "border_style": "plain",
    "border_type": 0,
    "border_width": 0,
    "isDefaultSkin": false,
    "kuid": "sf303b8b84544d6b90ee79b602fda7ca",
    "wType": "FlexContainer"
}