{
  "background_color": "a7a7a7f4",
  "bg_type": "one",
  "border_color": "000000ff",
  "border_style": "plain",
  "border_type": 0,
  "border_width": 0,
  "isDefaultSkin": false,
  "kuid": "sfa7f115d30e4183ab3e347ebe6185c6",
  "wType": "Segment"
}