{
  "background_image": "accountt.png",
  "bg_type": "image",
  "border_color": "000000ff",
  "border_style": "plain",
  "border_type": 0,
  "border_width": 0,
  "isDefaultSkin": false,
  "kuid": "s25f97e780f44d36802792ab628b1ef9",
  "wType": "FlexScrollContainer"
}