{
  "background_color": "a7a7a700",
  "bg_type": "one",
  "border_color": "000000ff",
  "border_style": "plain",
  "border_type": 0,
  "border_width": 0,
  "isDefaultSkin": false,
  "kuid": "s8122beaea0d43fab188b2dbec12315d",
  "wType": "Segment"
}