{
  "background_color": "072c4800",
  "bg_type": "one",
  "border_color": "000000ff",
  "border_style": "plain",
  "border_type": 0,
  "border_width": 0,
  "isDefaultSkin": false,
  "kuid": "s580ca9eb7ba42efa11241b4e930b835",
  "wType": "FlexContainer"
}