{
  "background_image": "loanst.png",
  "bg_type": "image",
  "border_color": "000000ff",
  "border_style": "plain",
  "border_type": 0,
  "border_width": 0,
  "isDefaultSkin": false,
  "kuid": "s39208302d1e448986bc257be790cb17",
  "wType": "FlexContainer"
}