{
  "background_color": "2aa49aff",
  "bg_type": "one",
  "border_color": "000000ff",
  "border_style": "plain",
  "border_type": 0,
  "border_width": 0,
  "isDefaultSkin": false,
  "kuid": "sa7c897d171348e39cc3662479f3a599",
  "wType": "FlexContainer"
}