{
  "background_color": "05214a66",
  "bg_type": "one",
  "border_color": "000000ff",
  "border_style": "plain",
  "border_type": 0,
  "border_width": 0,
  "isDefaultSkin": false,
  "kuid": "s04290dbc0414bd3979cf2da5e8af7d3",
  "wType": "FlexContainer"
}