{
  "background_color": "858585ff",
  "bg_type": "one",
  "border_color": "000000ff",
  "border_style": "plain",
  "border_type": 0,
  "border_width": 0,
  "isDefaultSkin": false,
  "kuid": "s08663ccca5645689308fdba0a31c8e1",
  "wType": "FlexContainer"
}