{
  "background_color": "1a2980ff",
  "bg_type": "one",
  "border_color": "000000ff",
  "border_style": "plain",
  "border_type": 0,
  "border_width": 0,
  "isDefaultSkin": false,
  "kuid": "s6da540682a6495bb663c269b43ba52a",
  "wType": "FlexContainer"
}