{
  "background_color": "23d2cdfc",
  "bg_type": "one",
  "border_color": "23d2cdff",
  "border_radius": 50,
  "border_style": "custom",
  "border_type": 0,
  "border_width": 1,
  "font_color": "23d2cdff",
  "font_name": "Cairo-Regular",
  "font_size": 214,
  "font_style": "normal",
  "font_weight": "normal",
  "isDefaultSkin": false,
  "kuid": "se904c686bf64d8195ab4d061e99c3b6",
  "wType": "Label"
}