{
  "android": {
    "font_name": "Lato-Medium",
    "font_size": 93,
    "isForked": false
  },
  "background_color": "64a1d6ff",
  "bg_type": "one",
  "border_color": "64a1d6ff",
  "border_radius": 2,
  "border_style": "custom",
  "border_type": 0,
  "border_width": 1,
  "desktopweb": {
    "font_name": "Cairo-Regular",
    "font_size": 93,
    "isForked": false
  },
  "fontSizeInPx": false,
  "font_color": "ffffffff",
  "font_name": "Cairo-Regular",
  "font_size": 93,
  "font_style": "normal",
  "font_weight": "normal",
  "ipad": {
    "font_name": "Cairo-Regular",
    "font_size": 93,
    "isForked": false
  },
  "iphone": {
    "font_name": "Lato-Medium",
    "font_size": 93,
    "isForked": false
  },
  "isDefaultSkin": false,
  "kiosk": {
    "font_name": "GenericMonospace",
    "font_size": 93,
    "isForked": false
  },
  "kuid": "sb617486386c4d99a01363ea8100a037",
  "spaan": {
    "font_name": "Cairo-Regular",
    "font_size": 93,
    "isForked": false
  },
  "spaandroidtablet": {
    "font_name": "Cairo-Regular",
    "font_size": 93,
    "isForked": false
  },
  "spabb": {
    "font_name": "Cairo-Regular",
    "font_size": 93,
    "isForked": false
  },
  "spaip": {
    "font_name": "Cairo-Regular",
    "font_size": 93,
    "isForked": false
  },
  "spaipad": {
    "font_name": "Cairo-Regular",
    "font_size": 93,
    "isForked": false
  },
  "spawindowstablet": {
    "font_name": "Cairo-Regular",
    "font_size": 93,
    "isForked": false
  },
  "spawinphone8": {
    "font_name": "Cairo-Regular",
    "font_size": 93,
    "isForked": false
  },
  "tabrcandroid": {
    "font_name": "Cairo-Regular",
    "font_size": 93,
    "isForked": false
  },
  "wType": "Label",
  "watchos": {
    "font_name": "Cairo-Regular",
    "font_size": 93,
    "isForked": false
  },
  "windows8": {
    "font_name": "GenericMonospace",
    "font_size": 93,
    "isForked": false
  },
  "winphone8": {
    "font_name": "GenericMonospace",
    "font_size": 93,
    "isForked": false
  }
}