{
  "android": {
    "font_size": 71,
    "isForked": false
  },
  "background_color": "00000000",
  "bg_type": "one",
  "border_color": "424242ff",
  "border_style": "plain",
  "border_type": 0,
  "border_width": 0,
  "desktopweb": {
    "font_size": 71,
    "isForked": false
  },
  "fontSizeInPx": false,
  "font_color": "959595ff",
  "font_name": "Cairo-Regular",
  "font_size": 71,
  "font_style": "normal",
  "font_weight": "normal",
  "ipad": {
    "font_size": 71,
    "isForked": false
  },
  "iphone": {
    "font_name": "Lato-Regular",
    "font_size": 71,
    "isForked": false
  },
  "isDefaultSkin": false,
  "kiosk": {
    "font_size": 71,
    "isForked": false
  },
  "kuid": "sd5376fa22cd4151a151719b3ef38a90",
  "spaan": {
    "font_size": 71,
    "isForked": false
  },
  "spaandroidtablet": {
    "font_size": 71,
    "isForked": false
  },
  "spabb": {
    "font_size": 71,
    "isForked": false
  },
  "spaip": {
    "font_size": 71,
    "isForked": false
  },
  "spaipad": {
    "font_size": 71,
    "isForked": false
  },
  "spawindowstablet": {
    "font_size": 71,
    "isForked": false
  },
  "spawinphone8": {
    "font_size": 71,
    "isForked": false
  },
  "tabrcandroid": {
    "font_size": 71,
    "isForked": false
  },
  "wType": "Label",
  "watchos": {
    "font_size": 71,
    "isForked": false
  },
  "windows8": {
    "font_size": 71,
    "isForked": false
  },
  "winphone8": {
    "font_size": 71,
    "isForked": false
  }
}