{
  "android": {
    "font_name": "bojnewicons",
    "font_size": 140,
    "isForked": false
  },
  "background_color": "00000000",
  "bg_type": "one",
  "border_color": "fad903ff",
  "border_radius": 100,
  "border_style": "custom",
  "border_type": 0,
  "border_width": 1,
  "desktopweb": {
    "font_name": "Andale Mono",
    "font_size": 140,
    "isForked": false
  },
  "fontSizeInPx": false,
  "font_color": "fad903ff",
  "font_name": "Cairo-Regular",
  "font_size": 140,
  "font_style": "normal",
  "font_weight": "normal",
  "ipad": {
    "font_name": "AmericanTypewriter",
    "font_size": 140,
    "isForked": false
  },
  "iphone": {
    "font_name": "bojnewicons",
    "font_size": 140,
    "isForked": false
  },
  "isDefaultSkin": false,
  "kiosk": {
    "font_name": "GenericMonospace",
    "font_size": 140,
    "isForked": false
  },
  "kuid": "s56a406ce9a242c1a05e856def98a70a",
  "spaan": {
    "font_name": "Andale Mono",
    "font_size": 140,
    "isForked": false
  },
  "spaandroidtablet": {
    "font_name": "Andale Mono",
    "font_size": 140,
    "isForked": false
  },
  "spabb": {
    "font_name": "Andale Mono",
    "font_size": 140,
    "isForked": false
  },
  "spaip": {
    "font_name": "Andale Mono",
    "font_size": 140,
    "isForked": false
  },
  "spaipad": {
    "font_name": "Andale Mono",
    "font_size": 140,
    "isForked": false
  },
  "spawindowstablet": {
    "font_name": "Andale Mono",
    "font_size": 140,
    "isForked": false
  },
  "spawinphone8": {
    "font_name": "Andale Mono",
    "font_size": 140,
    "isForked": false
  },
  "tabrcandroid": {
    "font_name": "BOJ-Phase-II",
    "font_size": 140,
    "isForked": false
  },
  "wType": "Label",
  "watchos": {
    "font_name": "Cairo-Regular",
    "font_size": 140,
    "isForked": false
  },
  "windows8": {
    "font_name": "GenericMonospace",
    "font_size": 140,
    "isForked": false
  },
  "winphone8": {
    "font_name": "GenericMonospace",
    "font_size": 140,
    "isForked": false
  }
}