{
  "android": {
    "font_size": 79,
    "isForked": false
  },
  "background_color": "00000000",
  "bg_type": "one",
  "border_color": "424242ff",
  "border_style": "plain",
  "border_type": 0,
  "border_width": 0,
  "desktopweb": {
    "font_size": 79,
    "isForked": false
  },
  "fontSizeInPx": false,
  "font_color": "2d2d37ff",
  "font_name": "Cairo-Regular",
  "font_size": 79,
  "font_style": "normal",
  "font_weight": "normal",
  "ipad": {
    "font_size": 79,
    "isForked": false
  },
  "iphone": {
    "font_name": "Lato-Regular",
    "font_size": 79,
    "isForked": false
  },
  "isDefaultSkin": false,
  "kiosk": {
    "font_size": 79,
    "isForked": false
  },
  "kuid": "s9351f022eef484992d415124c5e478e",
  "spaan": {
    "font_size": 79,
    "isForked": false
  },
  "spaandroidtablet": {
    "font_size": 79,
    "isForked": false
  },
  "spabb": {
    "font_size": 79,
    "isForked": false
  },
  "spaip": {
    "font_size": 79,
    "isForked": false
  },
  "spaipad": {
    "font_size": 79,
    "isForked": false
  },
  "spawindowstablet": {
    "font_size": 79,
    "isForked": false
  },
  "spawinphone8": {
    "font_size": 79,
    "isForked": false
  },
  "tabrcandroid": {
    "font_size": 79,
    "isForked": false
  },
  "wType": "Label",
  "watchos": {
    "font_size": 79,
    "isForked": false
  },
  "windows8": {
    "font_size": 79,
    "isForked": false
  },
  "winphone8": {
    "font_size": 79,
    "isForked": false
  }
}