{
  "android": {
    "font_name": "BoJFont",
    "font_size": 70,
    "isForked": false
  },
  "background_color": "ffffffff",
  "bg_type": "one",
  "border_color": "42424200",
  "border_radius": 100,
  "border_style": "custom",
  "border_type": 0,
  "border_width": 1,
  "desktopweb": {
    "font_name": "Andale Mono",
    "font_size": 70,
    "isForked": false
  },
  "fontSizeInPx": false,
  "font_color": "052c49ff",
  "font_name": "Cairo-Regular",
  "font_size": 70,
  "font_style": "normal",
  "font_weight": "normal",
  "ipad": {
    "font_name": "AmericanTypewriter",
    "font_size": 70,
    "isForked": false
  },
  "iphone": {
    "font_name": "BoJFont",
    "font_size": 70,
    "isForked": false
  },
  "isDefaultSkin": false,
  "kiosk": {
    "font_name": "GenericMonospace",
    "font_size": 70,
    "isForked": false
  },
  "kuid": "sf13e4eba3fb43f088a41622f17aea8a",
  "spaan": {
    "font_name": "Andale Mono",
    "font_size": 70,
    "isForked": false
  },
  "spaandroidtablet": {
    "font_name": "Andale Mono",
    "font_size": 70,
    "isForked": false
  },
  "spabb": {
    "font_name": "Andale Mono",
    "font_size": 70,
    "isForked": false
  },
  "spaip": {
    "font_name": "Andale Mono",
    "font_size": 70,
    "isForked": false
  },
  "spaipad": {
    "font_name": "Andale Mono",
    "font_size": 70,
    "isForked": false
  },
  "spawindowstablet": {
    "font_name": "Andale Mono",
    "font_size": 70,
    "isForked": false
  },
  "spawinphone8": {
    "font_name": "Andale Mono",
    "font_size": 70,
    "isForked": false
  },
  "tabrcandroid": {
    "font_name": "BOJ-Phase-II",
    "font_size": 70,
    "isForked": false
  },
  "wType": "Label",
  "watchos": {
    "font_name": "Cairo-Regular",
    "font_size": 70,
    "isForked": false
  },
  "windows8": {
    "font_name": "GenericMonospace",
    "font_size": 70,
    "isForked": false
  },
  "winphone8": {
    "font_name": "GenericMonospace",
    "font_size": 70,
    "isForked": false
  }
}