{
  "background_color": "1a2980ff",
  "bg_type": "one",
  "border_color": "000000ff",
  "border_style": "plain",
  "border_type": 0,
  "border_width": 0,
  "isDefaultSkin": false,
  "kuid": "s5cbe3fe9f7f4b99bf6acdc89da18bc1",
  "wType": "FlexContainer"
}