{
  "background_color": "ffffffff",
  "bg_type": "one",
  "border_color": "00000019",
  "border_style": "plain",
  "border_type": 0,
  "border_width": 1,
  "isDefaultSkin": false,
  "kuid": "s0bde71f03c1421897e4beaff521fb4c",
  "wType": "FlexContainer"
}