{
  "android": {
    "border_color": "00000000",
    "border_style": "custom",
    "border_type": 0,
    "border_width": 1,
    "isForked": true
  },
  "background_color": "1a2980ff",
  "bg_type": "one",
  "border_color": "00000000",
  "border_radius": 100,
  "border_style": "custom",
  "border_type": 0,
  "border_width": 4,
  "desktopweb": {
    "bottom_left_border_color": "00000000",
    "bottom_left_border_style": "plain",
    "bottom_left_border_width": 4,
    "bottom_right_border_color": "00000000",
    "bottom_right_border_style": "plain",
    "bottom_right_border_width": 4,
    "isForked": true,
    "shadow": {
      "br": 2,
      "color": "a1a1a1ff",
      "inner": false,
      "nm": 0,
      "x": 0,
      "y": 0
    },
    "top_left_border_color": "00000000",
    "top_left_border_style": "plain",
    "top_left_border_width": 4,
    "top_right_border_color": "00000000",
    "top_right_border_style": "plain",
    "top_right_border_width": 4
  },
  "ipad": {
    "border_color": "00000000",
    "border_style": "custom",
    "border_type": 0,
    "border_width": 1,
    "isForked": true,
    "shadow": {
      "br": 2,
      "color": "a1a1a1ff",
      "inner": false,
      "nm": 0,
      "x": 0,
      "y": 0
    }
  },
  "iphone": {
    "border_color": "00000000",
    "border_style": "custom",
    "border_type": 0,
    "border_width": 1,
    "isForked": true,
    "shadow": {
      "br": 2,
      "color": "a1a1a1ff",
      "inner": false,
      "nm": 0,
      "x": 0,
      "y": 0
    }
  },
  "isDefaultSkin": false,
  "kiosk": {
    "border_color": "00000000",
    "border_style": "custom",
    "border_type": 0,
    "border_width": 1,
    "isForked": true
  },
  "kuid": "sa3d7c180a0a43908a22a39f6fe81559",
  "spaan": {
    "bottom_left_border_color": "00000000",
    "bottom_left_border_style": "plain",
    "bottom_left_border_width": 4,
    "bottom_right_border_color": "00000000",
    "bottom_right_border_style": "plain",
    "bottom_right_border_width": 4,
    "isForked": true,
    "shadow": {
      "br": 2,
      "color": "a1a1a1ff",
      "inner": false,
      "nm": 0,
      "x": 0,
      "y": 0
    },
    "top_left_border_color": "00000000",
    "top_left_border_style": "plain",
    "top_left_border_width": 4,
    "top_right_border_color": "00000000",
    "top_right_border_style": "plain",
    "top_right_border_width": 4
  },
  "spaandroidtablet": {
    "bottom_left_border_color": "00000000",
    "bottom_left_border_style": "plain",
    "bottom_left_border_width": 4,
    "bottom_right_border_color": "00000000",
    "bottom_right_border_style": "plain",
    "bottom_right_border_width": 4,
    "isForked": true,
    "shadow": {
      "br": 2,
      "color": "a1a1a1ff",
      "inner": false,
      "nm": 0,
      "x": 0,
      "y": 0
    },
    "top_left_border_color": "00000000",
    "top_left_border_style": "plain",
    "top_left_border_width": 4,
    "top_right_border_color": "00000000",
    "top_right_border_style": "plain",
    "top_right_border_width": 4
  },
  "spabb": {
    "bottom_left_border_color": "00000000",
    "bottom_left_border_style": "plain",
    "bottom_left_border_width": 4,
    "bottom_right_border_color": "00000000",
    "bottom_right_border_style": "plain",
    "bottom_right_border_width": 4,
    "isForked": true,
    "shadow": {
      "br": 2,
      "color": "a1a1a1ff",
      "inner": false,
      "nm": 0,
      "x": 0,
      "y": 0
    },
    "top_left_border_color": "00000000",
    "top_left_border_style": "plain",
    "top_left_border_width": 4,
    "top_right_border_color": "00000000",
    "top_right_border_style": "plain",
    "top_right_border_width": 4
  },
  "spaip": {
    "bottom_left_border_color": "00000000",
    "bottom_left_border_style": "plain",
    "bottom_left_border_width": 4,
    "bottom_right_border_color": "00000000",
    "bottom_right_border_style": "plain",
    "bottom_right_border_width": 4,
    "isForked": true,
    "shadow": {
      "br": 2,
      "color": "a1a1a1ff",
      "inner": false,
      "nm": 0,
      "x": 0,
      "y": 0
    },
    "top_left_border_color": "00000000",
    "top_left_border_style": "plain",
    "top_left_border_width": 4,
    "top_right_border_color": "00000000",
    "top_right_border_style": "plain",
    "top_right_border_width": 4
  },
  "spaipad": {
    "bottom_left_border_color": "00000000",
    "bottom_left_border_style": "plain",
    "bottom_left_border_width": 4,
    "bottom_right_border_color": "00000000",
    "bottom_right_border_style": "plain",
    "bottom_right_border_width": 4,
    "isForked": true,
    "shadow": {
      "br": 2,
      "color": "a1a1a1ff",
      "inner": false,
      "nm": 0,
      "x": 0,
      "y": 0
    },
    "top_left_border_color": "00000000",
    "top_left_border_style": "plain",
    "top_left_border_width": 4,
    "top_right_border_color": "00000000",
    "top_right_border_style": "plain",
    "top_right_border_width": 4
  },
  "spawindowstablet": {
    "bottom_left_border_color": "00000000",
    "bottom_left_border_style": "plain",
    "bottom_left_border_width": 4,
    "bottom_right_border_color": "00000000",
    "bottom_right_border_style": "plain",
    "bottom_right_border_width": 4,
    "isForked": true,
    "shadow": {
      "br": 2,
      "color": "a1a1a1ff",
      "inner": false,
      "nm": 0,
      "x": 0,
      "y": 0
    },
    "top_left_border_color": "00000000",
    "top_left_border_style": "plain",
    "top_left_border_width": 4,
    "top_right_border_color": "00000000",
    "top_right_border_style": "plain",
    "top_right_border_width": 4
  },
  "spawinphone8": {
    "bottom_left_border_color": "00000000",
    "bottom_left_border_style": "plain",
    "bottom_left_border_width": 4,
    "bottom_right_border_color": "00000000",
    "bottom_right_border_style": "plain",
    "bottom_right_border_width": 4,
    "isForked": true,
    "shadow": {
      "br": 2,
      "color": "a1a1a1ff",
      "inner": false,
      "nm": 0,
      "x": 0,
      "y": 0
    },
    "top_left_border_color": "00000000",
    "top_left_border_style": "plain",
    "top_left_border_width": 4,
    "top_right_border_color": "00000000",
    "top_right_border_style": "plain",
    "top_right_border_width": 4
  },
  "tabrcandroid": {
    "border_color": "00000000",
    "border_style": "custom",
    "border_type": 0,
    "border_width": 1,
    "isForked": true
  },
  "wType": "FlexContainer",
  "windows8": {
    "border_color": "00000000",
    "border_style": "custom",
    "border_type": 0,
    "border_width": 1,
    "isForked": true
  },
  "winphone8": {
    "border_color": "00000000",
    "border_style": "custom",
    "border_type": 0,
    "border_width": 1,
    "isForked": true
  }
}