{
  "background_color": "f7f7f7ff",
  "bg_type": "one",
  "border_color": "000000ff",
  "border_style": "plain",
  "border_type": 0,
  "border_width": 0,
  "isDefaultSkin": false,
  "kuid": "sa3ac81ef47a42deaaadcfebf7753e02",
  "wType": "FlexContainer"
}