{
  "background_color": "ffffff00",
  "bg_type": "one",
  "border_color": "282828ff",
  "border_style": "plain",
  "border_type": 0,
  "border_width": 0,
  "font_color": "555555ff",
  "font_name": "Cairo-Regular",
  "font_size": 126,
  "font_style": "normal",
  "font_weight": "normal",
  "isDefaultSkin": false,
  "kuid": "s42dbb4e962f46e7bb51b74cb28867d1",
  "wType": "TextField"
}