{
  "background_color": "d9d9d9ff",
  "bg_type": "one",
  "border_color": "000000ff",
  "border_style": "plain",
  "border_type": 0,
  "border_width": 0,
  "isDefaultSkin": false,
  "kuid": "s95cc771c36646088cc3315f9fbbc1b5",
  "wType": "FlexContainer"
}