{
  "background_color": "37b0d4ff",
  "bg_type": "one",
  "border_color": "000000ff",
  "border_style": "plain",
  "border_type": 0,
  "border_width": 0,
  "isDefaultSkin": false,
  "kuid": "s254f445a7b943b4a00f9f9e65cfb484",
  "wType": "FlexContainer"
}