{
  "background_color": "fafafaff",
  "bg_type": "one",
  "border_color": "000000ff",
  "border_style": "plain",
  "border_type": 0,
  "border_width": 0,
  "isDefaultSkin": false,
  "kuid": "s3fa3611e32a4b05830c7f4863570800",
  "wType": "FlexContainer"
}