{
  "background_color": "d4d2d4ff",
  "bg_type": "one",
  "border_color": "d4d2d4ff",
  "border_style": "plain",
  "border_type": 0,
  "border_width": 0,
  "isDefaultSkin": false,
  "kuid": "s19680016b8a440da6723b5861308acb",
  "wType": "FlexContainer"
}