{
  "background_color": "f7f7f7ff",
  "bg_type": "one",
  "border_color": "000000ff",
  "border_style": "plain",
  "border_type": 0,
  "border_width": 0,
  "isDefaultSkin": false,
  "kuid": "sec0ae2e5802454c9647db0fe7003e9c",
  "wType": "Form"
}