{
  "background_color": "00000000",
  "bg_type": "one",
  "border_color": "ffffffff",
  "border_radius": 100,
  "border_style": "custom",
  "border_type": 0,
  "border_width": 2,
  "isDefaultSkin": false,
  "kuid": "s00eb99f2b0b400483f68c746a7f7699",
  "wType": "FlexContainer"
}