{
  "background_color": "56a9ddff",
  "bg_type": "one",
  "border_color": "56a9ddff",
  "border_style": "rc",
  "border_type": 0,
  "border_width": 1,
  "isDefaultSkin": false,
  "kuid": "s476b8e157f04374b8b0d9ff411c6849",
  "wType": "FlexContainer"
}