{
  "android": {
    "border_color": "d0021bff",
    "border_style": "plain",
    "border_width": 1,
    "isForked": true
  },
  "background_color": "d0021bff",
  "bg_type": "one",
  "border_color": "d0021bff",
  "border_style": "plain",
  "border_type": 0,
  "border_width": 5,
  "iphone": {
    "background_color": "e2e2e2ff",
    "bg_type": "one",
    "border_color": "d0021bff",
    "border_style": "plain",
    "border_width": 1,
    "isForked": true
  },
  "isDefaultSkin": false,
  "kuid": "s16def21abdc4edc97dae41106558c38",
  "wType": "FlexContainer"
}