{
  "background_color": "f9f9f97f",
  "bg_type": "one",
  "border_color": "000000ff",
  "border_style": "plain",
  "border_type": 0,
  "border_width": 0,
  "isDefaultSkin": false,
  "kuid": "s418b495830d450486c10f85e02af301",
  "wType": "FlexContainer"
}