{
  "background_color": "557c99ff",
  "bg_type": "one",
  "border_color": "557c99ff",
  "border_style": "rc",
  "border_type": 0,
  "border_width": 1,
  "isDefaultSkin": false,
  "kuid": "sa911937352a48de802e5b7b78e6b5da",
  "wType": "FlexContainer"
}