{
  "background_color": "ffffff00",
  "bg_type": "one",
  "border_color": "e2e2e2ff",
  "border_style": "plain",
  "border_type": 0,
  "border_width": 0,
  "isDefaultSkin": false,
  "kuid": "sf03702e4652451fbf3e75009f54c687",
  "wType": "FlexContainer"
}