{
  "background_color": "37b0d4ff",
  "bg_type": "one",
  "border_color": "37b0d4ff",
  "border_radius": 100,
  "border_style": "custom",
  "border_type": 0,
  "border_width": 1,
  "isDefaultSkin": false,
  "kuid": "se78136011a74fc6be600c5126320262",
  "wType": "FlexContainer"
}