{
  "android": {
    "font_name": "Lato-Medium",
    "font_size": 114,
    "isForked": false
  },
  "background_color": "f7f7f7ff",
  "bg_type": "one",
  "border_color": "424242ff",
  "border_style": "plain",
  "border_type": 0,
  "border_width": 0,
  "desktopweb": {
    "font_name": "Cairo-Regular",
    "font_size": 114,
    "isForked": false
  },
  "fontSizeInPx": false,
  "font_color": "d0021bff",
  "font_name": "",
  "font_size": 114,
  "font_style": "normal",
  "font_weight": "normal",
  "ipad": {
    "font_name": "Lato-Medium",
    "font_size": 114,
    "isForked": false
  },
  "iphone": {
    "font_name": "Lato-Medium",
    "font_size": 114,
    "isForked": false
  },
  "isDefaultSkin": false,
  "kiosk": {
    "font_name": "GenericMonospace",
    "font_size": 114,
    "isForked": false
  },
  "kuid": "scfb17a054b641829abf89d07f4d9d7d",
  "spaan": {
    "font_name": "Cairo-Regular",
    "font_size": 114,
    "isForked": false
  },
  "spaandroidtablet": {
    "font_name": "Cairo-Regular",
    "font_size": 114,
    "isForked": false
  },
  "spabb": {
    "font_name": "Cairo-Regular",
    "font_size": 114,
    "isForked": false
  },
  "spaip": {
    "font_name": "Cairo-Regular",
    "font_size": 114,
    "isForked": false
  },
  "spaipad": {
    "font_name": "Cairo-Regular",
    "font_size": 114,
    "isForked": false
  },
  "spawindowstablet": {
    "font_name": "Cairo-Regular",
    "font_size": 114,
    "isForked": false
  },
  "spawinphone8": {
    "font_name": "Cairo-Regular",
    "font_size": 114,
    "isForked": false
  },
  "tabrcandroid": {
    "font_name": "Lato-Medium",
    "font_size": 114,
    "isForked": false
  },
  "wType": "Label",
  "watchos": {
    "font_size": 114,
    "isForked": false
  },
  "windows8": {
    "font_name": "GenericMonospace",
    "font_size": 114,
    "isForked": false
  },
  "winphone8": {
    "font_name": "GenericMonospace",
    "font_size": 114,
    "isForked": false
  }
}