{
  "background_color": "ffc3a6ff",
  "bg_type": "one",
  "border_color": "ffc3a6ff",
  "border_style": "plain",
  "border_type": 0,
  "border_width": 1,
  "font_color": "424242ff",
  "font_name": "Cairo-Regular",
  "font_size": 214,
  "font_style": "normal",
  "font_weight": "normal",
  "isDefaultSkin": false,
  "kuid": "s2d58bad8cb6417383f5994789bbe22d",
  "wType": "Label"
}