{
  "background_color": "e2e2e2ff",
  "bg_type": "one",
  "border_color": "e2e2e2ff",
  "border_style": "plain",
  "border_type": 0,
  "border_width": 1,
  "isDefaultSkin": false,
  "kuid": "s5452a698f1b41a0a044900641e433eb",
  "wType": "FlexContainer"
}