{
  "background_color": "ffffff66",
  "bg_type": "one",
  "border_color": "ffffff00",
  "border_style": "rc",
  "border_type": 0,
  "border_width": 1,
  "isDefaultSkin": false,
  "kuid": "s4f1d9eac1894b969ade0efc787c77e1",
  "wType": "FlexContainer"
}