{
  "android": {
    "background_image": "loanst.png",
    "bg_type": "image"
  },
  "background_image": "loanst.png",
  "bg_type": "image",
  "border_color": "000000ff",
  "border_style": "plain",
  "border_type": 0,
  "border_width": 0,
  "iphone": {
    "background_image": "loanst.png",
    "bg_type": "image"
  },
  "isDefaultSkin": false,
  "kuid": "s33c2b827d6745b5a56322e35bc3c999",
  "wType": "FlexScrollContainer"
}