{
  "background_color": "ffffffff",
  "bg_type": "one",
  "border_color": "e2e2e2ff",
  "border_style": "plain",
  "border_type": 0,
  "border_width": 0,
  "isDefaultSkin": false,
  "kuid": "sd9b412f3dbf437fbc39b0001f08338a",
  "wType": "FlexContainer"
}