{
  "background_color": "e2e2e270",
  "bg_type": "one",
  "border_color": "000000ff",
  "border_style": "plain",
  "border_type": 0,
  "border_width": 0,
  "isDefaultSkin": false,
  "kuid": "s41b8d5154b444e89fc37ffd25161530",
  "wType": "FlexContainer"
}