{
  "background_color": "2cafd670",
  "bg_type": "one",
  "border_color": "000000ff",
  "border_style": "plain",
  "border_type": 0,
  "border_width": 0,
  "isDefaultSkin": false,
  "kuid": "sbe5e3245e6f453ebe8b1dbff3c520a4",
  "wType": "FlexContainer"
}