{
  "background_color": "00000000",
  "bg_type": "one",
  "border_color": "072c4800",
  "border_radius": 100,
  "border_style": "custom",
  "border_type": 0,
  "border_width": 1,
  "isDefaultSkin": false,
  "kuid": "s093e6c4ee1b488784f37d7e9fcea0e3",
  "wType": "VBox"
}