{
  "background_color": "f6c53fff",
  "bg_type": "one",
  "border_color": "f6c53fff",
  "border_radius": 50,
  "border_style": "custom",
  "border_type": 0,
  "border_width": 1,
  "font_color": "f6c53fff",
  "font_name": "Cairo-Regular",
  "font_size": 214,
  "font_style": "normal",
  "font_weight": "normal",
  "isDefaultSkin": false,
  "kuid": "sacf0c5a24534ab9a48584dbe9671e3c",
  "wType": "Label"
}