{
    "@class": "com.kony.gen.viz.model.component.KVizTextBox2",
    "DNDConfig": null,
    "__parentReadjusting__": false,
    "_bottom_": {
        "type": "string",
        "value": "1%"
    },
    "_height_": {
        "type": "string",
        "value": "60%"
    },
    "_margin_": [
        0,
        0,
        0,
        0
    ],
    "_padding_": [
        0,
        0,
        0,
        0
    ],
    "_placeholder_": "",
    "_skin_": "s029998596d3421892d0917ea7492e1d",
    "_text_": "",
    "_width_": {
        "type": "string",
        "value": "90%"
    },
    "android": {
        "onBeginEditing": "AS_TextField_0ec8acaeaaa8431fab61144b4f8d1810",
        "psp": {
            "keyboardActionLabel": 1
        }
    },
    "autocapitalize": "none",
    "autocomplete": false,
    "autocorrect": false,
    "autofilter": false,
    "canUpdateUI": true,
    "centerx": {
        "type": "string",
        "value": "50%"
    },
    "closebuttontext": "Done",
    "containerheight": "",
    "containerheightmode": 1,
    "containerweight": 100,
    "contentalignment": 4,
    "enabled": false,
    "focusskin": "s029998596d3421892d0917ea7492e1d",
    "id": "txtState",
    "ide_onTouchEnd": "AS_TextField_bea7af23e8fe4318aa64634e1feb3fd1",
    "info": null,
    "iphone": {
        "onBeginEditing": "AS_TextField_32ddb481785c4a579adf600bb4a4d307",
        "psp": {
            "keyboardActionLabel": 1,
            "showClearButton": true,
            "showCloseButton": false,
            "showProgressIndicator": false
        }
    },
    "isvisible": true,
    "keyboardactionlabel": 1,
    "keyboardtype": "A",
    "kuid": "h2eb84a4673547e99ed4ed5f3705c604",
    "mode": "A",
    "name": "kony.ui.TextBox2",
    "ondone": "AS_TextField_ddebbadfde0d4ca9b4bdec27efc8708e",
    "parent": "flxState",
    "pf": "frmUserSettingsMyProfileKA",
    "placeholderskin": "sfa36c5ffd8f4b39894ae352f59c3406",
    "securetextentry": false,
    "showclearbutton": true,
    "showclosebutton": false,
    "showoprogressindicator": false,
    "textinputmode": "A",
    "viewtype": "default",
    "wType": "TextField",
    "zindex": 20
}