{
    "@class": "com.kony.gen.viz.model.component.KVizButton",
    "DNDConfig": null,
    "__parentReadjusting__": false,
    "_height_": {
        "type": "string",
        "value": "50dp"
    },
    "_margin_": [
        6,
        6,
        6,
        6
    ],
    "_padding_": [
        0,
        0,
        0,
        14
    ],
    "_skin_": "s7a8068a835c44dab75d379494b13a94",
    "_text_": "i",
    "_width_": {
        "type": "string",
        "value": "100%"
    },
    "canUpdateUI": true,
    "centerx": {
        "type": "string",
        "value": "50%"
    },
    "centery": {
        "type": "string",
        "value": "50%"
    },
    "containerweight": 100,
    "contentalignment": 5,
    "disabledSkins": {},
    "displaytext": true,
    "focusskin": "sd291eaf83084ea781b9988b6f1fc66d",
    "id": "btnPayment",
    "info": null,
    "isvisible": true,
    "kuid": "gab0cf79af284e0ab7c9fda77076fa7c",
    "name": "kony.ui.Button",
    "paddinginpixel": false,
    "parent": "FlxPayment",
    "pf": "frmAddExternalAccountHome",
    "wType": "Button",
    "zindex": 1
}