{
    "@class": "com.kony.gen.viz.model.component.KVizLabel",
    "DNDConfig": null,
    "__parentReadjusting__": false,
    "_height_": {
        "type": "ref",
        "value": "preferred"
    },
    "_left_": {
        "type": "string",
        "value": "2.00%"
    },
    "_margin_": [
        1,
        1,
        1,
        1
    ],
    "_padding_": [
        2,
        0,
        0,
        0
    ],
    "_skin_": "s2b0e438cef942759c2ef6ae2b59dc7b",
    "_text_": "",
    "_top_": {
        "type": "string",
        "value": "53.71%"
    },
    "_width_": {
        "type": "ref",
        "value": "preferred"
    },
    "_wrapping_": 2,
    "android": {
        "textStyle": {
            "letterSpacing": 0,
            "strikeThrough": false
        }
    },
    "canUpdateUI": true,
    "containerweight": 100,
    "contentalignment": 4,
    "id": "lblAliasTitle",
    "info": null,
    "ipad": {
        "psp": {
            "wrapping": 2
        }
    },
    "iphone": {
        "psp": {
            "wrapping": 2
        }
    },
    "isvisible": true,
    "kuid": "bc238a57ecf94eeb8c72fcb2b641b13e",
    "name": "kony.ui.Label",
    "paddinginpixel": false,
    "parent": "flxAlias",
    "pf": "frmIPSRegistration",
    "texti18n": "i18n.jomopay.mobiletype",
    "textstyle": {},
    "tooltip": "",
    "wType": "Label",
    "zindex": 1
}