{
    "@class": "com.kony.gen.viz.model.component.KVizImage2",
    "DNDConfig": null,
    "__markedForDelete__": true,
    "__parentReadjusting__": false,
    "_base64_": null,
    "_height_": {
        "type": "string",
        "value": "40dp"
    },
    "_margin_": [
        0,
        0,
        0,
        0
    ],
    "_padding_": [
        0,
        0,
        0,
        0
    ],
    "_right_": {
        "type": "string",
        "value": "10dp"
    },
    "_skin_": "s2f60c8f995e4f4c824a4bf91d818ce0",
    "_src_": "close_ad.png",
    "_top_": {
        "type": "string",
        "value": "10dp"
    },
    "_width_": {
        "type": "string",
        "value": "40dp"
    },
    "canUpdateUI": true,
    "containerweight": 100,
    "context": {
        "channel": "mobile",
        "formID": "frmPostLoginAdvertisementKA",
        "platform": "iphone",
        "templateType": "forms",
        "topLevelBox": null
    },
    "id": "imgCloseKA",
    "ide_onTouchStart": "AS_Image_cb719b06727643bb8799a40b14e7509d",
    "imagescalemode": 1,
    "info": null,
    "invokedProperty": "src",
    "isvisible": true,
    "kuid": "e04689eef5614815af016c7f7c0de4dc",
    "name": "kony.ui.Image2",
    "parent": "flxPostLoginAdvertisementKA",
    "pf": "frmPostLoginAdvertisementKA",
    "srcType": 1,
    "wType": "Image",
    "widgetalignment": 5,
    "zindex": 20
}