{
    "@class": "com.kony.gen.viz.model.component.KVizButton",
    "DNDConfig": null,
    "__parentReadjusting__": false,
    "_height_": {
        "type": "string",
        "value": "50dp"
    },
    "_margin_": [
        6,
        6,
        6,
        6
    ],
    "_padding_": [
        0,
        0,
        0,
        0
    ],
    "_skin_": "s51d68053cae4eba826625de179be4ae",
    "_text_": "",
    "_top_": {
        "type": "string",
        "value": "10dp"
    },
    "_width_": {
        "type": "string",
        "value": "260dp"
    },
    "canUpdateUI": true,
    "centerx": {
        "type": "string",
        "value": "50%"
    },
    "containerweight": 100,
    "contentalignment": 5,
    "displaytext": true,
    "focusskin": "s51d68053cae4eba826625de179be4ae",
    "id": "btnGetDirection",
    "ide_onClick": "AS_Button_j0559aa0337f4e4c8d38d052cc08e773",
    "info": null,
    "isvisible": true,
    "kuid": "cafc808dfde544c2952ae41e9ae46547",
    "name": "kony.ui.Button",
    "paddinginpixel": false,
    "parent": "flxLocationDetails",
    "pf": "frmLocationDetailsKA",
    "texti18n": "i18n.locateus.getDirections",
    "wType": "Button",
    "zindex": 1
}