{
    "DNDConfig": null,
    "__parentReadjusting__": false,
    "_height_": {
        "type": "ref",
        "value": "preferred"
    },
    "_left_": {
        "type": "string",
        "value": "0dp"
    },
    "_margin_": [
        0,
        0,
        0,
        0
    ],
    "_padding_": [
        0,
        0,
        0,
        0
    ],
    "_render_": true,
    "_skin_": "s5449e85b7e0472ba7d4939096f3873d",
    "_top_": {
        "type": "string",
        "value": "1%"
    },
    "_width_": {
        "type": "string",
        "value": "100%"
    },
    "allboxes": [],
    "android": {
        "render": true
    },
    "autogrowmode": 1,
    "canUpdateUI": true,
    "children": [
        "lblNameTitle",
        "lblName",
        "segmentBorderBottomAndroid",
        "lblTypeTitle",
        "lblType",
        "CopysegmentBorderBottomAndroid0a046ebf4199d49",
        "lblMobile",
        "lblMobileNumber",
        "flxTeleBorder",
        "lblExt",
        "lblExtVal",
        "flxextBorder",
        "lblFax",
        "lblFaxVal",
        "flxFaxBorder",
        "lblAddress1Title",
        "lblAddressLine1",
        "CopysegmentBorderBottomAndroid0bab0b7b3cf6242",
        "lblAddress2Title",
        "lblAddressLine2",
        "CopysegmentBorderBottomAndroid0d29b652b34754b",
        "lblCityTitle",
        "lblCity",
        "CopysegmentBorderBottomAndroid0a1acc80b506f4b",
        "btnGetDirection",
        "CopysegmentBorderBottomAndroid0g7be49665e5743"
    ],
    "clipbounds": true,
    "containerweight": 100,
    "enabled": false,
    "enablescrolling": true,
    "id": "flxLocationDetails",
    "info": null,
    "iphone": {
        "render": true
    },
    "isvisible": true,
    "kuid": "h64a34d0b1724c52812e69932f9ea8ba",
    "layouttype": 4,
    "name": "kony.ui.FlexContainer",
    "orientation": 6,
    "parent": "mainContent",
    "percent": true,
    "pf": "frmLocationDetailsKA",
    "snapgridsize": 10,
    "snaptogrid": true,
    "spaan": {
        "render": true
    },
    "spabb": {
        "render": false
    },
    "spaip": {
        "render": true
    },
    "spawinphone8": {
        "render": false
    },
    "wType": "FlexContainer",
    "widgetalignment": 1,
    "winphone8": {
        "render": false
    },
    "zindex": 1
}