{
    "DNDConfig": null,
    "__parentReadjusting__": false,
    "_height_": {
        "type": "string",
        "value": "65dp"
    },
    "_left_": {
        "type": "string",
        "value": "0dp"
    },
    "_margin_": [
        0,
        0,
        0,
        0
    ],
    "_orientation_": 6,
    "_padding_": [
        0,
        0,
        0,
        0
    ],
    "_percent_": true,
    "_skin_": "s4532e4d9f124e7aad681041caa44434",
    "_top_": {
        "type": "string",
        "value": "0dp"
    },
    "_width_": {
        "type": "string",
        "value": "100%"
    },
    "allboxes": [],
    "autogrowmode": 0,
    "canUpdateUI": true,
    "children": [
        "lblTransName",
        "lblTransDate",
        "lblTransAmount",
        "lblTransId",
        "Button0hf394843f2a54f",
        "lblNoData"
    ],
    "clipbounds": true,
    "containerId": true,
    "containerweight": 100,
    "enablescrolling": true,
    "id": "flxTrans",
    "info": null,
    "isTemplate": true,
    "isvisible": true,
    "kuid": "bdc8a6c6aee04cba9b0d8e6d65e0ee87",
    "layouttype": 2,
    "name": "kony.ui.FlexContainer",
    "parent": "tmpSegAccountsTran",
    "pf": "tmpSegAccountsTran",
    "snapgridsize": 10,
    "snaptogrid": true,
    "wType": "FlexContainer",
    "widgetalignment": 1,
    "zindex": 1
}