{
    "@class": "com.kony.gen.viz.model.component.KVizButton",
    "DNDConfig": null,
    "__parentReadjusting__": false,
    "_height_": {
        "type": "string",
        "value": "10%"
    },
    "_margin_": [
        6,
        6,
        6,
        6
    ],
    "_padding_": [
        0,
        0,
        0,
        0
    ],
    "_skin_": "sf7766faf6e34d0789442a84c1e76e1a",
    "_text_": "Update ATM/POS Limit",
    "_width_": {
        "type": "string",
        "value": "70%"
    },
    "canUpdateUI": true,
    "centerx": {
        "type": "string",
        "value": "50%"
    },
    "centery": {
        "type": "string",
        "value": "90%"
    },
    "containerweight": 100,
    "contentalignment": 5,
    "displaytext": true,
    "focusskin": "sad5d6d4890b44858a39e4bf8a290332",
    "id": "btnUpdateLimit",
    "ide_onClick": "AS_Button_g3dd2d9ed8a2424cb3172aa17f54f678",
    "info": null,
    "isvisible": true,
    "kuid": "cabd711060d249428464ffbcbd6a2d59",
    "name": "kony.ui.Button",
    "parent": "flxBody",
    "pf": "frmATMPOSLimit",
    "texti18n": "i18n.atmpos.updatelimit",
    "wType": "Button",
    "zindex": 1
}