{
    "@class": "com.kony.gen.viz.model.component.KVizLabel",
    "DNDConfig": null,
    "__parentReadjusting__": false,
    "_height_": {
        "type": "string",
        "value": "50%"
    },
    "_left_": {
        "type": "string",
        "value": "8%"
    },
    "_margin_": [
        1,
        1,
        1,
        1
    ],
    "_padding_": [
        0,
        0,
        0,
        0
    ],
    "_skin_": "s2b0e438cef942759c2ef6ae2b59dc7b",
    "_text_": "Paid Amount",
    "_top_": {
        "type": "string",
        "value": "0dp"
    },
    "_width_": {
        "type": "string",
        "value": "90%"
    },
    "_wrapping_": 2,
    "android": {
        "textStyle": {
            "letterSpacing": 0,
            "strikeThrough": false
        }
    },
    "canUpdateUI": true,
    "containerweight": 100,
    "contentalignment": 7,
    "id": "CopylblConfirmEmailTitle0ad38e28e71194e",
    "info": null,
    "ipad": {
        "psp": {
            "wrapping": 2
        }
    },
    "iphone": {
        "psp": {
            "wrapping": 2
        }
    },
    "isvisible": true,
    "kuid": "b163c7e4e03a4f7a84a0b1534529550e",
    "name": "kony.ui.Label",
    "parent": "flxAmount",
    "pf": "frmConfirmPrePayBill",
    "texti18n": "i18n.bills.PaidAmount",
    "tooltip": "",
    "wType": "Label",
    "zindex": 1
}