{
    "@class": "com.kony.gen.viz.model.component.KVizButton",
    "DNDConfig": null,
    "__parentReadjusting__": false,
    "_height_": {
        "type": "string",
        "value": "100%"
    },
    "_left_": {
        "type": "string",
        "value": "0%"
    },
    "_margin_": [
        6,
        6,
        6,
        6
    ],
    "_padding_": [
        0,
        0,
        0,
        0
    ],
    "_skin_": "s0f488b2579d4b13b20ae12b51e6d9ca",
    "_text_": "",
    "_top_": {
        "type": "string",
        "value": "0%"
    },
    "_width_": {
        "type": "string",
        "value": "33%"
    },
    "canUpdateUI": true,
    "containerweight": 100,
    "contentalignment": 5,
    "displaytext": true,
    "focusskin": "s0f488b2579d4b13b20ae12b51e6d9ca",
    "id": "btnNews",
    "ide_onClick": "AS_Button_j4b6098d4bf54cfd9f94c42bf01e06cb",
    "info": null,
    "isvisible": true,
    "kuid": "j5f725103b3843179ce5bd9a7dcbe359",
    "name": "kony.ui.Button",
    "paddinginpixel": false,
    "parent": "searchInformation",
    "pf": "frmInformationKA",
    "texti18n": "i18n.info.newsSegment.news",
    "wType": "Button",
    "zindex": 2
}