{
    "@class": "com.kony.gen.viz.model.component.KVizLabel",
    "DNDConfig": null,
    "__parentReadjusting__": false,
    "_height_": {
        "type": "string",
        "value": "45dp"
    },
    "_left_": {
        "type": "string",
        "value": "61%"
    },
    "_margin_": [
        1,
        1,
        1,
        1
    ],
    "_padding_": [
        0,
        0,
        0,
        0
    ],
    "_skin_": "sa518e2b56e34e55985fd09636f2a6e6",
    "_text_": "U",
    "_top_": {
        "type": "string",
        "value": "2dp"
    },
    "_width_": {
        "type": "string",
        "value": "12%"
    },
    "_wrapping_": 2,
    "android": {
        "textStyle": {
            "letterSpacing": 0,
            "strikeThrough": false
        }
    },
    "canUpdateUI": true,
    "containerweight": 100,
    "contentalignment": 5,
    "id": "lblYoutube",
    "ide_onTouchEnd": "AS_Label_h5fe92477a3a47bbac91fa121e90efea",
    "info": null,
    "ipad": {
        "psp": {
            "wrapping": 2
        }
    },
    "iphone": {
        "psp": {
            "wrapping": 2
        }
    },
    "iscustomlayout": true,
    "isvisible": true,
    "kuid": "id55a52b6c664b568fbf2eac01b67aa3",
    "name": "kony.ui.Label",
    "parent": "flxFollowUs",
    "pf": "frmInformationKA",
    "retainflexpositionproperties": true,
    "textstyle": {},
    "tooltip": "",
    "wType": "Label",
    "zindex": 1
}