{
    "@class": "com.kony.gen.viz.model.container.KVizSegment2",
    "DNDConfig": null,
    "__parentReadjusting__": false,
    "_data_": [
        [
            {
                "lblHeaderKA": {
                    "@class": "com.viz.ide.model.segment.SimpleTextSegmentData",
                    "text": "Example"
                }
            },
            [
                {
                    "imgNews": {
                        "@class": "com.viz.ide.model.segment.ImageSegmentData",
                        "src": "bg.png"
                    },
                    "lblDescription": {
                        "@class": "com.viz.ide.model.segment.SimpleTextSegmentData",
                        "text": "Open your savings account in Bank Of Jordon and you have a grreat chance to be the lucky winner of our grand monthly prize"
                    },
                    "lblHeader": {
                        "@class": "com.viz.ide.model.segment.SimpleTextSegmentData",
                        "text": "A Quarter million JD "
                    },
                    "lblSymbol": {
                        "@class": "com.viz.ide.model.segment.SimpleTextSegmentData",
                        "text": "Label"
                    }
                }
            ]
        ],
        [
            {
                "lblHeaderKA": {
                    "@class": "com.viz.ide.model.segment.SimpleTextSegmentData",
                    "text": "Example"
                }
            },
            [
                {
                    "imgNews": {
                        "@class": "com.viz.ide.model.segment.ImageSegmentData",
                        "src": "bg.png"
                    },
                    "lblDescription": {
                        "@class": "com.viz.ide.model.segment.SimpleTextSegmentData",
                        "text": "Open your savings account in Bank Of Jordon and you have a grreat chance to be the lucky winner of our grand monthly prize"
                    },
                    "lblHeader": {
                        "@class": "com.viz.ide.model.segment.SimpleTextSegmentData",
                        "text": "A Quarter million JD "
                    },
                    "lblSymbol": {
                        "@class": "com.viz.ide.model.segment.SimpleTextSegmentData",
                        "text": "Label"
                    }
                }
            ]
        ]
    ],
    "_height_": {
        "type": "ref",
        "value": "preferred"
    },
    "_indicator_": "none",
    "_left_": {
        "type": "string",
        "value": "0dp"
    },
    "_margin_": [
        0,
        0,
        0,
        0
    ],
    "_orientation_": 2,
    "_padding_": [
        0,
        0,
        0,
        0
    ],
    "_top_": {
        "type": "string",
        "value": "0%"
    },
    "_width_": {
        "type": "string",
        "value": "100%"
    },
    "autogrowmode": 1,
    "canUpdateUI": true,
    "containerweight": 100,
    "counter": "10",
    "focusedindex": null,
    "focuseditem": null,
    "groupcells": false,
    "hasSections": true,
    "id": "segBankNewsKA",
    "info": null,
    "ipad": {
        "psp": {
            "indicator": "rowselect"
        }
    },
    "iphone": {
        "psp": {
            "indicator": "rowselect"
        }
    },
    "isvisible": true,
    "kuid": "h5a691c63fd14665a1e186960bf5ed59",
    "masterdata": {},
    "name": "kony.ui.SegmentedUI2",
    "needpageindicator": true,
    "pageoffdotimage": "pageoffdot.png",
    "pageondotimage": "pageondot.png",
    "paginationconfig": {
        "position": "bottom"
    },
    "parent": "flxInnerBankNews",
    "pf": "frmInformationKA",
    "retainselection": false,
    "rowTemplateId": "i082176e274941e9b4bedd341c536b9b",
    "rowcounter": 0,
    "rowfocusskin": "s5fa38be22fb4f22b7c642b08276ab82",
    "rowskin": "sd2ca277651a46c0ba82f3226859f5a6",
    "rowtemplate": "flxInformation",
    "screenlevelwidget": false,
    "seccounter": 1,
    "sectionHeaderTemplateId": "12354dd64f814198a16f1050bdf37bc7",
    "sectionheaderskin": "s67621b8a82d49f285da06b4f5a0c993",
    "sectionheadertemplate": "Copycontainer087f3a0994b334a",
    "selectedRows": null,
    "selectedState": false,
    "selectedindex": null,
    "selectedindices": null,
    "selecteditems": null,
    "selectedsectionindex": 0,
    "selectionbehavior": "default",
    "separatorcolor": "052c4900",
    "separatorrequired": true,
    "separatorthickness": 2,
    "showscrollbars": false,
    "viewtype": "tableview",
    "vizProps": {},
    "wType": "Segment",
    "widgetalignment": 5,
    "widgetdatamap": {
        "Copycontainer087f3a0994b334a": "Copycontainer087f3a0994b334a",
        "contactListDivider": "contactListDivider",
        "flxBody": "flxBody",
        "flxInformation": "flxInformation",
        "imgNews": "imgNews",
        "lblDescription": "lblDescription",
        "lblHeader": "lblHeader",
        "lblHeaderKA": "lblHeaderKA",
        "lblSymbol": "lblSymbol"
    },
    "zindex": 1
}