{
    "@class": "com.kony.gen.viz.model.component.KVizLabel",
    "DNDConfig": null,
    "__parentReadjusting__": false,
    "_height_": {
        "type": "ref",
        "value": "preferred"
    },
    "_left_": {
        "type": "string",
        "value": "2%"
    },
    "_margin_": [
        1,
        1,
        1,
        1
    ],
    "_padding_": [
        0,
        0,
        0,
        0
    ],
    "_skin_": "s7a1c51274e840389eac2b892e5ee279",
    "_text_": "Alias Type",
    "_top_": {
        "type": "string",
        "value": "10%"
    },
    "_width_": {
        "type": "ref",
        "value": "preferred"
    },
    "_wrapping_": 2,
    "android": {
        "textStyle": {
            "letterSpacing": 0,
            "strikeThrough": false
        }
    },
    "canUpdateUI": true,
    "containerId": true,
    "containerweight": 100,
    "contentalignment": 4,
    "id": "lblAliasTypeTitleSeg",
    "info": null,
    "ipad": {
        "psp": {
            "wrapping": 2
        }
    },
    "iphone": {
        "psp": {
            "wrapping": 2
        }
    },
    "iscustomlayout": true,
    "isvisible": true,
    "kuid": "ce94f54b8db5445f939435357cd7dd37",
    "name": "kony.ui.Label",
    "parent": "flxIPSAlias",
    "pf": "segGetAllIPSAlias",
    "retainflexpositionproperties": true,
    "texti18n": "i18n.CLIQ.AliasTypeIPS",
    "tooltip": "",
    "wType": "Label",
    "zindex": 1
}