{
    "@class": "com.kony.gen.viz.model.component.KVizImage2",
    "DNDConfig": null,
    "__parentReadjusting__": false,
    "_base64_": null,
    "_height_": {
        "type": "string",
        "value": "20dp"
    },
    "_margin_": [
        0,
        0,
        0,
        0
    ],
    "_padding_": [
        0,
        0,
        0,
        0
    ],
    "_render_": true,
    "_right_": {
        "type": "string",
        "value": "5dp"
    },
    "_skin_": "sa625024fef740fea5133ed43bbfac5f",
    "_src_": "right_chevron_icon.png",
    "_width_": {
        "type": "string",
        "value": "20dp"
    },
    "android": {
        "render": false
    },
    "canUpdateUI": true,
    "centery": {
        "type": "string",
        "value": "50%"
    },
    "containerId": true,
    "containerweight": 100,
    "context": {
        "channel": "mobile",
        "platform": "iphone",
        "templateType": "segments",
        "topLevelBox": null
    },
    "enabled": false,
    "id": "chevron",
    "imagescalemode": 1,
    "info": null,
    "invokedProperty": "src",
    "iphone": {
        "render": true
    },
    "isvisible": true,
    "kuid": "6e68e69c500a44bd837b09dd4d934b60",
    "name": "kony.ui.Image2",
    "parent": "CopyFlexContainer0c9f1eddbc7f547",
    "pf": "transactionTemplateNoColor",
    "spaan": {
        "render": false
    },
    "spabb": {
        "render": false
    },
    "spaip": {
        "render": true
    },
    "spawinphone8": {
        "render": false
    },
    "srcType": 1,
    "wType": "Image",
    "widgetalignment": 5,
    "winphone8": {
        "render": false
    },
    "zindex": 1
}