{
    "@class": "com.kony.gen.viz.model.component.KVizLabel",
    "DNDConfig": null,
    "__parentReadjusting__": false,
    "_height_": {
        "type": "string",
        "value": "100%"
    },
    "_margin_": [
        1,
        1,
        1,
        1
    ],
    "_padding_": [
        0,
        0,
        0,
        0
    ],
    "_right_": {
        "type": "string",
        "value": "26dp"
    },
    "_skin_": "s25eaab7a17f44c2a4d4448a03130788",
    "_text_": "",
    "_width_": {
        "type": "ref",
        "value": "preferred"
    },
    "_wrapping_": 2,
    "canUpdateUI": true,
    "centery": {
        "type": "string",
        "value": "50%"
    },
    "containerId": true,
    "containerweight": 100,
    "contentalignment": 6,
    "enabled": false,
    "id": "transactionAmount",
    "info": null,
    "ipad": {
        "psp": {
            "wrapping": 2
        }
    },
    "iphone": {
        "psp": {
            "wrapping": 2
        }
    },
    "isvisible": true,
    "kuid": "98987877a9984095b3cce5f33d16c6a9",
    "name": "kony.ui.Label",
    "parent": "CopyFlexContainer0c9f1eddbc7f547",
    "pf": "transactionTemplateNoColor",
    "tooltip": "",
    "wType": "Label",
    "zindex": 1
}