{
    "@class": "com.kony.gen.viz.model.component.KVizButton",
    "DNDConfig": null,
    "__parentReadjusting__": false,
    "_height_": {
        "type": "string",
        "value": "45%"
    },
    "_left_": {
        "type": "string",
        "value": "85%"
    },
    "_margin_": [
        6,
        6,
        6,
        6
    ],
    "_padding_": [
        0,
        0,
        0,
        0
    ],
    "_skin_": "se585b6ddb114255bac1b2843339e93c",
    "_text_": "0",
    "_top_": {
        "type": "string",
        "value": "40%"
    },
    "_width_": {
        "type": "string",
        "value": "15%"
    },
    "canUpdateUI": true,
    "containerweight": 100,
    "contentalignment": 5,
    "disabledSkins": {},
    "displaytext": true,
    "focusskin": "se585b6ddb114255bac1b2843339e93c",
    "id": "btnEdit",
    "ide_onClick": "AS_Button_hda4283d0635405190eeb22e41aede9d",
    "info": null,
    "isvisible": true,
    "kuid": "ff1503d8975a40d69462ea5a171ceb98",
    "name": "kony.ui.Button",
    "parent": "flxDescrip",
    "pf": "frmCardsAddNickname",
    "wType": "Button",
    "zindex": 10
}