{
    "DNDConfig": null,
    "__parentReadjusting__": false,
    "_height_": {
        "type": "string",
        "value": "2%"
    },
    "_margin_": [
        0,
        0,
        0,
        0
    ],
    "_orientation_": 6,
    "_padding_": [
        0,
        0,
        0,
        0
    ],
    "_percent_": true,
    "_skin_": "sbc33bfb6fda4fd69c548bf18787172b",
    "_top_": {
        "type": "string",
        "value": "95%"
    },
    "_width_": {
        "type": "string",
        "value": "100%"
    },
    "allboxes": [],
    "autogrowmode": 0,
    "canUpdateUI": true,
    "centerx": {
        "type": "string",
        "value": "50%"
    },
    "children": [],
    "clipbounds": true,
    "containerweight": 100,
    "enablescrolling": true,
    "id": "CopylblUnderline0bd4c2d5fe8e74f",
    "info": null,
    "isvisible": true,
    "kuid": "e338b0b1191842ca9f90e2eed4a7ba24",
    "layouttype": 2,
    "name": "kony.ui.FlexContainer",
    "parent": "CopyflxAmount0i0a9802158c244",
    "pf": "frmNewBillKA",
    "snapgridsize": 10,
    "snaptogrid": true,
    "wType": "FlexContainer",
    "widgetalignment": 1,
    "zindex": 2
}