{
    "DNDConfig": null,
    "__parentReadjusting__": false,
    "_height_": {
        "type": "string",
        "value": "82%"
    },
    "_left_": {
        "type": "string",
        "value": "0dp"
    },
    "_margin_": [
        0,
        0,
        0,
        0
    ],
    "_orientation_": 6,
    "_padding_": [
        0,
        0,
        0,
        0
    ],
    "_percent_": true,
    "_skin_": "s3f548bda3524e0388552e16122dc6fa",
    "_top_": {
        "type": "string",
        "value": "0dp"
    },
    "_width_": {
        "type": "string",
        "value": "100%"
    },
    "allboxes": [],
    "allowhorizontalbounce": false,
    "allowverticalbounce": true,
    "bounces": true,
    "canUpdateUI": true,
    "centerx": {
        "type": "string",
        "value": "50%"
    },
    "children": [
        "flxBillerCategory",
        "flxBillerName",
        "flxServiceType",
        "flxDenomination",
        "flxBillerNumber",
        "flxAmounttoPay",
        "flxDueAmount",
        "flxMinimumAmount",
        "flxMaximumAmount",
        "flxIssueDate",
        "flxDueDate",
        "flxFee",
        "flxTotalAmount",
        "flxRadioAccCardsSelection",
        "flxPaymentMode",
        "flxAmount",
        "CopyflxAmount0ba64434a77864d",
        "CopyflxAmount0i0a9802158c244",
        "CopyflxAmount0f826bde07af648",
        "flxIDType",
        "flxNationality",
        "flxAddress",
        "flxNickName",
        "flxSpace"
    ],
    "clipbounds": true,
    "containerweight": 100,
    "decelerat": false,
    "dragg": false,
    "enablescrolling": true,
    "horizontalscrollindicator": true,
    "id": "flxMain",
    "info": null,
    "isvisible": true,
    "kuid": "d155cc23a6454283a0b6202b4cf2d8c8",
    "layouttype": 4,
    "name": "kony.ui.FlexScrollContainer",
    "pagingenabled": false,
    "parent": "flxFormMain",
    "pf": "frmNewBillKA",
    "scrolldirection": 2,
    "snapgridsize": 10,
    "snaptogrid": true,
    "track": false,
    "verticalscrollindicator": true,
    "wType": "FlexScrollContainer",
    "widgetalignment": 1,
    "zindex": 1
}