{
    "@class": "com.kony.gen.viz.model.container.KVizSegment2",
    "DNDConfig": null,
    "__parentReadjusting__": false,
    "_data_": [
        {
            "lblAccountNumberKA": {
                "@class": "com.viz.ide.model.segment.SimpleTextSegmentData",
                "text": "Label"
            },
            "lblContact": {
                "@class": "com.viz.ide.model.segment.SimpleTextSegmentData",
                "text": "Example"
            },
            "lblRowSeparator": {
                "@class": "com.viz.ide.model.segment.SimpleTextSegmentData",
                "text": ""
            },
            "lblType": {
                "@class": "com.viz.ide.model.segment.SimpleTextSegmentData",
                "text": "ABC Bank"
            }
        },
        {
            "lblAccountNumberKA": {
                "@class": "com.viz.ide.model.segment.SimpleTextSegmentData",
                "text": "Label"
            },
            "lblContact": {
                "@class": "com.viz.ide.model.segment.SimpleTextSegmentData",
                "text": "Example"
            },
            "lblRowSeparator": {
                "@class": "com.viz.ide.model.segment.SimpleTextSegmentData",
                "text": ""
            },
            "lblType": {
                "@class": "com.viz.ide.model.segment.SimpleTextSegmentData",
                "text": "ABC Bank"
            }
        },
        {
            "lblAccountNumberKA": {
                "@class": "com.viz.ide.model.segment.SimpleTextSegmentData",
                "text": "Label"
            },
            "lblContact": {
                "@class": "com.viz.ide.model.segment.SimpleTextSegmentData",
                "text": "Example"
            },
            "lblRowSeparator": {
                "@class": "com.viz.ide.model.segment.SimpleTextSegmentData",
                "text": ""
            },
            "lblType": {
                "@class": "com.viz.ide.model.segment.SimpleTextSegmentData",
                "text": "ABC Bank"
            }
        }
    ],
    "_height_": {
        "type": "ref",
        "value": "preferred"
    },
    "_indicator_": "none",
    "_left_": {
        "type": "string",
        "value": "0dp"
    },
    "_margin_": [
        0,
        0,
        0,
        0
    ],
    "_orientation_": 2,
    "_padding_": [
        0,
        0,
        0,
        0
    ],
    "_top_": {
        "type": "string",
        "value": "0dp"
    },
    "_width_": {
        "type": "string",
        "value": "100%"
    },
    "autogrowmode": 1,
    "canUpdateUI": true,
    "centerx": {
        "type": "string",
        "value": "50%"
    },
    "containerweight": 100,
    "counter": "02",
    "focusedindex": null,
    "focuseditem": null,
    "groupcells": false,
    "hasSections": false,
    "id": "segPayeeNamesKA",
    "ide_onRowClick": "AS_Segment_aff6a0d3062a419ea604b64c8e1953ea",
    "info": null,
    "ipad": {
        "psp": {
            "indicator": "rowselect"
        }
    },
    "iphone": {
        "psp": {
            "bounces": false,
            "indicator": "none",
            "showProgressIndicator": false
        }
    },
    "isvisible": true,
    "kuid": "3533521a1b2e44419674d7988c9cd493",
    "masterdata": {},
    "name": "kony.ui.SegmentedUI2",
    "needpageindicator": true,
    "pageoffdotimage": "pageoffdot.png",
    "pageondotimage": "pageondot.png",
    "paginationconfig": {
        "position": "bottom"
    },
    "parent": "toCardInner",
    "pf": "frmNewBillKA",
    "retainselection": false,
    "rowTemplateId": "e1cd033ee4504801afafa797f4ca0311",
    "rowcounter": 2,
    "rowfocusskin": "s5fa38be22fb4f22b7c642b08276ab82",
    "rowskin": "sd2ca277651a46c0ba82f3226859f5a6",
    "rowtemplate": "Copycontainer03f00119dae464d",
    "screenlevelwidget": false,
    "seccounter": 0,
    "sectionHeaderTemplateId": null,
    "sectionheaderskin": "s67621b8a82d49f285da06b4f5a0c993",
    "selectedRows": null,
    "selectedState": false,
    "selectedindex": null,
    "selectedindices": null,
    "selecteditems": null,
    "selectedsectionindex": 0,
    "selectionbehavior": "default",
    "separatorrequired": false,
    "showscrollbars": false,
    "viewtype": "tableview",
    "vizProps": {},
    "wType": "Segment",
    "widgetalignment": 5,
    "widgetdatamap": {
        "Copycontainer03f00119dae464d": "Copycontainer03f00119dae464d",
        "lblAccountNumberKA": "lblAccountNumberKA",
        "lblContact": "lblContact",
        "lblRowSeparator": "lblRowSeparator",
        "lblType": "lblType"
    }
}