{
    "@class": "com.kony.gen.viz.model.component.KVizButton",
    "DNDConfig": null,
    "__parentReadjusting__": false,
    "_height_": {
        "type": "string",
        "value": "50dp"
    },
    "_margin_": [
        6,
        6,
        6,
        6
    ],
    "_padding_": [
        0,
        0,
        0,
        0
    ],
    "_skin_": "s51d68053cae4eba826625de179be4ae",
    "_text_": "",
    "_top_": {
        "type": "string",
        "value": "15%"
    },
    "_width_": {
        "type": "string",
        "value": "95%"
    },
    "canUpdateUI": true,
    "centerx": {
        "type": "string",
        "value": "50%"
    },
    "containerweight": 100,
    "contentalignment": 5,
    "displaytext": true,
    "focusskin": "s9dd8fe1ab7b4f26aad257d210a41f6e",
    "id": "btnShareSSC",
    "ide_onClick": "AS_Button_f18358ad8ab24e5186bc2fd517a282d4",
    "info": null,
    "isvisible": true,
    "kuid": "d7eecd0a2fd2485992856e86eae850bc",
    "name": "kony.ui.Button",
    "paddingLocked": true,
    "paddinginpixel": false,
    "parent": "flxSSCInformation",
    "pf": "frmAccountInfoKA",
    "texti18n": "i18n.SSC.ShareBtn",
    "wType": "Button",
    "zindex": 1
}