{
    "@class": "com.kony.gen.viz.model.component.KVizButton",
    "DNDConfig": null,
    "__markedForDelete__": true,
    "__parentReadjusting__": false,
    "_height_": {
        "type": "string",
        "value": "100%"
    },
    "_margin_": [
        6,
        6,
        6,
        6
    ],
    "_padding_": [
        0,
        0,
        0,
        0
    ],
    "_right_": {
        "type": "string",
        "value": "9%"
    },
    "_skin_": "sbdbc65107b746c7870a660f64d4b256",
    "_text_": "k",
    "_width_": {
        "type": "string",
        "value": "9%"
    },
    "canUpdateUI": true,
    "centery": {
        "type": "string",
        "value": "50%"
    },
    "containerId": true,
    "containerweight": 100,
    "contentalignment": 5,
    "displaytext": true,
    "focusskin": "sbdbc65107b746c7870a660f64d4b256",
    "id": "btnFav",
    "ide_onClick": "AS_Button_d28ddf1dc8a34dcdb547d401188fc640",
    "info": null,
    "isvisible": true,
    "kuid": "f9debbc55adc4603a1edb6cb58896b94",
    "name": "kony.ui.Button",
    "parent": "flxAnimateBenf",
    "pf": "segShowAcc",
    "wType": "Button",
    "zindex": 1
}