{
    "@class": "com.kony.gen.viz.model.component.KVizButton",
    "DNDConfig": null,
    "__parentReadjusting__": false,
    "_height_": {
        "type": "string",
        "value": "75%"
    },
    "_left_": {
        "type": "string",
        "value": "2%"
    },
    "_margin_": [
        6,
        6,
        6,
        6
    ],
    "_padding_": [
        0,
        0,
        0,
        0
    ],
    "_skin_": "s17e292d54bd48bd8bd8a070c6c1819a",
    "_text_": "200 JOD",
    "_top_": {
        "type": "string",
        "value": "2%"
    },
    "_width_": {
        "type": "string",
        "value": "30%"
    },
    "android": {
        "psp": {}
    },
    "canUpdateUI": true,
    "centery": {
        "type": "string",
        "value": "50%"
    },
    "containerweight": 100,
    "contentalignment": 5,
    "disabledSkins": {
        "pressedSkin": "s7b2fe5302ed4ee18ab44e21a9033d90"
    },
    "displaytext": true,
    "focusskin": "sbe1e969bc9948e288db010580bd90b0",
    "id": "btnTwoHJOD",
    "ide_onClick": "AS_Button_dc65fca6585d4d87a64f1a1e41494abb",
    "info": null,
    "isvisible": true,
    "kuid": "d7b263aa452349d58c1501cd9c6cf805",
    "name": "kony.ui.Button",
    "parent": "flxSecondRow",
    "pf": "frmCardlessTransaction",
    "wType": "Button",
    "zindex": 1
}