{
    "@class": "com.kony.gen.viz.model.component.KVizButton",
    "DNDConfig": null,
    "__parentReadjusting__": false,
    "_height_": {
        "type": "string",
        "value": "52dp"
    },
    "_left_": {
        "type": "string",
        "value": "33.30%"
    },
    "_margin_": [
        6,
        6,
        6,
        6
    ],
    "_padding_": [
        6,
        0,
        6,
        0
    ],
    "_skin_": "s7d36df6cf6f406fa2ff1418541f0ec0",
    "_text_": "SPENDING",
    "_top_": {
        "type": "string",
        "value": "0dp"
    },
    "_width_": {
        "type": "string",
        "value": "33.40%"
    },
    "canUpdateUI": true,
    "containerweight": 100,
    "contentalignment": 5,
    "displaytext": true,
    "focusskin": "s80191b6ac7b456395dfcf46858959f6",
    "id": "btnSpendingKA",
    "ide_onClick": "AS_Button_c263b57f9fb3479a955fbddbac988f97",
    "info": null,
    "iphone": {
        "psp": {
            "showProgressIndicator": false
        }
    },
    "isvisible": true,
    "kuid": "3856ed0266494231a15588d533a07692",
    "name": "kony.ui.Button",
    "paddinginpixel": false,
    "parent": "androidSegmentedController",
    "pf": "frmMyMoneyListKA",
    "showprogressindicator": false,
    "texti18n": "i18n.my_money.btnSpending",
    "wType": "Button",
    "zindex": 1
}