{
    "@class": "com.kony.gen.viz.model.container.KVizSegment2",
    "DNDConfig": null,
    "__parentReadjusting__": false,
    "_data_": [
        {
            "amountAccount1": {
                "@class": "com.viz.ide.model.segment.SimpleTextSegmentData",
                "text": "$00.00"
            },
            "amountcurrBal": {
                "@class": "com.viz.ide.model.segment.SimpleTextSegmentData",
                "text": "$00.00"
            },
            "amtOutsatndingBal": {
                "@class": "com.viz.ide.model.segment.SimpleTextSegmentData",
                "text": "$00.00"
            },
            "dummyAccountName": {
                "@class": "com.viz.ide.model.segment.SimpleTextSegmentData",
                "text": "Account Name"
            },
            "dummyAccountNumber": {
                "@class": "com.viz.ide.model.segment.SimpleTextSegmentData",
                "text": ""
            },
            "isPFMLabel": {
                "@class": "com.viz.ide.model.segment.SimpleTextSegmentData",
                "text": ""
            },
            "lblBankName": {
                "@class": "com.viz.ide.model.segment.SimpleTextSegmentData",
                "text": ""
            },
            "lblColorKA": {
                "@class": "com.viz.ide.model.segment.SimpleTextSegmentData",
                "text": "Label"
            },
            "nameAccount1": {
                "@class": "com.viz.ide.model.segment.SimpleTextSegmentData",
                "text": "Account Name"
            },
            "typeAccount": {
                "@class": "com.viz.ide.model.segment.SimpleTextSegmentData",
                "text": "Available Balance"
            },
            "typeKA": {
                "@class": "com.viz.ide.model.segment.SimpleTextSegmentData",
                "i18nkey": "i18n.deposit.availableBalance",
                "text": "Available Balance"
            }
        },
        {
            "amountAccount1": {
                "@class": "com.viz.ide.model.segment.SimpleTextSegmentData",
                "text": "$00.00"
            },
            "amountcurrBal": {
                "@class": "com.viz.ide.model.segment.SimpleTextSegmentData",
                "text": "$00.00"
            },
            "amtOutsatndingBal": {
                "@class": "com.viz.ide.model.segment.SimpleTextSegmentData",
                "text": "$00.00"
            },
            "dummyAccountName": {
                "@class": "com.viz.ide.model.segment.SimpleTextSegmentData",
                "text": "Account Name"
            },
            "dummyAccountNumber": {
                "@class": "com.viz.ide.model.segment.SimpleTextSegmentData",
                "text": ""
            },
            "isPFMLabel": {
                "@class": "com.viz.ide.model.segment.SimpleTextSegmentData",
                "text": ""
            },
            "lblBankName": {
                "@class": "com.viz.ide.model.segment.SimpleTextSegmentData",
                "text": ""
            },
            "lblColorKA": {
                "@class": "com.viz.ide.model.segment.SimpleTextSegmentData",
                "text": "Label"
            },
            "nameAccount1": {
                "@class": "com.viz.ide.model.segment.SimpleTextSegmentData",
                "text": "Account Name"
            },
            "typeAccount": {
                "@class": "com.viz.ide.model.segment.SimpleTextSegmentData",
                "text": "Available Balance"
            },
            "typeKA": {
                "@class": "com.viz.ide.model.segment.SimpleTextSegmentData",
                "i18nkey": "i18n.deposit.availableBalance",
                "text": "Available Balance"
            }
        },
        {
            "amountAccount1": {
                "@class": "com.viz.ide.model.segment.SimpleTextSegmentData",
                "text": "$00.00"
            },
            "amountcurrBal": {
                "@class": "com.viz.ide.model.segment.SimpleTextSegmentData",
                "text": "$00.00"
            },
            "amtOutsatndingBal": {
                "@class": "com.viz.ide.model.segment.SimpleTextSegmentData",
                "text": "$00.00"
            },
            "dummyAccountName": {
                "@class": "com.viz.ide.model.segment.SimpleTextSegmentData",
                "text": "Account Name"
            },
            "dummyAccountNumber": {
                "@class": "com.viz.ide.model.segment.SimpleTextSegmentData",
                "text": ""
            },
            "isPFMLabel": {
                "@class": "com.viz.ide.model.segment.SimpleTextSegmentData",
                "text": ""
            },
            "lblBankName": {
                "@class": "com.viz.ide.model.segment.SimpleTextSegmentData",
                "text": ""
            },
            "lblColorKA": {
                "@class": "com.viz.ide.model.segment.SimpleTextSegmentData",
                "text": "Label"
            },
            "nameAccount1": {
                "@class": "com.viz.ide.model.segment.SimpleTextSegmentData",
                "text": "Account Name"
            },
            "typeAccount": {
                "@class": "com.viz.ide.model.segment.SimpleTextSegmentData",
                "text": "Available Balance"
            },
            "typeKA": {
                "@class": "com.viz.ide.model.segment.SimpleTextSegmentData",
                "i18nkey": "i18n.deposit.availableBalance",
                "text": "Available Balance"
            }
        }
    ],
    "_height_": {
        "type": "string",
        "value": "80%"
    },
    "_indicator_": "none",
    "_left_": {
        "type": "string",
        "value": "0dp"
    },
    "_margin_": [
        0,
        0,
        0,
        0
    ],
    "_orientation_": 2,
    "_padding_": [
        0,
        0,
        0,
        0
    ],
    "_top_": {
        "type": "string",
        "value": "10dp"
    },
    "_width_": {
        "type": "string",
        "value": "90%"
    },
    "autogrowmode": 0,
    "canUpdateUI": true,
    "centerx": {
        "type": "string",
        "value": "50%"
    },
    "containerweight": 100,
    "counter": "02",
    "disabledSkins": {
        "rowFocusSkin": "s5fa38be22fb4f22b7c642b08276ab82"
    },
    "focusedindex": null,
    "focuseditem": null,
    "groupcells": false,
    "hasSections": false,
    "id": "segAccountsKA",
    "info": null,
    "ipad": {
        "psp": {
            "indicator": "rowselect"
        }
    },
    "iphone": {
        "psp": {
            "bounces": false,
            "indicator": "none"
        }
    },
    "isvisible": true,
    "kuid": "ca0e9c4cec6643f5ba090dc219bef22d",
    "masterdata": {},
    "name": "kony.ui.SegmentedUI2",
    "needpageindicator": true,
    "pageoffdotimage": "pageoffdot.png",
    "pageondotimage": "pageondot.png",
    "paginationconfig": {
        "position": "bottom"
    },
    "parent": "flxResultAccountsKA",
    "pf": "frmMyMoneyListKA",
    "retainselection": false,
    "rowTemplateId": "d6ec8423e4fc4a0ea9253aafc6a0dd46",
    "rowcounter": 2,
    "rowskin": "sd2ca277651a46c0ba82f3226859f5a6",
    "rowtemplate": "yourAccount1",
    "screenlevelwidget": false,
    "seccounter": 0,
    "sectionHeaderTemplateId": null,
    "sectionheaderskin": "s67621b8a82d49f285da06b4f5a0c993",
    "selectedRows": null,
    "selectedState": false,
    "selectedindex": null,
    "selectedindices": null,
    "selecteditems": null,
    "selectedsectionindex": 0,
    "selectionbehavior": "default",
    "separatorcolor": "f7f7f700",
    "separatorrequired": true,
    "separatorthickness": 2,
    "showscrollbars": true,
    "viewtype": "tableview",
    "wType": "Segment",
    "widgetalignment": 5,
    "widgetdatamap": {
        "amountAccount1": "amountAccount1",
        "amountcurrBal": "amountcurrBal",
        "amtOutsatndingBal": "amtOutsatndingBal",
        "colorAccount1": "colorAccount1",
        "dummyAccountName": "dummyAccountName",
        "dummyAccountNumber": "dummyAccountNumber",
        "isPFMLabel": "isPFMLabel",
        "lblBankName": "lblBankName",
        "lblColorKA": "lblColorKA",
        "nameAccount1": "nameAccount1",
        "nameContainer": "nameContainer",
        "typeAccount": "typeAccount",
        "typeKA": "typeKA",
        "yourAccount1": "yourAccount1"
    },
    "zindex": 1
}