{
    "DNDConfig": null,
    "__parentReadjusting__": false,
    "_height_": {
        "type": "string",
        "value": "100%"
    },
    "_margin_": [
        0,
        0,
        0,
        0
    ],
    "_padding_": [
        0,
        0,
        0,
        0
    ],
    "_skin_": "sf03702e4652451fbf3e75009f54c687",
    "_top_": {
        "type": "string",
        "value": "0%"
    },
    "_width_": {
        "type": "string",
        "value": "100%"
    },
    "allboxes": [],
    "autogrowmode": 0,
    "canUpdateUI": true,
    "centerx": {
        "type": "string",
        "value": "50%"
    },
    "children": [
        "usernameContainer",
        "passwordContainer",
        "lblInvalidCredentialsKA",
        "signInButton",
        "CopyflxRegisterMobileBanking0j972c4f144ed4e",
        "flxForgotP",
        "flxSwitchLanguage"
    ],
    "clipbounds": false,
    "containerweight": 100,
    "enabled": false,
    "enablescrolling": true,
    "id": "loginCard",
    "info": null,
    "isvisible": true,
    "kuid": "edb2b1c0ba384cae9729ea3ff4805ac4",
    "layouttype": 4,
    "name": "kony.ui.FlexContainer",
    "orientation": 6,
    "parent": "loginCardWrapper",
    "percent": true,
    "pf": "frmLanguageChange",
    "snapgridsize": 10,
    "snaptogrid": true,
    "wType": "FlexContainer",
    "widgetalignment": 1,
    "zindex": 99
}