{
    "@class": "com.kony.gen.viz.model.component.KVizTextBox2",
    "DNDConfig": null,
    "__parentReadjusting__": false,
    "_bottom_": {
        "type": "string",
        "value": "0%"
    },
    "_height_": {
        "type": "string",
        "value": "60%"
    },
    "_left_": {
        "type": "string",
        "value": "2%"
    },
    "_margin_": [
        0,
        0,
        0,
        0
    ],
    "_padding_": [
        0,
        0,
        0,
        0
    ],
    "_placeholder_": "",
    "_skin_": "s029998596d3421892d0917ea7492e1d",
    "_text_": "",
    "_width_": {
        "type": "string",
        "value": "95%"
    },
    "android": {
        "ide_onBeginEditing": "AS_TextField_c0d84383f6894df280a312a783fd0d9e",
        "ide_onEndEditing": "AS_TextField_e13fd592e51e4ebcbb00fe5c665c148e",
        "onBeginEditing": "AS_TextField_0ec8acaeaaa8431fab61144b4f8d1810",
        "psp": {
            "keyboardActionLabel": 4
        }
    },
    "autocapitalize": "none",
    "autocomplete": false,
    "autocorrect": false,
    "autofilter": false,
    "canUpdateUI": true,
    "closebuttontext": "Done",
    "containerheight": "",
    "containerheightmode": 1,
    "containerweight": 100,
    "contentalignment": 4,
    "enabled": false,
    "focusskin": "s029998596d3421892d0917ea7492e1d",
    "id": "usernameTextField",
    "ide_onDone": "AS_TextField_a8301298b8854888a9904d7230d62111",
    "ide_onTextChange": "AS_TextField_c9325b33f925429fa31c9b993584200c",
    "ide_onTouchEnd": "AS_TextField_gde2330ca7cd4c42b5eb5dda0d1bc028",
    "ide_onTouchStart": "AS_TextField_aa9aca97808947a396553184c773c344",
    "info": null,
    "iphone": {
        "ide_onBeginEditing": "AS_TextField_j7cc0c561c6a40c9a68406a077d90648",
        "ide_onEndEditing": "AS_TextField_h3b9357d5bfd46cfb7a1129d35242edb",
        "onBeginEditing": "AS_TextField_32ddb481785c4a579adf600bb4a4d307",
        "psp": {
            "keyboardActionLabel": 4,
            "pasteboardType": 1,
            "showClearButton": false,
            "showCloseButton": false,
            "showProgressIndicator": false
        }
    },
    "isvisible": false,
    "keyboardactionlabel": 1,
    "keyboardtype": "A",
    "kuid": "i240bae668d149babd68cdd038ff71ae",
    "maxtextlength": 20,
    "mode": "A",
    "name": "kony.ui.TextBox2",
    "ondone": "AS_TextField_ddebbadfde0d4ca9b4bdec27efc8708e",
    "parent": "usernameContainer",
    "pasteboardtype": 1,
    "pf": "frmLanguageChange",
    "placeholderskin": "sfa36c5ffd8f4b39894ae352f59c3406",
    "securetextentry": false,
    "showclearbutton": false,
    "showclosebutton": false,
    "showoprogressindicator": false,
    "textinputmode": "A",
    "viewtype": "default",
    "wType": "TextField",
    "zindex": 20
}