{
    "@class": "com.kony.gen.viz.model.component.KVizLabel",
    "DNDConfig": null,
    "_margin_": [
        0,
        0,
        0,
        0
    ],
    "_padding_": [
        0,
        0,
        0,
        0
    ],
    "_skin_": "s74c66cc041f4980b1bf5f7ad82fe572",
    "_text_": "Welcome to the mobiel application of Bank of Jordan. We are heartly welcoming the user and giving away so many offers to new users, like free lamborgini SV and buggati chiron for the one who is making atleast of 1JOD trasaction perday.",
    "_wrapping_": 2,
    "android": {
        "textStyle": {
            "letterSpacing": 0,
            "strikeThrough": false
        }
    },
    "canUpdateUI": true,
    "containerweight": 100,
    "contentalignment": 5,
    "donotUpdateContainerWeight": false,
    "id": "lblDescription",
    "info": null,
    "ipad": {
        "psp": {
            "wrapping": 2
        }
    },
    "iphone": {
        "psp": {
            "wrapping": 2
        }
    },
    "isvisible": true,
    "kuid": "ed61ee0a3a474b7a8a212b0602c66ec0",
    "margininpixel": false,
    "name": "kony.ui.Label",
    "paddInPixel": [
        184.5,
        0,
        0,
        0
    ],
    "paddinginpixel": false,
    "parent": "hbxAlertBody",
    "pf": "popupNotificationInfo",
    "tooltip": "",
    "wType": "Label"
}