{
    "@class": "com.kony.gen.viz.model.component.KVizButton",
    "DNDConfig": null,
    "__parentReadjusting__": false,
    "_height_": {
        "type": "string",
        "value": "100%"
    },
    "_left_": {
        "type": "string",
        "value": "0dp"
    },
    "_margin_": [
        6,
        6,
        6,
        6
    ],
    "_padding_": [
        0,
        0,
        0,
        0
    ],
    "_skin_": "s803fe20b33c49ceb0ed9f9ee3a71425",
    "_text_": "",
    "_top_": {
        "type": "string",
        "value": "0dp"
    },
    "_width_": {
        "type": "string",
        "value": "100%"
    },
    "canUpdateUI": true,
    "containerweight": 100,
    "contentalignment": 5,
    "displaytext": true,
    "focusskin": "s41e11f58b56455282a8e83a82b477c3",
    "id": "btnMessageKA",
    "ide_onClick": "AS_Button_1532035ca83244f0a4b1e6c66329f8b4",
    "info": null,
    "iphone": {
        "psp": {
            "showProgressIndicator": false
        }
    },
    "isvisible": true,
    "kuid": "9003c8a8a1434873a09f526d02c07203",
    "name": "kony.ui.Button",
    "onclick": "AS_Button_5232d8e11dfb437cbdd57db58b6922d1",
    "parent": "flxMessageWrapperKA",
    "pf": "frmMoreLandingKA",
    "showprogressindicator": false,
    "wType": "Button",
    "zindex": 1
}