{
    "@class": "com.kony.gen.viz.model.component.KVizButton",
    "DNDConfig": null,
    "__parentReadjusting__": false,
    "_height_": {
        "type": "string",
        "value": "8%"
    },
    "_left_": {
        "type": "string",
        "value": "10%"
    },
    "_margin_": [
        6,
        6,
        6,
        6
    ],
    "_padding_": [
        0,
        0,
        0,
        0
    ],
    "_skin_": "sf7766faf6e34d0789442a84c1e76e1a",
    "_text_": "Confirm",
    "_top_": {
        "type": "string",
        "value": "82%"
    },
    "_width_": {
        "type": "string",
        "value": "70%"
    },
    "canUpdateUI": true,
    "centerx": {
        "type": "string",
        "value": "50%"
    },
    "containerweight": 100,
    "contentalignment": 5,
    "disabledSkins": {},
    "displaytext": true,
    "focusskin": "sf7766faf6e34d0789442a84c1e76e1a",
    "id": "btnConfirm",
    "ide_onClick": "AS_Button_hc140283e13d49269ba4347b31663091",
    "info": null,
    "iphone": {
        "psp": {
            "showProgressIndicator": false
        }
    },
    "isvisible": true,
    "kuid": "cff1503f06ea4ee8bd01f5dbd2e7293f",
    "name": "kony.ui.Button",
    "parent": "frmNewSubAccountConfirm",
    "pf": "frmNewSubAccountConfirm",
    "texti18n": "i18n.P2P.confirm",
    "wType": "Button",
    "zindex": 1
}