{
    "DNDConfig": null,
    "__parentReadjusting__": false,
    "_height_": {
        "type": "string",
        "value": "91%"
    },
    "_left_": {
        "type": "string",
        "value": "0%"
    },
    "_margin_": [
        0,
        0,
        0,
        0
    ],
    "_orientation_": 6,
    "_padding_": [
        0,
        0,
        0,
        0
    ],
    "_percent_": true,
    "_skin_": "s3f548bda3524e0388552e16122dc6fa",
    "_top_": {
        "type": "string",
        "value": "0dp"
    },
    "_width_": {
        "type": "string",
        "value": "100%"
    },
    "allboxes": [],
    "allowhorizontalbounce": false,
    "allowverticalbounce": true,
    "bounces": true,
    "canUpdateUI": true,
    "children": [
        "flxImpDetails",
        "flxBillC",
        "flxBillN",
        "flxServiceType",
        "flxDenomination",
        "flxBillerNumber",
        "flxDueAmount",
        "flxMinAmount",
        "flxMaxAmount",
        "flxFeeAmount",
        "flxTotalAmount",
        "flxLCAmount",
        "flxLocalAmount",
        "flxSourceofFunding",
        "flxSourceofFundAccount",
        "flxSenderName",
        "flxBeneName",
        "flxCustName",
        "flxIssueDate",
        "flxDueDate",
        "flxConfirmBtn",
        "CopyflxAmount0h42ee0066fa841"
    ],
    "clipbounds": true,
    "containerweight": 100,
    "decelerat": false,
    "dragg": false,
    "enablescrolling": true,
    "horizontalscrollindicator": true,
    "id": "flxMain",
    "info": null,
    "isvisible": true,
    "kuid": "a11ed59bf5ba41fb9eef76e441397b33",
    "layouttype": 4,
    "name": "kony.ui.FlexScrollContainer",
    "pagingenabled": false,
    "parent": "frmConfirmPayBill",
    "pf": "frmConfirmPayBill",
    "scrolldirection": 2,
    "snapgridsize": 10,
    "snaptogrid": true,
    "track": false,
    "verticalscrollindicator": true,
    "wType": "FlexScrollContainer",
    "widgetalignment": 1,
    "zindex": 1
}