{
    "DNDConfig": null,
    "__parentReadjusting__": false,
    "_height_": {
        "type": "string",
        "value": "2%"
    },
    "_left_": {
        "type": "string",
        "value": "0%"
    },
    "_margin_": [
        0,
        0,
        0,
        0
    ],
    "_orientation_": 6,
    "_padding_": [
        0,
        0,
        0,
        0
    ],
    "_percent_": true,
    "_skin_": "sa5a89443b9445c58bf02a95564bfdd5",
    "_top_": {
        "type": "string",
        "value": "95%"
    },
    "_width_": {
        "type": "string",
        "value": "100%"
    },
    "allboxes": [],
    "autogrowmode": 0,
    "canUpdateUI": true,
    "children": [],
    "clipbounds": true,
    "containerweight": 100,
    "enablescrolling": true,
    "id": "flxBorderBenificiary",
    "info": null,
    "isvisible": true,
    "kuid": "db9c571adefb4a198db4ba92cb39423e",
    "layouttype": 2,
    "name": "kony.ui.FlexContainer",
    "parent": "flxNationalID",
    "pf": "frmJoMoPayRegistration",
    "snapgridsize": 10,
    "snaptogrid": true,
    "wType": "FlexContainer",
    "widgetalignment": 1,
    "zindex": 2
}