{
    "@class": "com.kony.gen.viz.model.component.KVizTextBox2",
    "DNDConfig": null,
    "__parentReadjusting__": false,
    "_height_": {
        "type": "string",
        "value": "100%"
    },
    "_left_": {
        "type": "string",
        "value": "0%"
    },
    "_margin_": [
        0,
        0,
        0,
        0
    ],
    "_padding_": [
        0,
        0,
        0,
        0
    ],
    "_placeholder_": "",
    "_skin_": "s029998596d3421892d0917ea7492e1d",
    "_text_": "",
    "_top_": {
        "type": "string",
        "value": "0.00%"
    },
    "_width_": {
        "type": "string",
        "value": "100%"
    },
    "android": {
        "ide_onBeginEditing": "AS_TextField_ffca27a708f546d6b9220914d2fea901",
        "ide_onEndEditing": "AS_TextField_e1d39ff494e447148c03a0aa64418b15",
        "psp": {
            "keyboardActionLabel": 1
        }
    },
    "autocapitalize": "none",
    "autocomplete": false,
    "autocorrect": false,
    "autofilter": false,
    "canUpdateUI": true,
    "containerheight": "",
    "containerheightmode": 1,
    "containerweight": 100,
    "contentalignment": 4,
    "focusskin": "sa25e426dcb94c13ab46f59a2b31a09a",
    "id": "txtAlias",
    "ide_onDone": "AS_TextField_a6e1de9baa724aa6817912d44f746c8a",
    "ide_onTextChange": "AS_TextField_b60672505b88483eb6b80f3b1864dc42",
    "ide_onTouchEnd": "AS_TextField_b5ae23195c9d432a8aee48a41cb7af12",
    "info": null,
    "iphone": {
        "ide_onBeginEditing": "AS_TextField_e0eece500e49410ca656cf027d2e8a73",
        "ide_onEndEditing": "AS_TextField_j593524d01ce4b5ea414b27130ab8852",
        "psp": {
            "keyboardActionLabel": 1,
            "showClearButton": false,
            "showCloseButton": false,
            "showProgressIndicator": false
        }
    },
    "isvisible": true,
    "keyboardactionlabel": 4,
    "keyboardtype": "A",
    "kuid": "a9d64c4013a24322b18fa6d06ba97804",
    "maxtextlength": 15,
    "mode": "A",
    "name": "kony.ui.TextBox2",
    "paddinginpixel": false,
    "parent": "flxAliasTextbox",
    "pf": "frmJoMoPayRegistration",
    "securetextentry": false,
    "showclearbutton": false,
    "showoprogressindicator": false,
    "textinputmode": "A",
    "viewtype": "default",
    "wType": "TextField",
    "zindex": 1
}