{
  "operationConfig" : {
    "name" : "getBillerByAccountNumber7970",
    "type" : "MappedToBackend",
    "cachable" : false,
    "smsEnabled" : false,
    "security" : "authorized_app_user",
    "responseEncoding" : "UTF-8",
    "httpMethod" : "GET",
    "decodeResponseBody" : false,
    "iMapping" : "<?xml version=\"1.0\" encoding=\"UTF-8\" standalone=\"yes\"?><mapper xmlns=\"http://www.kony.com/ns/mapper\">  <map inputpath=\"request_in\" outputpath=\"request_out\">    <set-param inputpath=\"zipCode\" outputpath=\"zipCode\"/>    <set-param inputpath=\"accountNumber\" outputpath=\"accountNumber\"/>    <set-param inputpath=\"billerName\" outputpath=\"billerName\"/>  </map></mapper>",
    "oMapping" : "<?xml version=\"1.0\" encoding=\"UTF-8\" standalone=\"yes\"?><mapper xmlns=\"http://www.kony.com/ns/mapper\">  <map inputpath=\"response_in\" outputpath=\"response_out\">    <set-param inputpath=\"zipCode\" outputpath=\"zipCode\"/>    <set-param inputpath=\"address\" outputpath=\"address\"/>    <set-param inputpath=\"billerCategoryName\" outputpath=\"billerCategoryName\"/>    <set-param inputpath=\"city\" outputpath=\"city\"/>    <set-param inputpath=\"billerCategoryId\" outputpath=\"billerCategoryId\"/>    <set-param inputpath=\"ebillSupport\" outputpath=\"ebillSupport\"/>    <set-param inputpath=\"id\" outputpath=\"id\"/>    <set-param inputpath=\"state\" outputpath=\"state\"/>    <set-param inputpath=\"accountNumber\" outputpath=\"accountNumber\"/>    <set-param inputpath=\"billerName\" outputpath=\"billerName\"/>  </map></mapper>",
    "applyCommonMapping" : true,
    "backendMeta" : {
      "serviceVersion" : "1.0",
      "operationName" : "getBillerByAccountNumber",
      "serviceName" : "RetailBankingBEServices"
    },
    "relationshipHierarchyMapping" : {
      "children" : [ ],
      "name" : "BillerMaster",
      "selected" : true
    },
    "requestXmlMappingOverride" : true,
    "responseXmlMappingOverride" : true
  }
}