{
    "@class": "com.kony.gen.viz.model.component.KVizButton",
    "DNDConfig": null,
    "__parentReadjusting__": false,
    "_height_": {
        "type": "string",
        "value": "98%"
    },
    "_left_": {
        "type": "string",
        "value": "66%"
    },
    "_margin_": [
        6,
        6,
        6,
        6
    ],
    "_padding_": [
        0,
        0,
        0,
        0
    ],
    "_skin_": "s41fb5693a024ca6af3b2c8c71179333",
    "_text_": "International",
    "_width_": {
        "type": "string",
        "value": "34%"
    },
    "canUpdateUI": true,
    "centery": {
        "type": "string",
        "value": "50%"
    },
    "containerweight": 100,
    "contentalignment": 5,
    "displaytext": true,
    "focusskin": "s0eacd0585e64c81a58d225fcf6cd7c5",
    "id": "btnInternational",
    "ide_onClick": "AS_Button_cd85e9f2430a46a69f35f3755ccec06a",
    "info": null,
    "iscustomlayout": true,
    "isvisible": true,
    "kuid": "c22952304e5d4e0dbdcf29ba60ba49c0",
    "name": "kony.ui.Button",
    "paddinginpixel": false,
    "parent": "flxContent",
    "pf": "frmShowAllBeneficiary",
    "retainflexpositionproperties": false,
    "texti18n": "i18n.transfer.International",
    "wType": "Button",
    "zindex": 2
}