{
    "@class": "com.kony.gen.viz.model.container.KVizGroup",
    "DNDConfig": null,
    "__markedForDelete__": true,
    "__parentReadjusting__": false,
    "_height_": {
        "type": "ref",
        "value": "preferred"
    },
    "_left_": 0,
    "_margin_": [
        0,
        0,
        0,
        0
    ],
    "_opacity_": 100,
    "_orientation_": 6,
    "_padding_": [
        3,
        3,
        0,
        3
    ],
    "_percent_": true,
    "_skin_": "s2966c9a226f48c5af149f1ac82d112d",
    "_spacing_": 0,
    "_top_": 0,
    "_width_": {
        "type": "string",
        "value": "100%"
    },
    "allboxes": [],
    "android": {
        "render": false
    },
    "canUpdateUI": true,
    "children": [
        "Group0g101bd7177f34d",
        "lblDescription"
    ],
    "clipbounds": true,
    "containerId": true,
    "containerweight": 100,
    "desktopweb": {
        "render": false
    },
    "enablescrolling": true,
    "id": "grpContent",
    "info": null,
    "ipad": {
        "render": false
    },
    "iphone": {
        "render": false
    },
    "isvisible": true,
    "kiosk": {
        "render": false
    },
    "kuid": "h026cfea77614b3e85b5be8a59e7d139",
    "layouttype": 4,
    "name": "kony.ui.Group",
    "paddinginpixel": true,
    "parent": "grpMContent",
    "pf": "tempMenuItemDetails",
    "snapgridsize": 10,
    "snaptogrid": false,
    "spaan": {
        "render": false
    },
    "spaandroidtablet": {
        "render": false
    },
    "spabb": {
        "render": false
    },
    "spaip": {
        "render": false
    },
    "spaipad": {
        "render": false
    },
    "spawindowstablet": {
        "render": false
    },
    "spawinphone8": {
        "render": false
    },
    "tabrcandroid": {
        "render": false
    },
    "wType": "Group",
    "widgetalignment": 1,
    "windows10": {
        "render": false
    },
    "windows8": {
        "render": false
    },
    "winphone10": {
        "render": false
    },
    "winphone8": {
        "render": false
    }
}