{
    "@class": "com.kony.gen.viz.model.component.KVizButton",
    "DNDConfig": null,
    "__parentReadjusting__": false,
    "_height_": {
        "type": "string",
        "value": "42dp"
    },
    "_margin_": [
        6,
        6,
        6,
        6
    ],
    "_padding_": [
        0,
        0,
        0,
        0
    ],
    "_skin_": "s94d80e187a44bd9bb9ce6db5e729010",
    "_text_": "Delete Payee",
    "_top_": {
        "type": "string",
        "value": "10dp"
    },
    "_width_": {
        "type": "string",
        "value": "80%"
    },
    "canUpdateUI": true,
    "centerx": {
        "type": "string",
        "value": "50.00%"
    },
    "containerweight": 100,
    "contentalignment": 5,
    "disabledSkins": {},
    "displaytext": true,
    "focusskin": "s6e8459b84e349d98629a088bbfe1304",
    "id": "btnDeletePayeeKA",
    "ide_onClick": "AS_Button_a09ea0eef99d45bc9495aabdd528af4b",
    "info": null,
    "iphone": {
        "psp": {
            "showProgressIndicator": false
        }
    },
    "isvisible": true,
    "kuid": "567d28e100e54671b090c522a227be7e",
    "name": "kony.ui.Button",
    "onclick": "AS_Button_3d65bbd843c24bd2b9c8aec41e7d7b66",
    "parent": "buttonWrapper",
    "pf": "frmEditPayeeKA",
    "showprogressindicator": false,
    "texti18n": "i18n.transfer.deletePayee",
    "wType": "Button",
    "zindex": 1
}