{
    "@class": "com.kony.gen.viz.model.component.KVizButton",
    "DNDConfig": null,
    "__parentReadjusting__": false,
    "_height_": {
        "type": "string",
        "value": "10%"
    },
    "_margin_": [
        6,
        6,
        6,
        6
    ],
    "_padding_": [
        0,
        0,
        0,
        0
    ],
    "_skin_": "sf7766faf6e34d0789442a84c1e76e1a",
    "_text_": "",
    "_width_": {
        "type": "string",
        "value": "70%"
    },
    "canUpdateUI": true,
    "centerx": {
        "type": "string",
        "value": "50%"
    },
    "centery": {
        "type": "string",
        "value": "25%"
    },
    "containerweight": 100,
    "contentalignment": 5,
    "displaytext": true,
    "focusskin": "sad5d6d4890b44858a39e4bf8a290332",
    "id": "btnEditBillerConfirm",
    "ide_onClick": "AS_Button_b99278acb55d4137b6830bc9440739c3",
    "info": null,
    "isvisible": true,
    "kuid": "d0bcdd31138b4b0997cc15a8d80faf0d",
    "name": "kony.ui.Button",
    "parent": "flxEditBillerBody",
    "pf": "frmEditPayeeKA",
    "texti18n": "i18n.Bene.Confirm",
    "wType": "Button",
    "zindex": 1
}