{
  "operationConfig" : {
    "name" : "prGetEfwMappingCodes4276",
    "type" : "MappedToBackend",
    "cachable" : false,
    "smsEnabled" : false,
    "security" : "public",
    "responseEncoding" : "UTF-8",
    "httpMethod" : "GET",
    "decodeResponseBody" : false,
    "iMapping" : "<?xml version=\"1.0\" encoding=\"UTF-8\" standalone=\"yes\"?><mapper xmlns=\"http://www.kony.com/ns/mapper\">    <map inputpath=\"request_in\" outputpath=\"request_out\">        <set-param inputpath=\"usr\" outputpath=\"usr\"/>        <set-param inputpath=\"p_code_type\" outputpath=\"p_code_type\"/>        <set-param inputpath=\"pass\" outputpath=\"pass\"/>    </map></mapper>",
    "oMapping" : "<?xml version=\"1.0\" encoding=\"UTF-8\" standalone=\"yes\"?><mapper xmlns=\"http://www.kony.com/ns/mapper\">        <map inputpath=\"response_in\" outputpath=\"response_out\">                <set-param inputpath=\"EFWCodes\" outputpath=\"EFWCodes\"/>        </map></mapper>",
    "applyCommonMapping" : false,
    "backendMeta" : {
      "serviceVersion" : "1.0",
      "operationName" : "prGetEfwMappingCodes",
      "serviceName" : "BOJGetEfwMappingCodes"
    },
    "relationshipHierarchyMapping" : {
      "children" : [ ],
      "name" : "Payee",
      "selected" : true
    },
    "requestXmlMappingOverride" : true,
    "responseXmlMappingOverride" : true
  }
}