{
    "@class": "com.kony.gen.viz.model.component.KVizButton",
    "DNDConfig": null,
    "__parentReadjusting__": false,
    "_height_": {
        "type": "string",
        "value": "40dp"
    },
    "_margin_": [
        6,
        6,
        6,
        6
    ],
    "_padding_": [
        0,
        0,
        0,
        0
    ],
    "_skin_": "s409616a424246c78da4bbcd9516e43d",
    "_text_": "PAY BILL",
    "_top_": {
        "type": "string",
        "value": "10dp"
    },
    "_width_": {
        "type": "string",
        "value": "240dp"
    },
    "canUpdateUI": true,
    "centerx": {
        "type": "string",
        "value": "50%"
    },
    "containerweight": 100,
    "contentalignment": 5,
    "displaytext": true,
    "focusskin": "s409616a424246c78da4bbcd9516e43d",
    "id": "btnPayBillKA",
    "ide_onClick": "AS_Button_dd5d5f0bf99c4d13be15d7aff6a28c94",
    "info": null,
    "iphone": {},
    "isvisible": true,
    "kuid": "562fad1217244b5bba489477e6aa21bf",
    "name": "kony.ui.Button",
    "parent": "flxDetailsWrapperKA",
    "pf": "frmPayeeTransactionsKA",
    "texti18n": "i18n.manage_payee.btnPayBill",
    "wType": "Button",
    "zindex": 1
}