{
    "@class": "com.kony.gen.viz.model.component.KVizButton",
    "DNDConfig": null,
    "__parentReadjusting__": false,
    "_height_": {
        "type": "string",
        "value": "90%"
    },
    "_margin_": [
        6,
        6,
        6,
        6
    ],
    "_padding_": [
        0,
        0,
        0,
        0
    ],
    "_right_": {
        "type": "string",
        "value": "0%"
    },
    "_skin_": "sef0e6318cb74729a63354552567c681",
    "_text_": "",
    "_top_": {
        "type": "string",
        "value": "0%"
    },
    "_width_": {
        "type": "string",
        "value": "20%"
    },
    "canUpdateUI": true,
    "containerweight": 100,
    "contentalignment": 5,
    "displaytext": true,
    "focusskin": "sef0e6318cb74729a63354552567c681",
    "id": "btnNext",
    "ide_onClick": "AS_Button_dc52f72c706648c08e3a41820daf1760",
    "info": null,
    "isvisible": true,
    "kuid": "b7c0264f8f2e4da09574c1ada7fc844f",
    "name": "kony.ui.Button",
    "parent": "flxHeader",
    "pf": "frmCardLinkedAccounts",
    "texti18n": "i18n.login.next",
    "wType": "Button",
    "zindex": 1
}