{
    "@class": "com.kony.gen.viz.model.component.KVizLabel",
    "DNDConfig": null,
    "__parentReadjusting__": false,
    "_height_": {
        "type": "ref",
        "value": "preferred"
    },
    "_margin_": [
        1,
        1,
        1,
        1
    ],
    "_padding_": [
        0,
        0,
        0,
        0
    ],
    "_right_": {
        "type": "string",
        "value": "10%"
    },
    "_skin_": "sdc2609052d0427dba329f5aec3e3044",
    "_text_": "",
    "_top_": {
        "type": "string",
        "value": "14%"
    },
    "_width_": {
        "type": "ref",
        "value": "preferred"
    },
    "_wrapping_": 2,
    "android": {
        "textStyle": {
            "letterSpacing": 0,
            "strikeThrough": false
        }
    },
    "canUpdateUI": true,
    "containerweight": 100,
    "contentalignment": 4,
    "id": "lblLinked",
    "info": null,
    "ipad": {
        "psp": {
            "wrapping": 2
        }
    },
    "iphone": {
        "psp": {
            "wrapping": 2
        }
    },
    "isvisible": false,
    "kuid": "hd36ea30fcfc4faf9d7f50089436bf95",
    "name": "kony.ui.Label",
    "parent": "flxBody",
    "pf": "frmCardLinkedAccounts",
    "texti18n": "i18n.debitcardlinkedacc.linked",
    "tooltip": "",
    "wType": "Label",
    "zindex": 1
}