
{
    "NSCameraUsageDescription" : "BOJ Mobile App would like to access your camera in order to support this feature.",
	"NSLocationWhenInUseUsageDescription" : "Let’s to find location nearby.",
	"NSPhotoLibraryUsageDescription" : "BOJ Mobile App Needs to Access Your Photo Library in Order to add the image.",
	"NSSiriUsageDescription" : "BOJ Mobile App would like to access Siri in order to support this feature.",
	"NSCalendarsUsageDescription" : "BOJ Mobile App would like to access your Calendar in order to support this feature.",
	"NSMicrophoneUsageDescription" : "BOJ Mobile App would like to access your Calendar in order to support this feature.",
	"NSHealthShareUsageDescription":"BOJ Mobile App would like to access this feature in order to support.",
	"NSHealthUpdateUsageDescription":"BOJ Mobile App would like to access this feature in order to support.",
	"NSContactsUsageDescription":"This app requires contacts access to function properly."
}

