{
    "AS_AppMenu_a24f6811800f42189014fe7589486878": {
        "id": "AS_AppMenu_a24f6811800f42189014fe7589486878",
        "type": "ACTION_SEQUENCE",
        "actions": [{
            "id": "NAVIGATE_TO_FORM___60ee9fe301324d3cbee174637b33e8c7",
            "type": "NAVIGATE_TO_FORM",
            "formId": "frmTransferPayLandingKA",
            "formKUID": "dab7a50c55b94a12b3d961ae5bd49247",
            "mappings": {},
            "mappingsOrder": [],
            "parentId": "",
            "callbackType": null,
            "enableMappingEditor": true
        }]
    }
}