{
    "AS_Button_d543484d17ac4ee18d34466f24a434cd": {
        "id": "AS_Button_d543484d17ac4ee18d34466f24a434cd",
        "type": "ACTION_SEQUENCE",
        "actions": [{
            "id": "NAVIGATE_TO_FORM__onClick_762c676c78e94b4fa99917bfc4f56038",
            "type": "NAVIGATE_TO_FORM",
            "formId": "frmSearchKA",
            "formKUID": "ac09c32a534449b3b0961f8e48e26015",
            "mappings": {},
            "mappingsOrder": [],
            "parentId": "",
            "callbackType": null,
            "enableMappingEditor": true
        }]
    }
}