{
    "AS_Button_734f9d3b94ac478096ec7df9f553d7ce": {
        "id": "AS_Button_734f9d3b94ac478096ec7df9f553d7ce",
        "type": "ACTION_SEQUENCE",
        "actions": [{
            "id": "NAVIGATE_TO_FORM___f2c70fb5434d4971829abd93a494ba95",
            "type": "NAVIGATE_TO_FORM",
            "formId": "frmDepositLandingKA",
            "formKUID": "3ef26f9acd5b475cb1fdad0f87db5781",
            "mappings": {},
            "mappingsOrder": [],
            "parentId": "",
            "callbackType": null,
            "enableMappingEditor": true
        }]
    }
}