{
    "AS_Button_fa60ce881a8e4910bef7230bd369b207": {
        "id": "AS_Button_fa60ce881a8e4910bef7230bd369b207",
        "type": "ACTION_SEQUENCE",
        "actions": [{
            "id": "NAVIGATE_TO_FORM__onClick_ecc9cfcf5a964ed9bcb8e1241a370317",
            "type": "NAVIGATE_TO_FORM",
            "formId": "frmTransferPayLandingKA",
            "formKUID": "dab7a50c55b94a12b3d961ae5bd49247",
            "mappings": {},
            "mappingsOrder": [],
            "parentId": "",
            "callbackType": null,
            "enableMappingEditor": true
        }]
    }
}