{
    "AS_Button_089960f742334ccf9ac8292cff37599c": {
        "id": "AS_Button_089960f742334ccf9ac8292cff37599c",
        "type": "ACTION_SEQUENCE",
        "actions": [{
            "id": "NAVIGATE_TO_FORM__onClick_d5bf64b425ee438193b3a78c3f0394b7",
            "type": "NAVIGATE_TO_FORM",
            "formId": "frmUserSettingsKA",
            "formKUID": "8c525af2d26c4599b2327f0b14f14239",
            "mappings": {},
            "mappingsOrder": [],
            "parentId": "",
            "callbackType": null,
            "enableMappingEditor": true
        }]
    }
}