{
    "AS_Button_6d82d66231b746028bc173a14a96ee82": {
        "id": "AS_Button_6d82d66231b746028bc173a14a96ee82",
        "type": "ACTION_SEQUENCE",
        "actions": [{
            "id": "NAVIGATE_TO_FORM__onClick_a94c356b23b7413c9b3da55d6c395302",
            "type": "NAVIGATE_TO_FORM",
            "formKUID": "46f36ea071694fd5850c61e28c2bf835",
            "mappings": {},
            "mappingsOrder": [],
            "parentId": "",
            "callbackType": null,
            "enableMappingEditor": true
        }]
    }
}