{
    "AS_Button_aef2b5a4b7eb4e6da9b3dccde47e9e9a": {
        "id": "AS_Button_aef2b5a4b7eb4e6da9b3dccde47e9e9a",
        "type": "ACTION_SEQUENCE",
        "params": [{
            "datatype": "collection",
            "name": "eventobject"
        }],
        "actions": [{
            "id": "NAVIGATE_TO_FORM___37d9997a4a1945ff87a645c46b61dc40",
            "type": "NAVIGATE_TO_FORM",
            "formId": "frmNewBillKA",
            "formKUID": "94b57de480514c9f98e1f6979b71a37b",
            "mappings": {},
            "mappingsOrder": [],
            "parentId": "",
            "callbackType": null,
            "enableMappingEditor": true
        }]
    }
}