{
    "AS_Button_29426057910e417096e1b4b387d934ec": {
        "id": "AS_Button_29426057910e417096e1b4b387d934ec",
        "type": "ACTION_SEQUENCE",
        "params": [{
            "datatype": "collection",
            "name": "eventobject"
        }],
        "actions": [{
            "id": "ADD_SNIPPET__d1a164033a2b4c6c81751a111008b333",
            "type": "ADD_SNIPPET",
            "codeSnippet": "yourAccountClick(account1);",
            "parentId": null,
            "callbackType": null
        }]
    }
}