{
    "AS_Button_f73df0c218ed4eba8aaca269136396f8": {
        "id": "AS_Button_f73df0c218ed4eba8aaca269136396f8",
        "type": "ACTION_SEQUENCE",
        "actions": [{
            "id": "NAVIGATE_TO_FORM__onClick_6337286b78ee44589907e7b9a7b33d18",
            "type": "NAVIGATE_TO_FORM",
            "formId": "frmAccountsLandingKA",
            "formKUID": "d62a2a0906c64d2281addc95893a6544",
            "mappings": {},
            "mappingsOrder": [],
            "parentId": "",
            "callbackType": null,
            "enableMappingEditor": true
        }]
    }
}