{
    "AS_Button_59a112948a484f06b21001666d0f6ff7": {
        "id": "AS_Button_59a112948a484f06b21001666d0f6ff7",
        "type": "ACTION_SEQUENCE",
        "actions": [{
            "id": "NAVIGATE_TO_FORM__onClick_d40cb34583e84b22b9ee3c9c969d2060",
            "type": "NAVIGATE_TO_FORM",
            "formId": "frmAccountsLandingKA",
            "formKUID": "d62a2a0906c64d2281addc95893a6544",
            "mappings": {},
            "mappingsOrder": [],
            "parentId": "",
            "callbackType": null,
            "enableMappingEditor": true
        }]
    }
}