{
    "AS_Button_50eda77698424ee2a35cc1e0f590cfeb": {
        "id": "AS_Button_50eda77698424ee2a35cc1e0f590cfeb",
        "type": "ACTION_SEQUENCE",
        "actions": [{
            "id": "NAVIGATE_TO_FORM__onClick_0f6445487c8545679ae99a130a1d68bb",
            "type": "NAVIGATE_TO_FORM",
            "formId": "frmMoreLandingKA",
            "formKUID": "f90cf53e47ae407c83e2e30720fff3da",
            "mappings": {},
            "mappingsOrder": [],
            "parentId": "",
            "callbackType": null,
            "enableMappingEditor": true
        }]
    }
}