{
    "AS_Button_b184559392ac44e3a149cdf14e8dc38e": {
        "id": "AS_Button_b184559392ac44e3a149cdf14e8dc38e",
        "type": "ACTION_SEQUENCE",
        "actions": [{
            "id": "NAVIGATE_TO_FORM__onClick_00696b354fd84cd0b5b807c1d5d51ec5",
            "type": "NAVIGATE_TO_FORM",
            "formId": "frmTransferPayLandingKA",
            "formKUID": "dab7a50c55b94a12b3d961ae5bd49247",
            "mappings": {},
            "mappingsOrder": [],
            "parentId": "",
            "callbackType": null,
            "enableMappingEditor": true
        }, {
            "id": "ADD_SNIPPET_onClick_c73a5ac5119e40a4bb0b9b8bff894f13",
            "type": "ADD_SNIPPET",
            "codeSnippet": "frmNewTransferKA.enableScrolling = true;",
            "callbackType": null
        }]
    }
}