{
    "AS_Button_9c070bdccba14a768534fec81b4e1a25": {
        "id": "AS_Button_9c070bdccba14a768534fec81b4e1a25",
        "type": "ACTION_SEQUENCE",
        "actions": [{
            "id": "NAVIGATE_TO_FORM__onClick_ae275992ce1e4550a4bd1b1617859007",
            "type": "NAVIGATE_TO_FORM",
            "formId": "frmAccountsLandingKA",
            "formKUID": "d62a2a0906c64d2281addc95893a6544",
            "mappings": {},
            "mappingsOrder": [],
            "parentId": "",
            "callbackType": null,
            "enableMappingEditor": true
        }]
    }
}