{
    "AS_Button_805360542fa045ea8ab590d48c01d4d7": {
        "id": "AS_Button_805360542fa045ea8ab590d48c01d4d7",
        "type": "ACTION_SEQUENCE",
        "params": [{
            "datatype": "collection",
            "name": "eventobject"
        }],
        "actions": [{
            "id": "NAVIGATE_TO_FORM__onClick_b9d245f594154a3b859cd2f68063b680",
            "type": "NAVIGATE_TO_FORM",
            "formId": "frmMoreLandingKA",
            "formKUID": "f90cf53e47ae407c83e2e30720fff3da",
            "mappings": {},
            "mappingsOrder": [],
            "parentId": "",
            "callbackType": null,
            "enableMappingEditor": true
        }]
    }
}