{
    "AS_Button_d383cc2ee00f47fe9abafa5d97fa8133": {
        "id": "AS_Button_d383cc2ee00f47fe9abafa5d97fa8133",
        "type": "ACTION_SEQUENCE",
        "actions": [{
            "id": "NAVIGATE_TO_FORM__onClick_b3e7d32dfd87463e9347af6f9e685c97",
            "type": "NAVIGATE_TO_FORM",
            "formId": "frmUserSettingsAccountPreviewKA",
            "formKUID": "7891569f547446feb05fd0bfc49efb41",
            "mappings": {},
            "mappingsOrder": [],
            "parentId": "",
            "callbackType": null,
            "enableMappingEditor": true
        }]
    }
}