{
    "AS_Button_08aeae098b264f7fad4511d12f4d8b83": {
        "id": "AS_Button_08aeae098b264f7fad4511d12f4d8b83",
        "type": "ACTION_SEQUENCE",
        "params": [{
            "datatype": "collection",
            "name": "eventobject"
        }],
        "actions": [{
            "id": "NAVIGATE_TO_FORM__onClick_894834dc82f74411afcdadbfc68ec1d4",
            "type": "NAVIGATE_TO_FORM",
            "formId": "frmAccountDetailKA",
            "formKUID": "5ed703cad63c441882fc4a36f5ea0c28",
            "mappings": {},
            "mappingsOrder": [],
            "parentId": "",
            "callbackType": null,
            "enableMappingEditor": true
        }]
    }
}