{
    "AS_Button_8a7939b2cdbd4c65a66a4f69f4379e58": {
        "id": "AS_Button_8a7939b2cdbd4c65a66a4f69f4379e58",
        "type": "ACTION_SEQUENCE",
        "params": [{
            "datatype": "collection",
            "name": "eventobject"
        }],
        "actions": [{
            "id": "NAVIGATE_TO_FORM__onClick_51fb03670fe2497a98427d57faf14983",
            "type": "NAVIGATE_TO_FORM",
            "formId": "frmContactUsKA",
            "formKUID": "3730b7e8806c47969fff751b469e1811",
            "mappings": {},
            "mappingsOrder": [],
            "parentId": "",
            "callbackType": null,
            "enableMappingEditor": true
        }]
    }
}