{
    "AS_Button_1fe121a20c1d4d988b2b27103035291f": {
        "id": "AS_Button_1fe121a20c1d4d988b2b27103035291f",
        "type": "ACTION_SEQUENCE",
        "params": [{
            "datatype": "collection",
            "name": "eventobject"
        }],
        "actions": [{
            "id": "NAVIGATE_TO_FORM__onClick_70dc35be08674a878f4b3dedbaf86d40",
            "type": "NAVIGATE_TO_FORM",
            "formId": "frmAddNewPayeeKA",
            "formKUID": "22b994296d374ff48427012b2b05feb7",
            "mappings": {},
            "mappingsOrder": [],
            "parentId": "",
            "callbackType": null,
            "enableMappingEditor": true
        }]
    }
}