{
    "AS_Form_948d515aa347401dbc238778f07ba30b": {
        "id": "AS_Form_948d515aa347401dbc238778f07ba30b",
        "type": "ACTION_SEQUENCE",
        "actions": [{
            "id": "ADD_SNIPPET__627bd97f982040d8a275e2da3f87b73e",
            "type": "ADD_SNIPPET",
            "codeSnippet": "activeAndroidNav();",
            "parentId": null,
            "callbackType": null
        }]
    }
}