{
    "AS_Form_526575c89f234285b5dd15864f20dcf2": {
        "id": "AS_Form_526575c89f234285b5dd15864f20dcf2",
        "type": "ACTION_SEQUENCE",
        "actions": [{
            "id": "ADD_SNIPPET_preShow_e1a28b73d7544b2698fb09d87d66343f",
            "type": "ADD_SNIPPET",
            "codeSnippet": "scheduledTransactionDetailPreShow();",
            "callbackType": null
        }]
    }
}