{
    "AS_FlexScrollContainer_4f215c96e74c432cb390a2d99fa06ca2": {
        "id": "AS_FlexScrollContainer_4f215c96e74c432cb390a2d99fa06ca2",
        "type": "ACTION_SEQUENCE",
        "actions": []
    }
}