{
    "AS_Form_412ed858b67b4d7fab62fcb0c59785e4": {
        "id": "AS_Form_412ed858b67b4d7fab62fcb0c59785e4",
        "type": "ACTION_SEQUENCE",
        "actions": [{
            "id": "ADD_SNIPPET__1591799054634a5d9627f739cf6ea022",
            "type": "ADD_SNIPPET",
            "codeSnippet": "accountPreviewPreShow();",
            "parentId": null,
            "callbackType": null
        }]
    }
}