{
    "AS_Form_39212ccb536d4114b1106a63e715682a": {
        "id": "AS_Form_39212ccb536d4114b1106a63e715682a",
        "type": "ACTION_SEQUENCE",
        "actions": [{
            "id": "ADD_SNIPPET__ae139a220f814515ab10180abddfbb28",
            "type": "ADD_SNIPPET",
            "codeSnippet": "payBillInit();",
            "parentId": null,
            "callbackType": null
        }]
    }
}