{
    "AS_Form_f2fc39fc04ae4825914ce774563c5590": {
        "id": "AS_Form_f2fc39fc04ae4825914ce774563c5590",
        "type": "ACTION_SEQUENCE",
        "actions": [{
            "id": "ADD_SNIPPET__03bcaa82cbba482da959408805cce817",
            "type": "ADD_SNIPPET",
            "codeSnippet": "",
            "parentId": null,
            "callbackType": null
        }]
    }
}