{
    "AS_Switch_322d96585ea24a4b875360fdaa0795ed": {
        "id": "AS_Switch_322d96585ea24a4b875360fdaa0795ed",
        "type": "ACTION_SEQUENCE",
        "params": [{
            "datatype": "collection",
            "name": "eventobject"
        }, {
            "datatype": "string",
            "name": "x"
        }, {
            "datatype": "string",
            "name": "y"
        }],
        "actions": [{
            "id": "ADD_SNIPPET__c10ccc5a3afe46669c77788e8c99cda1",
            "type": "ADD_SNIPPET",
            "codeSnippet": "accountPreviewSwitchOnTouchEnd();",
            "parentId": null,
            "callbackType": null
        }]
    }
}