{
    "AS_Segment_1184e179f5834dbea1735a994b3584ba": {
        "id": "AS_Segment_1184e179f5834dbea1735a994b3584ba",
        "type": "ACTION_SEQUENCE",
        "actions": [{
            "id": "NAVIGATE_TO_FORM__onRowClick_874c0bc3bdfb44ba8d339c5750e47086",
            "type": "NAVIGATE_TO_FORM",
            "formId": "frmMoreForeignExchangeRatesKA",
            "formKUID": "d0c11a0a70964f74b5bade08834b8583",
            "mappings": {},
            "mappingsOrder": [],
            "parentId": "",
            "callbackType": null,
            "enableMappingEditor": true
        }]
    }
}