{
    "AS_TextField_3a07b69d6a7c49f8a0aedee277249426": {
        "id": "AS_TextField_3a07b69d6a7c49f8a0aedee277249426",
        "type": "ACTION_SEQUENCE",
        "actions": [{
            "id": "ADD_SNIPPET__36cf639db08c4c549a0dc96b4d57d2b0",
            "type": "ADD_SNIPPET",
            "codeSnippet": "userStartsSearch();",
            "parentId": null,
            "callbackType": null
        }]
    }
}