{
    "AS_TextField_d31569470d484932b93f5e87ff79247b": {
        "id": "AS_TextField_d31569470d484932b93f5e87ff79247b",
        "type": "ACTION_SEQUENCE",
        "params": [{
            "datatype": "collection",
            "name": "eventobject"
        }, {
            "datatype": "string",
            "name": "changedtext"
        }],
        "actions": [{
            "id": "ADD_SNIPPET__36928ff22e4b4e3cac123e94b7840166",
            "type": "ADD_SNIPPET",
            "codeSnippet": "accountNicknameEntered();",
            "parentId": null,
            "callbackType": null
        }]
    }
}