{
    "AS_TextField_f10095a3f6494bcdb74e39b4b1652b35": {
        "id": "AS_TextField_f10095a3f6494bcdb74e39b4b1652b35",
        "type": "ACTION_SEQUENCE",
        "params": [{
            "datatype": "collection",
            "name": "eventobject"
        }, {
            "datatype": "string",
            "name": "changedtext"
        }],
        "actions": [{
            "id": "ADD_SNIPPET__f71d3fe02154408f88038f0d731f2883",
            "type": "ADD_SNIPPET",
            "codeSnippet": "userStartsSearch();",
            "parentId": null,
            "callbackType": null
        }]
    }
}