{
    "AS_Button_d9dbe50e3b2943ecbc27ca698cb0d4d6": {
        "id": "AS_Button_d9dbe50e3b2943ecbc27ca698cb0d4d6",
        "type": "ACTION_SEQUENCE",
        "name": "settingsOnClick",
        "actions": [{
            "id": "NAVIGATE_TO_FORM___b962304644a3491fafc833ed557c1267",
            "type": "NAVIGATE_TO_FORM",
            "formId": "frmUserSettingsKA",
            "formKUID": "8c525af2d26c4599b2327f0b14f14239",
            "mappings": {},
            "mappingsOrder": [],
            "parentId": "",
            "callbackType": null,
            "enableMappingEditor": true
        }]
    }
}