{
    "@class": "com.kony.gen.viz.model.component.KVizButton",
    "DNDConfig": null,
    "__parentReadjusting__": false,
    "_height_": {
        "type": "string",
        "value": "50dp"
    },
    "_left_": {
        "type": "string",
        "value": "54dp"
    },
    "_margin_": [
        6,
        6,
        6,
        6
    ],
    "_padding_": [
        0,
        0,
        0,
        0
    ],
    "_skin_": "see68cd63ba243d98af2bd9f497e474c",
    "_text_": "F",
    "_top_": {
        "type": "string",
        "value": "0dp"
    },
    "_width_": {
        "type": "string",
        "value": "40dp"
    },
    "canUpdateUI": true,
    "containerweight": 100,
    "contentalignment": 5,
    "displaytext": true,
    "focusskin": "see68cd63ba243d98af2bd9f497e474c",
    "id": "btnAccountInfo",
    "ide_onClick": "AS_Button_fab0e584303d45f094fffeaea1ac9cc7",
    "info": null,
    "iphone": {
        "psp": {
            "showProgressIndicator": false
        }
    },
    "iscustomlayout": true,
    "isvisible": true,
    "kuid": "b537aae5965c44cfbbd74676e59a7cf5",
    "name": "kony.ui.Button",
    "parent": "flxSide",
    "pf": "frmPaymentDashboard",
    "retaincontentalignment": true,
    "retainflexpositionproperties": true,
    "wType": "Button",
    "zindex": 1
}