{
    "@class": "com.kony.gen.viz.model.component.KVizButton",
    "DNDConfig": null,
    "__parentReadjusting__": false,
    "_height_": {
        "type": "string",
        "value": "70dp"
    },
    "_margin_": [
        6,
        6,
        6,
        6
    ],
    "_padding_": [
        0,
        0,
        0,
        0
    ],
    "_skin_": "sd731c79375342f6a8eefb5c2dc393b0",
    "_text_": "B",
    "_top_": {
        "type": "string",
        "value": "0"
    },
    "_width_": {
        "type": "string",
        "value": "70dp"
    },
    "canUpdateUI": true,
    "centerx": {
        "type": "string",
        "value": "50%"
    },
    "containerweight": 100,
    "contentalignment": 5,
    "displaytext": true,
    "focusskin": "sd731c79375342f6a8eefb5c2dc393b0",
    "id": "btnCreditCardPayment",
    "ide_onClick": "AS_Button_d78bb0909edb480999b7eafb2f538616",
    "info": null,
    "isvisible": true,
    "kuid": "dee4b7389cc54b3c954e64a212108015",
    "name": "kony.ui.Button",
    "parent": "flxCreditCardPayment",
    "pf": "frmPaymentDashboard",
    "wType": "Button",
    "zindex": 1
}