{
    "@class": "com.kony.gen.viz.model.component.KVizButton",
    "DNDConfig": null,
    "__parentReadjusting__": false,
    "_height_": {
        "type": "string",
        "value": "70dp"
    },
    "_margin_": [
        6,
        6,
        6,
        6
    ],
    "_padding_": [
        0,
        0,
        0,
        0
    ],
    "_skin_": "s807c6e73d6f416bba9b0be7c288cc0f",
    "_text_": "v",
    "_width_": {
        "type": "string",
        "value": "70dp"
    },
    "canUpdateUI": true,
    "centerx": {
        "type": "string",
        "value": "50%"
    },
    "containerweight": 100,
    "contentalignment": 5,
    "displaytext": true,
    "focusskin": "sc679a6b9dd04f21af610b291690ffcd",
    "id": "btnSendMoney",
    "ide_onClick": "AS_Button_bfe435d2d5a1426188620610f29e4cb8",
    "info": null,
    "iphone": {
        "psp": {
            "showProgressIndicator": false
        }
    },
    "isvisible": true,
    "kuid": "f2a9177dc6f1446ea4b49071f22446f6",
    "name": "kony.ui.Button",
    "parent": "flxRight1",
    "pf": "frmPaymentDashboard",
    "wType": "Button",
    "zindex": 1
}