{
    "@class": "com.kony.gen.viz.model.component.KVizButton",
    "DNDConfig": null,
    "__parentReadjusting__": false,
    "_height_": {
        "type": "string",
        "value": "100%"
    },
    "_margin_": [
        6,
        6,
        6,
        6
    ],
    "_padding_": [
        0,
        0,
        0,
        0
    ],
    "_right_": {
        "type": "string",
        "value": "0%"
    },
    "_skin_": "s5253604489842bd8355e2612bbbf6f9",
    "_text_": "List",
    "_width_": {
        "type": "string",
        "value": "55%"
    },
    "android": {
        "psp": {}
    },
    "canUpdateUI": true,
    "centery": {
        "type": "string",
        "value": "50.00%"
    },
    "containerweight": 100,
    "contentalignment": 5,
    "disabledSkins": {
        "pressedSkin": "sc0ae2cbb5f64965985ec13e95d8b870"
    },
    "displaytext": true,
    "focusskin": "s0f488b2579d4b13b20ae12b51e6d9ca",
    "id": "btnListKA",
    "ide_onClick": "AS_Button_b415de7d36b640b980a9069e59bfb302",
    "info": null,
    "iphone": {
        "psp": {
            "showProgressIndicator": false
        }
    },
    "isvisible": true,
    "kuid": "5d312ae262a64d3a900d96fded74b9ed",
    "name": "kony.ui.Button",
    "paddinginpixel": false,
    "parent": "MapListControllerWrapper",
    "pf": "frmLocatorKA",
    "showprogressindicator": false,
    "texti18n": "i18n.locateus.list",
    "wType": "Button",
    "zindex": 1
}