{
    "@class": "com.kony.gen.viz.model.component.KVizButton",
    "DNDConfig": null,
    "__parentReadjusting__": false,
    "_height_": {
        "type": "string",
        "value": "50%"
    },
    "_margin_": [
        6,
        6,
        6,
        6
    ],
    "_padding_": [
        0,
        0,
        0,
        0
    ],
    "_right_": {
        "type": "string",
        "value": "0%"
    },
    "_skin_": "s1b558d5a76c4e74aa712819f5be63d1",
    "_text_": "h",
    "_top_": {
        "type": "string",
        "value": "0dp"
    },
    "_width_": {
        "type": "string",
        "value": "14%"
    },
    "canUpdateUI": true,
    "containerweight": 100,
    "contentalignment": 5,
    "disabledSkins": {},
    "displaytext": true,
    "focusskin": "s1b558d5a76c4e74aa712819f5be63d1",
    "id": "btnSearch",
    "ide_onClick": "AS_Button_b7099d1415e24d9ba8a42a274a4a8009",
    "info": null,
    "iscustomlayout": true,
    "isvisible": true,
    "kuid": "a83010e3c19e44ebaba8e6833894ac90",
    "name": "kony.ui.Button",
    "parent": "titleBarLocator",
    "pf": "frmLocatorKA",
    "retainflexpositionproperties": true,
    "wType": "Button",
    "zindex": 2
}