{
    "@class": "com.kony.gen.viz.model.container.KVizSegment2",
    "DNDConfig": null,
    "__parentReadjusting__": false,
    "_bounces_": false,
    "_data_": [
        {
            "btnAlpha": {
                "@class": "com.viz.ide.model.segment.SimpleTextSegmentData",
                "text": "B"
            },
            "lblLocationName": {
                "@class": "com.viz.ide.model.segment.SimpleTextSegmentData",
                "text": "Bank of Jordan"
            },
            "lblRightChevron": {
                "@class": "com.viz.ide.model.segment.SimpleTextSegmentData",
                "text": "Label"
            }
        }
    ],
    "_height_": {
        "type": "string",
        "value": "100%"
    },
    "_indicator_": "none",
    "_margin_": [
        0,
        0,
        0,
        0
    ],
    "_orientation_": 2,
    "_padding_": [
        0,
        0,
        0,
        0
    ],
    "_top_": {
        "type": "string",
        "value": "1dp"
    },
    "_width_": {
        "type": "string",
        "value": "100%"
    },
    "autogrowmode": 0,
    "canUpdateUI": true,
    "centerx": {
        "type": "string",
        "value": "50.00%"
    },
    "containerweight": 100,
    "counter": "00",
    "disabledSkins": {
        "widgetSkin": "s9bb3600227d452ba65a2ebd78d95a13"
    },
    "focusedindex": null,
    "focuseditem": null,
    "generatedtemplate": "78aa0aab9c4245c7888ba19252c78bd8",
    "groupcells": false,
    "hasSections": false,
    "id": "locatorSegmentList",
    "ide_onRowClick": "AS_Segment_1267dc6be4174eb1abe781c436283113",
    "info": null,
    "ipad": {
        "psp": {
            "indicator": "rowselect"
        }
    },
    "iphone": {
        "psp": {
            "bounces": true,
            "enableDictionary": false,
            "indicator": "none",
            "showProgressIndicator": false
        }
    },
    "isvisible": true,
    "kuid": "d976446d0f6147e38371616ce5620c46",
    "masterdata": {},
    "name": "kony.ui.SegmentedUI2",
    "needpageindicator": true,
    "onrowclick": "AS_Segment_1267dc6be4174eb1abe781c436283113",
    "pageoffdotimage": "pageoffdot.png",
    "pageondotimage": "pageondot.png",
    "paginationconfig": {
        "position": "bottom"
    },
    "parent": "locatorListView",
    "pf": "frmLocatorKA",
    "retainselection": false,
    "rowTemplateId": "gde7285622c848e6bed4f4deee3a7f4f",
    "rowcounter": 0,
    "rowfocusskin": "sd637e0f4cfa4026ba5ae8c9a2292000",
    "rowskin": "s3600812894441dc959bd18d548b21c3",
    "rowtemplate": "flxLocationDetails",
    "screenlevelwidget": false,
    "seccounter": 0,
    "sectionHeaderTemplateId": null,
    "sectionheaderskin": "s166bbed35d04ad1b28badead9d39877",
    "selectedRows": null,
    "selectedState": false,
    "selectedindex": null,
    "selectedindices": null,
    "selecteditems": null,
    "selectedsectionindex": 0,
    "selectionbehavior": "default",
    "separatorcolor": "64646400",
    "separatorrequired": true,
    "separatorthickness": 0,
    "showprogressindicator": false,
    "showscrollbars": false,
    "viewtype": "tableview",
    "vizProps": {},
    "wType": "Segment",
    "widgetalignment": 5,
    "widgetdatamap": {
        "btnAlpha": "btnAlpha",
        "flxLocationDetails": "flxLocationDetails",
        "lblLocationName": "lblLocationName",
        "lblRightChevron": "lblRightChevron"
    }
}