{
    "@class": "com.kony.gen.viz.model.component.KVizButton",
    "DNDConfig": null,
    "__parentReadjusting__": false,
    "_height_": {
        "type": "string",
        "value": "10%"
    },
    "_margin_": [
        6,
        6,
        6,
        6
    ],
    "_padding_": [
        0,
        0,
        0,
        0
    ],
    "_skin_": "sd2eeee37a174e978085b59706a4c1e1",
    "_text_": "F",
    "_width_": {
        "type": "string",
        "value": "16%"
    },
    "canUpdateUI": true,
    "centerx": {
        "type": "string",
        "value": "50%"
    },
    "centery": {
        "type": "string",
        "value": "8%"
    },
    "containerweight": 100,
    "contentalignment": 5,
    "disabledSkins": {},
    "displaytext": true,
    "focusskin": "sd2eeee37a174e978085b59706a4c1e1",
    "id": "btnProfilePhoto",
    "info": null,
    "isvisible": true,
    "kuid": "ibe5038228ac4325b749bccc7e1671bf",
    "name": "kony.ui.Button",
    "parent": "flxJoMoPayDetails",
    "pf": "frmJoMoPayConfirmation",
    "wType": "Button",
    "zindex": 1
}