{
    "@class": "com.kony.gen.viz.model.component.KVizLabel",
    "DNDConfig": null,
    "__markedForDelete__": true,
    "__parentReadjusting__": false,
    "_height_": {
        "type": "string",
        "value": "25dp"
    },
    "_margin_": [
        1,
        1,
        1,
        1
    ],
    "_padding_": [
        0,
        0,
        0,
        0
    ],
    "_right_": {
        "type": "string",
        "value": "5%"
    },
    "_skin_": "scac8d17997544068a3754423ae2c288",
    "_text_": "Passwords do not match",
    "_top_": {
        "type": "string",
        "value": "1%"
    },
    "_width_": {
        "type": "ref",
        "value": "preferred"
    },
    "_wrapping_": 2,
    "canUpdateUI": true,
    "containerweight": 100,
    "contentalignment": 6,
    "enabled": false,
    "id": "lblPasswordNotMatch",
    "info": null,
    "ipad": {
        "psp": {
            "wrapping": 2
        }
    },
    "iphone": {
        "psp": {
            "wrapping": 2
        }
    },
    "isvisible": false,
    "kuid": "c80a450506854971b987c3cbad1c2985",
    "name": "kony.ui.Label",
    "parent": "flxPassword",
    "pf": "frmCreateCredentials",
    "texti18n": "i18n.NUO.Passworddonotmatch",
    "tooltip": "",
    "wType": "Label",
    "zindex": 1
}