{
  "operationConfig" : {
    "name" : "getCheckOrders6646",
    "type" : "MappedToBackend",
    "cachable" : false,
    "smsEnabled" : false,
    "security" : "authorized_app_user",
    "responseEncoding" : "UTF-8",
    "httpMethod" : "GET",
    "decodeResponseBody" : false,
    "odata" : [ {
      "id" : "$filter",
      "dataType" : "string",
      "encode" : true,
      "accessType" : "readonly"
    }, {
      "id" : "$top",
      "dataType" : "string",
      "encode" : true,
      "accessType" : "readonly"
    }, {
      "id" : "$skip",
      "dataType" : "string",
      "encode" : true,
      "accessType" : "readonly"
    }, {
      "id" : "$orderby",
      "dataType" : "string",
      "encode" : true,
      "accessType" : "readonly"
    }, {
      "id" : "$select",
      "dataType" : "string",
      "encode" : true,
      "accessType" : "readonly"
    }, {
      "id" : "$expand",
      "dataType" : "string",
      "encode" : true,
      "accessType" : "readonly"
    }, {
      "id" : "$batchsize",
      "dataType" : "string",
      "encode" : true,
      "accessType" : "readonly"
    }, {
      "id" : "$batchid",
      "dataType" : "string",
      "encode" : true,
      "accessType" : "readonly"
    } ],
    "iMapping" : "<?xml version=\"1.0\" encoding=\"UTF-8\" standalone=\"yes\"?><mapper xmlns=\"http://www.kony.com/ns/mapper\">  <map inputpath=\"request_in\" outputpath=\"request_out\">    <set-param inputpath=\"checkOrderID\" outputpath=\"checkOrderID\"/>  </map></mapper>",
    "oMapping" : "<?xml version=\"1.0\" encoding=\"UTF-8\" standalone=\"yes\"?><mapper xmlns=\"http://www.kony.com/ns/mapper\">  <map inputpath=\"response_in\" outputpath=\"response_out\">    <set-param inputpath=\"success\" outputpath=\"success\"/>    <set-param inputpath=\"errmsg\" outputpath=\"errmsg\"/>    <map inputpath=\"CheckOrder\" outputpath=\"CheckOrder\">      <set-param inputpath=\"zipcode\" outputpath=\"zipcode\"/>      <set-param inputpath=\"accountID\" outputpath=\"accountID\"/>      <set-param inputpath=\"country\" outputpath=\"country\"/>      <set-param inputpath=\"orderTime\" outputpath=\"orderTime\"/>      <set-param inputpath=\"accountName\" outputpath=\"accountName\"/>      <set-param inputpath=\"leafCount\" outputpath=\"leafCount\"/>      <set-param inputpath=\"accountNickName\" outputpath=\"accountNickName\"/>      <set-param inputpath=\"name\" outputpath=\"name\"/>      <set-param inputpath=\"state\" outputpath=\"state\"/>      <set-param inputpath=\"checkOrderID\" outputpath=\"checkOrderID\"/>      <set-param inputpath=\"status\" outputpath=\"status\"/>      <set-param inputpath=\"postboxNumber\" outputpath=\"postboxNumber\"/>    </map>  </map></mapper>",
    "applyCommonMapping" : true,
    "backendMeta" : {
      "serviceVersion" : "1.0",
      "operationName" : "getCheckOrders",
      "serviceName" : "RetailBankingBEServices"
    },
    "relationshipHierarchyMapping" : {
      "children" : [ ],
      "name" : "CheckOrder",
      "selected" : true
    },
    "requestXmlMappingOverride" : false,
    "responseXmlMappingOverride" : false
  }
}