{
    "DNDConfig": null,
    "_height_": {
        "type": "string",
        "value": "30dp"
    },
    "_margin_": [
        0,
        0,
        0,
        0
    ],
    "_padding_": [
        0,
        0,
        0,
        0
    ],
    "_skin_": "s9c14c5cfa624594965bca8fa71d4023",
    "allboxes": [],
    "autogrowmode": 0,
    "canUpdateUI": true,
    "children": [
        "lblBoxKA",
        "CategoryName",
        "lblSepKA"
    ],
    "clipbounds": true,
    "containerId": true,
    "containerweight": 100,
    "disabledSkins": {},
    "enabled": false,
    "enablescrolling": true,
    "id": "CopyFlexContainer07124cb64fc4f45",
    "info": null,
    "isTemplate": true,
    "isvisible": true,
    "kuid": "5d1eec11bb574bf7bdb00affa01956bb",
    "layouttype": 2,
    "name": "kony.ui.FlexContainer",
    "orientation": 6,
    "parent": "tmplsegLegendKA",
    "percent": true,
    "pf": "tmplsegLegendKA",
    "snapgridsize": 10,
    "snaptogrid": true,
    "wType": "FlexContainer",
    "widgetalignment": 1
}