{
    "DNDConfig": null,
    "_height_": {
        "type": "ref",
        "value": "preferred"
    },
    "_margin_": [
        0,
        0,
        0,
        0
    ],
    "_padding_": [
        0,
        0,
        0,
        0
    ],
    "_skin_": "s388f0c575ef4d08ac3a5ed0a4b90085",
    "allboxes": [],
    "autogrowmode": 1,
    "canUpdateUI": true,
    "children": [
        "lblNoData",
        "flxIncoming",
        "flxSpacer",
        "flxOutgoing",
        "lblTransType"
    ],
    "clipbounds": true,
    "containerId": true,
    "containerweight": 100,
    "disabledSkins": {},
    "enabled": false,
    "enablescrolling": true,
    "focusskin": "s1f713aa803d4be288c7ce3a412dc7da",
    "id": "flxPaymentHistoryIncoming",
    "info": null,
    "isTemplate": true,
    "isvisible": true,
    "kuid": "fb8eae9378a34e1d93e0ab37702bf299",
    "layouttype": 2,
    "name": "kony.ui.FlexContainer",
    "orientation": 6,
    "parent": "tmpSegIPSPaymentHistory",
    "percent": true,
    "pf": "tmpSegIPSPaymentHistory",
    "snapgridsize": 10,
    "snaptogrid": true,
    "wType": "FlexContainer",
    "widgetalignment": 1
}