{
    "@class": "com.kony.gen.viz.model.component.KVizLabel",
    "DNDConfig": null,
    "__parentReadjusting__": false,
    "_height_": {
        "type": "ref",
        "value": "preferred"
    },
    "_left_": {
        "type": "string",
        "value": "55%"
    },
    "_margin_": [
        1,
        1,
        1,
        1
    ],
    "_padding_": [
        0,
        0,
        0,
        0
    ],
    "_skin_": "s6f3f4510a4c4fad9bf1b898d173c260",
    "_text_": "Buy Rate",
    "_width_": {
        "type": "string",
        "value": "22%"
    },
    "_wrapping_": 2,
    "android": {
        "textStyle": {
            "letterSpacing": 0,
            "strikeThrough": false
        }
    },
    "canUpdateUI": true,
    "centery": {
        "type": "string",
        "value": "48%"
    },
    "containerweight": 100,
    "contentalignment": 4,
    "id": "CopylblConvertedValue0de6ded6c2cfb4f",
    "info": null,
    "ipad": {
        "psp": {
            "wrapping": 2
        }
    },
    "iphone": {
        "psp": {
            "wrapping": 2
        }
    },
    "isvisible": false,
    "kuid": "f674dc76f7fb40ef95ff75a7422cb95d",
    "name": "kony.ui.Label",
    "parent": "flxSubTitle",
    "pf": "frmFxRate",
    "texti18n": "i18n.BuyRate",
    "tooltip": "",
    "wType": "Label",
    "zindex": 1
}