{
    "AS_Segment_0558f9a518e34bc48a144679898ede4f": {
        "id": "AS_Segment_0558f9a518e34bc48a144679898ede4f",
        "type": "ACTION_SEQUENCE",
        "name": "accountAlertsOnrowClick",
        "params": [{
            "datatype": "collection",
            "name": "eventobject"
        }, {
            "datatype": "number",
            "name": "sectionNumber"
        }, {
            "datatype": "number",
            "name": "rowNumber"
        }],
        "contextObj": {
            "name": "frmAccountAlertsKA",
            "type": "forms",
            "platform": null,
            "KUID": "bbe7fc072c444a808e3b02f2d737512c"
        },
        "language": "js",
        "actions": [{
            "id": "IF_CONDITION__eae25c5ac0e84416986f8a17f72cf1cc",
            "type": "IF_CONDITION",
            "conditions": [{
                "leftValueType": "expression",
                "leftValue": "frmAccountAlertsKA.AlertsAndroid.selectedRowIndex[1]==0\n"
            }],
            "parentId": null,
            "callbackType": null,
            "criteria": "all"
        }, {
            "id": "ELSE_IF_CONDITION__b36434f10bc54dda815ba6f4a34800a4",
            "type": "ELSE_IF_CONDITION",
            "conditions": [{
                "leftValueType": "expression",
                "leftValue": "frmAccountAlertsKA.AlertsAndroid.selectedRowIndex[1]==1\n"
            }],
            "parentId": null,
            "callbackType": null,
            "criteria": "all"
        }, {
            "id": "NAVIGATE_TO_FORM___f9111ff3ce464feab6fb983c3cf2253f",
            "type": "NAVIGATE_TO_FORM",
            "formKUID": "17e8fc918b85450a9d7bd5bfcd044acb",
            "mappings": {},
            "mappingsOrder": [],
            "parentId": "ELSE_IF_CONDITION__b36434f10bc54dda815ba6f4a34800a4",
            "callbackType": null,
            "enableMappingEditor": true,
            "navigationObj": "{\n    \"_meta_\": {\n        \"eventName\": \"\",\n        \"widgetId\": \"\"\n    }\n}",
            "isCustomInput": false
        }, {
            "id": "ELSE_IF_CONDITION__78efe474dda84309978a4d72753d2cff",
            "type": "ELSE_IF_CONDITION",
            "conditions": [{
                "leftValueType": "expression",
                "leftValue": "frmAccountAlertsKA.AlertsAndroid.selectedRowIndex[1]==2\n"
            }],
            "parentId": null,
            "callbackType": null,
            "criteria": "all"
        }, {
            "id": "NAVIGATE_TO_FORM___7cd000a7c1474ea78cf244ae2c91a0bd",
            "type": "NAVIGATE_TO_FORM",
            "formKUID": "d2cb6f3e680d4b3ab8eab057b337cc1d",
            "mappings": {},
            "mappingsOrder": [],
            "parentId": "ELSE_IF_CONDITION__78efe474dda84309978a4d72753d2cff",
            "callbackType": null,
            "enableMappingEditor": true,
            "navigationObj": "{\n    \"_meta_\": {\n        \"eventName\": \"\",\n        \"widgetId\": \"\"\n    }\n}",
            "isCustomInput": false
        }, {
            "id": "ELSE_IF_CONDITION__613e7645c5f64982911cd31c3bc127b4",
            "type": "ELSE_IF_CONDITION",
            "conditions": [{
                "leftValueType": "expression",
                "leftValue": "frmAccountAlertsKA.AlertsAndroid.selectedRowIndex[1]==3\n"
            }],
            "parentId": null,
            "callbackType": null,
            "criteria": "all"
        }, {
            "id": "NAVIGATE_TO_FORM___9f8e5ec9ce9a4b51baf701ff31c5621d",
            "type": "NAVIGATE_TO_FORM",
            "formKUID": "23787a30621c4266b34b9d6a63615fe0",
            "mappings": {},
            "mappingsOrder": [],
            "parentId": "ELSE_IF_CONDITION__613e7645c5f64982911cd31c3bc127b4",
            "callbackType": null,
            "enableMappingEditor": true,
            "navigationObj": "{\n    \"_meta_\": {\n        \"eventName\": \"\",\n        \"widgetId\": \"\"\n    }\n}",
            "isCustomInput": false
        }, {
            "id": "ELSE_IF_CONDITION__305bfbc051f64524b84744831c76be21",
            "type": "ELSE_IF_CONDITION",
            "conditions": [{
                "leftValueType": "expression",
                "leftValue": "frmAccountAlertsKA.AlertsAndroid.selectedRowIndex[1]==4\n\n"
            }],
            "parentId": null,
            "callbackType": null,
            "criteria": "all"
        }, {
            "id": "NAVIGATE_TO_FORM___d8bd1befb96141e798d0a1aa1fe60992",
            "type": "NAVIGATE_TO_FORM",
            "formKUID": "11dd677f22bd4c2ca085d29d1ab9bdb2",
            "mappings": {},
            "mappingsOrder": [],
            "parentId": "ELSE_IF_CONDITION__305bfbc051f64524b84744831c76be21",
            "callbackType": null,
            "enableMappingEditor": true,
            "navigationObj": "{\n    \"_meta_\": {\n        \"eventName\": \"\",\n        \"widgetId\": \"\"\n    }\n}",
            "isCustomInput": false
        }, {
            "id": "NAVIGATE_TO_FORM___f37c2f2bf4674817b06d3ad8815c7b34",
            "type": "NAVIGATE_TO_FORM",
            "formKUID": "e24ed7ff632944baa75827eec8b1cee3",
            "mappings": {},
            "mappingsOrder": [],
            "parentId": "IF_CONDITION__eae25c5ac0e84416986f8a17f72cf1cc",
            "callbackType": null,
            "enableMappingEditor": true,
            "navigationObj": "{\n    \"_meta_\": {\n        \"eventName\": \"\",\n        \"widgetId\": \"\"\n    }\n}",
            "isCustomInput": false
        }]
    }
}