{
    "AS_FlexContainer_0d9caab252fb4d8fa412739968c1fa93": {
        "id": "AS_FlexContainer_0d9caab252fb4d8fa412739968c1fa93",
        "type": "ACTION_SEQUENCE",
        "name": "AccountAlertsDepositRemainderOnclick",
        "params": [{
            "datatype": "collection",
            "name": "eventobject"
        }],
        "contextObj": {
            "name": "frmAccountAlertsKA",
            "type": "forms",
            "platform": "",
            "KUID": "bbe7fc072c444a808e3b02f2d737512c"
        },
        "language": "js",
        "actions": [{
            "id": "ADD_SNIPPET__fbc6bd48836347d99325406efcc2cea8",
            "type": "ADD_SNIPPET",
            "codeSnippet": "if(kony.os.userAgent()==\"iPhone\")\n  AlertsStatusUpdate(\"Deposit Maturity Reminder\", frmAccountAlertsKA.account.text, frmAccountAlertsKA.deposit.text);\nelse\n  AlertsStatusUpdate(\"Deposit Maturity Reminder\", frmAccountAlertsKA.accountandro.text, frmAccountAlertsKA.deposit.text);",
            "parentId": null,
            "callbackType": null
        }]
    }
}