{
    "AS_FlexContainer_72ce46efe78749e09207a1944491db95": {
        "id": "AS_FlexContainer_72ce46efe78749e09207a1944491db95",
        "type": "ACTION_SEQUENCE",
        "name": "ActionImgFlxOnclick",
        "params": [{
            "datatype": "collection",
            "name": "eventobject"
        }],
        "contextObj": {
            "name": "frmAlertsKA",
            "type": "forms",
            "platform": "",
            "KUID": "8f4fb6ef80f34f5f861f12908e1a5309"
        },
        "language": "js",
        "actions": [{
            "id": "ADD_SNIPPET__ad7d977b15aa4caea5d126f96c7cb343",
            "type": "ADD_SNIPPET",
            "codeSnippet": "onClickAlertsCHKBox();",
            "parentId": null,
            "callbackType": null
        }]
    }
}