{
    "AS_Button_c2c138f90b444c6d8c8be7e2be0e1de3": {
        "id": "AS_Button_c2c138f90b444c6d8c8be7e2be0e1de3",
        "type": "ACTION_SEQUENCE",
        "name": "actionOnBackInGenderForm",
        "params": [{
            "datatype": "collection",
            "name": "eventobject"
        }],
        "contextObj": {
            "type": "forms",
            "platform": "",
            "KUID": "eb12f8ffbb2d4f6a8412288b6ea74d19"
        },
        "language": "js",
        "actions": [{
            "id": "ADD_SNIPPET__e5ea865275f34fe0b8f800ca9b66aac8",
            "type": "ADD_SNIPPET",
            "codeSnippet": "kony.print(\"Deleted\");",
            "parentId": null,
            "callbackType": null
        }]
    }
}