{
    "AS_Form_hd3bcfccde724fe4a8476cea8de05ad7": {
        "id": "AS_Form_hd3bcfccde724fe4a8476cea8de05ad7",
        "type": "ACTION_SEQUENCE",
        "name": "actionOnPersonalInfoNamePostshow",
        "params": [{
            "datatype": "collection",
            "name": "eventobject"
        }],
        "contextObj": {
            "type": "forms",
            "platform": "",
            "KUID": "a731b583d1a64636b14ee729d1c40cfb"
        },
        "language": "js",
        "actions": [{
            "id": "ADD_SNIPPET__h25f486bc6ec4361a7391341465ea4bd",
            "type": "ADD_SNIPPET",
            "codeSnippet": "kony.print(\"deleted\");",
            "parentId": null,
            "callbackType": null
        }]
    }
}