{
    "AS_TextField_d48482602fb84bfebd20709978484c99": {
        "id": "AS_TextField_d48482602fb84bfebd20709978484c99",
        "type": "ACTION_SEQUENCE",
        "name": "actionOnCreditCheckTextChange",
        "params": [{
            "datatype": "collection",
            "name": "eventobject"
        }, {
            "datatype": "string",
            "name": "changedtext"
        }],
        "contextObj": {
            "type": "forms",
            "platform": "",
            "KUID": "d06fc3c10b1445ff99587a039483056a"
        },
        "language": "js",
        "actions": [{
            "id": "ADD_SNIPPET__e1ed7eabb8ed4b73b7c3318a80502a9d",
            "type": "ADD_SNIPPET",
            "codeSnippet": "kony.print(\"Deleted\");",
            "parentId": null,
            "callbackType": null
        }]
    }
}