{
    "AS_FlexContainer_b952302c7dd04de68ba2fbef1250121c": {
        "id": "AS_FlexContainer_b952302c7dd04de68ba2fbef1250121c",
        "type": "ACTION_SEQUENCE",
        "name": "actionOnClickOfmanualEmpInfo",
        "params": [{
            "datatype": "collection",
            "name": "eventobject"
        }],
        "contextObj": {
            "type": "forms",
            "platform": "",
            "KUID": "ga7736001df94de48b40dcd1e0f5f7da"
        },
        "language": "js",
        "actions": [{
            "id": "ADD_SNIPPET__cb6d1bf4523f406b9e1c80409a806c4f",
            "type": "ADD_SNIPPET",
            "codeSnippet": "kony.print(\"Deleted\");",
            "parentId": null,
            "callbackType": null
        }]
    }
}