{
    "AS_Image_a98f26c440bb4e4c9b67533218bb6fd4": {
        "id": "AS_Image_a98f26c440bb4e4c9b67533218bb6fd4",
        "type": "ACTION_SEQUENCE",
        "name": "actionOnDownloadCompleteOfPostloginAdImage5",
        "params": [{
            "datatype": "collection",
            "name": "eventobject"
        }, {
            "datatype": "string",
            "name": "imagesrc"
        }, {
            "datatype": "boolean",
            "name": "issuccess"
        }],
        "contextObj": {
            "name": "frmPostLoginAdvertisementKA",
            "type": "forms",
            "platform": "",
            "KUID": "a71da10c725748d8a1298eb522d627b9"
        },
        "language": "js",
        "actions": [{
            "id": "ADD_SNIPPET__h02a71a312154ae289b2ca6849c2172e",
            "type": "ADD_SNIPPET",
            "codeSnippet": "var postLoginVC = applicationManager.getpostLoginAdsViewController();\npostLoginVC.onAdImageDownloadComplete(issuccess,5);\n",
            "parentId": null,
            "callbackType": null
        }]
    }
}