{
    "AS_Form_ef9101602b1e4d0788a550efebf3a65d": {
        "id": "AS_Form_ef9101602b1e4d0788a550efebf3a65d",
        "type": "ACTION_SEQUENCE",
        "name": "actionOnDeviceBackOfMaritalStatus",
        "params": [{
            "datatype": "collection",
            "name": "eventobject"
        }],
        "contextObj": {
            "name": "frmNUOMaritalStatusKA",
            "type": "forms",
            "platform": null,
            "KUID": "i5fdc67c266a42c59e6302f1645d0c56"
        },
        "language": "js",
        "actions": [{
            "id": "ADD_SNIPPET_ide_onDeviceBack_e22e7b48de0048029aa6a790aa157673",
            "type": "ADD_SNIPPET",
            "codeSnippet": "kony.print(\"Device Back\");",
            "callbackType": null
        }]
    }
}