{
    "AS_Image_fd3b8a058bf940e6b3c8ed82b184566c": {
        "id": "AS_Image_fd3b8a058bf940e6b3c8ed82b184566c",
        "type": "ACTION_SEQUENCE",
        "name": "actionOnDownloadCompleteOfPostloginAdImage3",
        "params": [{
            "datatype": "collection",
            "name": "eventobject"
        }, {
            "datatype": "string",
            "name": "imagesrc"
        }, {
            "datatype": "boolean",
            "name": "issuccess"
        }],
        "contextObj": {
            "name": "frmPostLoginAdvertisementKA",
            "type": "forms",
            "platform": "",
            "KUID": "a71da10c725748d8a1298eb522d627b9"
        },
        "language": "js",
        "actions": [{
            "id": "ADD_SNIPPET__i0f787fc032e47a282a115bd9f604a99",
            "type": "ADD_SNIPPET",
            "codeSnippet": "var postLoginVC = applicationManager.getpostLoginAdsViewController();\npostLoginVC.onAdImageDownloadComplete(issuccess,3);\n",
            "parentId": null,
            "callbackType": null
        }]
    }
}