{
    "AS_Button_dde69c7bfc254c52ba79adbdfbb1d96b": {
        "id": "AS_Button_dde69c7bfc254c52ba79adbdfbb1d96b",
        "type": "ACTION_SEQUENCE",
        "name": "actionOnEmpTypeLogout",
        "params": [{
            "datatype": "collection",
            "name": "eventobject"
        }],
        "language": "js",
        "actions": [{
            "id": "SHOW_ALERT_ide_onClick_d69d3f0ff1e54c0595451556c1d0f936",
            "type": "SHOW_ALERT",
            "alertType": "constants.ALERT_TYPE_CONFIRMATION",
            "alertTitle": "Confirm Sign Out",
            "yesLabel": "Sign Out",
            "noLabel": "Cancel",
            "alertMessage": "Are you sure you want to sign out?",
            "messageType": "constant",
            "alertTitlei18n": "i18n.common.confirmSignOut",
            "yesLabeli18n": "i18n.common.signOut",
            "noLabeli18n": "i18n.common.cancel",
            "alertMessagei18n": "i18n.common.signOutAlert",
            "iconPosition": "constants.ALERT_ICON_POSITION_LEFT"
        }, {
            "id": "ADD_SNIPPET_ide_onClick_b53feee5105146f5805c1c3a3784249e",
            "type": "ADD_SNIPPET",
            "codeSnippet": "kony.print(\"Deleted\");",
            "parentId": "SHOW_ALERT_ide_onClick_d69d3f0ff1e54c0595451556c1d0f936",
            "callbackType": "True"
        }]
    }
}