{
    "AS_TextField_c4c66f3e87e647609fef05d436b031fc": {
        "id": "AS_TextField_c4c66f3e87e647609fef05d436b031fc",
        "type": "ACTION_SEQUENCE",
        "name": "actionOnPILastNameTextChange",
        "params": [{
            "datatype": "collection",
            "name": "eventobject"
        }, {
            "datatype": "string",
            "name": "changedtext"
        }],
        "contextObj": {
            "type": "forms",
            "platform": "",
            "KUID": "a731b583d1a64636b14ee729d1c40cfb"
        },
        "language": "js",
        "actions": [{
            "id": "ADD_SNIPPET__cd47f861d349420bae14324d07be24d0",
            "type": "ADD_SNIPPET",
            "codeSnippet": "kony.print(\"deleted\");",
            "parentId": null,
            "callbackType": null
        }]
    }
}