{
    "AS_Camera_ac425cff680f44fcb99495dc5626a3c1": {
        "id": "AS_Camera_ac425cff680f44fcb99495dc5626a3c1",
        "type": "ACTION_SEQUENCE",
        "name": "actionOnClickOfcamWidgetKA",
        "params": [{
            "datatype": "collection",
            "name": "eventobject"
        }],
        "contextObj": {
            "type": "forms",
            "platform": "",
            "KUID": "ga7736001df94de48b40dcd1e0f5f7da"
        },
        "language": "js",
        "actions": [{
            "id": "ADD_SNIPPET__j5dfc8d95c244454b24cf86cc289c616",
            "type": "ADD_SNIPPET",
            "codeSnippet": "kony.print(\"Deleted\");",
            "parentId": null,
            "callbackType": null
        }]
    }
}