{
    "AS_Form_c5ee13b9cc144e28b8020d07d5314f0d": {
        "id": "AS_Form_c5ee13b9cc144e28b8020d07d5314f0d",
        "type": "ACTION_SEQUENCE",
        "name": "actionOnDeviceBackOfUserExistence",
        "params": [{
            "datatype": "collection",
            "name": "eventobject"
        }],
        "contextObj": {
            "type": "forms",
            "platform": null,
            "KUID": "f3b3462928874d15a83d38c7499a4968"
        },
        "language": "js",
        "actions": [{
            "id": "ADD_SNIPPET__aa036d25522d4dbea64b097b3370935a",
            "type": "ADD_SNIPPET",
            "codeSnippet": "kony.print(\"Deleted\");",
            "parentId": null,
            "callbackType": null
        }]
    }
}