{
    "AS_Button_f51a50a5d772464ea26bb20cafcea2cd": {
        "id": "AS_Button_f51a50a5d772464ea26bb20cafcea2cd",
        "type": "ACTION_SEQUENCE",
        "name": "actionBackforPersonalInfo",
        "params": [{
            "datatype": "collection",
            "name": "eventobject"
        }],
        "contextObj": {
            "type": "forms",
            "platform": "",
            "KUID": "e3b9d10a5412423ca556ee8470d3ff60"
        },
        "language": "js",
        "actions": [{
            "id": "ADD_SNIPPET__d3d5e01c16f1421cb5569ef2ab3d3aff",
            "type": "ADD_SNIPPET",
            "codeSnippet": "kony.print(\"Deleted\");",
            "parentId": null,
            "callbackType": null
        }]
    }
}