{
    "AS_Button_da2d2e9b5ad2467b8c1eac506270d98a": {
        "id": "AS_Button_da2d2e9b5ad2467b8c1eac506270d98a",
        "type": "ACTION_SEQUENCE",
        "name": "actionOnNUOTermsandConditions",
        "params": [{
            "datatype": "collection",
            "name": "eventobject"
        }],
        "language": "js",
        "actions": [{
            "id": "ADD_SNIPPET_ide_onClick_a22ebce8ab714fcc98da80f1834f3ad7",
            "type": "ADD_SNIPPET",
            "codeSnippet": "kony.print(\"Deleted\");\n",
            "callbackType": null
        }]
    }
}