{
    "AS_Button_ce9ecd72b61342ea8107cbf1e046dbe2": {
        "id": "AS_Button_ce9ecd72b61342ea8107cbf1e046dbe2",
        "type": "ACTION_SEQUENCE",
        "name": "actionOnEditInAdd",
        "params": [{
            "datatype": "collection",
            "name": "eventobject"
        }],
        "contextObj": {
            "type": "forms",
            "platform": "",
            "KUID": "ga7736001df94de48b40dcd1e0f5f7da"
        },
        "language": "js",
        "actions": [{
            "id": "ADD_SNIPPET__c482978d294644e5b296ed88d794d388",
            "type": "ADD_SNIPPET",
            "codeSnippet": "kony.print(\"Deleted\");",
            "parentId": null,
            "callbackType": null
        }]
    }
}