{
    "AS_TextField_b8853eb45aee40528409bd43cdefddd7": {
        "id": "AS_TextField_b8853eb45aee40528409bd43cdefddd7",
        "type": "ACTION_SEQUENCE",
        "name": "actionForOnTextChangeEnterPassword",
        "params": [{
            "datatype": "collection",
            "name": "eventobject"
        }, {
            "datatype": "string",
            "name": "changedtext"
        }],
        "contextObj": {
            "name": "frmCreateCredentials",
            "type": "forms",
            "platform": "",
            "KUID": "ec144124e44d4336b9c86f2ab49591df"
        },
        "language": "js",
        "actions": [{
            "id": "ADD_SNIPPET__d4eeac8e374845b99c30a5e4b61d7edd",
            "type": "ADD_SNIPPET",
            "codeSnippet": "var VC = new kony.rb.frmCreateCredentialsViewController();\n VC.onTextChangeEnterPassword();",
            "parentId": null,
            "callbackType": null
        }]
    }
}