{
    "AS_FlexContainer_b23d57ee99994f94b6b3be9b4de4d3fd": {
        "id": "AS_FlexContainer_b23d57ee99994f94b6b3be9b4de4d3fd",
        "type": "ACTION_SEQUENCE",
        "name": "actionNUOSignUP",
        "params": [{
            "datatype": "collection",
            "name": "eventobject"
        }],
        "contextObj": {
            "type": "forms",
            "platform": "",
            "KUID": "ae9bd585c9dc472abb9f4a818592681b"
        },
        "language": "js",
        "actions": [{
            "id": "ADD_SNIPPET__j4e4c63f0ab741c88f7ad142e1860e0c",
            "type": "ADD_SNIPPET",
            "codeSnippet": "kony.print(\"Deleted\");",
            "parentId": null,
            "callbackType": null
        }]
    }
}