{
    "AS_Button_bf8de2acaf1a4a16afeda394c122ee4a": {
        "id": "AS_Button_bf8de2acaf1a4a16afeda394c122ee4a",
        "type": "ACTION_SEQUENCE",
        "name": "actionNUOVerificationResend",
        "params": [{
            "datatype": "collection",
            "name": "eventobject"
        }],
        "contextObj": {
            "type": "forms",
            "platform": "",
            "KUID": "fc18fd91a5d94e439cafe361f3aa1224"
        },
        "language": "js",
        "actions": [{
            "id": "ADD_SNIPPET__d51bc3a2a790415b9b0939bdb0fbbaff",
            "type": "ADD_SNIPPET",
            "codeSnippet": "var vc= applicationManager.getFrmNUOVerificationKAViewController();\nvc.onClickResendOTP();",
            "parentId": null,
            "callbackType": null
        }]
    }
}