{
    "AS_Form_h92a3ac07ddc4981ab4e2e066e25523f": {
        "id": "AS_Form_h92a3ac07ddc4981ab4e2e066e25523f",
        "type": "ACTION_SEQUENCE",
        "name": "actionDefaultpage",
        "params": [{
            "datatype": "collection",
            "name": "eventobject"
        }],
        "contextObj": {
            "name": "frmDefaultLoginMethodKA",
            "type": "forms",
            "platform": null,
            "KUID": "e739ce9a81be420593090d683fadc9e7"
        },
        "language": "js",
        "actions": [{
            "id": "ADD_SNIPPET__bfcc51d340ea49ca890a740b13aba288",
            "type": "ADD_SNIPPET",
            "codeSnippet": "kony.print(\"Remoed\");",
            "parentId": null,
            "callbackType": null
        }]
    }
}