{
    "AS_Image_c52b9b5319844aa59b105a21db689e59": {
        "id": "AS_Image_c52b9b5319844aa59b105a21db689e59",
        "type": "ACTION_SEQUENCE",
        "name": "ActiontoUploadAddressProofs",
        "params": [{
            "datatype": "collection",
            "name": "eventobject"
        }, {
            "datatype": "string",
            "name": "x"
        }, {
            "datatype": "string",
            "name": "y"
        }],
        "contextObj": {
            "type": "forms",
            "platform": "",
            "KUID": "d242d2d8afb149ed92b8c43908766e71"
        },
        "language": "js",
        "actions": [{
            "id": "ADD_SNIPPET__h3bf7562ff414edeb03ec97ab3f60cb3",
            "type": "ADD_SNIPPET",
            "codeSnippet": "kony.print(\"Deleted\");",
            "parentId": null,
            "callbackType": null
        }]
    }
}