{
    "AS_Image_f01eacc143834e059b39ff2288bf01a4": {
        "id": "AS_Image_f01eacc143834e059b39ff2288bf01a4",
        "type": "ACTION_SEQUENCE",
        "name": "ActiontoUplaodIncomeProofDocuments",
        "params": [{
            "datatype": "collection",
            "name": "eventobject"
        }, {
            "datatype": "string",
            "name": "x"
        }, {
            "datatype": "string",
            "name": "y"
        }],
        "contextObj": {
            "type": "forms",
            "platform": "",
            "KUID": "d242d2d8afb149ed92b8c43908766e71"
        },
        "language": "js",
        "actions": [{
            "id": "ADD_SNIPPET__bf206603569b423e9f5c8e3d1d9a8211",
            "type": "ADD_SNIPPET",
            "codeSnippet": "kony.print(\"Deleted\");",
            "parentId": null,
            "callbackType": null
        }]
    }
}