{
    "AS_TextField_a1aaa03ba02345e798cabad7b1c98cf0": {
        "id": "AS_TextField_a1aaa03ba02345e798cabad7b1c98cf0",
        "type": "ACTION_SEQUENCE",
        "name": "actionOnSeqQueTwoTextChange",
        "params": [{
            "datatype": "collection",
            "name": "eventobject"
        }, {
            "datatype": "string",
            "name": "changedtext"
        }],
        "contextObj": {
            "type": "forms",
            "platform": "",
            "KUID": "cb977d23d25e44d0968c446c681f4dc7"
        },
        "language": "js",
        "actions": [{
            "id": "ADD_SNIPPET__e3a91b4f43934e52831fe3934fd905f2",
            "type": "ADD_SNIPPET",
            "codeSnippet": "kony.print(\"Deleted\");",
            "parentId": null,
            "callbackType": null
        }]
    }
}