{
    "AS_FlexContainer_fef604677bbc4856b7a333d3398ef50c": {
        "id": "AS_FlexContainer_fef604677bbc4856b7a333d3398ef50c",
        "type": "ACTION_SEQUENCE",
        "name": "afwanNavigatetoPDashboard",
        "params": [{
            "datatype": "collection",
            "name": "eventobject"
        }],
        "language": "js",
        "actions": [{
            "id": "ADD_SNIPPET_ide_onClick_e9668fc5cdcb44d6ad9871b9c0a934a8",
            "type": "ADD_SNIPPET",
            "codeSnippet": "// var currentForm = kony.application.getCurrentForm();\n// kony.chatbots.bot.showBotSplash(currentForm);\nfrmPaymentDashboard.show();",
            "callbackType": null
        }]
    }
}