{
    "AS_Form_ceb2c3f5781344109e1c85e3f4ac0cd5": {
        "id": "AS_Form_ceb2c3f5781344109e1c85e3f4ac0cd5",
        "type": "ACTION_SEQUENCE",
        "name": "afwanJomoPayLandingPostShow",
        "params": [{
            "datatype": "collection",
            "name": "eventobject"
        }],
        "contextObj": {
            "name": "frmJoMoPayLanding",
            "type": "forms",
            "platform": "",
            "KUID": "d298f6fe5af04a4dbf76c2b5625a9f8c"
        },
        "language": "js",
        "actions": [{
            "id": "ADD_SNIPPET__j4a68f0a5d4943f4b196dd14474a585e",
            "type": "ADD_SNIPPET",
            "codeSnippet": "// addData();\njpdata=frmJoMoPayLanding.segJomopayDetails.data;\nkony.print(\"jpdata::\"+jpdata);",
            "parentId": null,
            "callbackType": null
        }]
    }
}