{
    "AS_TextField_d31b3d8898b145f590b35bf2b135d102": {
        "id": "AS_TextField_d31b3d8898b145f590b35bf2b135d102",
        "type": "ACTION_SEQUENCE",
        "name": "animateRegisterUsernameLabelUp",
        "params": [{
            "datatype": "collection",
            "name": "eventobject"
        }, {
            "datatype": "string",
            "name": "x"
        }, {
            "datatype": "string",
            "name": "y"
        }],
        "contextObj": {
            "name": "frmCongratulations",
            "type": "forms",
            "platform": "",
            "KUID": "h0d76ad922194a6b81763ba19df1183c"
        },
        "language": "js",
        "actions": [{
            "id": "ADD_SNIPPET__adfba85b5e5f4038888d9356095e36bd",
            "type": "ADD_SNIPPET",
            "codeSnippet": "animateLabel(\"UP\", \"lblUsername\", frmEnrolluserLandingKA.tbxUsernameKA.text);\nfrmEnrolluserLandingKA.flxUnderlineUsername.skin = \"sknFlxBlueLine\";",
            "parentId": null,
            "callbackType": null
        }]
    }
}