{
    "AS_Button_c588998d5e70441aa1cb30ce21056048": {
        "id": "AS_Button_c588998d5e70441aa1cb30ce21056048",
        "type": "ACTION_SEQUENCE",
        "params": [{
            "datatype": "collection",
            "name": "eventobject"
        }],
        "contextObj": {
            "name": "frmAccountDetailKA",
            "type": "forms",
            "platform": "",
            "KUID": "5ed703cad63c441882fc4a36f5ea0c28"
        },
        "language": "js",
        "actions": [{
            "id": "ADD_SNIPPET__be8728279aed43d0b59675b8aee41f36",
            "type": "ADD_SNIPPET",
            "codeSnippet": "kony.print(\"Asdasdas\");",
            "parentId": null,
            "callbackType": null
        }]
    }
}