{
    "AS_Button_ad2e8aaebac44e41aa784f1b6fba82ca": {
        "id": "AS_Button_ad2e8aaebac44e41aa784f1b6fba82ca",
        "type": "ACTION_SEQUENCE",
        "params": [{
            "datatype": "collection",
            "name": "eventobject"
        }],
        "contextObj": {
            "type": "forms",
            "platform": "",
            "KUID": "d06fc3c10b1445ff99587a039483056a"
        },
        "language": "js",
        "actions": [{
            "id": "ADD_SNIPPET__ea5bd5c40a2645709b46af5487eb0752",
            "type": "ADD_SNIPPET",
            "codeSnippet": "var creCh=applicationManager.getCreditCheckViewController();\ncreCh.onClickOnReject();",
            "parentId": null,
            "callbackType": null
        }]
    }
}