{
    "AS_Button_f92784ea2c1d415b8ac615588b63e8a8": {
        "id": "AS_Button_f92784ea2c1d415b8ac615588b63e8a8",
        "type": "ACTION_SEQUENCE",
        "params": [{
            "datatype": "collection",
            "name": "eventobject"
        }],
        "language": "js",
        "actions": [{
            "id": "ADD_SNIPPET_ide_onClick_g4562d7d11204407b65a3b927d07235a",
            "type": "ADD_SNIPPET",
            "codeSnippet": "frmMore.show();",
            "callbackType": null
        }]
    }
}