{
    "AS_Button_hda4283d0635405190eeb22e41aede9d": {
        "id": "AS_Button_hda4283d0635405190eeb22e41aede9d",
        "type": "ACTION_SEQUENCE",
        "name": "AS_Button_hdaEditText",
        "params": [{
            "datatype": "collection",
            "name": "eventobject"
        }],
        "contextObj": {
            "name": "frmCardsAddNickname",
            "type": "forms",
            "platform": null,
            "KUID": "d382c627ba0b45cfb446cc6dd8d8759e"
        },
        "language": "js",
        "actions": [{
            "id": "ADD_SNIPPET_ide_onClick_j8149d1737624912b33d2c74dc621d5e",
            "type": "ADD_SNIPPET",
            "codeSnippet": "kony.print(\"edit\");\nif(frmCardsAddNickname.btnEdit.text === \"0\" ){\n frmCardsAddNickname.txtAddNickName.setFocus(true);\n frmCardsAddNickname.btnEdit.text = \"O\";\n \n}else{\n frmCardsAddNickname.txtAddNickName.text = \"\";\n  frmCardsAddNickname.btnEdit.text = \"\";\n //frmCardsAddNickname.btnEdit.text = 0+\"\"; \n}\n",
            "callbackType": null
        }]
    }
}