{
    "AS_Button_c8f350218c2d4a0d9979fb38e3990fa1": {
        "id": "AS_Button_c8f350218c2d4a0d9979fb38e3990fa1",
        "type": "ACTION_SEQUENCE",
        "params": [{
            "datatype": "collection",
            "name": "eventobject"
        }],
        "contextObj": {
            "type": "forms",
            "platform": "",
            "KUID": "ac09c32a534449b3b0961f8e48e26015"
        },
        "language": "js",
        "actions": [{
            "id": "ADD_SNIPPET__9a754ad36927436ab435ac03efb58593",
            "type": "ADD_SNIPPET",
            "codeSnippet": "getFilteredSubAccounts(\"withDrawals\");\ntransactionSearchHeaderAnimate(\"0%\");",
            "parentId": null,
            "callbackType": null
        }]
    }
}