{
    "AS_FlexContainer_h22984dbfd5b435889e026e2d675e577": {
        "id": "AS_FlexContainer_h22984dbfd5b435889e026e2d675e577",
        "type": "ACTION_SEQUENCE",
        "name": "AS_backeFawatter",
        "params": [{
            "datatype": "collection",
            "name": "eventobject"
        }],
        "language": "js",
        "actions": [{
            "id": "ADD_SNIPPET_ide_onClick_f15caa5035114c458c53c50a0e37a84c",
            "type": "ADD_SNIPPET",
            "codeSnippet": "frmAccountsLandingKA.show();",
            "callbackType": null
        }]
    }
}