{
    "AS_Button_eef1b7a04c794797a075d6ddcac24d7f": {
        "id": "AS_Button_eef1b7a04c794797a075d6ddcac24d7f",
        "type": "ACTION_SEQUENCE",
        "params": [{
            "datatype": "collection",
            "name": "eventobject"
        }],
        "language": "js",
        "actions": [{
            "id": "ADD_SNIPPET_ide_onClick_d8b5154794da4a8ea7ae39ed07655fbf",
            "type": "ADD_SNIPPET",
            "codeSnippet": "onClickCardsMenu();"
        }]
    }
}