{
    "AS_Button_d0f2404034a446e9a70ff9975fbecbe9": {
        "id": "AS_Button_d0f2404034a446e9a70ff9975fbecbe9",
        "type": "ACTION_SEQUENCE",
        "name": "AS_Button_onClickTener1Year",
        "params": [{
            "datatype": "collection",
            "name": "eventobject"
        }],
        "contextObj": {
            "name": "frmOpenTermDeposit",
            "type": "forms",
            "platform": "",
            "KUID": "fec6fddbcf8543f2b30114c87e1a7e99"
        },
        "language": "js",
        "actions": [{
            "id": "ADD_SNIPPET__c9c2cbcf64db4c6d88976532e098d437",
            "type": "ADD_SNIPPET",
            "codeSnippet": "funSelectTener(\"1Year\");",
            "parentId": null,
            "callbackType": null
        }]
    }
}