{
    "AS_Button_cf1c1c9820b4448a91f5f3319bc36d94": {
        "id": "AS_Button_cf1c1c9820b4448a91f5f3319bc36d94",
        "type": "ACTION_SEQUENCE",
        "params": [{
            "datatype": "collection",
            "name": "eventobject"
        }],
        "language": "js",
        "actions": [{
            "id": "ADD_SNIPPET_ide_onClick_cad60ff444864f4ca4057a984053abca",
            "type": "ADD_SNIPPET",
            "codeSnippet": "",
            "callbackType": null
        }]
    }
}