{
    "AS_Button_9393bf8279db4ea0a5e2bd95354d736c": {
        "id": "AS_Button_9393bf8279db4ea0a5e2bd95354d736c",
        "type": "ACTION_SEQUENCE",
        "params": [{
            "datatype": "collection",
            "name": "eventobject"
        }],
        "contextObj": {
            "name": "frmDirectionsKA",
            "type": "forms",
            "platform": null,
            "KUID": "2a844aaae75b49948039c6e28c65dfcc"
        },
        "language": "js",
        "actions": [{
            "id": "ADD_SNIPPET__516af10f711c4d828bdef36f8bc90a48",
            "type": "ADD_SNIPPET",
            "codeSnippet": "locatorLViewEnabled();",
            "parentId": null,
            "callbackType": null
        }]
    }
}