{
    "AS_Button_i07262e1aa3d42789040e40654c4e108": {
        "id": "AS_Button_i07262e1aa3d42789040e40654c4e108",
        "type": "ACTION_SEQUENCE",
        "name": "AS_Button_OnClickBtnBulkPaymentManagaPayee",
        "params": [{
            "datatype": "collection",
            "name": "eventobject"
        }],
        "language": "js",
        "actions": [{
            "id": "ADD_SNIPPET_ide_onClick_d29ee2db0d7549339baeb551b54c6cf9",
            "type": "ADD_SNIPPET",
            "codeSnippet": "frmBulkPaymentKA.flxMainContainer.isVisible = true;\nfrmBulkPaymentKA.flxConfirmPayment.isVisible = false;\nfrmBulkPaymentKA.lblNext.skin = \"sknLblNextDisabled\";\nfrmBulkPaymentKA.flxUnderlinePaymentModeBulk.skin = \"sknFlxGreyLine\";\nfrmBulkPaymentKA.lblPaymentMode.text = geti18Value(\"i18n.billsPay.Accounts\");\nfrmBulkPaymentKA.flxConversionAmt.setVisibility(false);\nserv_getBulkBillNumberDetails();",
            "callbackType": null
        }]
    }
}