{
    "AS_Button_7f73adf27b3d425596d1a71e16536614": {
        "id": "AS_Button_7f73adf27b3d425596d1a71e16536614",
        "type": "ACTION_SEQUENCE",
        "params": [{
            "datatype": "collection",
            "name": "eventobject"
        }],
        "language": "js",
        "actions": [{
            "id": "ADD_SNIPPET__9564a2238f5e4de59cffa04d30dafd1a",
            "type": "ADD_SNIPPET",
            "codeSnippet": "kony.print(\"Deleted\");",
            "parentId": null,
            "callbackType": null
        }]
    }
}