{
    "AS_Button_9cf36eaf8cdb4b089d1d70a36f1a9116": {
        "id": "AS_Button_9cf36eaf8cdb4b089d1d70a36f1a9116",
        "type": "ACTION_SEQUENCE",
        "params": [{
            "datatype": "collection",
            "name": "eventobject"
        }],
        "language": "js",
        "actions": [{
            "id": "ADD_SNIPPET_ide_onClick_362983ba48e8441fbf9353ee62c969da",
            "type": "ADD_SNIPPET",
            "codeSnippet": "//onclickTransferEdit(\"from\");\n//editAccountCard(frmNewTransferKA, \"from\");\n//fromSelecetdSeg = true;\n//resetTOAccountData(\"segInternalFromAccountsKA\",\"segInternalTOAccountsKA\",\"frmNewTransferKA\");\nfrmNewBillKA.fromlblAccountNumberKA.text=\"\";\nsetContainerState(frmNewBillKA,\"from\",\"ANIMATION_EXPAND\", fromCardHeightPayBill);",
            "callbackType": null
        }]
    }
}