{
    "AS_Button_j8bbf8d401af469c9aa004fc4fbe3a4e": {
        "id": "AS_Button_j8bbf8d401af469c9aa004fc4fbe3a4e",
        "type": "ACTION_SEQUENCE",
        "params": [{
            "datatype": "collection",
            "name": "eventobject"
        }],
        "contextObj": {
            "type": "forms",
            "platform": "",
            "KUID": "d632c1724f9840698e446fcf7c83b2ca"
        },
        "language": "js",
        "actions": [{
            "id": "SHOW_ALERT__e4a255e93adf42e3b5cca50a2046a756",
            "type": "SHOW_ALERT",
            "alertType": "constants.ALERT_TYPE_CONFIRMATION",
            "alertTitle": "Confirm Sign Out",
            "yesLabel": "Sign Out",
            "noLabel": "Cancel",
            "alertMessage": "Are you sure you want to sign out?",
            "messageType": "constant",
            "parentId": null,
            "callbackType": null,
            "alertTitlei18n": "i18n.common.confirmSignOut",
            "yesLabeli18n": "i18n.common.signOut",
            "noLabeli18n": "i18n.common.cancel",
            "alertMessagei18n": "i18n.common.signOutAlert",
            "iconPosition": "constants.ALERT_ICON_POSITION_LEFT"
        }, {
            "id": "ADD_SNIPPET__aaf05bc0140442e8a36186347eac6f08",
            "type": "ADD_SNIPPET",
            "codeSnippet": "frmAccountInfoEditKA.copyflxAccountInfoNavOptKA.isVisible=false;\nkony.sdk.mvvm.LogoutAction();",
            "parentId": "SHOW_ALERT__e4a255e93adf42e3b5cca50a2046a756",
            "callbackType": "True"
        }]
    }
}