{
    "AS_Button_b7efb18e5b774ee9b128a12584c27fb1": {
        "id": "AS_Button_b7efb18e5b774ee9b128a12584c27fb1",
        "type": "ACTION_SEQUENCE",
        "params": [{
            "datatype": "collection",
            "name": "eventobject"
        }],
        "contextObj": {
            "name": "frmContactUsKA",
            "type": "forms",
            "platform": "",
            "KUID": "3730b7e8806c47969fff751b469e1811"
        },
        "language": "js",
        "actions": [{
            "id": "ADD_SNIPPET_ide_onClick_bb79f170dae7456db46f16cf05d7864b",
            "type": "ADD_SNIPPET",
            "codeSnippet": "frmLoginKA.show();",
            "callbackType": null
        }]
    }
}