{
    "AS_Button_a4178f057baf4b6a860732c4f9b9acd6": {
        "id": "AS_Button_a4178f057baf4b6a860732c4f9b9acd6",
        "type": "ACTION_SEQUENCE",
        "name": "AS_Button_a4178f057baf4b6a860732c4f9b9acd6_deleted",
        "params": [{
            "datatype": "collection",
            "name": "eventobject"
        }],
        "contextObj": {
            "name": "frmAccountsLandingKA",
            "type": "forms",
            "platform": "",
            "KUID": "d62a2a0906c64d2281addc95893a6544"
        },
        "language": "js",
        "actions": []
    }
}