{
    "AS_Button_c9a5c9d8162a40048b61ca0665d204ae": {
        "id": "AS_Button_c9a5c9d8162a40048b61ca0665d204ae",
        "type": "ACTION_SEQUENCE",
        "params": [{
            "datatype": "collection",
            "name": "eventobject"
        }],
        "language": "js",
        "actions": [{
            "id": "ADD_SNIPPET_ide_onClick_g6f4f898fa434814ac04158e46bae447",
            "type": "ADD_SNIPPET",
            "codeSnippet": "onChangingradioBtnNewBillKA(frmNewBillKA.btnBillsPayAccounts,frmNewBillKA.lblBillsPayAccounts.text);",
            "callbackType": null
        }]
    }
}