{
    "AS_Button_a308aa5b88ce4ad78342b3f406ba089a": {
        "id": "AS_Button_a308aa5b88ce4ad78342b3f406ba089a",
        "type": "ACTION_SEQUENCE",
        "params": [{
            "datatype": "collection",
            "name": "eventobject"
        }],
        "contextObj": {
            "type": "forms",
            "platform": "",
            "KUID": "ac09c32a534449b3b0961f8e48e26015"
        },
        "language": "js",
        "actions": [{
            "id": "ADD_SNIPPET__3785da792eed4eb2b87c2726b5f3c1ac",
            "type": "ADD_SNIPPET",
            "codeSnippet": "getFilteredSubAccounts(\"both\");\ntransactionSearchHeaderAnimate(\"33.3%\");",
            "parentId": null,
            "callbackType": null
        }]
    }
}