{
    "AS_Button_d8e41239f3e74b1eba693d530e988eb4": {
        "id": "AS_Button_d8e41239f3e74b1eba693d530e988eb4",
        "type": "ACTION_SEQUENCE",
        "params": [{
            "datatype": "collection",
            "name": "eventobject"
        }],
        "contextObj": {
            "type": "forms",
            "platform": null,
            "KUID": "6eb320a5ff4c42d8bf0ce564370c64ff"
        },
        "language": "js",
        "actions": [{
            "id": "ADD_SNIPPET__d7a3f047ce694e39a5f65d36d95f1e85",
            "type": "ADD_SNIPPET",
            "codeSnippet": "gobackFormUncatTrans();",
            "parentId": null,
            "callbackType": null
        }]
    }
}