{
    "AS_TextField_j3796e31a5fa4527bb58c5d6f67e8e9d": {
        "id": "AS_TextField_j3796e31a5fa4527bb58c5d6f67e8e9d",
        "type": "ACTION_SEQUENCE",
        "name": "AS_billernumOnEndI",
        "params": [{
            "datatype": "collection",
            "name": "eventobject"
        }, {
            "datatype": "string",
            "name": "changedtext"
        }],
        "contextObj": {
            "name": "frmNewBillKA",
            "type": "forms",
            "platform": "",
            "KUID": "94b57de480514c9f98e1f6979b71a37b"
        },
        "language": "js",
        "actions": [{
            "id": "ADD_SNIPPET__e3aeb22aac024eb8ae6debde6322095b",
            "type": "ADD_SNIPPET",
            "codeSnippet": "animateLabel(\"DOWN\",\"lblBillerNumber\", frmNewBillKA.tbxBillerNumber.text);\nnextFromNewBillScreen();",
            "parentId": null,
            "callbackType": null
        }]
    }
}