{
    "AS_Button_4b452c74c2164b0c90c226dbcc6f9b5e": {
        "id": "AS_Button_4b452c74c2164b0c90c226dbcc6f9b5e",
        "type": "ACTION_SEQUENCE",
        "params": [{
            "datatype": "collection",
            "name": "eventobject"
        }],
        "contextObj": {
            "type": "forms",
            "platform": null,
            "KUID": "400a0ee97eb04e5897318084b1271b8a"
        },
        "language": "js",
        "actions": [{
            "id": "ADD_SNIPPET_ide_onClick_24af1ddead18420b80b785a731485a66",
            "type": "ADD_SNIPPET",
            "codeSnippet": "hideDateRange();\napplyFilterSearch();",
            "callbackType": null
        }]
    }
}