{
    "AS_Button_85492cf568c74eb4a8bd1891f8fefb48": {
        "id": "AS_Button_85492cf568c74eb4a8bd1891f8fefb48",
        "type": "ACTION_SEQUENCE",
        "params": [{
            "datatype": "collection",
            "name": "eventobject"
        }],
        "language": "js",
        "actions": [{
            "id": "ADD_SNIPPET_ide_onClick_1f3c7cb0da89425f999ddeec71528927",
            "type": "ADD_SNIPPET",
            "codeSnippet": "scheduledTabSelectedAccounts();",
            "callbackType": null
        }]
    }
}