{
    "AS_Button_b78f5bcb68514b97a052bbc5efbdf09b": {
        "id": "AS_Button_b78f5bcb68514b97a052bbc5efbdf09b",
        "type": "ACTION_SEQUENCE",
        "params": [{
            "datatype": "collection",
            "name": "eventobject"
        }],
        "language": "js",
        "actions": [{
            "id": "ADD_SNIPPET_ide_onClick_749568d8f27346b2a4d70e72395f1d81",
            "type": "ADD_SNIPPET",
            "codeSnippet": "hideDateRange();",
            "callbackType": null
        }]
    }
}