{
    "AS_Button_b2c5fe7cfef043f6907c68c8674fd467": {
        "id": "AS_Button_b2c5fe7cfef043f6907c68c8674fd467",
        "type": "ACTION_SEQUENCE",
        "params": [{
            "datatype": "collection",
            "name": "eventobject"
        }],
        "contextObj": {
            "name": "frmDirectionsKA",
            "type": "forms",
            "platform": null,
            "KUID": "2a844aaae75b49948039c6e28c65dfcc"
        },
        "language": "js",
        "actions": [{
            "id": "ADD_SNIPPET__d686f3b16df644f5a3a76596ec9812f4",
            "type": "ADD_SNIPPET",
            "codeSnippet": "locatorMViewEnabled();",
            "parentId": null,
            "callbackType": null
        }]
    }
}