{
    "AS_Button_e60b6f3dbcbd46e4a7ef942f6af87f6e": {
        "id": "AS_Button_e60b6f3dbcbd46e4a7ef942f6af87f6e",
        "type": "ACTION_SEQUENCE",
        "params": [{
            "datatype": "collection",
            "name": "eventobject"
        }],
        "language": "js",
        "actions": [{
            "id": "ADD_SNIPPET_ide_onClick_419fc88ae4884c0ab6dfbaf6ea74db14",
            "type": "ADD_SNIPPET",
            "codeSnippet": "kony.print(\"Code cleanup\");\n/* kony.ui.Alert\n    ({\n      \"message\": i18n_cancelAlert,\n      \"alertType\": constants.ALERT_TYPE_CONFIRMATION,\n      \"alertTitle\":i18n_Info,\n      \"yesLabel\": i18n_yes,\n      \"noLabel\": i18n_no,\n      \"alertHandler\":CancelBillPayAlertFunction\n    },{});\n*/",
            "callbackType": null
        }]
    }
}