{
    "AS_Button_a548552e86864764a2ec7eed19913395": {
        "id": "AS_Button_a548552e86864764a2ec7eed19913395",
        "type": "ACTION_SEQUENCE",
        "params": [{
            "datatype": "collection",
            "name": "eventobject"
        }],
        "contextObj": {
            "name": "frmRecentTransactionDetailsKA",
            "type": "forms",
            "platform": "",
            "KUID": "3e75bf63a2d4443486447188bb14c36b"
        },
        "language": "js",
        "actions": [{
            "id": "ADD_SNIPPET__e04f7846162349d1a3bb7dd6d3855d1e",
            "type": "ADD_SNIPPET",
            "codeSnippet": "var vc=new kony.rb.frmRecentTransactionDetailsKAViewController();\nvc.onClickDeleteCardlessTransaction();",
            "parentId": null,
            "callbackType": null
        }]
    }
}