{
    "AS_Button_a0d011413cd8401991443ddf6000deb8": {
        "id": "AS_Button_a0d011413cd8401991443ddf6000deb8",
        "type": "ACTION_SEQUENCE",
        "params": [{
            "datatype": "collection",
            "name": "eventobject"
        }],
        "contextObj": {
            "name": "frmAccountsLandingKA",
            "type": "forms",
            "platform": "",
            "KUID": "d62a2a0906c64d2281addc95893a6544"
        },
        "language": "js",
        "actions": [{
            "id": "ADD_SNIPPET__i8402719b6af4691bcf0d2f32f33c239",
            "type": "ADD_SNIPPET",
            "codeSnippet": "frmNewSubAccountLandingNew.lblNext.skin = \"sknLblNextDisabled\";\nfrmNewSubAccountLandingNew.lblFre.text = geti18Value(\"i18n.common.accountType\");\nfrmNewSubAccountLandingNew.lblCurr.text = geti18Value(\"i18n.common.currencyType\");\nfrmNewSubAccountConfirm.lblCheck1.text = \"q\";\nfrmNewSubAccountLandingNew.lblFrequency.setVisibility(false);\nfrmNewSubAccountLandingNew.lblCurrHead.setVisibility(false);\nfrmNewSubAccountLandingNew.lblLine4.skin = \"sknFlxGreyLine\"\nfrmNewSubAccountLandingNew.CopylblLine0ib1721fa6b7140.skin = \"sknFlxGreyLine\";\nfrmNewSubAccountLandingNew.show();",
            "parentId": null,
            "callbackType": null
        }]
    }
}