{
    "AS_FlexContainer_h04fd301808647e697b7ea767474df62": {
        "id": "AS_FlexContainer_h04fd301808647e697b7ea767474df62",
        "type": "ACTION_SEQUENCE",
        "name": "AS_backtoCardsLandingKAfromCardsDetails",
        "params": [{
            "datatype": "collection",
            "name": "eventobject"
        }],
        "contextObj": {
            "name": "frmManageCardsKA",
            "type": "forms",
            "platform": "",
            "KUID": "75db60b6b4944b7faf9c556f4dbcaf8d"
        },
        "language": "js",
        "actions": [{
            "id": "ADD_SNIPPET__aa8996065d7140108c0f38feb8aeb7bd",
            "type": "ADD_SNIPPET",
            "codeSnippet": "frmCardsLandingKA.show();",
            "parentId": null,
            "callbackType": null
        }]
    }
}