{
    "AS_Button_f16d2db6d1c842f0a82788245b78cff8": {
        "id": "AS_Button_f16d2db6d1c842f0a82788245b78cff8",
        "type": "ACTION_SEQUENCE",
        "name": "AS_Button_editNickNameFiled",
        "params": [{
            "datatype": "collection",
            "name": "eventobject"
        }],
        "language": "js",
        "actions": [{
            "id": "ADD_SNIPPET_ide_onClick_b917c3f3dc93433a8d9212e1f317e4fd",
            "type": "ADD_SNIPPET",
            "codeSnippet": "kony.print(\"edit\");\nif(frmEditAccountSettings.btnEdit.text === \"0\" ){\n frmEditAccountSettings.txtAddNickName.setFocus(true);\n frmEditAccountSettings.btnEdit.text = \"O\";\n \n}else{\n frmEditAccountSettings.txtAddNickName.text = \"\";\n  frmEditAccountSettings.btnEdit.text = \"\";\n //frmEditAccountSettings.btnEdit.text = 0+\"\"; \n}\n",
            "callbackType": null
        }]
    }
}