{
    "AS_Button_f2c68f7ae8dd4752a0b1470f16be04b8": {
        "id": "AS_Button_f2c68f7ae8dd4752a0b1470f16be04b8",
        "type": "ACTION_SEQUENCE",
        "params": [{
            "datatype": "collection",
            "name": "eventobject"
        }],
        "contextObj": {
            "name": "frmConfirmNPPRegistration",
            "type": "forms",
            "platform": "",
            "KUID": "e6a1d365d76b48e1bf53a6a1a73bbeb0"
        },
        "language": "js",
        "actions": [{
            "id": "ADD_SNIPPET__gd57a9d9a2fd4bf49c31a7f82c4aa644",
            "type": "ADD_SNIPPET",
            "codeSnippet": "var vc=applicationManager.getfrmConfirmNPPRegistrationViewController();\nvc.onClickOfCancel();\n",
            "parentId": null,
            "callbackType": null
        }]
    }
}