{
    "AS_Button_a4f8b05fc8744a23917a90d0b06cde9b": {
        "id": "AS_Button_a4f8b05fc8744a23917a90d0b06cde9b",
        "type": "ACTION_SEQUENCE",
        "params": [{
            "datatype": "collection",
            "name": "eventobject"
        }],
        "language": "js",
        "actions": [{
            "id": "ADD_SNIPPET_ide_onClick_c205977ae39940ef9d3bb28cf4f5b715",
            "type": "ADD_SNIPPET",
            "codeSnippet": "activeAndroidNav();",
            "callbackType": null
        }]
    }
}