{
    "AS_Button_f1acf12eddc04d54b1781b7efed0307b": {
        "id": "AS_Button_f1acf12eddc04d54b1781b7efed0307b",
        "type": "ACTION_SEQUENCE",
        "params": [{
            "datatype": "collection",
            "name": "eventobject"
        }],
        "contextObj": {
            "name": "frmDirectionsKA",
            "type": "forms",
            "platform": null,
            "KUID": "2a844aaae75b49948039c6e28c65dfcc"
        },
        "language": "js",
        "actions": [{
            "id": "INVOKE_FUNCTION__ide_onClick_22d36af9821444899758af769cfc3f08",
            "type": "INVOKE_FUNCTION",
            "sequenceKUID": "onATMSelected",
            "display": "onATMSelected",
            "inputparams": [],
            "callbackType": null,
            "source": "module"
        }]
    }
}