{
    "AS_Button_c9993d5144064aca85b8aa9aa5944c39": {
        "id": "AS_Button_c9993d5144064aca85b8aa9aa5944c39",
        "type": "ACTION_SEQUENCE",
        "params": [{
            "datatype": "collection",
            "name": "eventobject"
        }],
        "contextObj": {
            "name": "frmAccountDetailKA",
            "type": "forms",
            "platform": "",
            "KUID": "5ed703cad63c441882fc4a36f5ea0c28"
        },
        "language": "js",
        "actions": [{
            "id": "ADD_SNIPPET__bcdbdec9a330422296e40b991057d135",
            "type": "ADD_SNIPPET",
            "codeSnippet": "navOptTransfer(6);",
            "parentId": null,
            "callbackType": null
        }]
    }
}