{
    "AS_Button_62ada913c28c4564be79058f9b834dbe": {
        "id": "AS_Button_62ada913c28c4564be79058f9b834dbe",
        "type": "ACTION_SEQUENCE",
        "name": "AS_Button_BranchLocation",
        "params": [{
            "datatype": "collection",
            "name": "eventobject"
        }],
        "contextObj": {
            "name": "frmLocatorKA",
            "type": "forms",
            "platform": "",
            "KUID": "c471585baa904bb49278190a4437d425"
        },
        "language": "js",
        "actions": [{
            "id": "ADD_SNIPPET__9caf7fce8f6b4034967d981e6206ce8f",
            "type": "ADD_SNIPPET",
            "codeSnippet": "getBranchLocations();",
            "parentId": null,
            "callbackType": null
        }]
    }
}