{
    "AS_Button_i384728c2537420891282a51bfcb923d": {
        "id": "AS_Button_i384728c2537420891282a51bfcb923d",
        "type": "ACTION_SEQUENCE",
        "name": "AS_Button_OnClickAliasEPSScreen",
        "params": [{
            "datatype": "collection",
            "name": "eventobject"
        }],
        "language": "js",
        "actions": [{
            "id": "ADD_SNIPPET_ide_onClick_b67de0e01be84c6a9b769ec0bc33c21d",
            "type": "ADD_SNIPPET",
            "codeSnippet": "frmEPS.flxDetailsIBAN.setVisibility(false);\nfrmEPS.flxDetailsMobileScroll.setVisibility(false);\nfrmEPS.flxDetailsAliasScroll.setVisibility(true);\nif(frmEPS.btnAlias.skin === slButtonBlueFocus){\n  frmEPS.lblNext.skin = \"sknLblNextDisabled\";\n  frmEPS.btnAlias.skin = sknOrangeBGRNDBOJ;\n  frmEPS.btnIBAN.skin = slButtonBlueFocus;\n  frmEPS.btnMob.skin = slButtonBlueFocus;  \n}else{\n  frmEPS.btnAlias.skin = sknOrangeBGRNDBOJ;\n  frmEPS.btnIBAN.skin = slButtonBlueFocus;\n}\n// for reset other flows \n// Reset Mob Details //\n  frmEPS.txtAliasNameMob.text = \"\";\n  frmEPS.txtAmountMob.text = \"\";\n  frmEPS.lblIBANMobtxt.text = \"\";\n  frmEPS.lblAddressMobtxt.text = \"\";\n  frmEPS.lblBankMobAliastxt.text = \"\";\n  frmEPS.flxBeneNameMob.setVisibility(false);\n  frmEPS.flxAmountMob.setVisibility(false);\n  frmEPS.flxIbanDetailsMob.setVisibility(false);\n  frmEPS.flxAddressMob.setVisibility(false);\n  frmEPS.flxBankMob.setVisibility(false);\n // Reset Mob Details //\n // Reset Iban Details //  \n  frmEPS.txtAmountIBAN.text = \"\";\n  frmEPS.txtIBANAlias.text = \"\";\n  frmEPS.txtAddressAlias.text = \"\";\n  frmEPS.txtBankAlias.text = \"\";\n  frmEPS.tbxBankName.text = \"\";\n  frmEPS.flxBeneNameIBAN.setVisibility(false);\n  frmEPS.lblBankNameStat.setVisibility(false);\n  frmEPS.tbxBankName.setVisibility(false);\n  frmEPS.lblBankName.setVisibility(true);\n // Reset Iban Details // \n// GetAliasInfo();\n// frmEPS.flxAliasInfo.setVisibility(true);\n// frmEPS.flxMain.setVisibility(false);\n",
            "callbackType": null
        }]
    }
}