{
    "AS_Button_c0b9e7aacc4d4c7a8bb9069e9612e8a4": {
        "id": "AS_Button_c0b9e7aacc4d4c7a8bb9069e9612e8a4",
        "type": "ACTION_SEQUENCE",
        "params": [{
            "datatype": "collection",
            "name": "eventobject"
        }],
        "language": "js",
        "actions": [{
            "id": "ADD_SNIPPET_ide_onClick_ba81ce8c49fb4e578615ba6dbf1f8163",
            "type": "ADD_SNIPPET",
            "codeSnippet": "navigateToSearchOptions();",
            "callbackType": null
        }]
    }
}