{
    "AS_Button_ec8ffa4435ca4858abfcb6882d02f31c": {
        "id": "AS_Button_ec8ffa4435ca4858abfcb6882d02f31c",
        "type": "ACTION_SEQUENCE",
        "params": [{
            "datatype": "collection",
            "name": "eventobject"
        }],
        "contextObj": {
            "name": "frmRegisterUser",
            "type": "forms",
            "platform": "",
            "KUID": "cd7432ec5087404590338186c94e35d2"
        },
        "language": "js",
        "actions": [{
            "id": "ADD_SNIPPET__db351b22e8f34464869bab35904145ab",
            "type": "ADD_SNIPPET",
            "codeSnippet": "\n//kony.timer.schedule(\"scanCardTimer\",scanCardTimerFn, 15, false);\nif (isAndroid()) {\n  BojScan.BlinkCardMethodInvoker(microBlinkCallBack,SCANCARDLICENSEANDROID);\n}else{\n  //Creates an object of class 'iPhoneMicroBlink'\nvar iPhoneMicroBlinkObject = new BojScan.iPhoneMicroBlink(SCANCARDLICENSEIOS);\n//Invokes method 'scanCardWithCallback' on the object\niPhoneMicroBlinkObject.scanCardWithCallback(\n\t\t/**Function*/ microBlinkCallBack);\n}",
            "parentId": null,
            "callbackType": null
        }]
    }
}