{
    "AS_Button_f667a0ca9bf045149fddbcfe60b1398e": {
        "id": "AS_Button_f667a0ca9bf045149fddbcfe60b1398e",
        "type": "ACTION_SEQUENCE",
        "params": [{
            "datatype": "collection",
            "name": "eventobject"
        }],
        "language": "js",
        "actions": [{
            "id": "ADD_SNIPPET_ide_onClick_d0a900621acc4fa9a846128d86e06e49",
            "type": "ADD_SNIPPET",
            "codeSnippet": "frmMore.show();",
            "callbackType": null
        }]
    }
}