{
    "AS_FlexContainer_b816679eeaf947ea96c7d33caded6d6e": {
        "id": "AS_FlexContainer_b816679eeaf947ea96c7d33caded6d6e",
        "type": "ACTION_SEQUENCE",
        "name": "AS_backtoAccountsFromCardsLandingKA",
        "params": [{
            "datatype": "collection",
            "name": "eventobject"
        }],
        "contextObj": {
            "name": "frmCardsLandingKA",
            "type": "forms",
            "platform": "",
            "KUID": "d077415ce83a4f0096a87719325e288d"
        },
        "language": "js",
        "actions": [{
            "id": "ADD_SNIPPET__a8d6b906abc8490abcfde5b1a580aa09",
            "type": "ADD_SNIPPET",
            "codeSnippet": "if(frmCardsLandingKA.lblBack.text !== geti18Value(\"i18n.billsPay.Cards\")){\nif(kony.sdk.isNetworkAvailable()){\n      frmAccountsLandingKA.flxDeals.setVisibility(false);\n            frmAccountsLandingKA.flxAccountsMain.setVisibility(true);\n      frmAccountsLandingKA.flxAccountsMain.left = \"0%\"\n            frmAccountsLandingKA.flxLoans.setVisibility(false);\n            frmAccountsLandingKA.flxAccountsMain.zIndex = 1;\n            frmAccountsLandingKA.flxDeals.zIndex = 1;\n            frmAccountsLandingKA.flxLoans.zIndex = 1;\n            frmAccountsLandingKA.forceLayout();\n      \naccountDashboardDataCall();\nkony.print(\"Nav accounts Dadhboard:::\");\n    }else{\n  kony.sdk.mvvm.KonyApplicationContext.dismissLoadingScreen();\n        customAlertPopup(\"\", kony.i18n.getLocalizedString(\"i18n.errorMsg.deviceConnectionError\"), popupCommonAlertDimiss, \"\");\n  }\n}else{\n\tswitch_CARDSLANDING_APPLYCARDS(\"flxScrollMain\");\n}",
            "parentId": null,
            "callbackType": null
        }]
    }
}