{
    "AS_Button_e64ee9a70b6c42029073dced72bf6647": {
        "id": "AS_Button_e64ee9a70b6c42029073dced72bf6647",
        "type": "ACTION_SEQUENCE",
        "params": [{
            "datatype": "collection",
            "name": "eventobject"
        }],
        "contextObj": {
            "name": "frmLoginKA",
            "type": "forms",
            "platform": "",
            "KUID": "7b1aa8fceb6b4070833e9eab879b0e5e"
        },
        "language": "js",
        "actions": [{
            "id": "ADD_SNIPPET__5dda704d545149f986e82e11df16cd64",
            "type": "ADD_SNIPPET",
            "codeSnippet": "setAccountPreviewAndroid();",
            "parentId": null,
            "callbackType": null
        }]
    }
}