{
    "AS_Button_haaeb354c5d242348b211038eb5f9e68": {
        "id": "AS_Button_haaeb354c5d242348b211038eb5f9e68",
        "type": "ACTION_SEQUENCE",
        "params": [{
            "datatype": "collection",
            "name": "eventobject"
        }],
        "language": "js",
        "actions": [{
            "id": "ADD_SNIPPET_ide_onClick_hef2986cbb22407d9293268e9d30bd4d",
            "type": "ADD_SNIPPET",
            "codeSnippet": "frmMore.show();",
            "callbackType": null
        }]
    }
}