{
    "AS_Button_d85f7d036c4f49c788bbe225f0d789b4": {
        "id": "AS_Button_d85f7d036c4f49c788bbe225f0d789b4",
        "type": "ACTION_SEQUENCE",
        "params": [{
            "datatype": "collection",
            "name": "eventobject"
        }],
        "language": "js",
        "actions": [{
            "id": "ADD_SNIPPET_ide_onClick_fd7032da30c6487e8cf13fabf379a6ab",
            "type": "ADD_SNIPPET",
            "codeSnippet": "getAllLocations();",
            "callbackType": null
        }]
    }
}