{
    "AS_Button_f09d4156503d465088eac53f31761007": {
        "id": "AS_Button_f09d4156503d465088eac53f31761007",
        "type": "ACTION_SEQUENCE",
        "params": [{
            "datatype": "collection",
            "name": "eventobject"
        }],
        "contextObj": {
            "type": "forms",
            "platform": null,
            "KUID": "baf8bcd68a2c41d9a1f80da15169c48f"
        },
        "language": "js",
        "actions": [{
            "id": "ADD_SNIPPET__b004d14894f84e08ad498267ade3abca",
            "type": "ADD_SNIPPET",
            "codeSnippet": "navigateToPickAProduct();",
            "parentId": null,
            "callbackType": null
        }]
    }
}