{
    "AS_Button_ca09e90591ce48499e35636768e0eda7": {
        "id": "AS_Button_ca09e90591ce48499e35636768e0eda7",
        "type": "ACTION_SEQUENCE",
        "params": [{
            "datatype": "collection",
            "name": "eventobject"
        }],
        "contextObj": {
            "name": "frmPinEntryStep2",
            "type": "forms",
            "platform": null,
            "KUID": "e015f1b273d34ea480f2c966bc9044d2"
        },
        "language": "js",
        "actions": [{
            "id": "ADD_SNIPPET_ide_onClick_hdb4570da76c47dc9077cf96419fd85f",
            "type": "ADD_SNIPPET",
            "codeSnippet": "check(9);",
            "callbackType": null
        }]
    }
}