{
    "AS_FlexContainer_f9d0cdfd81f943a68b13e5cb50e3d05e": {
        "id": "AS_FlexContainer_f9d0cdfd81f943a68b13e5cb50e3d05e",
        "type": "ACTION_SEQUENCE",
        "name": "AS_BTN_NationalIDRegistration_Next_onClick",
        "params": [{
            "datatype": "collection",
            "name": "eventobject"
        }],
        "language": "js",
        "actions": [{
            "id": "ADD_SNIPPET_ide_onClick_ib677d7e25234f54a6180e99fb621032",
            "type": "ADD_SNIPPET",
            "codeSnippet": "kony.sdk.mvvm.KonyApplicationContext.showLoadingScreen(\"\");\nif(frmRegisterUser.flxNationalIDContainer.isVisible === true){\n kony.sdk.mvvm.KonyApplicationContext.showLoadingScreen(\"\");\n gblToOTPFrom=\"RegisterUserNational\";\n  callRequestOTP();\n}else{\nif(gblFromModule == \"RetriveUsername\")\n  {\n    sendUnamecase = true;\n  }\n ShowLoadingScreen();\nnextFromCardDetails();\nfrmRegisterUser.lblInvalidCredentialsKA.setVisibility(false);\n}",
            "callbackType": null
        }]
    }
}