{
    "AS_Button_b429455c32b8418da03ed9bf9c8fdf63": {
        "id": "AS_Button_b429455c32b8418da03ed9bf9c8fdf63",
        "type": "ACTION_SEQUENCE",
        "params": [{
            "datatype": "collection",
            "name": "eventobject"
        }],
        "contextObj": {
            "name": "frmAccountDetailKA",
            "type": "forms",
            "platform": "",
            "KUID": "5ed703cad63c441882fc4a36f5ea0c28"
        },
        "language": "js",
        "actions": [{
            "id": "ADD_SNIPPET__f132e7f9ea2f45b19a8b238b92d3cd02",
            "type": "ADD_SNIPPET",
            "codeSnippet": "kony.print(\"asdsad\");",
            "parentId": null,
            "callbackType": null
        }]
    }
}