{
    "AS_Button_110575af7fd148d090a2aadc951abf2e": {
        "id": "AS_Button_110575af7fd148d090a2aadc951abf2e",
        "type": "ACTION_SEQUENCE",
        "params": [{
            "datatype": "collection",
            "name": "eventobject"
        }],
        "contextObj": {
            "name": "frmConfirmDepositKA",
            "type": "forms",
            "platform": null,
            "KUID": "422237ff93274fe59fc6163e5e1f62cd"
        },
        "language": "js",
        "actions": [{
            "id": "ADD_SNIPPET_ide_onClick_f187337798864e01b772f90913081bf5",
            "type": "ADD_SNIPPET",
            "codeSnippet": "kony.print(\"deleted\");",
            "callbackType": null
        }]
    }
}