{
    "AS_Button_1672766cd83441ee902e437d9fca11be": {
        "id": "AS_Button_1672766cd83441ee902e437d9fca11be",
        "type": "ACTION_SEQUENCE",
        "params": [{
            "datatype": "collection",
            "name": "eventobject"
        }],
        "contextObj": {
            "type": "forms",
            "platform": "",
            "KUID": "d8e810e6d431401cb87770abb531faf7"
        },
        "language": "js",
        "actions": [{
            "id": "ADD_SNIPPET__8b3349af4adc4a299448f094b7a3a752",
            "type": "ADD_SNIPPET",
            "codeSnippet": "kony.print(\"Deleted\");",
            "parentId": null,
            "callbackType": null
        }]
    }
}