{
    "AS_Button_ce73ad3e7c7b4719af6ac5b4e67381f6": {
        "id": "AS_Button_ce73ad3e7c7b4719af6ac5b4e67381f6",
        "type": "ACTION_SEQUENCE",
        "params": [{
            "datatype": "collection",
            "name": "eventobject"
        }],
        "language": "js",
        "actions": [{
            "id": "ADD_SNIPPET__ffba9553623b442e9657012b81b94689",
            "type": "ADD_SNIPPET",
            "codeSnippet": "cancelNewAccountOpening();",
            "parentId": null,
            "callbackType": null
        }]
    }
}