{
    "AS_Button_ce91d8f17108496eac2e992d6dce0453": {
        "id": "AS_Button_ce91d8f17108496eac2e992d6dce0453",
        "type": "ACTION_SEQUENCE",
        "params": [{
            "datatype": "collection",
            "name": "eventobject"
        }],
        "language": "js",
        "actions": [{
            "id": "ADD_SNIPPET_ide_onClick_a2933a2071b9430681832d2b82855c57",
            "type": "ADD_SNIPPET",
            "codeSnippet": "hideAccountInsights();",
            "callbackType": null
        }]
    }
}