{
    "AS_Button_0a3ae579da26402ba3498838a5b162f3": {
        "id": "AS_Button_0a3ae579da26402ba3498838a5b162f3",
        "type": "ACTION_SEQUENCE",
        "params": [{
            "datatype": "collection",
            "name": "eventobject"
        }],
        "language": "js",
        "actions": [{
            "id": "ADD_SNIPPET__ef7eb9a3405c4f9d9aedc18a24bab4df",
            "type": "ADD_SNIPPET",
            "codeSnippet": "kony.print(\"deleted\");"
        }]
    }
}