{
    "AS_Button_ib45c72224734359b91d34a71fe72a21": {
        "id": "AS_Button_ib45c72224734359b91d34a71fe72a21",
        "type": "ACTION_SEQUENCE",
        "params": [{
            "datatype": "collection",
            "name": "eventobject"
        }],
        "language": "js",
        "actions": [{
            "id": "ADD_SNIPPET_ide_onClick_i52a5a97cf1348c59cffa2c817e12553",
            "type": "ADD_SNIPPET",
            "codeSnippet": "ShowLoadingScreen();\ngblToOTPFrom = \"ConfirmPayBill\";\n//callRequestOTP();\nperformBillPayPostpaid();",
            "callbackType": null
        }]
    }
}