{
    "AS_Button_e1da5de00c254e20941ddf4fb1e7dbe9": {
        "id": "AS_Button_e1da5de00c254e20941ddf4fb1e7dbe9",
        "type": "ACTION_SEQUENCE",
        "params": [{
            "datatype": "collection",
            "name": "eventobject"
        }],
        "contextObj": {
            "type": "forms",
            "platform": "",
            "KUID": "6267e3b5eb614ea581b492d24e980f30"
        },
        "language": "js",
        "actions": [{
            "id": "ADD_SNIPPET__c83f0b10012a4bae8de9157b4db92638",
            "type": "ADD_SNIPPET",
            "codeSnippet": "updateFlags(\"touchIDEnabledFlag\",true);\nkony.print(\"remoed\"); ",
            "parentId": null,
            "callbackType": null
        }]
    }
}