{
    "AS_Button_fab1e1477c8f4e5bb1d486d7e4103a38": {
        "id": "AS_Button_fab1e1477c8f4e5bb1d486d7e4103a38",
        "type": "ACTION_SEQUENCE",
        "params": [{
            "datatype": "collection",
            "name": "eventobject"
        }],
        "language": "js",
        "actions": [{
            "id": "ADD_SNIPPET__if91e6b50b0c4258b36591a4ea670dff",
            "type": "ADD_SNIPPET",
            "codeSnippet": "cancelNewAccountOpening();",
            "parentId": null,
            "callbackType": null
        }]
    }
}