{
    "AS_Button_g8a0f3fde2ce47d4978c9246f3363933": {
        "id": "AS_Button_g8a0f3fde2ce47d4978c9246f3363933",
        "type": "ACTION_SEQUENCE",
        "params": [{
            "datatype": "collection",
            "name": "eventobject"
        }],
        "contextObj": {
            "type": "forms",
            "platform": "",
            "KUID": "c93d766ce16743fc979b2a247c8db394"
        },
        "language": "js",
        "actions": []
    }
}