{
    "AS_Button_7cc70941cc98453bb52351eb11d5f68c": {
        "id": "AS_Button_7cc70941cc98453bb52351eb11d5f68c",
        "type": "ACTION_SEQUENCE",
        "params": [{
            "datatype": "collection",
            "name": "eventobject"
        }],
        "language": "js",
        "actions": [{
            "id": "SHOW_ALERT_ide_onClick_2371b78305e04c698b37f963d545cf31",
            "type": "SHOW_ALERT",
            "alertType": "constants.ALERT_TYPE_CONFIRMATION",
            "alertTitle": "Confirm Sign Out",
            "yesLabel": "Sign Out",
            "noLabel": "Cancel",
            "alertMessage": "Are you sure you want to sign out?",
            "messageType": "constant",
            "callbackType": null,
            "alertTitlei18n": "i18n.common.confirmSignOut",
            "yesLabeli18n": "i18n.common.signOut",
            "noLabeli18n": "i18n.common.cancel",
            "alertMessagei18n": "i18n.common.signOutAlert",
            "iconPosition": "constants.ALERT_ICON_POSITION_LEFT"
        }, {
            "id": "ADD_SNIPPET_ide_onClick_1bebcf1d11d24a5089c0448a04c64fed",
            "type": "ADD_SNIPPET",
            "codeSnippet": "deviceRegFrom = \"logout\";\nremoveSwipe();\nkony.sdk.mvvm.LogoutAction();",
            "parentId": "SHOW_ALERT_ide_onClick_2371b78305e04c698b37f963d545cf31",
            "callbackType": "True"
        }]
    }
}