{
    "AS_Button_b77c401991cf4e9687c06eff46c99c78": {
        "id": "AS_Button_b77c401991cf4e9687c06eff46c99c78",
        "type": "ACTION_SEQUENCE",
        "params": [{
            "datatype": "collection",
            "name": "eventobject"
        }],
        "contextObj": {
            "name": "frmPinEntryStep2",
            "type": "forms",
            "platform": null,
            "KUID": "e015f1b273d34ea480f2c966bc9044d2"
        },
        "language": "js",
        "actions": [{
            "id": "ADD_SNIPPET_ide_onClick_f03d4e1064c647ada965bbeaffed5b0c",
            "type": "ADD_SNIPPET",
            "codeSnippet": "check(2);",
            "callbackType": null
        }]
    }
}