{
    "AS_Button_c21faf739fa74b958dfaca3246379d02": {
        "id": "AS_Button_c21faf739fa74b958dfaca3246379d02",
        "type": "ACTION_SEQUENCE",
        "params": [{
            "datatype": "collection",
            "name": "eventobject"
        }],
        "language": "js",
        "actions": [{
            "id": "ADD_SNIPPET_ide_onClick_ee4604eec9724c44a1ecab2f11fd3977",
            "type": "ADD_SNIPPET",
            "codeSnippet": "showHideAccountInsights();",
            "callbackType": null
        }]
    }
}