{
    "AS_Button_a1b6eadfdf394ee09ea1e5d23caabbbb": {
        "id": "AS_Button_a1b6eadfdf394ee09ea1e5d23caabbbb",
        "type": "ACTION_SEQUENCE",
        "params": [{
            "datatype": "collection",
            "name": "eventobject"
        }],
        "contextObj": {
            "name": "frmConfirmPrePayBill",
            "type": "forms",
            "platform": null,
            "KUID": "a75e220839ea44a2b0654e6eee22b206"
        },
        "language": "js",
        "actions": [{
            "id": "ADD_SNIPPET_ide_onClick_b27293e6aab641f28d955a1894f33c2b",
            "type": "ADD_SNIPPET",
            "codeSnippet": "onConfirmPayBillEditButtonClick();\n// //getTransferPayLandingForm(\"frmNewTransferKA\");\n// frmNewBillKA.transferPayTitleLabel.text=i18n_editPayBill;\n// var INSTANCE = kony.sdk.mvvm.KonyApplicationContext.getAppInstance();\n// var listController = INSTANCE.getFormController(\"frmNewBillKA\");\n// var navObject = new kony.sdk.mvvm.NavigationObject();\n// var controllerContextData = listController.getContextData();\n// if(controllerContextData.getCustomInfo(\"operationType\") == \"ADD\"){\n//     navObject.setDataModel(null,kony.sdk.mvvm.OperationType.ADD, \"form\");\n//             }\n// navObject.setCustomInfo(\"operationType\",\"ADD\");\n// navObject.setRequestOptions(\"segInternalTOAccountsPayKA\",{\"headers\":{\"session_token\":kony.retailBanking.globalData.session_token}});\n// listController.performAction(\"navigateTo\",[\"frmNewBillKA\",navObject]); ",
            "callbackType": null
        }]
    }
}