{
    "AS_Button_g678d46b2030482186a4cd470a8c4b1c": {
        "id": "AS_Button_g678d46b2030482186a4cd470a8c4b1c",
        "type": "ACTION_SEQUENCE",
        "params": [{
            "datatype": "collection",
            "name": "eventobject"
        }],
        "language": "js",
        "actions": [{
            "id": "ADD_SNIPPET_ide_onClick_fd85b7d686134d0dbf660c6ea1d96f33",
            "type": "ADD_SNIPPET",
            "codeSnippet": "gblFromModule = \"ForgotPassword\";\ngblReqField = \"Username\";\ninitialiseAndCallEnroll();\nfrmLoginKA.passwordTextField.text=\"\";",
            "callbackType": null
        }]
    }
}