{
    "AS_Browser_1c60dd635b5c4f3ca6d89614f7651be1": {
        "id": "AS_Browser_1c60dd635b5c4f3ca6d89614f7651be1",
        "type": "ACTION_SEQUENCE",
        "params": [{
            "datatype": "collection",
            "name": "eventobject"
        }, {
            "datatype": "string",
            "name": "x"
        }, {
            "datatype": "string",
            "name": "y"
        }],
        "contextObj": {
            "type": "forms",
            "platform": "",
            "KUID": "d066038f86554fd3807d8730ae9a9b23"
        },
        "language": "js",
        "actions": [{
            "id": "ADD_SNIPPET__4cb500b78dcf49a9bb70e155f2ba9673",
            "type": "ADD_SNIPPET",
            "codeSnippet": "kony.application.openURL(\"http://pmqa.konylabs.net:8080/rbdocs/account-statement-pdf.pdf\"); ",
            "parentId": null,
            "callbackType": null
        }]
    }
}