{
    "AS_Button_ade7176fafa24523a5ac221e0243b21b": {
        "id": "AS_Button_ade7176fafa24523a5ac221e0243b21b",
        "type": "ACTION_SEQUENCE",
        "params": [{
            "datatype": "collection",
            "name": "eventobject"
        }],
        "language": "js",
        "actions": [{
            "id": "ADD_SNIPPET_ide_onClick_3c60bdb448e9491f9104e5a8da6b3111",
            "type": "ADD_SNIPPET",
            "codeSnippet": "onEndEditing(frmSearchKA);",
            "callbackType": null
        }]
    }
}