{
    "AS_Button_a05403a73d3040508b61c7a5f5fd9b1f": {
        "id": "AS_Button_a05403a73d3040508b61c7a5f5fd9b1f",
        "type": "ACTION_SEQUENCE",
        "params": [{
            "datatype": "collection",
            "name": "eventobject"
        }],
        "contextObj": {
            "name": "frmAccountsLandingKA",
            "type": "forms",
            "platform": "",
            "KUID": "d62a2a0906c64d2281addc95893a6544"
        },
        "language": "js",
        "actions": [{
            "id": "ADD_SNIPPET__e8ea8c0dc3b948a692209d3e0da14dc2",
            "type": "ADD_SNIPPET",
            "codeSnippet": "gblTModule = \"\";\ngetAllAccounts();\nfrmOpenTermDeposit.show();\nkony.sdk.mvvm.KonyApplicationContext.showLoadingScreen(\"\");\n\n",
            "parentId": null,
            "callbackType": null
        }]
    }
}