{
    "AS_Button_bf2b951f27c7401cb21ff2549f90bc0f": {
        "id": "AS_Button_bf2b951f27c7401cb21ff2549f90bc0f",
        "type": "ACTION_SEQUENCE",
        "params": [{
            "datatype": "collection",
            "name": "eventobject"
        }],
        "contextObj": {
            "type": "forms",
            "platform": null,
            "KUID": "400a0ee97eb04e5897318084b1271b8a"
        },
        "language": "js",
        "actions": [{
            "id": "ADD_SNIPPET_ide_onClick_37793647e31443e3a12ebddd3e1dad04",
            "type": "ADD_SNIPPET",
            "codeSnippet": " var INSTANCE = kony.sdk.mvvm.KonyApplicationContext.getAppInstance();\n var controller = INSTANCE.getFormController(\"frmAccountDetailKA\");\n controller.getFormModel().showView();",
            "callbackType": null
        }]
    }
}