{
    "AS_Button_a17894a5783940dd88e8318ff3db26fa": {
        "id": "AS_Button_a17894a5783940dd88e8318ff3db26fa",
        "type": "ACTION_SEQUENCE",
        "params": [{
            "datatype": "collection",
            "name": "eventobject"
        }],
        "language": "js",
        "actions": [{
            "id": "ADD_SNIPPET_ide_onClick_e542f93ccb544f08b863c9baab35e3b5",
            "type": "ADD_SNIPPET",
            "codeSnippet": "kony.application.showLoadingScreen(null,\"\", constants.LOADING_SCREEN_POSITION_ONLY_CENTER, true, true, null);\nonClickLogin();",
            "callbackType": null
        }]
    }
}