{
    "AS_Button_idad04456d8a4e89949cfd8bb9d1adf4": {
        "id": "AS_Button_idad04456d8a4e89949cfd8bb9d1adf4",
        "type": "ACTION_SEQUENCE",
        "params": [{
            "datatype": "collection",
            "name": "eventobject"
        }],
        "contextObj": {
            "name": "frmEPS",
            "type": "forms",
            "platform": "",
            "KUID": "c49bbb3175be499d86d933cee301b3c4"
        },
        "language": "js",
        "actions": [{
            "id": "ADD_SNIPPET__f727972a714a4890b4396b7527faa868",
            "type": "ADD_SNIPPET",
            "codeSnippet": "customAlertPopup(geti18Value(\"i18n.common.AreYouSure\"), \n                \"Cancel and Return to the Dashboard payment screen\",\n               onClickYesBackIPS, popupCommonAlertDimiss, \n                geti18Value(\"i18n.common.YES\"),\n                geti18Value(\"i18n.common.NO\"));",
            "parentId": null,
            "callbackType": null
        }]
    }
}