{
    "AS_Button_e0ab5fd36b654f61a457251a624f0e19": {
        "id": "AS_Button_e0ab5fd36b654f61a457251a624f0e19",
        "type": "ACTION_SEQUENCE",
        "params": [{
            "datatype": "collection",
            "name": "eventobject"
        }],
        "contextObj": {
            "name": "frmAccountDetailKA",
            "type": "forms",
            "platform": "",
            "KUID": "5ed703cad63c441882fc4a36f5ea0c28"
        },
        "language": "js",
        "actions": [{
            "id": "ADD_SNIPPET__c9661028a9f84154b9864814f20569a4",
            "type": "ADD_SNIPPET",
            "codeSnippet": "kony.print(\"asdasd\");",
            "parentId": null,
            "callbackType": null
        }]
    }
}