{
    "AS_Button_f0ac3a0109224e5584dc359b0d32304f": {
        "id": "AS_Button_f0ac3a0109224e5584dc359b0d32304f",
        "type": "ACTION_SEQUENCE",
        "name": "AS_Button_CardsListAction",
        "params": [{
            "datatype": "collection",
            "name": "eventobject"
        }],
        "contextObj": {
            "name": "iphoneFooter",
            "type": "templates",
            "platform": "",
            "KUID": "5fc13b6bbe69451a84b41ce39703d431"
        },
        "language": "js",
        "actions": [{
            "id": "ADD_SNIPPET__bdb508c535b94771be18ca06d265e8f5",
            "type": "ADD_SNIPPET",
            "codeSnippet": "onClickCardsMenu();",
            "parentId": null
        }]
    }
}