{
    "AS_Button_a8031ab7b0d849baa5afad589474e789": {
        "id": "AS_Button_a8031ab7b0d849baa5afad589474e789",
        "type": "ACTION_SEQUENCE",
        "params": [{
            "datatype": "collection",
            "name": "eventobject"
        }],
        "language": "js",
        "actions": [{
            "id": "ADD_SNIPPET_ide_onClick_fee241153f4e45288672ce3e978d83ad",
            "type": "ADD_SNIPPET",
            "codeSnippet": "if(kony.store.getItem(\"langPrefObj\") === \"en\")\n    kony.boj.lang = \"eng\";\n  else\n    kony.boj.lang = \"ara\";\n\ngblTModule = \"billspay\";\ngetAllAccounts();",
            "callbackType": null
        }]
    }
}