{
    "AS_Button_a2a5d45f0d7e40539c110612bad4f3b2": {
        "id": "AS_Button_a2a5d45f0d7e40539c110612bad4f3b2",
        "type": "ACTION_SEQUENCE",
        "params": [{
            "datatype": "collection",
            "name": "eventobject"
        }],
        "language": "js",
        "actions": [{
            "id": "ADD_SNIPPET_ide_onClick_e1ed173249b84a7db790fcc75d44d374",
            "type": "ADD_SNIPPET",
            "codeSnippet": "frmPaymentDashboard.show();",
            "callbackType": null
        }]
    }
}