{
    "AS_Button_ce57e3377946441b8c4db74beac1670b": {
        "id": "AS_Button_ce57e3377946441b8c4db74beac1670b",
        "type": "ACTION_SEQUENCE",
        "params": [{
            "datatype": "collection",
            "name": "eventobject"
        }],
        "contextObj": {
            "type": "forms",
            "platform": "",
            "KUID": "86293c7edc5141d5a5ad4f013692e956"
        },
        "language": "js",
        "actions": [{
            "id": "ADD_SNIPPET__0eca14d907bb42658b82b56f188f4644",
            "type": "ADD_SNIPPET",
            "codeSnippet": "kony.print(\"Code Cleanup\")\n//repeatCompletedBillPay();",
            "parentId": null,
            "callbackType": null
        }]
    }
}