{
    "AS_Button_3875da5975144751887cda88fbbae13d": {
        "id": "AS_Button_3875da5975144751887cda88fbbae13d",
        "type": "ACTION_SEQUENCE",
        "params": [{
            "datatype": "collection",
            "name": "eventobject"
        }],
        "language": "js",
        "actions": [{
            "id": "ADD_SNIPPET_ide_onClick_4762179f61ce4715b091aec1d4b0fa71",
            "type": "ADD_SNIPPET",
            "codeSnippet": "scheduleEditOnClick();",
            "callbackType": null
        }]
    }
}