{
    "AS_Button_bb7e3a6b233a404a97f8e15a06c5b6cb": {
        "id": "AS_Button_bb7e3a6b233a404a97f8e15a06c5b6cb",
        "type": "ACTION_SEQUENCE",
        "name": "AS_Button_onClickOpenTermDeposite",
        "params": [{
            "datatype": "collection",
            "name": "eventobject"
        }],
        "contextObj": {
            "name": "frmAccountsLandingKA",
            "type": "forms",
            "platform": "",
            "KUID": "d62a2a0906c64d2281addc95893a6544"
        },
        "language": "js",
        "actions": [{
            "id": "ADD_SNIPPET__c64c6302f37341449ed2dabf0d1711a6",
            "type": "ADD_SNIPPET",
            "codeSnippet": "gblTModule = \"OpenTermDeposite\";\ngetAllAccounts();\n//kony.sdk.mvvm.KonyApplicationContext.showLoadingScreen(\"\");\nfrmOpenTermDeposit.show();",
            "parentId": null,
            "callbackType": null
        }]
    }
}