{
    "AS_Button_46f1ccc7c20f4fa6a70b40fa974e7abc": {
        "id": "AS_Button_46f1ccc7c20f4fa6a70b40fa974e7abc",
        "type": "ACTION_SEQUENCE",
        "params": [{
            "datatype": "collection",
            "name": "eventobject"
        }],
        "contextObj": {
            "name": "frmDirectionsKA",
            "type": "forms",
            "platform": null,
            "KUID": "2a844aaae75b49948039c6e28c65dfcc"
        },
        "language": "js",
        "actions": [{
            "id": "ADD_SNIPPET_ide_onClick_b707849fa9a24e918d5ef914e5456353",
            "type": "ADD_SNIPPET",
            "codeSnippet": "hideMapCallout();",
            "callbackType": null
        }]
    }
}