{
    "AS_Button_a711b69fbec244d3981dd7c1c1a3fdd3": {
        "id": "AS_Button_a711b69fbec244d3981dd7c1c1a3fdd3",
        "type": "ACTION_SEQUENCE",
        "params": [{
            "datatype": "collection",
            "name": "eventobject"
        }],
        "contextObj": {
            "name": "frmCongratulations",
            "type": "forms",
            "platform": "",
            "KUID": "h0d76ad922194a6b81763ba19df1183c"
        },
        "language": "js",
        "actions": [{
            "id": "ADD_SNIPPET_ide_onClick_cd48e5075f27433e9d2de77d4c0ac785",
            "type": "ADD_SNIPPET",
            "codeSnippet": "gotoPage(\"Login\");\nfrmNewUserOnboardVerificationKA.destroy();\nfrmRegisterUser.destroy();\nfrmCongratulations.destroy();\nfrmEnrolluserLandingKA.destroy();",
            "callbackType": null
        }]
    }
}