{
    "AS_Button_b7a3abb29df0425f8c2d47b1793568a1": {
        "id": "AS_Button_b7a3abb29df0425f8c2d47b1793568a1",
        "type": "ACTION_SEQUENCE",
        "params": [{
            "datatype": "collection",
            "name": "eventobject"
        }],
        "language": "js",
        "actions": [{
            "id": "ADD_SNIPPET_ide_onClick_ba65e6fa995a47d59cfa5d346c584608",
            "type": "ADD_SNIPPET",
            "codeSnippet": "frmEPS.btnMobile.skin = sknOrangeBGRNDBOJ;\nfrmEPS.btntext.skin = slButtonBlueFocus;\nif(frmEPS.btnMobile.skin == sknOrangeBGRNDBOJ){\n  frmEPS.lblAliasName.text = \"Mobile number\";\n  animateLabel(\"UP\", \"lblAliasName\",frmEPS.lblAliasName.text);\n    \n}",
            "callbackType": null
        }]
    }
}