{
    "AS_Button_b963459b4fa5446e9ec4c4653602dc2e": {
        "id": "AS_Button_b963459b4fa5446e9ec4c4653602dc2e",
        "type": "ACTION_SEQUENCE",
        "params": [{
            "datatype": "collection",
            "name": "eventobject"
        }],
        "language": "js",
        "actions": [{
            "id": "ADD_SNIPPET_ide_onClick_cdfea8b4e58442d0ab994a0d214b5c22",
            "type": "ADD_SNIPPET",
            "codeSnippet": "navigate_StandingInstructions(\"Payment History\");",
            "callbackType": null
        }]
    }
}