{
    "AS_Button_baf3bf31a5e549508613786e25477b87": {
        "id": "AS_Button_baf3bf31a5e549508613786e25477b87",
        "type": "ACTION_SEQUENCE",
        "params": [{
            "datatype": "collection",
            "name": "eventobject"
        }],
        "language": "js",
        "actions": [{
            "id": "INVOKE_FUNCTION__ide_onClick_b4838e55ca3940e6a952533bab838046",
            "type": "INVOKE_FUNCTION",
            "display": "firstTimeVisitAccountTermsForm",
            "inputparams": [],
            "callbackType": null,
            "source": "module"
        }]
    }
}