{
    "AS_Button_94027daf3beb4d8c8ecd644448f52962": {
        "id": "AS_Button_94027daf3beb4d8c8ecd644448f52962",
        "type": "ACTION_SEQUENCE",
        "params": [{
            "datatype": "collection",
            "name": "eventobject"
        }],
        "contextObj": {
            "name": "frmSetLocatorDistanceFilterKA",
            "type": "forms",
            "platform": "",
            "KUID": "d13e7185c3a24602bfb30f9d6021e492"
        },
        "language": "js",
        "actions": [{
            "id": "ADD_SNIPPET__2a68b7489c2844b1aea8efd7189033b4",
            "type": "ADD_SNIPPET",
            "codeSnippet": "frmLocatorKA.show();",
            "parentId": null,
            "callbackType": null
        }]
    }
}