{
    "AS_Button_ccee199be9114fafa3ac422bb0f27e9a": {
        "id": "AS_Button_ccee199be9114fafa3ac422bb0f27e9a",
        "type": "ACTION_SEQUENCE",
        "params": [{
            "datatype": "collection",
            "name": "eventobject"
        }],
        "language": "js",
        "actions": [{
            "id": "ADD_SNIPPET_ide_onClick_h2231210641f4fe7be50f11aad2c8868",
            "type": "ADD_SNIPPET",
            "codeSnippet": "//cardManagementOperations(\"cancel\");",
            "callbackType": null
        }]
    }
}