{
    "AS_Button_34f2eec810204c2caf218770c181c45d": {
        "id": "AS_Button_34f2eec810204c2caf218770c181c45d",
        "type": "ACTION_SEQUENCE",
        "params": [{
            "datatype": "collection",
            "name": "eventobject"
        }],
        "contextObj": {
            "type": "forms",
            "platform": "",
            "KUID": "d066038f86554fd3807d8730ae9a9b23"
        },
        "language": "js",
        "actions": [{
            "id": "ADD_SNIPPET__e0d6c449e1a14140a74a015f9a95847f",
            "type": "ADD_SNIPPET",
            "codeSnippet": "frmacntstatementdetailsKA.flxOptionsKA.isVisible = true ;",
            "parentId": null,
            "callbackType": null
        }]
    }
}