{
    "AS_Button_bd414352519944a2a8b600a229bb1f0c": {
        "id": "AS_Button_bd414352519944a2a8b600a229bb1f0c",
        "type": "ACTION_SEQUENCE",
        "params": [{
            "datatype": "collection",
            "name": "eventobject"
        }],
        "contextObj": {
            "name": "frmPinEntryStep2",
            "type": "forms",
            "platform": null,
            "KUID": "e015f1b273d34ea480f2c966bc9044d2"
        },
        "language": "js",
        "actions": [{
            "id": "ADD_SNIPPET_ide_onClick_c32fbdea5cdb42d3a0bd935b92751088",
            "type": "ADD_SNIPPET",
            "codeSnippet": "check(5);",
            "callbackType": null
        }]
    }
}