{
    "AS_Button_c4eb73a5da5c4141ba183eb14a92d3a8": {
        "id": "AS_Button_c4eb73a5da5c4141ba183eb14a92d3a8",
        "type": "ACTION_SEQUENCE",
        "params": [{
            "datatype": "collection",
            "name": "eventobject"
        }],
        "language": "js",
        "actions": [{
            "id": "ADD_SNIPPET_ide_onClick_a6321843f5bb4ab0b847f2565d0c39fe",
            "type": "ADD_SNIPPET",
            "codeSnippet": "hideAccountInsights();",
            "callbackType": null
        }]
    }
}