{
    "AS_Button_aa134f8653ce4ddcb30cf10075ed4c49": {
        "id": "AS_Button_aa134f8653ce4ddcb30cf10075ed4c49",
        "type": "ACTION_SEQUENCE",
        "params": [{
            "datatype": "collection",
            "name": "eventobject"
        }],
        "language": "js",
        "actions": [{
            "id": "ADD_SNIPPET_ide_onClick_c04f551edc89457da27ade4d214b44f6",
            "type": "ADD_SNIPPET",
            "codeSnippet": "activeAndroidNav();",
            "callbackType": null
        }]
    }
}