{
    "AS_Button_be6a7dc1468547daa6515573021dc30e": {
        "id": "AS_Button_be6a7dc1468547daa6515573021dc30e",
        "type": "ACTION_SEQUENCE",
        "params": [{
            "name": "eventobject",
            "datatype": "collection"
        }, {
            "name": "context",
            "datatype": "collection"
        }],
        "language": "js",
        "actions": [{
            "id": "ADD_SNIPPET_ide_onClick_da40a2497711460fbd412c47b6dd76e1",
            "type": "ADD_SNIPPET",
            "codeSnippet": "kony.boj.deleteBenfFromSegment(eventobject,context);",
            "callbackType": null
        }]
    }
}