{
    "AS_Button_ed52e33870904115b74c23556f90f40d": {
        "id": "AS_Button_ed52e33870904115b74c23556f90f40d",
        "type": "ACTION_SEQUENCE",
        "params": [{
            "datatype": "collection",
            "name": "eventobject"
        }],
        "contextObj": {
            "name": "frmAccountDetailKA",
            "type": "forms",
            "platform": "",
            "KUID": "5ed703cad63c441882fc4a36f5ea0c28"
        },
        "language": "js",
        "actions": [{
            "id": "ADD_SNIPPET__b7841893ff224bf7ae483b7ad4c5e27e",
            "type": "ADD_SNIPPET",
            "codeSnippet": "kony.print(\"thid\");",
            "parentId": null,
            "callbackType": null
        }]
    }
}