{
    "AS_Button_a97bdb8a1a014bbdb91295bcbc262a39": {
        "id": "AS_Button_a97bdb8a1a014bbdb91295bcbc262a39",
        "type": "ACTION_SEQUENCE",
        "params": [{
            "datatype": "collection",
            "name": "eventobject"
        }],
        "language": "js",
        "actions": [{
            "id": "ADD_SNIPPET_ide_onClick_ed0380824dd74a27944b7939ec7ef746",
            "type": "ADD_SNIPPET",
            "codeSnippet": "makeInlineErrorsTransfersInvisible();\nremoveDatafrmTransfersform();\nfrmPaymentDashboard.show();;",
            "callbackType": null
        }]
    }
}