{
    "AS_Button_ea90b52b9626486880333fbca08e60ee": {
        "id": "AS_Button_ea90b52b9626486880333fbca08e60ee",
        "type": "ACTION_SEQUENCE",
        "params": [{
            "datatype": "collection",
            "name": "eventobject"
        }],
        "contextObj": {
            "type": "forms",
            "platform": "",
            "KUID": "86293c7edc5141d5a5ad4f013692e956"
        },
        "language": "js",
        "actions": [{
            "id": "ADD_SNIPPET__f47a2e5cbb804024a3fb89d6ec739716",
            "type": "ADD_SNIPPET",
            "codeSnippet": "kony.print(\"Code Cleanup\")\n//repeatCompletedBillPay();",
            "parentId": null,
            "callbackType": null
        }]
    }
}