{
    "AS_Button_ce48c764292f4bb99573a74169733a7f": {
        "id": "AS_Button_ce48c764292f4bb99573a74169733a7f",
        "type": "ACTION_SEQUENCE",
        "params": [{
            "datatype": "collection",
            "name": "eventobject"
        }],
        "language": "js",
        "actions": [{
            "id": "ADD_SNIPPET_ide_onClick_i4726d05c9b9485ca24ab58a4d6377a0",
            "type": "ADD_SNIPPET",
            "codeSnippet": "var seQ = applicationManager.getSecurityQuestionsViewController();\nseQ.clickOnCancel();",
            "callbackType": null
        }]
    }
}