{
    "AS_Button_f2638e5badc2403191f11170341b0151": {
        "id": "AS_Button_f2638e5badc2403191f11170341b0151",
        "type": "ACTION_SEQUENCE",
        "params": [{
            "datatype": "collection",
            "name": "eventobject"
        }],
        "language": "js",
        "actions": [{
            "id": "ADD_SNIPPET_ide_onClick_ac44cf881e044e929f90a3fa75442144",
            "type": "ADD_SNIPPET",
            "codeSnippet": "purposeList(kony.retailBanking.globalData.globals.popTransferFlag);",
            "callbackType": null
        }]
    }
}