{
    "AS_Button_f15bea2e0d9f4148a1c94f596f9b8ae3": {
        "id": "AS_Button_f15bea2e0d9f4148a1c94f596f9b8ae3",
        "type": "ACTION_SEQUENCE",
        "params": [{
            "datatype": "collection",
            "name": "eventobject"
        }],
        "contextObj": {
            "name": "frmConfirmCashWithDraw",
            "type": "forms",
            "platform": "",
            "KUID": "b2e7c11eabab44839d19ed317b9260fc"
        },
        "language": "js",
        "actions": [{
            "id": "ADD_SNIPPET__b236af3eaeb643558332ff79c0a00641",
            "type": "ADD_SNIPPET",
            "codeSnippet": "var vc = new kony.rb.frmConfirmCashWithdrawViewController();\nvc.onClickConfirm();",
            "parentId": null,
            "callbackType": null
        }]
    }
}