{
    "AS_Button_bc19240db2904a37be83dc1379869b87": {
        "id": "AS_Button_bc19240db2904a37be83dc1379869b87",
        "type": "ACTION_SEQUENCE",
        "params": [{
            "datatype": "collection",
            "name": "eventobject"
        }],
        "contextObj": {
            "name": "frmConfirmTransferKA",
            "type": "forms",
            "platform": "",
            "KUID": "79e9f0ae27394db6b3b371dc6ca4520b"
        },
        "language": "js",
        "actions": [{
            "id": "ADD_SNIPPET_ide_onClick_fb3a199500b244b1a707f076524b2c40",
            "type": "ADD_SNIPPET",
            "codeSnippet": "onConfirmFormEditButtonClick();\n//getTransferPayLandingForm(\"frmNewTransferKA\");\n//frmNewTransferKA.transferPayTitleLabel.text=\"Edit Transfer\";\n//var INSTANCE = kony.sdk.mvvm.KonyApplicationContext.getAppInstance();\n//var listController = INSTANCE.getFormController(\"frmNewTransferKA\");\n//var navObject = new kony.sdk.mvvm.NavigationObject();\n//navObject.setCustomInfo(\"showState\",\"EditLanding\");\n//navObject.setRequestOptions(\"segInternalFromAccountsKA\",{\"headers\":{\"session_token\":kony.retailBanking.globalData.session_token}});\n//listController.performAction(\"navigateTo\",[\"frmNewTransferKA\",navObject]); ",
            "callbackType": null
        }]
    }
}