{
    "AS_Button_ef1bb618326b4e289577fde4eb1385fa": {
        "id": "AS_Button_ef1bb618326b4e289577fde4eb1385fa",
        "type": "ACTION_SEQUENCE",
        "params": [{
            "datatype": "collection",
            "name": "eventobject"
        }],
        "contextObj": {
            "name": "frmJomopayContacts",
            "type": "forms",
            "platform": "",
            "KUID": "e87eb38e1ea54c6586c26f1aee3e02d4"
        },
        "language": "js",
        "actions": []
    }
}