{
    "AS_Button_b9f476975ff245d485c180b72b093d8d": {
        "id": "AS_Button_b9f476975ff245d485c180b72b093d8d",
        "type": "ACTION_SEQUENCE",
        "name": "AS_Button_backToSettingsFromReOrder",
        "params": [{
            "datatype": "collection",
            "name": "eventobject"
        }],
        "language": "js",
        "actions": [{
            "id": "ADD_SNIPPET_ide_onClick_fe065d810707450798390e5b2dbe9ce7",
            "type": "ADD_SNIPPET",
            "codeSnippet": "frmSettingsKA.show();",
            "callbackType": null
        }]
    }
}