{
    "AS_Button_ecad49a2f10f442d9fbad39dd075420d": {
        "id": "AS_Button_ecad49a2f10f442d9fbad39dd075420d",
        "type": "ACTION_SEQUENCE",
        "params": [{
            "datatype": "collection",
            "name": "eventobject"
        }],
        "language": "js",
        "actions": [{
            "id": "ADD_SNIPPET_ide_onClick_b564d70bd6204e36aaba44be01741220",
            "type": "ADD_SNIPPET",
            "codeSnippet": "if(frmJOMOPayAddBiller.btnFavCheckBox.text === \"q\")\n\tfrmJOMOPayAddBiller.btnFavCheckBox.text = \"p\";\nelse\n\tfrmJOMOPayAddBiller.btnFavCheckBox.text = \"q\";",
            "callbackType": null
        }]
    }
}