{
    "AS_Button_i0035e5ebef846df8a49d4fc5694b6d8": {
        "id": "AS_Button_i0035e5ebef846df8a49d4fc5694b6d8",
        "type": "ACTION_SEQUENCE",
        "params": [{
            "datatype": "collection",
            "name": "eventobject"
        }],
        "language": "js",
        "actions": [{
            "id": "ADD_SNIPPET_ide_onClick_f8ad12b3e0d5481daba0dbd982ac5b32",
            "type": "ADD_SNIPPET",
            "codeSnippet": "getDeviceRegStatus();",
            "callbackType": null
        }]
    }
}