{
    "AS_Button_7005aa0756094cb1958b7d7945ddf4ed": {
        "id": "AS_Button_7005aa0756094cb1958b7d7945ddf4ed",
        "type": "ACTION_SEQUENCE",
        "params": [{
            "datatype": "collection",
            "name": "eventobject"
        }],
        "contextObj": {
            "name": "frmSearchResultsKA",
            "type": "forms",
            "platform": null,
            "KUID": "c0c324792a474a0fb5c1fbb09304b98a"
        },
        "language": "js",
        "actions": [{
            "id": "ADD_SNIPPET_ide_onClick_ee6de2b58a1b43eda4ed55336b06c264",
            "type": "ADD_SNIPPET",
            "codeSnippet": "navigateBackToSearchOptions();",
            "callbackType": null
        }]
    }
}