{
    "AS_Button_c9d4c9ba11c64454b420ab9ef744a4f4": {
        "id": "AS_Button_c9d4c9ba11c64454b420ab9ef744a4f4",
        "type": "ACTION_SEQUENCE",
        "params": [{
            "datatype": "collection",
            "name": "eventobject"
        }],
        "language": "js",
        "actions": [{
            "id": "ADD_SNIPPET_ide_onClick_d20875cc8dea4e07b1720a0d8aa803fb",
            "type": "ADD_SNIPPET",
            "codeSnippet": "activeAndroidNav();",
            "callbackType": null
        }]
    }
}