{
    "AS_Button_ad2b6f93f03649b1a1ef06c557ef4331": {
        "id": "AS_Button_ad2b6f93f03649b1a1ef06c557ef4331",
        "type": "ACTION_SEQUENCE",
        "params": [{
            "datatype": "collection",
            "name": "eventobject"
        }, {
            "datatype": "collection",
            "name": "context"
        }],
        "language": "js",
        "actions": [{
            "id": "ADD_SNIPPET_ide_onClick_bf2b9d48b42e4971bb0a67bdcfd2b93a",
            "type": "ADD_SNIPPET",
            "codeSnippet": "kony.print(\"accountDetails::\")\nfrmAccountDetailKA.show();",
            "callbackType": null,
            "disabled": true
        }, {
            "id": "INVOKE_FUNCTION__ide_onClick_gd8921caa624424fb5c5359ba8afa51e",
            "type": "INVOKE_FUNCTION",
            "sequenceKUID": "onheaderDashboard",
            "display": "onheaderDashboard",
            "inputparams": [{
                "name": "data",
                "value": " eventobject"
            }, {
                "name": "context",
                "value": " context"
            }],
            "callbackType": null,
            "disabled": null,
            "source": "module"
        }]
    }
}