{
    "AS_Button_fecbbcd7ddfb47379ac2d28eb593b3e4": {
        "id": "AS_Button_fecbbcd7ddfb47379ac2d28eb593b3e4",
        "type": "ACTION_SEQUENCE",
        "params": [{
            "datatype": "collection",
            "name": "eventobject"
        }],
        "language": "js",
        "actions": [{
            "id": "NAVIGATE_TO_FORM__ide_onClick_e5de976c1cc24849990bf61ec56bff67",
            "type": "NAVIGATE_TO_FORM",
            "formId": "frmLoginKA",
            "formKUID": "7b1aa8fceb6b4070833e9eab879b0e5e",
            "mappings": {},
            "mappingsOrder": [],
            "parentId": "",
            "callbackType": null,
            "enableMappingEditor": true,
            "disabled": true
        }, {
            "id": "ADD_SNIPPET_ide_onClick_a7819265ef724724873d05ff23f9cb13",
            "type": "ADD_SNIPPET",
            "codeSnippet": "//kony.store.setItem(\"tAndCAccept\",\"N\");\nkony.application.exit();",
            "callbackType": null
        }]
    }
}