{
    "AS_Button_jb9a9f3a00aa457ca3fb73ac5d4f8a33": {
        "id": "AS_Button_jb9a9f3a00aa457ca3fb73ac5d4f8a33",
        "type": "ACTION_SEQUENCE",
        "params": [{
            "datatype": "collection",
            "name": "eventobject"
        }],
        "contextObj": {
            "type": "forms",
            "platform": "",
            "KUID": "cb977d23d25e44d0968c446c681f4dc7"
        },
        "language": "js",
        "actions": [{
            "id": "ADD_SNIPPET__a1601e8670cf48ef962c21562aabc4a5",
            "type": "ADD_SNIPPET",
            "codeSnippet": "var seQ = applicationManager.getSecurityQuestionsViewController();\n seQ.clickOnBack();\n",
            "parentId": null,
            "callbackType": null
        }]
    }
}