{
    "AS_Button_i09905ec51c84561ae1c1f6734454f1c": {
        "id": "AS_Button_i09905ec51c84561ae1c1f6734454f1c",
        "type": "ACTION_SEQUENCE",
        "params": [{
            "datatype": "collection",
            "name": "eventobject"
        }],
        "language": "js",
        "actions": [{
            "id": "ADD_SNIPPET_ide_onClick_cfde8478a5f94aa79fe04f8d8625f96e",
            "type": "ADD_SNIPPET",
            "codeSnippet": "var INSTANCE = kony.sdk.mvvm.KonyApplicationContext.getAppInstance();\nvar listController = INSTANCE.getFormController(\"frmAddExternalAccountKA\");\nvar navObject = new kony.sdk.mvvm.NavigationObject();\nvar datamodelflxAddressKA = new kony.sdk.mvvm.DataModel();\nnavObject.setDataModel(null,kony.sdk.mvvm.OperationType.ADD, \"form\");\n//navObject.setRequestOptions(\"ListCountryKA\",{\"headers\":{\"session_token\":kony.retailBanking.globalData.session_token}});\nnavObject.setRequestOptions(\"form\",{\"headers\":{\"session_token\":kony.retailBanking.globalData.session_token}});\nlistController.performAction(\"navigateTo\",[\"frmAddExternalAccountKA\",navObject]); ",
            "callbackType": null
        }]
    }
}