{
    "AS_Button_j46bbca45ba448ab95209803a89ff1c4": {
        "id": "AS_Button_j46bbca45ba448ab95209803a89ff1c4",
        "type": "ACTION_SEQUENCE",
        "params": [{
            "datatype": "collection",
            "name": "eventobject"
        }],
        "language": "js",
        "actions": [{
            "id": "ADD_SNIPPET_ide_onClick_b251d4ff9a1a48e09f9bfb6da09a20c3",
            "type": "ADD_SNIPPET",
            "codeSnippet": "frmJoMoPay.flxPopupOuter.setVisibility(true);",
            "callbackType": null
        }]
    }
}