{
    "AS_Button_j4b56546b12b4f949ff298580d1afe3e": {
        "id": "AS_Button_j4b56546b12b4f949ff298580d1afe3e",
        "type": "ACTION_SEQUENCE",
        "params": [{
            "datatype": "collection",
            "name": "eventobject"
        }],
        "language": "js",
        "actions": [{
            "id": "ADD_SNIPPET_ide_onClick_c7462b1b4a8041ea9aadf258f28ed5c7",
            "type": "ADD_SNIPPET",
            "codeSnippet": "getAllLocations();\n",
            "callbackType": null
        }]
    }
}