{
    "AS_Button_a730b68fd2af47ac89ca4e93746f3820": {
        "id": "AS_Button_a730b68fd2af47ac89ca4e93746f3820",
        "type": "ACTION_SEQUENCE",
        "params": [{
            "datatype": "collection",
            "name": "eventobject"
        }],
        "language": "js",
        "actions": [{
            "id": "ADD_SNIPPET_ide_onClick_h4a6f7e7b98346dd914367967b813f61",
            "type": "ADD_SNIPPET",
            "codeSnippet": "// if(kony.sdk.isNetworkAvailable())\n//   {\n// navigate_StandingInstructions(\"JoMoPay\");\n//   }\n// else\n//   { \n// alert(\"\"+kony.i18n.getLocalizedString(\"i18n.errorMsg.deviceConnectionError\")); \n//   }\ngblTModule = \"jomoDashBoard\";\n//getAllAccounts(); //hassan 12/03/2018\\\nglbJmpFlow = \"dash\";\ngetAllAccounts();\n//call_serv_getjomoppayregdata();\n\n// addData();\n// getJomoPayTransactionsList();",
            "callbackType": null
        }]
    }
}