{
    "AS_Button_bba8c120bf874164a97988b5fe6f9a83": {
        "id": "AS_Button_bba8c120bf874164a97988b5fe6f9a83",
        "type": "ACTION_SEQUENCE",
        "params": [{
            "datatype": "collection",
            "name": "eventobject"
        }],
        "language": "js",
        "actions": [{
            "id": "ADD_SNIPPET_ide_onClick_f9aef5f1acfd42b7ae304bfef14751ab",
            "type": "ADD_SNIPPET",
            "codeSnippet": "gblEntryFormForSettings = \"Cards\";\nsubMenuFlag = true;\nfrmSettingsKA.show();",
            "callbackType": null
        }]
    }
}