{
    "AS_Calendar_i83644f2115f4f0f9e735cf87f556d5e": {
        "id": "AS_Calendar_i83644f2115f4f0f9e735cf87f556d5e",
        "type": "ACTION_SEQUENCE",
        "name": "AS_CalendaronselectionfromrequestStmnt",
        "params": [{
            "datatype": "collection",
            "name": "eventobject"
        }, {
            "datatype": "boolean",
            "name": "isValidDateSelected"
        }],
        "contextObj": {
            "name": "frmRequestStatementAccounts",
            "type": "forms",
            "platform": "",
            "KUID": "gfecebeb3e284d22b50f99352c826586"
        },
        "language": "js",
        "actions": [{
            "id": "ADD_SNIPPET__h3829c514deb4df98c1632fc7c877e91",
            "type": "ADD_SNIPPET",
            "codeSnippet": "var field = frmRequestStatementAccounts.CalTo;\nvar date = field.dateComponents[0]<10?\"0\"+field.dateComponents[0]:field.dateComponents[0];\nvar month = field.dateComponents[1]<10?\"0\"+field.dateComponents[1]:field.dateComponents[1];\nfrmRequestStatementAccounts.lblToDate.text = month+\"/\"+field.dateComponents[2];\nfrmRequestStatementAccounts.lblLine3.skin = \"sknFlxGreenLine\";\nfrmRequestStatementAccounts.lblToService.text = month+\"/\"+field.dateComponents[2];\nfrmRequestStatementAccounts.lblToDateHidee.text = month+\"/\"+ date +\"/\"+ field.dateComponents[2];\n\nfrmRequestStatementAccounts.lblTo.setVisibility(true);\nfrmRequestStatementAccounts.CalTo.text = \"\";\nnextSkinCheckForRequestStaement();",
            "parentId": null,
            "callbackType": null
        }]
    }
}