{
    "AS_Calendar_i22eb692a4d3470782eb14cb249452db": {
        "id": "AS_Calendar_i22eb692a4d3470782eb14cb249452db",
        "type": "ACTION_SEQUENCE",
        "name": "AS_Calendar_OnSelectionStartDateDeposite",
        "params": [{
            "datatype": "collection",
            "name": "eventobject"
        }, {
            "datatype": "boolean",
            "name": "isValidDateSelected"
        }],
        "contextObj": {
            "name": "frmOpenTermDeposit",
            "type": "forms",
            "platform": "",
            "KUID": "fec6fddbcf8543f2b30114c87e1a7e99"
        },
        "language": "js",
        "actions": [{
            "id": "ADD_SNIPPET__be337f7d4c864caa980f44382c22bd35",
            "type": "ADD_SNIPPET",
            "codeSnippet": "calendar_DateRange(frmOpenTermDeposit.calOpenDeposite, \"From\", \"Deposite\");",
            "parentId": null,
            "callbackType": null
        }]
    }
}