{
    "AS_Calendar_ebe9d6d122cd4a4e997c99ae369d3137": {
        "id": "AS_Calendar_ebe9d6d122cd4a4e997c99ae369d3137",
        "type": "ACTION_SEQUENCE",
        "params": [{
            "datatype": "collection",
            "name": "eventobject"
        }, {
            "datatype": "boolean",
            "name": "isValidDateSelected"
        }],
        "language": "js",
        "actions": [{
            "id": "ADD_SNIPPET_ide_onSelection_934ee0b603c340b2980473f13635d968",
            "type": "ADD_SNIPPET",
            "codeSnippet": "setDateToLabel();\nCanEnableSelPayeeBtn();",
            "callbackType": null
        }]
    }
}