{
    "AS_Calendar_2346aef23b224509b967741412e8db9c": {
        "id": "AS_Calendar_2346aef23b224509b967741412e8db9c",
        "type": "ACTION_SEQUENCE",
        "params": [{
            "datatype": "collection",
            "name": "eventobject"
        }, {
            "datatype": "boolean",
            "name": "isValidDateSelected"
        }],
        "contextObj": {
            "type": "forms",
            "platform": "",
            "KUID": "ac09c32a534449b3b0961f8e48e26015"
        },
        "language": "js",
        "actions": [{
            "id": "ADD_SNIPPET__8799f37a5cc24b0da25d93298d4f09ec",
            "type": "ADD_SNIPPET",
            "codeSnippet": "var caldate = frmSearchKA.CalenderFrom.dateComponents;\nfrmSearchKA.CalenderTo.dateComponents=[caldate[0],caldate[1],caldate[2]];\nfrmSearchKA.CalenderTo.validStartDate=[caldate[0],caldate[1],caldate[2]];",
            "parentId": null,
            "callbackType": null
        }]
    }
}