{
    "AS_TextField_a0f9222e9df14d87b3970236ae3b8d66": {
        "id": "AS_TextField_a0f9222e9df14d87b3970236ae3b8d66",
        "type": "ACTION_SEQUENCE",
        "name": "AS_convertionrateEnterActionRight",
        "params": [{
            "datatype": "collection",
            "name": "eventobject"
        }, {
            "datatype": "string",
            "name": "changedtext"
        }],
        "contextObj": {
            "name": "frmFxRate",
            "type": "forms",
            "platform": "",
            "KUID": "hecd02a154084a89904bda155d565470"
        },
        "language": "js",
        "actions": [{
            "id": "ADD_SNIPPET__d3f9c1d9056f4df691e7e4ab529c05f9",
            "type": "ADD_SNIPPET",
            "codeSnippet": "kony.print(\"\");",
            "parentId": null,
            "callbackType": null
        }]
    }
}