{
    "AS_FlexContainer_da469d1a660f4e869b8700f7e33e5355": {
        "id": "AS_FlexContainer_da469d1a660f4e869b8700f7e33e5355",
        "type": "ACTION_SEQUENCE",
        "params": [{
            "datatype": "collection",
            "name": "eventobject"
        }],
        "contextObj": {
            "name": "frmAccountDetailKA",
            "type": "forms",
            "platform": "",
            "KUID": "5ed703cad63c441882fc4a36f5ea0c28"
        },
        "language": "js",
        "actions": [{
            "id": "ADD_SNIPPET__75e1fba3ea5d48bebaa7726b0e45edea",
            "type": "ADD_SNIPPET",
            "codeSnippet": "frmAccountDetailKA.flxAccountDetailNavOptKA.isVisible=false;",
            "parentId": null,
            "callbackType": null
        }]
    }
}