{
    "AS_FlexScrollContainer_id9aeedac6644962aa13d4438867b834": {
        "id": "AS_FlexScrollContainer_id9aeedac6644962aa13d4438867b834",
        "type": "ACTION_SEQUENCE",
        "params": [{
            "datatype": "collection",
            "name": "eventobject"
        }],
        "language": "js",
        "actions": [{
            "id": "ADD_SNIPPET_ide_onScrollEnd_fbaf86bbfd1f4e788405f93e1e325dff",
            "type": "ADD_SNIPPET",
            "codeSnippet": "innerDoneScrolling();",
            "callbackType": null
        }]
    }
}