{
    "AS_FlexContainer_a7f78f522d994143a2ed3d7942479db3": {
        "id": "AS_FlexContainer_a7f78f522d994143a2ed3d7942479db3",
        "type": "ACTION_SEQUENCE",
        "params": [{
            "datatype": "collection",
            "name": "eventobject"
        }],
        "language": "js",
        "actions": [{
            "id": "ADD_SNIPPET_ide_onClick_f99b498b92404714ae6c67fc917849cd",
            "type": "ADD_SNIPPET",
            "codeSnippet": "navigatetofrmRequestSattementAccounts();",
            "callbackType": null
        }]
    }
}