{
    "AS_Form_cf00a963559540a1995e20866f36506d": {
        "id": "AS_Form_cf00a963559540a1995e20866f36506d",
        "type": "ACTION_SEQUENCE",
        "name": "AS_Form_editAccountSettingsPreshow",
        "params": [{
            "datatype": "collection",
            "name": "eventobject"
        }],
        "contextObj": {
            "name": "frmEditAccountSettings",
            "type": "forms",
            "platform": "",
            "KUID": "ace74a42ca5e45cabde3f7b9d6361bd8"
        },
        "language": "js",
        "actions": [{
            "id": "ADD_SNIPPET__e7d6d9654ffb429abc80898e077f77e3",
            "type": "ADD_SNIPPET",
            "codeSnippet": "if(isEmpty(frmEditAccountSettings.txtAddNickName.text))\nanimateLabel(\"DOWN\",\"lblAddNickName\",frmEditAccountSettings.txtAddNickName.text);\nelse\nanimateLabel(\"UP\",\"lblAddNickName\",frmEditAccountSettings.txtAddNickName.text);",
            "parentId": null,
            "callbackType": null
        }]
    }
}