{
    "AS_FlexContainer_c0a96fc7ad004cc986c21ab9ffa26c86": {
        "id": "AS_FlexContainer_c0a96fc7ad004cc986c21ab9ffa26c86",
        "type": "ACTION_SEQUENCE",
        "params": [{
            "datatype": "collection",
            "name": "eventobject"
        }],
        "language": "js",
        "actions": [{
            "id": "ADD_SNIPPET_ide_onClick_d500eb4aceff41dc8c296ff7695a9049",
            "type": "ADD_SNIPPET",
            "codeSnippet": "frmEstatementLandingKA.flxSwitchOnTouchLogin.setVisibility(true);\nfrmEstatementLandingKA.flxSwitchOffTouchLogin.setVisibility(false);\nif(frmEstatementLandingKA.lblTermsandConditionsCheckBox.text === \"p\" && frmEstatementLandingKA.txtEmail1.text!==null && frmEstatementLandingKA.txtEmail1.text!==\"\" && isValidEmaill(frmEstatementLandingKA.txtEmail1.text))\n  frmEstatementLandingKA.lblNext.skin = \"sknLblNextEnabled\";\nelse\n  frmEstatementLandingKA.lblNext.skin =\"sknLblNextDisabled\";",
            "callbackType": null
        }]
    }
}