{
    "AS_FlexContainer_i0b54fe9bfc64f9bb1ab95989fc5ffb0": {
        "id": "AS_FlexContainer_i0b54fe9bfc64f9bb1ab95989fc5ffb0",
        "type": "ACTION_SEQUENCE",
        "params": [{
            "datatype": "collection",
            "name": "eventobject"
        }],
        "contextObj": {
            "name": "frmJomoPayAccountList",
            "type": "forms",
            "platform": "",
            "KUID": "e443c597a4024db3b7a9281defc970cc"
        },
        "language": "js",
        "actions": [{
            "id": "ADD_SNIPPET__a46092702a674d1582eea490952dc419",
            "type": "ADD_SNIPPET",
            "codeSnippet": "var previousForm = kony.application.getPreviousForm();\npreviousForm.show();\nkony.newCARD.applyCardsOption = false;",
            "parentId": null,
            "callbackType": null
        }]
    }
}