{
    "AS_FlexContainer_d97cac1716e14c46b5dc2a36295ad333": {
        "id": "AS_FlexContainer_d97cac1716e14c46b5dc2a36295ad333",
        "type": "ACTION_SEQUENCE",
        "name": "AS_footerPaymentOnClick",
        "params": [{
            "datatype": "collection",
            "name": "eventobject"
        }],
        "language": "js",
        "actions": [{
            "id": "ADD_SNIPPET_ide_onClick_h295fd1acad74941a65c38120954f70c",
            "type": "ADD_SNIPPET",
            "codeSnippet": "// var currentForm = kony.application.getCurrentForm();\n// kony.chatbots.bot.showBotSplash(currentForm);",
            "callbackType": null
        }]
    }
}