{
    "AS_FlexContainer_fb2176ad73114b07a28ecf6ec96721f5": {
        "id": "AS_FlexContainer_fb2176ad73114b07a28ecf6ec96721f5",
        "type": "ACTION_SEQUENCE",
        "params": [{
            "datatype": "collection",
            "name": "eventobject"
        }],
        "language": "js",
        "actions": [{
            "id": "ADD_SNIPPET_ide_onClick_cf28d9ee8bf246078bd5e9f2e44b3e38",
            "type": "ADD_SNIPPET",
            "codeSnippet": "onClickCardsMenu();",
            "callbackType": null
        }]
    }
}