{
    "AS_FlexContainer_a3231f1b6ea942e1a635a05ee9b5ee99": {
        "id": "AS_FlexContainer_a3231f1b6ea942e1a635a05ee9b5ee99",
        "type": "ACTION_SEQUENCE",
        "name": "AS_FlexContainer_OnClickBackOpenDeposit",
        "params": [{
            "datatype": "collection",
            "name": "eventobject"
        }],
        "contextObj": {
            "type": "forms",
            "platform": null,
            "KUID": "f59614c5f54049dcab55c21f9c30c44e"
        },
        "language": "js",
        "actions": [{
            "id": "ADD_SNIPPET__h98457721ddf485d866dcfd504313ec8",
            "type": "ADD_SNIPPET",
            "codeSnippet": "if (frmOpenTermDeposit.flxConfirmDeposite.isVisible ===true)\n  {\n    frmOpenTermDeposit.flxDepositSelection.setVisibility(true);\n    frmOpenTermDeposit.flxConfirmDeposite.setVisibility(false);\n    frmOpenTermDeposit.btnNextDeposite.setVisibility(true);\n  }\nelse{\n  customAlertPopup(geti18Value(\"i18n.cards.Confirmation\"), \n                 geti18Value(\"i18n.transfers.eraseAllAlert\"),\n                 userResponseESP, onClickNoBackESP, \n                 geti18Value(\"i18n.common.YES\"),\n                 geti18Value(\"i18n.common.NO\"));\n}\nfunction userResponseESP(){\n    resetForm();\n  frmAccountsLandingKA.show();\n  frmOpenTermDeposit.destroy();\n    popupCommonAlertDimiss();\n\n}\nfunction onClickNoBackESP(){\n  popupCommonAlertDimiss();\n}",
            "parentId": null,
            "callbackType": null
        }]
    }
}