{
    "AS_Button_e7043ed396ff42a7af392cc5d734ab9f": {
        "id": "AS_Button_e7043ed396ff42a7af392cc5d734ab9f",
        "type": "ACTION_SEQUENCE",
        "name": "AS_frmBillsOnClickRadioCard",
        "params": [{
            "datatype": "collection",
            "name": "eventobject"
        }],
        "language": "js",
        "actions": [{
            "id": "ADD_SNIPPET_ide_onClick_jb57fe48b0284db19999691d1a20fa03",
            "type": "ADD_SNIPPET",
            "codeSnippet": "frmBills.flxConversionAmt.setVisibility(false);//hassan JIRA 2141\nonChangingradioBtnfrmBills(frmBills.btnBillsPayCards,frmBills.lblBillsPayCards.text);",
            "callbackType": null
        }]
    }
}