{
    "AS_FlexContainer_cab8e79c6d4e41319f9af54ee19c3537": {
        "id": "AS_FlexContainer_cab8e79c6d4e41319f9af54ee19c3537",
        "type": "ACTION_SEQUENCE",
        "params": [{
            "datatype": "collection",
            "name": "eventobject"
        }],
        "language": "js",
        "actions": [{
            "id": "ADD_SNIPPET_ide_onClick_ia5dbe4151af43a7be58621aca461b38",
            "type": "ADD_SNIPPET",
            "codeSnippet": "gblWorkflowType = \"IPS\";\n// returnBankBranchs(\"BankDetail\", \"lblBankName\");\nkony.boj.showSelectedDetailsFromBene(\"Reason\", \"lblReason\");\nvalidateLblNext();\n// gblWorkflowType = \"\";",
            "callbackType": null
        }]
    }
}