{
    "AS_FlexContainer_f7800c64f31444fb860620e18a315379": {
        "id": "AS_FlexContainer_f7800c64f31444fb860620e18a315379",
        "type": "ACTION_SEQUENCE",
        "params": [{
            "datatype": "collection",
            "name": "eventobject"
        }],
        "language": "js",
        "actions": [{
            "id": "ADD_SNIPPET_ide_onClick_j18b6206f7f44e9aa375f7a06ee15ef0",
            "type": "ADD_SNIPPET",
            "codeSnippet": "navigatetoformOrderChequeBook();",
            "callbackType": null
        }]
    }
}