{
    "AS_Form_5acfb1bfa3774816bcfba24e9097d1b6": {
        "id": "AS_Form_5acfb1bfa3774816bcfba24e9097d1b6",
        "type": "ACTION_SEQUENCE",
        "params": [{
            "datatype": "collection",
            "name": "eventobject"
        }],
        "contextObj": {
            "name": "frmDeviceregistrarionSuccessKA",
            "type": "forms",
            "platform": null,
            "KUID": "71f8ab34e5b2429c81c09a27704cb4a1"
        },
        "language": "js",
        "actions": [{
            "id": "ADD_SNIPPET_ide_onHide_cabe82ec49f34632afe80e075c027aa6",
            "type": "ADD_SNIPPET",
            "codeSnippet": "kony.print(\"Removed\");",
            "callbackType": null
        }]
    }
}