{
    "AS_FlexContainer_j27cb4495e554c75a927e7c07e1aa654": {
        "id": "AS_FlexContainer_j27cb4495e554c75a927e7c07e1aa654",
        "type": "ACTION_SEQUENCE",
        "params": [{
            "datatype": "collection",
            "name": "eventobject"
        }],
        "language": "js",
        "actions": [{
            "id": "ADD_SNIPPET_ide_onClick_e3617d868867433884e76aa6520a7bd6",
            "type": "ADD_SNIPPET",
            "codeSnippet": "// var currentForm = kony.application.getCurrentForm();\n// kony.chatbots.bot.showBotSplash(currentForm);\nkony.print(\"Deleted\");",
            "callbackType": null
        }]
    }
}