{
    "AS_FlexContainer_d63e8edd28054e96b7729d9438b1a5ef": {
        "id": "AS_FlexContainer_d63e8edd28054e96b7729d9438b1a5ef",
        "type": "ACTION_SEQUENCE",
        "params": [{
            "datatype": "collection",
            "name": "eventobject"
        }, {
            "datatype": "string",
            "name": "x"
        }, {
            "datatype": "string",
            "name": "y"
        }],
        "contextObj": {
            "name": "frmChatBots",
            "type": "forms",
            "platform": "",
            "KUID": "a5c82996d9864c6482f65cfffe81fda4"
        },
        "language": "js",
        "actions": [{
            "id": "ADD_SNIPPET__e5fda98cfac142fd82c5b9250155c66c",
            "type": "ADD_SNIPPET",
            "codeSnippet": "onTouchStart1(eventobject,x,y);",
            "parentId": null,
            "callbackType": null
        }]
    }
}