{
    "AS_FlexContainer_a047aa93737947a380d3b7659dd1b931": {
        "id": "AS_FlexContainer_a047aa93737947a380d3b7659dd1b931",
        "type": "ACTION_SEQUENCE",
        "params": [{
            "datatype": "collection",
            "name": "eventobject"
        }],
        "contextObj": {
            "name": "frmAddNewPrePayeeKA",
            "type": "forms",
            "platform": null,
            "KUID": "a843292d9c674ff7ba10a9b594b7e7e5"
        },
        "language": "js",
        "actions": [{
            "id": "ADD_SNIPPET_ide_onClick_ide3ffa55b2543b1831430d9ee07b8ca",
            "type": "ADD_SNIPPET",
            "codeSnippet": "kony.boj.manualService(\"IDType\")",
            "callbackType": null
        }]
    }
}