{
    "AS_FlexContainer_93c5a80965924886b8ba1fb599b975e0": {
        "id": "AS_FlexContainer_93c5a80965924886b8ba1fb599b975e0",
        "type": "ACTION_SEQUENCE",
        "params": [{
            "datatype": "collection",
            "name": "eventobject"
        }],
        "contextObj": {
            "name": "frmAccountsLandingKA",
            "type": "forms",
            "platform": "",
            "KUID": "d62a2a0906c64d2281addc95893a6544"
        },
        "language": "js",
        "actions": [{
            "id": "ADD_SNIPPET__6373f897d8864e848715deb76110c73f",
            "type": "ADD_SNIPPET",
            "codeSnippet": "frmAccountsLandingKA.flxAccntLandingNavOptKA.isVisible=false;",
            "parentId": null,
            "callbackType": null
        }]
    }
}