{
    "AS_FlexContainer_b49bee7b6f9544649a621936e7c0c43f": {
        "id": "AS_FlexContainer_b49bee7b6f9544649a621936e7c0c43f",
        "type": "ACTION_SEQUENCE",
        "params": [{
            "datatype": "collection",
            "name": "eventobject"
        }],
        "contextObj": {
            "name": "tabBarTransfer",
            "type": "templates",
            "platform": "",
            "KUID": "4d0f72044b934b539f6f3d0409a878b0"
        },
        "language": "js",
        "actions": [{
            "id": "ADD_SNIPPET__64b2fc4d40e8491ca4979b43ac00feb9",
            "type": "ADD_SNIPPET",
            "codeSnippet": "gblfrmName = \"\";\nshowFormOrderList();",
            "parentId": null,
            "callbackType": null
        }]
    }
}