{
    "AS_FlexContainer_a1f6c6f666db4f85a7469341d8131fab": {
        "id": "AS_FlexContainer_a1f6c6f666db4f85a7469341d8131fab",
        "type": "ACTION_SEQUENCE",
        "name": "AS_FlexContainer_quickBalancePreviewSwitch",
        "params": [{
            "datatype": "collection",
            "name": "eventobject"
        }],
        "contextObj": {
            "name": "frmAuthorizationAlternatives",
            "type": "forms",
            "platform": "",
            "KUID": "d410b4cb8325465eb5a9cb0f8e472aec"
        },
        "language": "js",
        "actions": [{
            "id": "ADD_SNIPPET__f893d8480ea74ab78d0b502b4c793b74",
            "type": "ADD_SNIPPET",
            "codeSnippet": "if(frmAuthorizationAlternatives.flxSwitchOff.isVisible === true){\n  frmAuthorizationAlternatives.flxSwitchOn.isVisible = true;\n frmAuthorizationAlternatives.flxSwitchOff.isVisible  = false;\n    \n  //frmAuthorizationAlternatives.flxTransactionPreview.isVisible = true;\n\n}else{\n  frmAuthorizationAlternatives.flxSwitchOff.isVisible  = true;\n  frmAuthorizationAlternatives.flxSwitchOn.isVisible = false;\n   var segLength = 0;\n  if(frmAuthorizationAlternatives.segAccounts.isVisible)\n   var segLength = frmAuthorizationAlternatives.segAccounts.data.length;\n     var segArray = [];\n  kony.print(\"da---:\"+JSON.stringify(frmAuthorizationAlternatives.segAccounts.data));\n  if(!isEmpty(segLength))  {\n  for(var i = 0; i<segLength;i++){\n       var segData = frmAuthorizationAlternatives.segAccounts.data[i];\n        segData.lblIncommingTick.isVisible = false;\n       segArray.push(segData);\n         }\n  }\n   frmAuthorizationAlternatives.segAccounts.setData(segArray);\n  \n  frmAuthorizationAlternatives.flxSwitchTransactionOff.isVisible = true;\n  frmAuthorizationAlternatives.flxSwitchTransactionsOn.isVisible = false;\n}",
            "parentId": null,
            "callbackType": null
        }]
    }
}