{
    "AS_FlexContainer_45bb0c9234bf4b6b8617c8c85ce989ff": {
        "id": "AS_FlexContainer_45bb0c9234bf4b6b8617c8c85ce989ff",
        "type": "ACTION_SEQUENCE",
        "params": [{
            "datatype": "collection",
            "name": "eventobject"
        }],
        "contextObj": {
            "name": "frmAccountsLandingKA",
            "type": "forms",
            "platform": "",
            "KUID": "d62a2a0906c64d2281addc95893a6544"
        },
        "language": "js",
        "actions": [{
            "id": "ADD_SNIPPET__175db308d59f40eab86fbdb94118c44a",
            "type": "ADD_SNIPPET",
            "codeSnippet": "setSegmentData(\"frmAccountsLandingKA\");\nfrmAccountsLandingKA.flxAccntLandingNavOptKA.isVisible=true;",
            "parentId": null,
            "callbackType": null
        }]
    }
}