{
    "AS_FlexContainer_c2b5e98f80b74d6e8847ae9b1d24c416": {
        "id": "AS_FlexContainer_c2b5e98f80b74d6e8847ae9b1d24c416",
        "type": "ACTION_SEQUENCE",
        "name": "AS_FlexContainer_OncliBackFromMainPrePaidDetailsScreen",
        "params": [{
            "datatype": "collection",
            "name": "eventobject"
        }],
        "contextObj": {
            "name": "frmPrePaidPayeeDetailsKA",
            "type": "forms",
            "platform": null,
            "KUID": "hbc20d29fae3473cbfa1d409f630e19b"
        },
        "language": "js",
        "actions": [{
            "id": "ADD_SNIPPET__fef2f1c636224e149b74e9b2031e5223",
            "type": "ADD_SNIPPET",
            "codeSnippet": "customAlertPopup(geti18Value(\"i18n.common.AreYouSure\"), \n                 geti18Value(\"i18n.Bene.backFromBeneError\"),\n                kony.boj.onClickYesBackAddPrePaidBene, popupCommonAlertDimiss, \n                geti18Value(\"i18n.common.YES\"),\n                geti18Value(\"i18n.common.NO\"));",
            "parentId": null,
            "callbackType": null
        }]
    }
}