{
    "AS_Form_d82a391412284033ae1fa6653ec594c5": {
        "id": "AS_Form_d82a391412284033ae1fa6653ec594c5",
        "type": "ACTION_SEQUENCE",
        "params": [{
            "datatype": "collection",
            "name": "eventobject"
        }],
        "contextObj": {
            "name": "frmAddNewPrePayeeKA",
            "type": "forms",
            "platform": null,
            "KUID": "a843292d9c674ff7ba10a9b594b7e7e5"
        },
        "language": "js",
        "actions": [{
            "id": "ADD_SNIPPET_ide_postShow_a0b6ce8cf54848b7b0ff6fde9e22c8c9",
            "type": "ADD_SNIPPET",
            "codeSnippet": "kony.print(\"---- addBillerFromQuickPay ::\"+kony.boj.addBillerFromQuickPay+\" :: \"+frmNewBillKA.flxBillerNumber.isVisible+\" :: \"+frmNewBillKA.tbxBillerNumber.text);\nif(kony.boj.addBillerFromQuickPay){\n  kony.boj.restoreBillerTabDetails();\n  frmAddNewPrePayeeKA.flxBillerNumber.setVisibility(frmNewBillKA.flxBillerNumber.isVisible);\n  frmAddNewPrePayeeKA.tbxBillerNumber.text = frmNewBillKA.tbxBillerNumber.text;\n  kony.boj.storeDetailsAddBiller(\"BillerNumber\", frmAddNewPayeeKA.tbxBillerNumber.text);\n  animateLabel(\"UP\", \"lblBillerNumber\",frmAddNewPayeeKA.tbxBillerNumber.text);\n  kony.boj.addBillerFromQuickPay = false;\n}\nfrmAddNewPrePayeeKA.btnPrePaid.setEnabled(false);",
            "callbackType": null
        }]
    }
}