{
    "AS_Form_haf7f511de1148e1b9cc2690e6727386": {
        "id": "AS_Form_haf7f511de1148e1b9cc2690e6727386",
        "type": "ACTION_SEQUENCE",
        "params": [{
            "datatype": "collection",
            "name": "eventobject"
        }],
        "contextObj": {
            "name": "frmInformationKA",
            "type": "forms",
            "platform": "",
            "KUID": "f18169832ba24ba09c8780278abfc207"
        },
        "language": "js",
        "actions": [{
            "id": "ADD_SNIPPET__c5b9feec0b364827951345d7b1da336e",
            "type": "ADD_SNIPPET",
            "codeSnippet": "frmInformationKA.searchField.text=\"\";\ngetNewsLatestDetails();\ngetAllQuestions();",
            "parentId": null,
            "callbackType": null
        }]
    }
}