{
    "AS_FlexContainer_fce3c3cc738f43098364c5e8db634218": {
        "id": "AS_FlexContainer_fce3c3cc738f43098364c5e8db634218",
        "type": "ACTION_SEQUENCE",
        "params": [{
            "datatype": "collection",
            "name": "eventobject"
        }],
        "language": "js",
        "actions": [{
            "id": "ADD_SNIPPET_ide_onClick_d063928aaa5c443382f9b06f55b90a5f",
            "type": "ADD_SNIPPET",
            "codeSnippet": "setSegmentData(\"frmAccountsLandingKA\");\nfrmAccountsLandingKA.flxAccntLandingNavOptKA.isVisible=true;",
            "callbackType": null
        }]
    }
}