{
    "AS_Form_c840e507bcce4a46afdb8287e981f9cd": {
        "id": "AS_Form_c840e507bcce4a46afdb8287e981f9cd",
        "type": "ACTION_SEQUENCE",
        "params": [{
            "datatype": "collection",
            "name": "eventobject"
        }],
        "contextObj": {
            "name": "frmAccountType",
            "type": "forms",
            "platform": null,
            "KUID": "g66cdae5633b442dbe43e8cfa5f5a5a6"
        },
        "language": "js",
        "actions": [{
            "id": "ADD_SNIPPET__dc94fd1f690b4de686662f842f46aaea",
            "type": "ADD_SNIPPET",
            "codeSnippet": "accountListPreshow();",
            "parentId": null,
            "callbackType": null
        }]
    }
}