{
    "AS_Form_c3d01c76f39d4b95b62eee6ea2e63e94": {
        "id": "AS_Form_c3d01c76f39d4b95b62eee6ea2e63e94",
        "type": "ACTION_SEQUENCE",
        "name": "AS_Form_frmShowAllBenefInit",
        "params": [{
            "datatype": "collection",
            "name": "eventobject"
        }],
        "contextObj": {
            "name": "frmShowAllBeneficiary",
            "type": "forms",
            "platform": "",
            "KUID": "da135140bfd946caa325afeee19e7e04"
        },
        "language": "js",
        "actions": [{
            "id": "ADD_SNIPPET__i23ba31567fe412396f6dfe1da28b59a",
            "type": "ADD_SNIPPET",
            "codeSnippet": "kony.boj.setAnimationToBenfSegment();",
            "parentId": null
        }]
    }
}