{
    "AS_FlexContainer_gbfa60d51f1747bb84506bbeb5635d2a": {
        "id": "AS_FlexContainer_gbfa60d51f1747bb84506bbeb5635d2a",
        "type": "ACTION_SEQUENCE",
        "params": [{
            "datatype": "collection",
            "name": "eventobject"
        }],
        "language": "js",
        "actions": [{
            "id": "ADD_SNIPPET_ide_onClick_f55b590c94d74f06b7571e155f54dfcf",
            "type": "ADD_SNIPPET",
            "codeSnippet": "gblfrmName = \"\";\nadditionalValidationRdc(this,gotoDeposits);\n",
            "callbackType": null
        }]
    }
}