{
    "AS_Form_1c9af408e3f14189bd2535468819e4c4": {
        "id": "AS_Form_1c9af408e3f14189bd2535468819e4c4",
        "type": "ACTION_SEQUENCE",
        "params": [{
            "datatype": "collection",
            "name": "eventobject"
        }],
        "contextObj": {
            "type": "forms",
            "platform": "",
            "KUID": "3e2f28d9359040b1a573d116bedb83fc"
        },
        "language": "js",
        "actions": [{
            "id": "ADD_SNIPPET_ide_onDeviceBack_cf5c6cec21674d268d7df095a034fdec",
            "type": "ADD_SNIPPET",
            "codeSnippet": "kony.print(\"back\");",
            "callbackType": null
        }]
    }
}