{
    "AS_Form_32e6741ea01343eabd48d79e5009f57f": {
        "id": "AS_Form_32e6741ea01343eabd48d79e5009f57f",
        "type": "ACTION_SEQUENCE",
        "params": [{
            "datatype": "collection",
            "name": "eventobject"
        }],
        "contextObj": {
            "type": "forms",
            "platform": null,
            "KUID": "ace8b4225caf4b58b3da535a42d2711b"
        },
        "language": "js",
        "actions": [{
            "id": "ADD_SNIPPET_ide_onDeviceBack_49da0d19ee844a8aabd1221c0c7f831d",
            "type": "ADD_SNIPPET",
            "codeSnippet": "kony.print(\"device back\");",
            "callbackType": null
        }]
    }
}