{
    "AS_FlexContainer_ab13365a755a4254b8d2ee2a539ed6a5": {
        "id": "AS_FlexContainer_ab13365a755a4254b8d2ee2a539ed6a5",
        "type": "ACTION_SEQUENCE",
        "name": "AS_FlexContainer_GoToAccountNickNameSetting",
        "params": [{
            "datatype": "collection",
            "name": "eventobject"
        }],
        "contextObj": {
            "name": "frmSettingsKA",
            "type": "forms",
            "platform": "",
            "KUID": "hb0fb66c0c224ed284a1334d78669bfa"
        },
        "language": "js",
        "actions": [{
            "id": "ADD_SNIPPET__da77f4f407cc47f6bd49188b78832023",
            "type": "ADD_SNIPPET",
            "codeSnippet": "getAccountsforNicknameSettings();",
            "parentId": null,
            "callbackType": null
        }]
    }
}