{
    "AS_Form_0534c11414474c15af5bc685023fab3b": {
        "id": "AS_Form_0534c11414474c15af5bc685023fab3b",
        "type": "ACTION_SEQUENCE",
        "params": [{
            "datatype": "collection",
            "name": "eventobject"
        }],
        "contextObj": {
            "type": "forms",
            "platform": "",
            "KUID": "885f38a9042d43f78d3484201706dfda"
        },
        "language": "js",
        "actions": [{
            "id": "ADD_SNIPPET__2fca9f6af8e74300b7b636f63a2ac2c3",
            "type": "ADD_SNIPPET",
            "codeSnippet": "kony.print(\"Device Back\");",
            "parentId": null,
            "callbackType": null
        }]
    }
}