{
    "AS_Form_f76dfcf0a22d4be0a984caabb97d3d0a": {
        "id": "AS_Form_f76dfcf0a22d4be0a984caabb97d3d0a",
        "type": "ACTION_SEQUENCE",
        "params": [{
            "datatype": "collection",
            "name": "eventobject"
        }],
        "contextObj": {
            "name": "frmMore",
            "type": "forms",
            "platform": "",
            "KUID": "d84431c3625d480e87968404e4325341"
        },
        "language": "js",
        "actions": [{
            "id": "ADD_SNIPPET__a23adffc9fde455ab3a30e07deaaa20d",
            "type": "ADD_SNIPPET",
            "codeSnippet": "if(kony.sdk.isNetworkAvailable()){\n  frmAccountsLandingKA.flxDeals.setVisibility(false);\n  frmAccountsLandingKA.flxAccountsMain.setVisibility(true);\n  frmAccountsLandingKA.flxAccountsMain.left = \"0%\"\n  frmAccountsLandingKA.flxLoans.setVisibility(false);\n  frmAccountsLandingKA.flxAccountsMain.zIndex = 1;\n  frmAccountsLandingKA.flxDeals.zIndex = 1;\n  frmAccountsLandingKA.flxLoans.zIndex = 1;\n  frmAccountsLandingKA.forceLayout();\n\n  accountDashboardDataCall();\n  kony.print(\"Nav accounts Dadhboard:::\");\n}else{\n  kony.sdk.mvvm.KonyApplicationContext.dismissLoadingScreen();\n  customAlertPopup(\"\", kony.i18n.getLocalizedString(\"i18n.errorMsg.deviceConnectionError\"), popupCommonAlertDimiss, \"\");\n}\n",
            "parentId": null,
            "callbackType": null
        }]
    }
}