{
    "AS_FlexContainer_j9992a7f6b8b482f94013aab34aa249c": {
        "id": "AS_FlexContainer_j9992a7f6b8b482f94013aab34aa249c",
        "type": "ACTION_SEQUENCE",
        "params": [{
            "datatype": "collection",
            "name": "eventobject"
        }],
        "language": "js",
        "actions": [{
            "id": "ADD_SNIPPET_ide_onClick_j5b0e1bb55ba4ce6a280bd936e8fc72f",
            "type": "ADD_SNIPPET",
            "codeSnippet": "frmFilterTransaction.flxDatePicker.isVisible = true;\nfrmFilterTransaction.flxFilterTransaction.isVisible = false;\nset_DateRange();\nfrmFilterTransaction.lblFilterHeader.text = kony.i18n.getLocalizedString(\"i18n.common.settimeperiod\");",
            "callbackType": null
        }]
    }
}