{
    "AS_FlexContainer_a5e271f14bcc439e9a72cde792ebd091": {
        "id": "AS_FlexContainer_a5e271f14bcc439e9a72cde792ebd091",
        "type": "ACTION_SEQUENCE",
        "params": [{
            "datatype": "collection",
            "name": "eventobject"
        }],
        "language": "js",
        "actions": [{
            "id": "ADD_SNIPPET_ide_onClick_f97fa53a5c8647e083bb39324120360e",
            "type": "ADD_SNIPPET",
            "codeSnippet": "customAlertPopup(geti18Value(\"i18n.cards.Confirmation\"), \n                 geti18Value(\"i18n.transfers.eraseAllAlert\"),\n                 userResponseESP, onClickNoBackESP, \n                 geti18Value(\"i18n.common.YES\"),\n                 geti18Value(\"i18n.common.NO\"));\n\nfunction userResponseESP(){\n//   removeDatafrmTransfersformEPS();\n  ResetFormIPSData();\n  popupCommonAlertDimiss();\n  //frmPaymentDashboard.show();\n  frmIPSManageBene.show();\n  \n}\nfunction onClickNoBackESP(){\n  popupCommonAlertDimiss();\n}",
            "callbackType": null
        }]
    }
}