{
    "AS_FlexContainer_f85778edbafe4092bdca9b053a335d20": {
        "id": "AS_FlexContainer_f85778edbafe4092bdca9b053a335d20",
        "type": "ACTION_SEQUENCE",
        "params": [{
            "datatype": "collection",
            "name": "eventobject"
        }],
        "contextObj": {
            "type": "forms",
            "platform": "",
            "KUID": "a7e7b33553484e9c83559a91d27212e3"
        },
        "language": "js",
        "actions": [{
            "id": "ADD_SNIPPET__b9d5f3395bef456f946775adda914224",
            "type": "ADD_SNIPPET",
            "codeSnippet": "kony.print(\"deleted\");",
            "parentId": null,
            "callbackType": null
        }]
    }
}