{
    "AS_FlexContainer_0f04351e5d6c495b99f5b40ee5bcd142": {
        "id": "AS_FlexContainer_0f04351e5d6c495b99f5b40ee5bcd142",
        "type": "ACTION_SEQUENCE",
        "params": [{
            "datatype": "collection",
            "name": "eventobject"
        }],
        "language": "js",
        "actions": [{
            "id": "ADD_SNIPPET_ide_onClick_d6b9cd347d01471bbd90150ebfc95f4f",
            "type": "ADD_SNIPPET",
            "codeSnippet": "dateRangeOnClick(2);",
            "callbackType": null
        }]
    }
}