{
    "AS_FlexContainer_a00e0a2f3800424cad4b56dd4507b9be": {
        "id": "AS_FlexContainer_a00e0a2f3800424cad4b56dd4507b9be",
        "type": "ACTION_SEQUENCE",
        "params": [{
            "datatype": "collection",
            "name": "eventobject"
        }],
        "contextObj": {
            "name": "tabBarDeposits",
            "type": "templates",
            "platform": "",
            "KUID": "5f3859dbec9748ba9d008e5f9e2db831"
        },
        "language": "js",
        "actions": [{
            "id": "ADD_SNIPPET__390f037ecfa74928b19a5de96fa5a18f",
            "type": "ADD_SNIPPET",
            "codeSnippet": "gblfrmName = \"\";\nshowFormOrderList();",
            "parentId": null,
            "callbackType": null
        }]
    }
}