{
    "AS_Form_ca8c5369e8c4483aabdf0b3b4ce01511": {
        "id": "AS_Form_ca8c5369e8c4483aabdf0b3b4ce01511",
        "type": "ACTION_SEQUENCE",
        "params": [{
            "datatype": "collection",
            "name": "eventobject"
        }],
        "contextObj": {
            "type": "forms",
            "platform": "",
            "KUID": "a770ec3c9e354908b29ae6189f9f5d62"
        },
        "language": "js",
        "actions": [{
            "id": "ADD_SNIPPET__b131fcba26bd49ed9d357617d8959db1",
            "type": "ADD_SNIPPET",
            "codeSnippet": "kony.print(\"Device Back\");",
            "parentId": null,
            "callbackType": null
        }]
    }
}