{
    "AS_FlexScrollContainer_e4408913acca49fa9afd98e3cc252465": {
        "id": "AS_FlexScrollContainer_e4408913acca49fa9afd98e3cc252465",
        "type": "ACTION_SEQUENCE",
        "params": [{
            "datatype": "collection",
            "name": "eventobject"
        }],
        "language": "js",
        "actions": [{
            "id": "ADD_SNIPPET_ide_onScrolling_e24a99d660404ab4950adc51d011c39a",
            "type": "ADD_SNIPPET",
            "codeSnippet": "outerAccountScroll();",
            "callbackType": null
        }]
    }
}