{
    "AS_FlexContainer_2fd9c0529a74414a98599e9a138aab79": {
        "id": "AS_FlexContainer_2fd9c0529a74414a98599e9a138aab79",
        "type": "ACTION_SEQUENCE",
        "params": [{
            "datatype": "collection",
            "name": "eventobject"
        }],
        "language": "js",
        "actions": [{
            "id": "ADD_SNIPPET__bc6da303aa294d89bbc1996d749296fa",
            "type": "ADD_SNIPPET",
            "codeSnippet": "\nvar INSTANCE = kony.sdk.mvvm.KonyApplicationContext.getAppInstance();\n      var controller = INSTANCE.getFormController(\"frmAccountsLandingKA\");\n      var navObject = new kony.sdk.mvvm.NavigationObject();\n      navObject.setRequestOptions(\"segAccountsKA\",{\"headers\":{\"session_token\":kony.retailBanking.globalData.session_token}});\n      controller.loadDataAndShowForm(navObject);\nkony.print(\"Nav Dadhboard:::\");\n//frmAccountsLandingKA.show();",
            "parentId": null,
            "callbackType": null
        }]
    }
}