{
    "AS_FlexContainer_c2307be089a04dca84eabfed19332cf6": {
        "id": "AS_FlexContainer_c2307be089a04dca84eabfed19332cf6",
        "type": "ACTION_SEQUENCE",
        "params": [{
            "datatype": "collection",
            "name": "eventobject"
        }, {
            "datatype": "string",
            "name": "x"
        }, {
            "datatype": "string",
            "name": "y"
        }],
        "contextObj": {
            "name": "frmNewTransferKA",
            "type": "forms",
            "platform": "",
            "KUID": "2ac343500306428da0ceef91a3b44d18"
        },
        "language": "js",
        "actions": [{
            "id": "ADD_SNIPPET__bbaac0ac614449499299b7e2f8aa0ec0",
            "type": "ADD_SNIPPET",
            "codeSnippet": "//frmNewTransferKA.txtBox.text=formatAmountwithcomma(frmNewTransferKA.txtBox.text,3);\nvar amount = frmNewTransferKA.txtBox.text;\n\nif (amount === null || amount === \"\" || amount == \".\" || (Number(amount) < 0.01) || amount === 0.00) {\n    kony.print(\"Amount is either null or empty\");\n} else {\n  frmNewTransferKA.lblHiddenAmount.text=frmNewTransferKA.txtBox.text;\n    frmNewTransferKA.txtBox.text = formatAmountwithcomma(amount,frmNewTransferKA.lblDecimal.text);\n}\ngotoAccountDetailsScreen(2);\n",
            "parentId": null,
            "callbackType": null
        }]
    }
}