{
    "AS_FlexScrollContainer_d4e6f10285034070ac29caec78c43639": {
        "id": "AS_FlexScrollContainer_d4e6f10285034070ac29caec78c43639",
        "type": "ACTION_SEQUENCE",
        "params": [{
            "datatype": "collection",
            "name": "eventobject"
        }],
        "language": "js",
        "actions": [{
            "id": "ADD_SNIPPET_ide_onScrolling_c9461a6dba9c44fbb07497b4821a3b75",
            "type": "ADD_SNIPPET",
            "codeSnippet": "outerAccountScroll();",
            "callbackType": null
        }]
    }
}