{
    "AS_FlexContainer_df3ae5c848b8474387dc829fb802a02a": {
        "id": "AS_FlexContainer_df3ae5c848b8474387dc829fb802a02a",
        "type": "ACTION_SEQUENCE",
        "name": "AS_FlexContainer_onTouchStartMinusAmountCardless",
        "params": [{
            "datatype": "collection",
            "name": "eventobject"
        }, {
            "datatype": "string",
            "name": "x"
        }, {
            "datatype": "string",
            "name": "y"
        }],
        "contextObj": {
            "name": "frmCardlessTransaction",
            "type": "forms",
            "platform": "",
            "KUID": "b7e7974060664c0093c575d8bba1e829"
        },
        "language": "js",
        "actions": [{
            "id": "ADD_SNIPPET__jbd228237c9647d7a1bdab8e5f3d5b92",
            "type": "ADD_SNIPPET",
            "codeSnippet": "changeAmountFunction(\"minus\");",
            "parentId": null,
            "callbackType": null
        }]
    }
}