{
    "AS_Form_c752a875714e4a1bbe8c382231493484": {
        "id": "AS_Form_c752a875714e4a1bbe8c382231493484",
        "type": "ACTION_SEQUENCE",
        "name": "AS_Form_PostShowOpenTermDeposite",
        "params": [{
            "datatype": "collection",
            "name": "eventobject"
        }],
        "contextObj": {
            "name": "frmOpenTermDeposit",
            "type": "forms",
            "platform": "",
            "KUID": "fec6fddbcf8543f2b30114c87e1a7e99"
        },
        "language": "js",
        "actions": [{
            "id": "ADD_SNIPPET__e828659cab9c46a7b7809609890e031a",
            "type": "ADD_SNIPPET",
            "codeSnippet": "frmOpenTermDeposit.txtDepositAmount.setEnabled(false);",
            "parentId": null,
            "callbackType": null
        }]
    }
}