{
    "AS_FlexContainer_b8d64378bca84e35965aada356a5c9bb": {
        "id": "AS_FlexContainer_b8d64378bca84e35965aada356a5c9bb",
        "type": "ACTION_SEQUENCE",
        "params": [{
            "datatype": "collection",
            "name": "eventobject"
        }],
        "language": "js",
        "actions": [{
            "id": "ADD_SNIPPET_ide_onClick_g190eb5c41be418e9d610ed2066d0f35",
            "type": "ADD_SNIPPET",
            "codeSnippet": "if(frmEPS.lblNext.skin === \"sknLblNextEnabled\"){\n  kony.sdk.mvvm.KonyApplicationContext.showLoadingScreen(\"\");\n  SetupConfirmationScreen();\n//   GetAliasInfo();\n  frmEPS.flxMain.setVisibility(false);\n  frmEPS.flxConfirmEPS.setVisibility(true);\n  kony.sdk.mvvm.KonyApplicationContext.dismissLoadingScreen();\n}else{\n  alert(\"fields required not fully added\");\n}",
            "callbackType": null
        }]
    }
}