{
    "AS_Form_dafcf8d4ce124c689b55c56ff08598a4": {
        "id": "AS_Form_dafcf8d4ce124c689b55c56ff08598a4",
        "type": "ACTION_SEQUENCE",
        "name": "AS_Form_CardsAddNicknamePreshow",
        "params": [{
            "datatype": "collection",
            "name": "eventobject"
        }],
        "contextObj": {
            "name": "frmCardsAddNickname",
            "type": "forms",
            "platform": null,
            "KUID": "d382c627ba0b45cfb446cc6dd8d8759e"
        },
        "language": "js",
        "actions": [{
            "id": "ADD_SNIPPET_ide_preShow_cd4b560e5b5a47b49a57f0f2f6eb5196",
            "type": "ADD_SNIPPET",
            "codeSnippet": "if(isEmpty(frmCardsAddNickname.txtAddNickName.text))\nanimateLabel(\"DOWN\",\"lblAddNickName\",frmCardsAddNickname.txtAddNickName.text);\nelse\nanimateLabel(\"UP\",\"lblAddNickName\",frmCardsAddNickname.txtAddNickName.text);",
            "callbackType": null
        }]
    }
}