{
    "AS_FlexContainer_b304e71e5bee4f6b86fead9b8ce20daf": {
        "id": "AS_FlexContainer_b304e71e5bee4f6b86fead9b8ce20daf",
        "type": "ACTION_SEQUENCE",
        "params": [{
            "datatype": "collection",
            "name": "eventobject"
        }],
        "contextObj": {
            "name": "frmJoMoPayLanding",
            "type": "forms",
            "platform": "",
            "KUID": "d298f6fe5af04a4dbf76c2b5625a9f8c"
        },
        "language": "js",
        "actions": [{
            "id": "ADD_SNIPPET__jc54e9b071544509a1cbad046be9e893",
            "type": "ADD_SNIPPET",
            "codeSnippet": "if(frmJoMoPayLanding.flxAccountdetailsSortContainer.top != \"100%\"){\n\tanimatePopup_Sort();\n}\nfrmPaymentDashboard.show();;",
            "parentId": null,
            "callbackType": null
        }]
    }
}