{
    "AS_Form_df1670c375c24f9c9efc48935455d66f": {
        "id": "AS_Form_df1670c375c24f9c9efc48935455d66f",
        "type": "ACTION_SEQUENCE",
        "params": [{
            "datatype": "collection",
            "name": "eventobject"
        }],
        "contextObj": {
            "name": "frmSuccessFormQRCodeKA",
            "type": "forms",
            "platform": null,
            "KUID": "d6f3d048692b49788935ba02ba184557"
        },
        "language": "js",
        "actions": [{
            "id": "ADD_SNIPPET__e902c66fc1964f74b71374fdd0ccfc57",
            "type": "ADD_SNIPPET",
            "codeSnippet": "var vc=new kony.rb.frmSuccessFormQRCodeKAViewController();\nvc.frmSuccessFormQRCodeKApreshow();",
            "parentId": null,
            "callbackType": null
        }]
    }
}