{
    "AS_Form_b60f6443499446d2b8b3a311097a8b84": {
        "id": "AS_Form_b60f6443499446d2b8b3a311097a8b84",
        "type": "ACTION_SEQUENCE",
        "params": [{
            "datatype": "collection",
            "name": "eventobject"
        }],
        "contextObj": {
            "name": "frmSetupFaceIdSettingsKA",
            "type": "forms",
            "platform": "",
            "KUID": "aa6946c322054f5bb5efe856557a15d1"
        },
        "language": "js",
        "actions": [{
            "id": "ADD_SNIPPET__f88624e7de954b539230f4d36327d1eb",
            "type": "ADD_SNIPPET",
            "codeSnippet": "kony.print(\"device back\")",
            "parentId": null,
            "callbackType": null
        }]
    }
}