{
    "AS_FlexContainer_ec891d90a7d146d787aa0928e1b580aa": {
        "id": "AS_FlexContainer_ec891d90a7d146d787aa0928e1b580aa",
        "type": "ACTION_SEQUENCE",
        "params": [{
            "datatype": "collection",
            "name": "eventobject"
        }],
        "language": "js",
        "actions": [{
            "id": "ADD_SNIPPET_ide_onClick_fcbc057a038f4186aafdf4d0708955a8",
            "type": "ADD_SNIPPET",
            "codeSnippet": "gblfrmName = \"\";\nadditionalValidationRdc(this,gotoDeposits);\n",
            "callbackType": null
        }]
    }
}