{
    "AS_Form_b06f99cc19d64d84844d34bb8ac13dad": {
        "id": "AS_Form_b06f99cc19d64d84844d34bb8ac13dad",
        "type": "ACTION_SEQUENCE",
        "name": "AS_Form_myaccountSettingsPreShow",
        "params": [{
            "datatype": "collection",
            "name": "eventobject"
        }],
        "contextObj": {
            "name": "frmMyAccountSettingsKA",
            "type": "forms",
            "platform": "",
            "KUID": "h22bc7d202134098869f46b57b12c5f3"
        },
        "language": "js",
        "actions": [{
            "id": "ADD_SNIPPET__d41b99733801468f8d34e41eff1e5367",
            "type": "ADD_SNIPPET",
            "codeSnippet": "frmMyAccountSettingsKA.FlexScrollContainer0aaefdaacee1040.showFadingEdges = false;",
            "parentId": null,
            "callbackType": null
        }]
    }
}