{
    "AS_FlexContainer_b996387fd6e445688d34930b2a182b95": {
        "id": "AS_FlexContainer_b996387fd6e445688d34930b2a182b95",
        "type": "ACTION_SEQUENCE",
        "params": [{
            "datatype": "collection",
            "name": "eventobject"
        }],
        "language": "js",
        "actions": [{
            "id": "ADD_SNIPPET_ide_onClick_f7124a6000dd4617afc1f7c1a897ddc5",
            "type": "ADD_SNIPPET",
            "codeSnippet": "gblrequestStatementBranch=true;\n kony.boj.showSelectedDetailsFromBene(\"Branch\", \"lblBankBranch\");",
            "callbackType": null
        }]
    }
}