{
    "AS_FlexContainer_b32c12267d3e414996f2eaf391208bcd": {
        "id": "AS_FlexContainer_b32c12267d3e414996f2eaf391208bcd",
        "type": "ACTION_SEQUENCE",
        "params": [{
            "datatype": "collection",
            "name": "eventobject"
        }],
        "contextObj": {
            "name": "frmAccountDetailsScreen",
            "type": "forms",
            "platform": "",
            "KUID": "fed0ec30912249989a34e309123440c9"
        },
        "language": "js",
        "actions": []
    }
}