{
    "AS_Form_idf12fc90b44421aa88572d502ba675f": {
        "id": "AS_Form_idf12fc90b44421aa88572d502ba675f",
        "type": "ACTION_SEQUENCE",
        "params": [{
            "datatype": "collection",
            "name": "eventobject"
        }],
        "contextObj": {
            "name": "frmUserSettingsSiri",
            "type": "forms",
            "platform": null,
            "KUID": "f6a73333c5b04d9f97a80b02ff57e6ae"
        },
        "language": "js",
        "actions": [{
            "id": "ADD_SNIPPET_ide_onDeviceBack_d6565b73a04544bcaefac7e1c413bb40",
            "type": "ADD_SNIPPET",
            "codeSnippet": "var preForm = kony.application.getPreviousForm().id;\nkony.print(\"frmUserSettingsTouchIdKA preForm : \"+ preForm);\nif(preForm == \"frmAuthorizationAlternatives\"){\n  frmAuthorizationAlternatives.show();\n}else{\n  frmSettingsKA.show();\n  frmUserSettingsSiri.destroy();\n}",
            "callbackType": null
        }]
    }
}