{
    "AS_FlexContainer_ada2dc34a36a4c92ac2549ebf52373c5": {
        "id": "AS_FlexContainer_ada2dc34a36a4c92ac2549ebf52373c5",
        "type": "ACTION_SEQUENCE",
        "params": [{
            "datatype": "collection",
            "name": "eventobject"
        }, {
            "datatype": "string",
            "name": "x"
        }, {
            "datatype": "string",
            "name": "y"
        }],
        "language": "js",
        "actions": [{
            "id": "ADD_SNIPPET_ide_onTouchStart_e3056db246e64699afb3118ece69b785",
            "type": "ADD_SNIPPET",
            "codeSnippet": "accountsLandingVC.infeedAdsOnCLick();",
            "callbackType": null
        }]
    }
}