{
    "AS_Button_bda7f1237fc744beae5127652088db16": {
        "id": "AS_Button_bda7f1237fc744beae5127652088db16",
        "type": "ACTION_SEQUENCE",
        "name": "AS_frmBillsOnClickRadioAccount",
        "params": [{
            "datatype": "collection",
            "name": "eventobject"
        }],
        "language": "js",
        "actions": [{
            "id": "ADD_SNIPPET_ide_onClick_g251efd7122549e4bb9cf17f73eec447",
            "type": "ADD_SNIPPET",
            "codeSnippet": "onChangingradioBtnfrmBills(frmBills.btnBillsPayAccounts,frmBills.lblBillsPayAccounts.text);",
            "callbackType": null
        }]
    }
}