{
    "AS_FlexContainer_b8c3c56493d1467bae05394e4832555c": {
        "id": "AS_FlexContainer_b8c3c56493d1467bae05394e4832555c",
        "type": "ACTION_SEQUENCE",
        "params": [{
            "datatype": "collection",
            "name": "eventobject"
        }],
        "contextObj": {
            "name": "frmAddNewPrePayeeKA",
            "type": "forms",
            "platform": null,
            "KUID": "a843292d9c674ff7ba10a9b594b7e7e5"
        },
        "language": "js",
        "actions": [{
            "id": "ADD_SNIPPET_ide_onClick_ja308d9f78ad4835b8a805469cd58ac1",
            "type": "ADD_SNIPPET",
            "codeSnippet": "kony.boj.manualService(\"Nationality\")",
            "callbackType": null
        }]
    }
}