{
    "AS_Form_b808d122a32948a9b3437b73c6c91cdc": {
        "id": "AS_Form_b808d122a32948a9b3437b73c6c91cdc",
        "type": "ACTION_SEQUENCE",
        "name": "AS_Form_faqpreshow",
        "params": [{
            "datatype": "collection",
            "name": "eventobject"
        }],
        "contextObj": {
            "name": "frmMoreFaqKA",
            "type": "forms",
            "platform": "",
            "KUID": "9261e8e20c71473f990646fcd3d38caf"
        },
        "language": "js",
        "actions": [{
            "id": "ADD_SNIPPET__e43625660ece4732b78fb06828a5e7eb",
            "type": "ADD_SNIPPET",
            "codeSnippet": "getAllQuestions();",
            "parentId": null,
            "callbackType": null
        }]
    }
}