{
    "AS_FlexContainer_c8e52b54b32e4d33b9a687363b56146c": {
        "id": "AS_FlexContainer_c8e52b54b32e4d33b9a687363b56146c",
        "type": "ACTION_SEQUENCE",
        "params": [{
            "datatype": "collection",
            "name": "eventobject"
        }],
        "contextObj": {
            "type": "forms",
            "platform": "",
            "KUID": "a7e7b33553484e9c83559a91d27212e3"
        },
        "language": "js",
        "actions": [{
            "id": "ADD_SNIPPET__bd73701d4f4742429af9faf53d127ea6",
            "type": "ADD_SNIPPET",
            "codeSnippet": "kony.print(\"deleted\");",
            "parentId": null,
            "callbackType": null
        }]
    }
}