{
    "AS_FlexContainer_e1a880ee03f848868ca550dac0f035cc": {
        "id": "AS_FlexContainer_e1a880ee03f848868ca550dac0f035cc",
        "type": "ACTION_SEQUENCE",
        "params": [{
            "datatype": "collection",
            "name": "eventobject"
        }],
        "contextObj": {
            "name": "tabBarMore",
            "type": "templates",
            "platform": "",
            "KUID": "e0d5ae1d0532432d997d5a7ffbec8f48"
        },
        "language": "js",
        "actions": [{
            "id": "ADD_SNIPPET__400a13458c5d42fcb338e4d9b5992018",
            "type": "ADD_SNIPPET",
            "codeSnippet": "gblfrmName = \"\";\nshowFormOrderList();",
            "parentId": null,
            "callbackType": null
        }]
    }
}