{
    "AS_FlexContainer_i3d138df17524b55817317b0fe5ba9fb": {
        "id": "AS_FlexContainer_i3d138df17524b55817317b0fe5ba9fb",
        "type": "ACTION_SEQUENCE",
        "params": [{
            "datatype": "collection",
            "name": "eventobject"
        }],
        "language": "js",
        "actions": [{
            "id": "ADD_SNIPPET_ide_onClick_d233e14b102d48bd8817a131061d8648",
            "type": "ADD_SNIPPET",
            "codeSnippet": "kony.print(\"Removed\");",
            "callbackType": null
        }]
    }
}