{
    "AS_Form_f1f4eeca8d6544ce8a6daea98cc07f8b": {
        "id": "AS_Form_f1f4eeca8d6544ce8a6daea98cc07f8b",
        "type": "ACTION_SEQUENCE",
        "name": "AS_Form_preShowJomoPayRegKA",
        "params": [{
            "datatype": "collection",
            "name": "eventobject"
        }],
        "contextObj": {
            "name": "frmJoMoPayRegistration",
            "type": "forms",
            "platform": "",
            "KUID": "h0b4f51069c74c7bbbbd6798301d77d6"
        },
        "language": "js",
        "actions": [{
            "id": "ADD_SNIPPET__f60643793c3d4003803f8de8498a6a09",
            "type": "ADD_SNIPPET",
            "codeSnippet": "frmJoMoPayRegistration.flxBodyReg.showFadingEdges = false;\nfrmJoMoPayRegistration.flxRegBody.showFadingEdges = false;",
            "parentId": null,
            "callbackType": null
        }]
    }
}