{
    "AS_Form_84b3976d243a43feba14253dcf3f77b8": {
        "id": "AS_Form_84b3976d243a43feba14253dcf3f77b8",
        "type": "ACTION_SEQUENCE",
        "params": [{
            "datatype": "collection",
            "name": "eventobject"
        }],
        "contextObj": {
            "name": "frmDirectionsKA",
            "type": "forms",
            "platform": "",
            "KUID": "2a844aaae75b49948039c6e28c65dfcc"
        },
        "language": "js",
        "actions": [{
            "id": "ADD_SNIPPET__82df60692ffe40919b8f9acc2f6a2f14",
            "type": "ADD_SNIPPET",
            "codeSnippet": "directionPreShow();",
            "parentId": null,
            "callbackType": null
        }]
    }
}