{
    "AS_Form_fc6dc48031184a498f5fc9e443d566c2": {
        "id": "AS_Form_fc6dc48031184a498f5fc9e443d566c2",
        "type": "ACTION_SEQUENCE",
        "name": "AS_Form_devicebackfrmeditaccSettings",
        "params": [{
            "datatype": "collection",
            "name": "eventobject"
        }],
        "contextObj": {
            "name": "frmEditAccountSettings",
            "type": "forms",
            "platform": "",
            "KUID": "ace74a42ca5e45cabde3f7b9d6361bd8"
        },
        "language": "js",
        "actions": [{
            "id": "ADD_SNIPPET__c4fb81b720934ab4806f1b7ebf638e97",
            "type": "ADD_SNIPPET",
            "codeSnippet": "frmMyAccountSettingsKA.show();",
            "parentId": null,
            "callbackType": null
        }]
    }
}