{
    "AS_Form_6b87830a5fab4c94a4d211ade25e99b9": {
        "id": "AS_Form_6b87830a5fab4c94a4d211ade25e99b9",
        "type": "ACTION_SEQUENCE",
        "params": [{
            "datatype": "collection",
            "name": "eventobject"
        }],
        "contextObj": {
            "type": "forms",
            "platform": null,
            "KUID": "3895ad9cb72242cabc92623efd7598f4"
        },
        "language": "js",
        "actions": [{
            "id": "ADD_SNIPPET_ide_init_ed59df951c49424f895371b067639f26",
            "type": "ADD_SNIPPET",
            "codeSnippet": "frmEditPayeeKAwithCmpny.flxScrollCompanyListKA.isVisible = false;\npopulateCompanyListEdit();",
            "callbackType": null
        }]
    }
}