{
    "AS_FlexContainer_b1328fc69dd34c9ba0bda14788face30": {
        "id": "AS_FlexContainer_b1328fc69dd34c9ba0bda14788face30",
        "type": "ACTION_SEQUENCE",
        "params": [{
            "datatype": "collection",
            "name": "eventobject"
        }],
        "language": "js",
        "actions": [{
            "id": "ADD_SNIPPET_ide_onClick_h5c0802e65d540caacda1d86a887cce1",
            "type": "ADD_SNIPPET",
            "codeSnippet": "previous_FORM.show();\nfrmTermsAndCondtions.destroy();\nprevious_FORM = null;",
            "callbackType": null
        }]
    }
}