{
    "AS_Image_h9f117c2109f4e76a16eeb3f647cd29f": {
        "id": "AS_Image_h9f117c2109f4e76a16eeb3f647cd29f",
        "type": "ACTION_SEQUENCE",
        "params": [{
            "datatype": "collection",
            "name": "eventobject"
        }, {
            "datatype": "string",
            "name": "x"
        }, {
            "datatype": "string",
            "name": "y"
        }],
        "contextObj": {
            "name": "frmRegisterUser",
            "type": "forms",
            "platform": "",
            "KUID": "cd7432ec5087404590338186c94e35d2"
        },
        "language": "js",
        "actions": [{
            "id": "ADD_SNIPPET__adc5dd9d62874d22b988a7b92cd5ca51",
            "type": "ADD_SNIPPET",
            "codeSnippet": "isScanCard = true;\nif(isAndroid()){\naskPermission();\n}else{\n   var iPhoneMicroBlinkObject = new BojScan.iPhoneMicroBlink(SCANCARDLICENSEIOS);\n  //Invokes method 'scanCardWithCallback' on the object\n  iPhoneMicroBlinkObject.scanCardWithCallback(\n    /**Function*/\n    microBlinkCallBack);\n}\n\n\n\n\n",
            "parentId": null,
            "callbackType": null
        }, {
            "id": "ADD_SNIPPET__a9729c7f587e40f594f6c590e5123b72",
            "type": "ADD_SNIPPET",
            "codeSnippet": "//kony.timer.schedule(\"scanCardTimer\",scanCardTimerFn, 15, false);\n",
            "parentId": null,
            "callbackType": null
        }]
    }
}