{
    "AS_Image_a502a747ef17481caac5091c095f0dce": {
        "id": "AS_Image_a502a747ef17481caac5091c095f0dce",
        "type": "ACTION_SEQUENCE",
        "params": [{
            "datatype": "collection",
            "name": "eventobject"
        }, {
            "datatype": "string",
            "name": "x"
        }, {
            "datatype": "string",
            "name": "y"
        }],
        "contextObj": {
            "name": "frmAddExternalAccountKA",
            "type": "forms",
            "platform": "",
            "KUID": "4943cca5d62d4f0ca6f2e9ab47274db5"
        },
        "language": "js",
        "actions": [{
            "id": "ADD_SNIPPET__25273f23521048d0b8d0d68870190337",
            "type": "ADD_SNIPPET",
            "codeSnippet": "isDomestic(true);\nclearSkins();",
            "parentId": null,
            "callbackType": null
        }]
    }
}