{
    "AS_Image_ce0f905ef02d4238999c504808a39ae6": {
        "id": "AS_Image_ce0f905ef02d4238999c504808a39ae6",
        "type": "ACTION_SEQUENCE",
        "params": [{
            "datatype": "collection",
            "name": "eventobject"
        }, {
            "datatype": "string",
            "name": "x"
        }, {
            "datatype": "string",
            "name": "y"
        }],
        "language": "js",
        "actions": [{
            "id": "ADD_SNIPPET_ide_onTouchStart_c8e26eace9a0431cab8d9f9d3bbfd5ec",
            "type": "ADD_SNIPPET",
            "codeSnippet": "kony.localAuthentication.cancelAuthentication();\nfrmLoginKA.loginMainScreen.opacity=1;\nfrmLoginKA.loginMainPINScreen.opacity=1;\nfrmLoginKA.flxtouchIdAndrd.setVisibility(false);\nfrmLoginKA.skin=\"sknLoginMainPage\";\nfrmLoginKA.loginMainScreen.setEnabled(true);\nfrmLoginKA.loginMainPINScreen.setEnabled(true);",
            "callbackType": null
        }]
    }
}