{
    "AS_Image_b9c826c81830456293e8e65858075058": {
        "id": "AS_Image_b9c826c81830456293e8e65858075058",
        "type": "ACTION_SEQUENCE",
        "params": [{
            "datatype": "collection",
            "name": "eventobject"
        }, {
            "datatype": "string",
            "name": "x"
        }, {
            "datatype": "string",
            "name": "y"
        }],
        "contextObj": {
            "name": "frmCreateCredentials",
            "type": "forms",
            "platform": "",
            "KUID": "ec144124e44d4336b9c86f2ab49591df"
        },
        "language": "js",
        "actions": [{
            "id": "ADD_SNIPPET__hcc0ace8e98840468c2c4f5e675800e5",
            "type": "ADD_SNIPPET",
            "codeSnippet": "frmCreateCredentials.answerFieldPassword.secureTextEntry=false;",
            "parentId": null,
            "callbackType": null
        }]
    }
}