{
    "AS_Image_31557e2820dc49eb920e5ea4510e88ac": {
        "id": "AS_Image_31557e2820dc49eb920e5ea4510e88ac",
        "type": "ACTION_SEQUENCE",
        "params": [{
            "datatype": "collection",
            "name": "eventobject"
        }, {
            "datatype": "string",
            "name": "x"
        }, {
            "datatype": "string",
            "name": "y"
        }],
        "contextObj": {
            "type": "forms",
            "platform": "",
            "KUID": "dab7a50c55b94a12b3d961ae5bd49247"
        },
        "language": "js",
        "actions": [{
            "id": "ADD_SNIPPET__e052eac777f94af3a59fe053ce2d0702",
            "type": "ADD_SNIPPET",
            "codeSnippet": "kony.print(\"Removed\");",
            "parentId": null,
            "callbackType": null
        }]
    }
}