{
    "AS_Label_fba86207b11e43b5a416a90958ce02e0": {
        "id": "AS_Label_fba86207b11e43b5a416a90958ce02e0",
        "type": "ACTION_SEQUENCE",
        "params": [{
            "datatype": "collection",
            "name": "eventobject"
        }, {
            "datatype": "string",
            "name": "x"
        }, {
            "datatype": "string",
            "name": "y"
        }],
        "contextObj": {
            "name": "frmAccountDetailKA",
            "type": "forms",
            "platform": "",
            "KUID": "5ed703cad63c441882fc4a36f5ea0c28"
        },
        "language": "js",
        "actions": [{
            "id": "ADD_SNIPPET__ce5386fb4e4c453d9f9e26e11940dc20",
            "type": "ADD_SNIPPET",
            "codeSnippet": "frmFilterTransaction.show();",
            "parentId": null,
            "callbackType": null
        }]
    }
}