{
    "AS_ListBox_d261bf65e17e49448939ff53a156e42c": {
        "id": "AS_ListBox_d261bf65e17e49448939ff53a156e42c",
        "type": "ACTION_SEQUENCE",
        "params": [{
            "datatype": "collection",
            "name": "eventobject"
        }],
        "contextObj": {
            "name": "frmAddExternalAccountKA",
            "type": "forms",
            "platform": "",
            "KUID": "4943cca5d62d4f0ca6f2e9ab47274db5"
        },
        "language": "js",
        "actions": [{
            "id": "ADD_SNIPPET__3b85a1eb87794856a9369f259382e80d",
            "type": "ADD_SNIPPET",
            "codeSnippet": "frmAddExternalAccountKA.lblCountryNameKA.text = frmAddExternalAccountKA.ListCountryKA.selectedKeyValue[1];",
            "parentId": null,
            "callbackType": null
        }]
    }
}