{
    "AS_ListBox_e186efb72d6242f284750eb6a0d06f35": {
        "id": "AS_ListBox_e186efb72d6242f284750eb6a0d06f35",
        "type": "ACTION_SEQUENCE",
        "params": [{
            "datatype": "collection",
            "name": "eventobject"
        }],
        "language": "js",
        "actions": [{
            "id": "ADD_SNIPPET_ide_onSelection_64982da4c57c40a0b1a012be8cc7983d",
            "type": "ADD_SNIPPET",
            "codeSnippet": "validateNewMessage();",
            "callbackType": null
        }]
    }
}