{
    "AS_Label_a63c46b360cf412baceecc14e759a89e": {
        "id": "AS_Label_a63c46b360cf412baceecc14e759a89e",
        "type": "ACTION_SEQUENCE",
        "name": "AS_Label_a63c46b360cf412baceecc14e759a89ea",
        "params": [{
            "datatype": "collection",
            "name": "eventobject"
        }, {
            "datatype": "string",
            "name": "x"
        }, {
            "datatype": "string",
            "name": "y"
        }],
        "contextObj": {
            "name": "frmAccountDetailKA",
            "type": "forms",
            "platform": "",
            "KUID": "5ed703cad63c441882fc4a36f5ea0c28"
        },
        "language": "js",
        "actions": [{
            "id": "ADD_SNIPPET__i220df70be0440189ee6db99d3ca8410",
            "type": "ADD_SNIPPET",
            "codeSnippet": "frmAccountDetailKA.accountDetailsScrollContainer.setVisibility(false);\nfrmAccountDetailKA.flxLoansScreen.setVisibility(false);\nfrmAccountDetailKA.flxDealsScreen.setVisibility(true);\nfrmAccountDetailKA.flxDealsScreen.left=\"0%\";",
            "parentId": null,
            "callbackType": null
        }]
    }
}