{
    "AS_Label_f0a463b37c224125901d7266f4347de4": {
        "id": "AS_Label_f0a463b37c224125901d7266f4347de4",
        "type": "ACTION_SEQUENCE",
        "params": [{
            "datatype": "collection",
            "name": "eventobject"
        }, {
            "datatype": "string",
            "name": "x"
        }, {
            "datatype": "string",
            "name": "y"
        }],
        "contextObj": {
            "name": "frmAccountDetailKA",
            "type": "forms",
            "platform": "",
            "KUID": "5ed703cad63c441882fc4a36f5ea0c28"
        },
        "language": "js",
        "actions": [{
            "id": "ADD_SNIPPET__d7365996d8354689a12425c37deae7b5",
            "type": "ADD_SNIPPET",
            "codeSnippet": "frmAccountDetailKA.accountDetailsScrollContainer.setVisibility(false);\nfrmAccountDetailKA.flxLoansScreen.setVisibility(false);\nfrmAccountDetailKA.flxDealsScreen.setVisibility(true);\nfrmAccountDetailKA.flxDealsScreen.left=\"0%\";",
            "parentId": null,
            "callbackType": null
        }]
    }
}