{
    "AS_Label_b323fb75d36a41e7b78fafe1e58cf6fe": {
        "id": "AS_Label_b323fb75d36a41e7b78fafe1e58cf6fe",
        "type": "ACTION_SEQUENCE",
        "params": [{
            "datatype": "collection",
            "name": "eventobject"
        }, {
            "datatype": "string",
            "name": "x"
        }, {
            "datatype": "string",
            "name": "y"
        }],
        "contextObj": {
            "name": "frmAuthorizationAlternatives",
            "type": "forms",
            "platform": "",
            "KUID": "d410b4cb8325465eb5a9cb0f8e472aec"
        },
        "language": "js",
        "actions": [{
            "id": "ADD_SNIPPET__h0bbb5e565624a95911bb87c3642af9e",
            "type": "ADD_SNIPPET",
            "codeSnippet": "callSetQucikAccessList();\n//accountDashboardDataCall();",
            "parentId": null
        }]
    }
}