{
    "AS_Label_d95f5ebb4bcb4fa38a1607b412c63cd7": {
        "id": "AS_Label_d95f5ebb4bcb4fa38a1607b412c63cd7",
        "type": "ACTION_SEQUENCE",
        "params": [{
            "datatype": "collection",
            "name": "eventobject"
        }, {
            "datatype": "string",
            "name": "x"
        }, {
            "datatype": "string",
            "name": "y"
        }],
        "contextObj": {
            "name": "frmNewUserOnboardVerificationKA",
            "type": "forms",
            "platform": "",
            "KUID": "ie7b921fac134bd8a8afb16afc085409"
        },
        "language": "js",
        "actions": [{
            "id": "ADD_SNIPPET__bb40f073f6fd422b8131256e223249b6",
            "type": "ADD_SNIPPET",
            "codeSnippet": "try\n{\n  kony.phone.dial(bojcontactnumber);\n} \ncatch(err)\n{\n  kony.print(\"error in dial:: \"+err);\n}\n",
            "parentId": null,
            "callbackType": null
        }]
    }
}