{
    "AS_Map_cce9580a9e3c4bfda9132e2fcbd13eb5": {
        "id": "AS_Map_cce9580a9e3c4bfda9132e2fcbd13eb5",
        "type": "ACTION_SEQUENCE",
        "name": "AS_Map_onPinSelection",
        "params": [{
            "datatype": "collection",
            "name": "eventobject"
        }, {
            "datatype": "string",
            "name": "location"
        }],
        "contextObj": {
            "name": "frmLocatorKA",
            "type": "forms",
            "platform": "",
            "KUID": "c471585baa904bb49278190a4437d425"
        },
        "language": "js",
        "actions": [{
            "id": "ADD_SNIPPET__d4842c0138fa464aaf5d9c990118070d",
            "type": "ADD_SNIPPET",
            "codeSnippet": "callOutSelection();",
            "parentId": null,
            "callbackType": null
        }]
    }
}