{
    "AS_TextField_aa987743490d4db2af779dcb4d8dd24c": {
        "id": "AS_TextField_aa987743490d4db2af779dcb4d8dd24c",
        "type": "ACTION_SEQUENCE",
        "name": "AS_onTouchEndAddressAddBiller",
        "params": [{
            "datatype": "collection",
            "name": "eventobject"
        }, {
            "datatype": "string",
            "name": "x"
        }, {
            "datatype": "string",
            "name": "y"
        }],
        "contextObj": {
            "name": "frmAddNewPayeeKA",
            "type": "forms",
            "platform": "",
            "KUID": "22b994296d374ff48427012b2b05feb7"
        },
        "language": "js",
        "actions": [{
            "id": "ADD_SNIPPET__d8f7a78665af4801b035087ddc8df69a",
            "type": "ADD_SNIPPET",
            "codeSnippet": "animateLabel(\"DOWN\", \"lblBillerNumber\",frmAddNewPayeeKA.tbxBillerNumber.text);\nanimateLabel(\"DOWN\", \"lblBillerID\",frmAddNewPayeeKA.tbxBillerID.text);\nanimateLabel(\"UP\", \"lblAddress\",frmAddNewPayeeKA.tbxAddress.text);\nanimateLabel(\"DOWN\", \"lblNickName\",frmAddNewPayeeKA.tbxNickName.text);",
            "parentId": null,
            "callbackType": null
        }]
    }
}