{
    "AS_FlexContainer_dea1696bb1954defa69e3cb958dd90d9": {
        "id": "AS_FlexContainer_dea1696bb1954defa69e3cb958dd90d9",
        "type": "ACTION_SEQUENCE",
        "name": "AS_onClickCancelCard",
        "params": [{
            "datatype": "collection",
            "name": "eventobject"
        }],
        "contextObj": {
            "name": "frmManageCardsKA",
            "type": "forms",
            "platform": "",
            "KUID": "75db60b6b4944b7faf9c556f4dbcaf8d"
        },
        "language": "js",
        "actions": [{
            "id": "ADD_SNIPPET__a0822c72a54f48b4892019e049324798",
            "type": "ADD_SNIPPET",
            "codeSnippet": "frmReasonsListScreen.show();\n",
            "parentId": null,
            "callbackType": null
        }]
    }
}