{
    "AS_TextField_jdd8a709474e4942829ae99a8958dca2": {
        "id": "AS_TextField_jdd8a709474e4942829ae99a8958dca2",
        "type": "ACTION_SEQUENCE",
        "name": "AS_onEndEditingAccNoAddBeneiOS",
        "params": [{
            "datatype": "collection",
            "name": "eventobject"
        }, {
            "datatype": "string",
            "name": "changedtext"
        }],
        "language": "js",
        "actions": [{
            "id": "ADD_SNIPPET_ide_onEndEditing_h729b03e1f8e4196a69217ca45b176ca",
            "type": "ADD_SNIPPET",
            "codeSnippet": "if(frmAddExternalAccountKA.externalAccountNumberTextField.text !== \"\"){\n  frmAddExternalAccountKA.flxUnderlineAccountNumber.skin = \"sknFlxGreenLine\";\n}else{\n  frmAddExternalAccountKA.flxUnderlineAccountNumber.skin = \"sknFlxOrangeLine\";\n}\n\nanimateLabel(\"DOWN\", \"lblAccountNumber\", frmAddExternalAccountKA.externalAccountNumberTextField.text);",
            "callbackType": null
        }]
    }
}