{
    "AS_Label_e5e6ee3fc4a0489a80cce154ae8b6514": {
        "id": "AS_Label_e5e6ee3fc4a0489a80cce154ae8b6514",
        "type": "ACTION_SEQUENCE",
        "name": "AS_onTouchEndCity",
        "params": [{
            "datatype": "collection",
            "name": "eventobject"
        }, {
            "datatype": "string",
            "name": "x"
        }, {
            "datatype": "string",
            "name": "y"
        }],
        "contextObj": {
            "name": "frmAddExternalAccountKA",
            "type": "forms",
            "platform": "",
            "KUID": "4943cca5d62d4f0ca6f2e9ab47274db5"
        },
        "language": "js",
        "actions": [{
            "id": "ADD_SNIPPET__i7992fc2a1554bbaae70a13b661be18d",
            "type": "ADD_SNIPPET",
            "codeSnippet": "if(frmAddExternalAccountKA.tbxCountry.text === \"\" || frmAddExternalAccountKA.tbxCountry.text === \"BR\" || frmAddExternalAccountKA.tbxCountry.text ===\"CA\")\n  kony.boj.showSelectedDetailsFromBene(\"City\", \"lblCityName\", \"JOR\");\nelse\n  kony.boj.showSelectedDetailsFromBene(\"City\", \"lblCityName\", frmAddExternalAccountKA.tbxCountry.text);",
            "parentId": null,
            "callbackType": null
        }]
    }
}