{
    "AS_TextField_ef80fd72f4d6406198a3c2474261dbae": {
        "id": "AS_TextField_ef80fd72f4d6406198a3c2474261dbae",
        "type": "ACTION_SEQUENCE",
        "name": "AS_onDoneSwift",
        "params": [{
            "datatype": "collection",
            "name": "eventobject"
        }, {
            "datatype": "string",
            "name": "changedtext"
        }],
        "contextObj": {
            "name": "frmAddExternalAccountKA",
            "type": "forms",
            "platform": "",
            "KUID": "4943cca5d62d4f0ca6f2e9ab47274db5"
        },
        "language": "js",
        "actions": [{
            "id": "ADD_SNIPPET_ide_onDone_f2fc948961d24d8ab67f9bb6160145e1",
            "type": "ADD_SNIPPET",
            "codeSnippet": "kony.boj.addBeneficiaryAnimation(\"lblEmail\");",
            "callbackType": null
        }]
    }
}