{
    "AS_FlexContainer_cb48f29e943c43aabbc9161703612ac1": {
        "id": "AS_FlexContainer_cb48f29e943c43aabbc9161703612ac1",
        "type": "ACTION_SEQUENCE",
        "name": "AS_onClickCityBene",
        "params": [{
            "datatype": "collection",
            "name": "eventobject"
        }],
        "language": "js",
        "actions": [{
            "id": "ADD_SNIPPET_ide_onClick_e23124d134b34ada8beac8ab9451538a",
            "type": "ADD_SNIPPET",
            "codeSnippet": "if(kony.boj.addBeneVar.selectedType === \"BOJ\" || \n   \tkony.boj.addBeneVar.selectedType === \"DOM\" || \n   \tfrmAddExternalAccountKA.tbxCountry.text === null || \n  \tfrmAddExternalAccountKA.tbxCountry.text === \"\")\n  return;\n\nkony.boj.showSelectedDetailsFromBene(\"City\", \"lblCityName\", frmAddExternalAccountKA.tbxCountry.text);",
            "callbackType": null
        }]
    }
}