{
    "AS_FlexContainer_cc3223c3068e49e491a4b759f6c8b94f": {
        "id": "AS_FlexContainer_cc3223c3068e49e491a4b759f6c8b94f",
        "type": "ACTION_SEQUENCE",
        "name": "AS_onBackNewBillKA",
        "params": [{
            "datatype": "collection",
            "name": "eventobject"
        }],
        "contextObj": {
            "name": "frmNewBillKA",
            "type": "forms",
            "platform": "",
            "KUID": "94b57de480514c9f98e1f6979b71a37b"
        },
        "language": "js",
        "actions": [{
            "id": "ADD_SNIPPET__e0e814bb54dc48e3a61db7a31a4f948a",
            "type": "ADD_SNIPPET",
            "codeSnippet": "back_NEWBILLSPAY();\n// customAlertPopup(\"Confirmation\", \n//                    geti18Value(\"i18n.Bene.backFromBeneError\"),\n//                    onClickYesClose, onClickNoClose, \n//                     geti18Value(\"i18n.common.YES\"),\n//                    geti18Value(\"i18n.common.NO\"));\n\n// function onClickYesClose(){\n//   var INSTANCE = kony.sdk.mvvm.KonyApplicationContext.getAppInstance();\n//   var controller = INSTANCE.getFormController(\"frmManagePayeeKA\");\n//   var navObject = new kony.sdk.mvvm.NavigationObject();\n//   navObject.setRequestOptions(\"managepayeesegment\",{\"headers\":{},\"queryParams\":{}});\n//   controller.loadDataAndShowForm(navObject);\n//   popupCommonAlertDimiss();\n// }\n\n// function onClickNoClose(){\n//   popupCommonAlertDimiss();\n// }",
            "parentId": null,
            "callbackType": null
        }]
    }
}