{
    "AS_Button_g816a95180f74f5187a0722e93ebaae2": {
        "id": "AS_Button_g816a95180f74f5187a0722e93ebaae2",
        "type": "ACTION_SEQUENCE",
        "name": "AS_onClickPlusShowBene",
        "params": [{
            "datatype": "collection",
            "name": "eventobject"
        }],
        "contextObj": {
            "name": "frmShowAllBeneficiary",
            "type": "forms",
            "platform": "",
            "KUID": "da135140bfd946caa325afeee19e7e04"
        },
        "language": "js",
        "actions": [{
            "id": "ADD_SNIPPET__f27ca09356324a9c8d86f415e5fb582d",
            "type": "ADD_SNIPPET",
            "codeSnippet": "frmAddExternalAccountKA.destroy();\ngblFromModule = \"\";\nnavigation_STORE_PREVIOUS_FORM(frmShowAllBeneficiary);\nvar INSTANCE = kony.sdk.mvvm.KonyApplicationContext.getAppInstance();\nvar listController = INSTANCE.getFormController(\"frmAddExternalAccountKA\");\nvar navObject = new kony.sdk.mvvm.NavigationObject();\nvar datamodelflxAddressKA = new kony.sdk.mvvm.DataModel();\nnavObject.setDataModel(null,kony.sdk.mvvm.OperationType.ADD, \"form\");\nnavObject.setRequestOptions(\"form\",{\"headers\":{}});\nlistController.performAction(\"navigateTo\",[\"frmAddExternalAccountKA\",navObject]);",
            "parentId": null,
            "callbackType": null
        }]
    }
}