{
    "AS_FlexContainer_g9484db84f9444a4841ba167f688fdd9": {
        "id": "AS_FlexContainer_g9484db84f9444a4841ba167f688fdd9",
        "type": "ACTION_SEQUENCE",
        "name": "AS_onclickbackofRequestStatementAccounts",
        "params": [{
            "datatype": "collection",
            "name": "eventobject"
        }],
        "language": "js",
        "actions": [{
            "id": "ADD_SNIPPET_ide_onClick_h2b8f1e054424d41a2b1a33050edb21a",
            "type": "ADD_SNIPPET",
            "codeSnippet": "//frmAccountInfoKA.show();",
            "callbackType": null
        }]
    }
}