{
    "AS_FlexContainer_f190262699e649c79c85a75f18facad6": {
        "id": "AS_FlexContainer_f190262699e649c79c85a75f18facad6",
        "type": "ACTION_SEQUENCE",
        "name": "AS_onClickNewAccSubLandingBack",
        "params": [{
            "datatype": "collection",
            "name": "eventobject"
        }],
        "contextObj": {
            "name": "frmNewSubAccountLandingNew",
            "type": "forms",
            "platform": "",
            "KUID": "i277bc3c8d71465085f48b35ef80c31b"
        },
        "language": "js",
        "actions": [{
            "id": "ADD_SNIPPET__f4415c99d8714452ad4bc238cc85a669",
            "type": "ADD_SNIPPET",
            "codeSnippet": "//Omar Alnajjar \nfrmNewSubAccountLandingNew.lblFre.text = geti18Value(\"i18n.common.accountType\");\nfrmNewSubAccountLandingNew.lblCurr.text = geti18Value(\"i18n.common.currencyType\");\nfrmNewSubAccountLandingNew.lblAccDesc.text =\"\";     \nfrmNewSubAccountLandingNew.flxAccDesc.setVisibility(false);\nfrmNewSubAccountLandingNew.flxISaverSub.setVisibility(false);\nfrmAccountsLandingKA.show();\n\n\n",
            "parentId": null,
            "callbackType": null
        }]
    }
}