{
    "AS_TextField_ha91c7e1ac194af285623dbccaa1bbbb": {
        "id": "AS_TextField_ha91c7e1ac194af285623dbccaa1bbbb",
        "type": "ACTION_SEQUENCE",
        "name": "AS_onEndEditingEmailiOS",
        "params": [{
            "datatype": "collection",
            "name": "eventobject"
        }, {
            "datatype": "string",
            "name": "changedtext"
        }],
        "contextObj": {
            "name": "frmAddExternalAccountKA",
            "type": "forms",
            "platform": "",
            "KUID": "4943cca5d62d4f0ca6f2e9ab47274db5"
        },
        "language": "js",
        "actions": [{
            "id": "ADD_SNIPPET_ide_onEndEditing_gf1c130bc8b8427b819a524282f3510c",
            "type": "ADD_SNIPPET",
            "codeSnippet": "if(frmAddExternalAccountKA.tbxEmail.text !== \"\"){\n  frmAddExternalAccountKA.flxUnderlineEmail.skin = \"sknFlxGreenLine\";\n}else{\n  frmAddExternalAccountKA.flxUnderlineEmail.skin = \"sknFlxOrangeLine\";\n}\n\nanimateLabel(\"DOWN\", \"lblEmail\", frmAddExternalAccountKA.tbxEmail.text);",
            "callbackType": null
        }]
    }
}