{
    "AS_TextField_gfde193bba4a443cb7cab87f4c1b976e": {
        "id": "AS_TextField_gfde193bba4a443cb7cab87f4c1b976e",
        "type": "ACTION_SEQUENCE",
        "name": "AS_onTouchEndBankNameIntAddBene",
        "params": [{
            "datatype": "collection",
            "name": "eventobject"
        }, {
            "datatype": "string",
            "name": "x"
        }, {
            "datatype": "string",
            "name": "y"
        }],
        "contextObj": {
            "name": "frmAddExternalAccountKA",
            "type": "forms",
            "platform": "",
            "KUID": "4943cca5d62d4f0ca6f2e9ab47274db5"
        },
        "language": "js",
        "actions": [{
            "id": "ADD_SNIPPET__i6c98c14d4d343feac11fcac0dcae8db",
            "type": "ADD_SNIPPET",
            "codeSnippet": "kony.boj.addBeneficiaryAnimation(\"lblBankNameInt\");\nfrmAddExternalAccountKA.flxUnderlineBankNameInt.skin = \"sknFlxBlueLine\";",
            "parentId": null,
            "callbackType": null
        }]
    }
}