{
    "AS_Label_f4eba97f8c854d1abb516d42e9795220": {
        "id": "AS_Label_f4eba97f8c854d1abb516d42e9795220",
        "type": "ACTION_SEQUENCE",
        "name": "AS_ontouchEndAccountNumberorderChequebook",
        "params": [{
            "datatype": "collection",
            "name": "eventobject"
        }, {
            "datatype": "string",
            "name": "x"
        }, {
            "datatype": "string",
            "name": "y"
        }],
        "contextObj": {
            "name": "frmOrderCheckBook",
            "type": "forms",
            "platform": "",
            "KUID": "a9c3490cbfe84fc2a395a9c7f12fb355"
        },
        "language": "js",
        "actions": [{
            "id": "ADD_SNIPPET__f4b93c835165480b97276383197fd586",
            "type": "ADD_SNIPPET",
            "codeSnippet": "show_ACCOUNTS_ORDERCHECKBOOK();\n/*gblsubacclist=\"AccountOrder\";\nvar fromAccounts = kony.retailBanking.globalData.accountsDashboardData.accountsData;\ngblTModule=\"AccountOrder\";\nfrmAccountDetailsScreen.lblHead.text = geti18Value(\"i18n.my_money.accounts\");\naccountsScreenPreshow(fromAccounts);\nfrmAccountDetailsScreen.show()*/\n",
            "parentId": null
        }]
    }
}