{
    "AS_TextField_c8c672a59c4341f68580bcb159640130": {
        "id": "AS_TextField_c8c672a59c4341f68580bcb159640130",
        "type": "ACTION_SEQUENCE",
        "name": "AS_onDoneBillerNumberAddBiller",
        "params": [{
            "datatype": "collection",
            "name": "eventobject"
        }, {
            "datatype": "string",
            "name": "changedtext"
        }],
        "contextObj": {
            "name": "frmAddNewPayeeKA",
            "type": "forms",
            "platform": "",
            "KUID": "22b994296d374ff48427012b2b05feb7"
        },
        "language": "js",
        "actions": [{
            "id": "ADD_SNIPPET__ad9a3fad861846f8abc01a4c63ee3e1c",
            "type": "ADD_SNIPPET",
            "codeSnippet": "animateLabel(\"DOWN\", \"lblBillerNumber\",frmAddNewPayeeKA.tbxBillerNumber.text);\n//animateLabel(\"UP\", \"lblBillerID\",frmAddNewPayeeKA.tbxBillerID.text);",
            "parentId": null,
            "callbackType": null
        }]
    }
}