{
    "AS_TextField_ce9eae382cf0441ca3ccab3ba442f279": {
        "id": "AS_TextField_ce9eae382cf0441ca3ccab3ba442f279",
        "type": "ACTION_SEQUENCE",
        "name": "AS_onTextChangeSearcShowBene",
        "params": [{
            "datatype": "collection",
            "name": "eventobject"
        }, {
            "datatype": "string",
            "name": "changedtext"
        }],
        "contextObj": {
            "name": "frmShowAllBeneficiary",
            "type": "forms",
            "platform": "",
            "KUID": "da135140bfd946caa325afeee19e7e04"
        },
        "language": "js",
        "actions": [{
            "id": "ADD_SNIPPET__f1e03c30738048acb2e1ef9f2ec576cd",
            "type": "ADD_SNIPPET",
            "codeSnippet": "kony.boj.searchBeneList(frmShowAllBeneficiary.tbxSearch.text);",
            "parentId": null,
            "callbackType": null
        }]
    }
}