{
    "AS_Button_j99e1c53446b4acb87918593a3a00055": {
        "id": "AS_Button_j99e1c53446b4acb87918593a3a00055",
        "type": "ACTION_SEQUENCE",
        "name": "AS_onClickAddBiller",
        "params": [{
            "datatype": "collection",
            "name": "eventobject"
        }],
        "contextObj": {
            "name": "frmPayBillHome",
            "type": "forms",
            "platform": "",
            "KUID": "fd7acf41c32b4b28938c2f8bcc4800db"
        },
        "language": "js",
        "actions": [{
            "id": "ADD_SNIPPET__a76c2a6d537840fe98e462e9023a2c4b",
            "type": "ADD_SNIPPET",
            "codeSnippet": "// frmAddNewPayeeKA.show();\nnavigation_STORE_PREVIOUS_FORM(frmPayBillHome);\nfrmAddNewPrePayeeKA.destroy();\nkony.boj.BillerResetFlag = true;\n\nvar INSTANCE = kony.sdk.mvvm.KonyApplicationContext.getAppInstance();\nvar listController = INSTANCE.getFormController(\"frmAddNewPayeeKA\");\nvar navigationObject = new kony.sdk.mvvm.NavigationObject();\nvar datamodelflxAddressKA = new kony.sdk.mvvm.DataModel();\nnavigationObject.setDataModel(null,kony.sdk.mvvm.OperationType.ADD, \"form\");\nnavigationObject.setRequestOptions(\"form\",{\"headers\":{}});\nlistController.performAction(\"navigateTo\",[\"frmAddNewPayeeKA\",navigationObject]);",
            "parentId": null,
            "callbackType": null
        }]
    }
}