{
    "AS_FlexContainer_c1f53a703d084d6bb87ce9621b8115c7": {
        "id": "AS_FlexContainer_c1f53a703d084d6bb87ce9621b8115c7",
        "type": "ACTION_SEQUENCE",
        "name": "AS_onClickBankBranchAddBene",
        "params": [{
            "datatype": "collection",
            "name": "eventobject"
        }],
        "contextObj": {
            "name": "frmAddExternalAccountKA",
            "type": "forms",
            "platform": "",
            "KUID": "4943cca5d62d4f0ca6f2e9ab47274db5"
        },
        "language": "js",
        "actions": [{
            "id": "ADD_SNIPPET_ide_onClick_f534514d533c41aa83ef2103a886dd63",
            "type": "ADD_SNIPPET",
            "codeSnippet": "kony.boj.showSelectedDetailsFromBene(\"Branch\", \"lblBankBranch\");",
            "callbackType": null
        }]
    }
}