{
    "AS_FlexContainer_f655e09d982e4a01b13379d8d7b01004": {
        "id": "AS_FlexContainer_f655e09d982e4a01b13379d8d7b01004",
        "type": "ACTION_SEQUENCE",
        "name": "AS_onClickNextNewSubAccount",
        "params": [{
            "datatype": "collection",
            "name": "eventobject"
        }],
        "contextObj": {
            "name": "frmNewSubAccountLandingNew",
            "type": "forms",
            "platform": "",
            "KUID": "i277bc3c8d71465085f48b35ef80c31b"
        },
        "language": "js",
        "actions": [{
            "id": "ADD_SNIPPET__c27d4e8c559a4401bff790863cc9873c",
            "type": "ADD_SNIPPET",
            "codeSnippet": "nextToConfirmofSubAccount();",
            "parentId": null,
            "callbackType": null
        }]
    }
}