{
    "AS_Button_h4d1a88e3ba044768458aff6a50dada5": {
        "id": "AS_Button_h4d1a88e3ba044768458aff6a50dada5",
        "type": "ACTION_SEQUENCE",
        "name": "AS_onClickDeleteSegment",
        "params": [{
            "datatype": "collection",
            "name": "eventobject"
        }, {
            "datatype": "collection",
            "name": "context"
        }],
        "contextObj": {
            "name": "segmanagepayeetmplt",
            "type": "templates",
            "platform": "",
            "KUID": "16a264b35c494e74a2589ee452044566"
        },
        "language": "js",
        "actions": [{
            "id": "ADD_SNIPPET__a0728150ac2041ed943106175c7efc58",
            "type": "ADD_SNIPPET",
            "codeSnippet": "ShowLoadingScreen();\ngblToOTPFrom = \"DeleteBiller\" ;\nINSTANCE = kony.sdk.mvvm.KonyApplicationContext.getAppInstance();\nlistController = INSTANCE.getFormController(\"frmPayeeDetailsKA\");\n//listController.performAction(\"deleteData\");\ndeleteBillerCustomVerbCall();",
            "parentId": null,
            "callbackType": null
        }]
    }
}