{
    "AS_Form_b1e8440f6626429aa2cd811d5d9eb16b": {
        "id": "AS_Form_b1e8440f6626429aa2cd811d5d9eb16b",
        "type": "ACTION_SEQUENCE",
        "name": "AS_OndeviceBackofFrmsettings",
        "params": [{
            "datatype": "collection",
            "name": "eventobject"
        }],
        "contextObj": {
            "name": "frmSettingsKA",
            "type": "forms",
            "platform": "",
            "KUID": "hb0fb66c0c224ed284a1334d78669bfa"
        },
        "language": "js",
        "actions": [{
            "id": "ADD_SNIPPET__ebe9e1988cc340e5b2af91fb014f0f54",
            "type": "ADD_SNIPPET",
            "codeSnippet": "backfromSettings();",
            "parentId": null,
            "callbackType": null
        }]
    }
}