{
    "AS_TextField_ce47004cd4674692adae12ac3408141c": {
        "id": "AS_TextField_ce47004cd4674692adae12ac3408141c",
        "type": "ACTION_SEQUENCE",
        "name": "AS_onTouchTextBoxDebitCard",
        "params": [{
            "datatype": "collection",
            "name": "eventobject"
        }, {
            "datatype": "string",
            "name": "x"
        }, {
            "datatype": "string",
            "name": "y"
        }],
        "contextObj": {
            "name": "frmRegisterUser",
            "type": "forms",
            "platform": "",
            "KUID": "cd7432ec5087404590338186c94e35d2"
        },
        "language": "js",
        "actions": [{
            "id": "ADD_SNIPPET__g5478338002041d0a0127d895b1975cb",
            "type": "ADD_SNIPPET",
            "codeSnippet": "frmRegisterUser.flxLine.skin = \"sknFlxBlueLine\";",
            "parentId": null,
            "callbackType": null
        }]
    }
}