{
    "AS_TextField_a854ff690dbb4f84b62b19943f3042dc": {
        "id": "AS_TextField_a854ff690dbb4f84b62b19943f3042dc",
        "type": "ACTION_SEQUENCE",
        "name": "AS_onEndEditingSwiftAddBeneAndroid",
        "params": [{
            "datatype": "collection",
            "name": "eventobject"
        }, {
            "datatype": "string",
            "name": "changedtext"
        }],
        "language": "js",
        "actions": [{
            "id": "ADD_SNIPPET_ide_onEndEditing_i74d2bbe45c44ff4bda8125cd45b9b76",
            "type": "ADD_SNIPPET",
            "codeSnippet": "kony.boj.addBeneNextStatus();\nanimateLabel(\"DOWN\", \"lblSwiftCode\", frmAddExternalAccountKA.txtSwiftCodeKA.text);\nkony.boj.addBeneficiaryAnimation(\"lblBankNameInt\");",
            "callbackType": null
        }]
    }
}