{
    "AS_TextField_c691539dfb724456a6e27862f21678f7": {
        "id": "AS_TextField_c691539dfb724456a6e27862f21678f7",
        "type": "ACTION_SEQUENCE",
        "name": "AS_onTextChangeBenficiryNameKA",
        "params": [{
            "datatype": "collection",
            "name": "eventobject"
        }, {
            "datatype": "string",
            "name": "changedtext"
        }],
        "language": "js",
        "actions": [{
            "id": "ADD_SNIPPET_ide_onTextChange_g43a900903544bf9b3e2d46345b31e51",
            "type": "ADD_SNIPPET",
            "codeSnippet": "if(frmAddExternalAccountKA.txtBenficiryNameKA.text !== \"\"){\n  frmAddExternalAccountKA.flxUnderlineBenficiryNameKA.skin = \"sknFlxGreenLine\";\n}else{\n  frmAddExternalAccountKA.flxUnderlineBenficiryNameKA.skin = \"sknFlxOrangeLine\";\n}\nkony.boj.addBeneNextStatus();\nif(true){\n  //frmEnrolluserLandingKA.lblNext.skin = \"sknLblNextEnabled\";\n}\nelse{\n // frmEnrolluserLandingKA.lblNext.skin = \"sknLblNextDisabled\";\n}\n",
            "callbackType": null
        }]
    }
}