{
    "AS_TextField_e8c5c2cc97d84709b0be23c7b39bce97": {
        "id": "AS_TextField_e8c5c2cc97d84709b0be23c7b39bce97",
        "type": "ACTION_SEQUENCE",
        "name": "AS_onDoneEmail",
        "params": [{
            "datatype": "collection",
            "name": "eventobject"
        }, {
            "datatype": "string",
            "name": "changedtext"
        }],
        "contextObj": {
            "name": "frmAddExternalAccountKA",
            "type": "forms",
            "platform": "",
            "KUID": "4943cca5d62d4f0ca6f2e9ab47274db5"
        },
        "language": "js",
        "actions": [{
            "id": "ADD_SNIPPET_ide_onDone_jdbbcbc3634a47db89cf2dad86851348",
            "type": "ADD_SNIPPET",
            "codeSnippet": "kony.boj.addBeneficiaryAnimation(\"\");",
            "callbackType": null
        }]
    }
}