{
    "AS_Form_d761e9d68b874d39821248fc02f7ed7a": {
        "id": "AS_Form_d761e9d68b874d39821248fc02f7ed7a",
        "type": "ACTION_SEQUENCE",
        "name": "AS_onBackPaymentDashBoard",
        "params": [{
            "datatype": "collection",
            "name": "eventobject"
        }],
        "contextObj": {
            "name": "frmPaymentDashboard",
            "type": "forms",
            "platform": "",
            "KUID": "j5584f57cd764e66adb4087c6fc15f67"
        },
        "language": "js",
        "actions": [{
            "id": "ADD_SNIPPET__d4c15d06af2043f1a3ece883fdc6dde5",
            "type": "ADD_SNIPPET",
            "codeSnippet": "if(kony.sdk.isNetworkAvailable()){\n  frmAccountsLandingKA.flxDeals.setVisibility(false);\n  frmAccountsLandingKA.flxAccountsMain.setVisibility(true);\n  frmAccountsLandingKA.flxAccountsMain.left = \"0%\"\n  frmAccountsLandingKA.flxLoans.setVisibility(false);\n  frmAccountsLandingKA.flxAccountsMain.zIndex = 1;\n  frmAccountsLandingKA.flxDeals.zIndex = 1;\n  frmAccountsLandingKA.flxLoans.zIndex = 1;\n  frmAccountsLandingKA.forceLayout();\n\n  accountDashboardDataCall();\n  kony.print(\"Nav accounts Dadhboard:::\");\n}else{\n  kony.sdk.mvvm.KonyApplicationContext.dismissLoadingScreen();\n  customAlertPopup(\"\", kony.i18n.getLocalizedString(\"i18n.errorMsg.deviceConnectionError\"), popupCommonAlertDimiss, \"\");\n}\n",
            "parentId": null,
            "callbackType": null
        }]
    }
}