{
    "AS_Button_d5f229473b5044b99dc11e0d659599ce": {
        "id": "AS_Button_d5f229473b5044b99dc11e0d659599ce",
        "type": "ACTION_SEQUENCE",
        "name": "AS_onClickeFawatterPaymentDash",
        "params": [{
            "datatype": "collection",
            "name": "eventobject"
        }],
        "contextObj": {
            "name": "frmPaymentDashboard",
            "type": "forms",
            "platform": "",
            "KUID": "j5584f57cd764e66adb4087c6fc15f67"
        },
        "language": "js",
        "actions": [{
            "id": "ADD_SNIPPET__fc02fc5146ea4db6b5a9707c13c69689",
            "type": "ADD_SNIPPET",
            "codeSnippet": "if(kony.store.getItem(\"langPrefObj\") === \"en\")\n    kony.boj.lang = \"eng\";\n  else\n    kony.boj.lang = \"ara\";\n\ngblTModule = \"billspay\";\ngetAllAccounts();\n",
            "parentId": null,
            "callbackType": null
        }]
    }
}