{
    "AS_TextField_b3bdc8d54ad54429af1e6994bd7992a2": {
        "id": "AS_TextField_b3bdc8d54ad54429af1e6994bd7992a2",
        "type": "ACTION_SEQUENCE",
        "name": "AS_onEndEditingAddressAddBilleriOS",
        "params": [{
            "datatype": "collection",
            "name": "eventobject"
        }, {
            "datatype": "string",
            "name": "changedtext"
        }],
        "contextObj": {
            "name": "frmAddNewPayeeKA",
            "type": "forms",
            "platform": "",
            "KUID": "22b994296d374ff48427012b2b05feb7"
        },
        "language": "js",
        "actions": [{
            "id": "ADD_SNIPPET__ad43f1669f354bdeb84893657c54b3be",
            "type": "ADD_SNIPPET",
            "codeSnippet": "animateLabel(\"DOWN\", \"lblAddress\",frmAddNewPayeeKA.tbxAddress.text);",
            "parentId": null,
            "callbackType": null
        }]
    }
}