{
    "AS_TextField_j495c9a29829490cbf0f450aef8539bd": {
        "id": "AS_TextField_j495c9a29829490cbf0f450aef8539bd",
        "type": "ACTION_SEQUENCE",
        "name": "AS_onEndEditingBankNameIntiOSAddBene",
        "params": [{
            "datatype": "collection",
            "name": "eventobject"
        }, {
            "datatype": "string",
            "name": "changedtext"
        }],
        "contextObj": {
            "name": "frmAddExternalAccountKA",
            "type": "forms",
            "platform": "",
            "KUID": "4943cca5d62d4f0ca6f2e9ab47274db5"
        },
        "language": "js",
        "actions": [{
            "id": "ADD_SNIPPET__a81b53bf63904c86868f8e8575597512",
            "type": "ADD_SNIPPET",
            "codeSnippet": "kony.boj.addBeneNextStatus();\nanimateLabel(\"DOWN\", \"lblBankNameInt\", frmAddExternalAccountKA.tbxBankNameInt.text);\nkony.boj.addBeneficiaryAnimation(\"lblCityBank\");",
            "parentId": null,
            "callbackType": null
        }]
    }
}