{
    "AS_TextField_c583e1e8e21749189d04388a9d25f095": {
        "id": "AS_TextField_c583e1e8e21749189d04388a9d25f095",
        "type": "ACTION_SEQUENCE",
        "name": "AS_onDoneSearchShowBene",
        "params": [{
            "datatype": "collection",
            "name": "eventobject"
        }, {
            "datatype": "string",
            "name": "changedtext"
        }],
        "contextObj": {
            "name": "frmShowAllBeneficiary",
            "type": "forms",
            "platform": "",
            "KUID": "da135140bfd946caa325afeee19e7e04"
        },
        "language": "js",
        "actions": [{
            "id": "ADD_SNIPPET__e97ce2668a114469aa7c8fd445ae7474",
            "type": "ADD_SNIPPET",
            "codeSnippet": "kony.boj.searchBeneList(frmShowAllBeneficiary.tbxSearch.text);",
            "parentId": null,
            "callbackType": null
        }]
    }
}