{
    "AS_FlexContainer_e85df2fc7eb644a0bb8bc63567231b6c": {
        "id": "AS_FlexContainer_e85df2fc7eb644a0bb8bc63567231b6c",
        "type": "ACTION_SEQUENCE",
        "name": "AS_onBackfrmConfirmPayBill",
        "params": [{
            "datatype": "collection",
            "name": "eventobject"
        }],
        "contextObj": {
            "name": "frmConfirmPayBill",
            "type": "forms",
            "platform": "",
            "KUID": "9244958e3f364c6b9e342b6d7ea74555"
        },
        "language": "js",
        "actions": [{
            "id": "ADD_SNIPPET__i0a3b7fdb59b42448625b908908236e4",
            "type": "ADD_SNIPPET",
            "codeSnippet": "if(QuickFlowprev == \"bill\")\n\tfrmBills.show();\nelse if(gblQuickFlow === \"pre\")\n\tfrmNewBillKA.show();\nelse\n  frmNewBillDetails.show();",
            "parentId": null,
            "callbackType": null
        }]
    }
}