{
    "AS_TextField_fca63f4cacb944eea9313ff50e1f932e": {
        "id": "AS_TextField_fca63f4cacb944eea9313ff50e1f932e",
        "type": "ACTION_SEQUENCE",
        "name": "AS_onTextChangeBankDetailsAddBene",
        "params": [{
            "datatype": "collection",
            "name": "eventobject"
        }, {
            "datatype": "string",
            "name": "changedtext"
        }],
        "language": "js",
        "actions": [{
            "id": "ADD_SNIPPET_ide_onTextChange_e3252ac9a8ad4ba380a6eefb40f0272b",
            "type": "ADD_SNIPPET",
            "codeSnippet": "if(frmAddExternalAccountKA.tbxBeneBankDetails.text === \"\"){\n  frmAddExternalAccountKA.flxUnderlineBankDetails.skin = \"sknFlxGreenLine\";\n}else{\n  frmAddExternalAccountKA.flxUnderlineBankDetails.skin = \"sknFlxOrangeLine\";\n}\nkony.boj.addBeneNextStatus();\nif(true){\n  //frmEnrolluserLandingKA.lblNext.skin = \"sknLblNextEnabled\";\n}\nelse{\n // frmEnrolluserLandingKA.lblNext.skin = \"sknLblNextDisabled\";\n}\n",
            "callbackType": null
        }]
    }
}