{
    "AS_RadioButtonGroup_jee35b89370e4aafacb81fba4d1df440": {
        "id": "AS_RadioButtonGroup_jee35b89370e4aafacb81fba4d1df440",
        "type": "ACTION_SEQUENCE",
        "params": [{
            "datatype": "collection",
            "name": "eventobject"
        }],
        "language": "js",
        "actions": [{
            "id": "ADD_SNIPPET_ide_onSelection_a1b39bdd0d8f4c40bb34151608338567",
            "type": "ADD_SNIPPET",
            "codeSnippet": "onChangingradioBtnNewBillKA();",
            "callbackType": null
        }]
    }
}