{
    "AS_RadioButtonGroup_df4a63610fe144fdad3b6ce44a906f4a": {
        "id": "AS_RadioButtonGroup_df4a63610fe144fdad3b6ce44a906f4a",
        "type": "ACTION_SEQUENCE",
        "params": [{
            "datatype": "collection",
            "name": "eventobject"
        }],
        "language": "js",
        "actions": [{
            "id": "ADD_SNIPPET_ide_onSelection_f7e36b14896942f69f60689580fc0c8a",
            "type": "ADD_SNIPPET",
            "codeSnippet": "onChangingradioBtnNewBillKA();",
            "callbackType": null
        }]
    }
}