{
    "AS_TextField_d692480d02be416faf4ea8ea5cbdef29": {
        "id": "AS_TextField_d692480d02be416faf4ea8ea5cbdef29",
        "type": "ACTION_SEQUENCE",
        "name": "AS_RegisterPasswordOnTextChange",
        "params": [{
            "datatype": "collection",
            "name": "eventobject"
        }, {
            "datatype": "string",
            "name": "changedtext"
        }],
        "contextObj": {
            "name": "frmEnrolluserLandingKA",
            "type": "forms",
            "platform": "",
            "KUID": "de724966138b4e7c9bfdd35033a0bdb3"
        },
        "language": "js",
        "actions": [{
            "id": "ADD_SNIPPET__b8f498a404f5427f8a1666e0ee855d13",
            "type": "ADD_SNIPPET",
            "codeSnippet": "if(kony.retailBanking.util.validation.isValidPassword(frmEnrolluserLandingKA.tbxPasswordKA.text)){\n  frmEnrolluserLandingKA.flxUnderlinePassword.skin = \"sknFlxGreenLine\";\n  passwordFlag = true;\n}\nelse{\n  frmEnrolluserLandingKA.flxUnderlinePassword.skin = \"sknFlxOrangeLine\";\n  passwordFlag = false;\n}\nfrmEnrolluserLandingKA.flxUsernameValidation.isVisible = false;\nfrmEnrolluserLandingKA.flxPasswordValidation.isVisible = true;\n\nif(validateConfirmPassword(frmEnrolluserLandingKA.tbxPasswordKA.text, frmEnrolluserLandingKA.tbxConfrmPwdKA.text))\n  frmEnrolluserLandingKA.flxUnderlineConfirmPassword.skin = \"sknFlxGreenLine\";\nelse\n  frmEnrolluserLandingKA.flxUnderlineConfirmPassword.skin = \"sknFlxOrangeLine\";\n\nif(usernameFlag === true && passwordFlag === true && confrmPasswordFlag === true){\n  frmEnrolluserLandingKA.lblNext.skin = \"sknLblNextEnabled\";\n  frmEnrolluserLandingKA.flxProgress1.left = \"80%\";\n}\nelse{\n  frmEnrolluserLandingKA.lblNext.skin = \"sknLblNextDisabled\";\n  frmEnrolluserLandingKA.flxProgress1.left = \"65%\";\n}\n\nisClearButtonVisible(frmEnrolluserLandingKA.tbxPasswordKA,frmEnrolluserLandingKA.CopylblClose0bb2f50619b5543);\nset_SHOW_BUTTON_VISIBILITY(frmEnrolluserLandingKA.tbxPasswordKA, frmEnrolluserLandingKA.lblShowPass);",
            "parentId": null,
            "callbackType": null
        }]
    }
}