{
    "AS_Segment_cd8fe135219740e3acab134e2a565a40": {
        "id": "AS_Segment_cd8fe135219740e3acab134e2a565a40",
        "type": "ACTION_SEQUENCE",
        "params": [{
            "datatype": "collection",
            "name": "eventobject"
        }, {
            "datatype": "number",
            "name": "sectionNumber"
        }, {
            "datatype": "number",
            "name": "rowNumber"
        }],
        "contextObj": {
            "name": "frmAccountDetailKA",
            "type": "forms",
            "platform": "",
            "KUID": "5ed703cad63c441882fc4a36f5ea0c28"
        },
        "language": "js",
        "actions": [{
            "id": "ADD_SNIPPET__h20d596bdcf247499125337075e13423",
            "type": "ADD_SNIPPET",
            "codeSnippet": "kony.print(\"asdasd\");",
            "parentId": null,
            "callbackType": null
        }]
    }
}