{
    "AS_Segment_f53a731362194bffb72bcaef6d60135f": {
        "id": "AS_Segment_f53a731362194bffb72bcaef6d60135f",
        "type": "ACTION_SEQUENCE",
        "params": [{
            "datatype": "collection",
            "name": "eventobject"
        }, {
            "datatype": "number",
            "name": "sectionNumber"
        }, {
            "datatype": "number",
            "name": "rowNumber"
        }],
        "language": "js",
        "actions": [{
            "id": "ADD_SNIPPET_ide_onRowClick_g2e1f4fd0564499cb5eb5b9f5fe257cf",
            "type": "ADD_SNIPPET",
            "codeSnippet": "frmEditAccountSettings.show();",
            "callbackType": null
        }]
    }
}