{
    "AS_Switch_3c0adee9364240b5a982ce9cf3bad765": {
        "id": "AS_Switch_3c0adee9364240b5a982ce9cf3bad765",
        "type": "ACTION_SEQUENCE",
        "params": [{
            "datatype": "collection",
            "name": "eventobject"
        }],
        "contextObj": {
            "type": "forms",
            "platform": "",
            "KUID": "ac09c32a534449b3b0961f8e48e26015"
        },
        "language": "js",
        "actions": [{
            "id": "ADD_SNIPPET__ee9d7df83d6747178b2a15fd9206b3ef",
            "type": "ADD_SNIPPET",
            "codeSnippet": "selectDateRange();",
            "parentId": null,
            "callbackType": null
        }]
    }
}