{
    "AS_Switch_ad1f9b9612614993b82e5ac06d59ae36": {
        "id": "AS_Switch_ad1f9b9612614993b82e5ac06d59ae36",
        "type": "ACTION_SEQUENCE",
        "params": [{
            "datatype": "collection",
            "name": "eventobject"
        }],
        "language": "js",
        "actions": [{
            "id": "ADD_SNIPPET_ide_onSlide_7c7be7fb5d404111a0edf0307429f77f",
            "type": "ADD_SNIPPET",
            "codeSnippet": "updateSecurityAletStatus(\"passwordChange\");",
            "callbackType": null
        }]
    }
}