{
    "AS_Segment_f3447e178f93428286a796ca215d9354": {
        "id": "AS_Segment_f3447e178f93428286a796ca215d9354",
        "type": "ACTION_SEQUENCE",
        "name": "AS_Segment_onRowClickQuickPreviewSettingSeg",
        "params": [{
            "datatype": "collection",
            "name": "eventobject"
        }, {
            "datatype": "number",
            "name": "sectionNumber"
        }, {
            "datatype": "number",
            "name": "rowNumber"
        }],
        "contextObj": {
            "name": "frmAuthorizationAlternatives",
            "type": "forms",
            "platform": "",
            "KUID": "d410b4cb8325465eb5a9cb0f8e472aec"
        },
        "language": "js",
        "actions": [{
            "id": "ADD_SNIPPET__jd8bfef285a04a159fe61d19d196a170",
            "type": "ADD_SNIPPET",
            "codeSnippet": "onrowClickAccountsSwitchOptionChange();",
            "parentId": null,
            "callbackType": null
        }]
    }
}