{
    "AS_Segment_g46f0fd01dbb4fd29e8ab51d84edc283": {
        "id": "AS_Segment_g46f0fd01dbb4fd29e8ab51d84edc283",
        "type": "ACTION_SEQUENCE",
        "name": "AS_Segment_rowClickCardsPreferences",
        "params": [{
            "name": "eventobject",
            "datatype": "collection"
        }, {
            "name": "sectionNumber",
            "datatype": "number"
        }, {
            "name": "rowNumber",
            "datatype": "number"
        }],
        "contextObj": {
            "name": "frmCardsListPreferences",
            "type": "forms",
            "platform": null,
            "KUID": "gbc93386725a4f228cae50ca2122b7bb"
        },
        "language": "js",
        "actions": [{
            "id": "ADD_SNIPPET__iec993331d6548688e635412fb38c924",
            "type": "ADD_SNIPPET",
            "codeSnippet": "setDatatoAddCardNickname(eventobject,sectionNumber,rowNumber);",
            "parentId": null,
            "callbackType": null
        }]
    }
}