{
    "AS_Segment_c3a7fdda2a1345f9afff32990d88e555": {
        "id": "AS_Segment_c3a7fdda2a1345f9afff32990d88e555",
        "type": "ACTION_SEQUENCE",
        "params": [{
            "datatype": "collection",
            "name": "eventobject"
        }, {
            "datatype": "number",
            "name": "sectionNumber"
        }, {
            "datatype": "number",
            "name": "rowNumber"
        }],
        "contextObj": {
            "type": "forms",
            "platform": "",
            "KUID": "he1d62b4711f4c5abdcb97f4fa0c8653"
        },
        "language": "js",
        "actions": [{
            "id": "ADD_SNIPPET__dfe59893022842b58887bcd47f926f04",
            "type": "ADD_SNIPPET",
            "codeSnippet": "var vc = new kony.rb.frmContactListphnViewController();\nvc.onContactsSelect();",
            "parentId": null,
            "callbackType": null
        }]
    }
}