{
    "AS_Segment_ee1862102d7f4c4ea46fa5ba3449d86f": {
        "id": "AS_Segment_ee1862102d7f4c4ea46fa5ba3449d86f",
        "type": "ACTION_SEQUENCE",
        "params": [{
            "datatype": "collection",
            "name": "eventobject"
        }, {
            "datatype": "number",
            "name": "sectionNumber"
        }, {
            "datatype": "number",
            "name": "rowNumber"
        }],
        "contextObj": {
            "type": "forms",
            "platform": null,
            "KUID": "f1620f6e035b43a797bd646b22cf30e3"
        },
        "language": "js",
        "actions": [{
            "id": "ADD_SNIPPET_ide_onRowClick_e4d8ddd881c046b1a93286caf5db297d",
            "type": "ADD_SNIPPET",
            "codeSnippet": "frmTransferMoneyToKAsegExternalTOAccountsKAOnRowClick();",
            "callbackType": null
        }]
    }
}