{
    "AS_Form_ecbe304a7baf4ad1af43fb202ad14253": {
        "id": "AS_Form_ecbe304a7baf4ad1af43fb202ad14253",
        "type": "ACTION_SEQUENCE",
        "name": "AS_selectDetailsBene",
        "params": [{
            "datatype": "collection",
            "name": "eventobject"
        }],
        "contextObj": {
            "name": "frmSelectDetailsBene",
            "type": "forms",
            "platform": "",
            "KUID": "dc083a9578ae4c11820ce4dbba701670"
        },
        "language": "js",
        "actions": [{
            "id": "ADD_SNIPPET__j6d774e9b6184f1fad2256bbd9628116",
            "type": "ADD_SNIPPET",
            "codeSnippet": "if(kony.boj.detailsForBene.lblToUpdate === \"lblBranchName\")\n  frmSelectDetailsBene.lblTitle.text = geti18Value(\"i18n.Map.Branchname\");\nelse if(kony.boj.detailsForBene.lblToUpdate === \"lblCountryNameKA\")\n  frmSelectDetailsBene.lblTitle.text = geti18Value(\"i18n.NUO.Country\");\nelse if(kony.boj.detailsForBene.lblToUpdate === \"lblCityName\" || kony.boj.detailsForBene.lblToUpdate === \"lblCityBank\")\n  frmSelectDetailsBene.lblTitle.text = geti18Value(\"i18n.manage_payee.cityPlh\");\nelse if(kony.boj.detailsForBene.lblToUpdate === \"lblBankBranch\")\n  frmSelectDetailsBene.lblTitle.text = geti18Value(\"i18n.Bene.BankBranch\");\nelse if(kony.boj.detailsForBene.lblToUpdate === \"lblBankName\")\n  frmSelectDetailsBene.lblTitle.text = geti18Value(\"i18n.Bene.Bankname\");\n\nfrmSelectDetailsBene.tbxSearch.text = \"\";",
            "parentId": null,
            "callbackType": null
        }]
    }
}