{
    "AS_Segment_c7b26f26e40247f5bcdf91bffce402ed": {
        "id": "AS_Segment_c7b26f26e40247f5bcdf91bffce402ed",
        "type": "ACTION_SEQUENCE",
        "params": [{
            "datatype": "collection",
            "name": "eventobject"
        }, {
            "datatype": "number",
            "name": "sectionNumber"
        }, {
            "datatype": "number",
            "name": "rowNumber"
        }],
        "language": "js",
        "actions": [{
            "id": "ADD_SNIPPET_ide_onRowClick_d062d69eb4ed442a835b01b044cc083d",
            "type": "ADD_SNIPPET",
            "codeSnippet": "kony.print(\"Perf Log: Details page form - start\");\n    var INSTANCE = kony.sdk.mvvm.KonyApplicationContext.getAppInstance();\n    var listController = INSTANCE.getFormController(\"frmAccountsLandingKA\");\n    listController.performAction(\"navigateToAccountsDetails\");",
            "callbackType": null
        }]
    }
}