{
    "AS_Segment_75c7a6f6d9684307974e6feee495e49a": {
        "id": "AS_Segment_75c7a6f6d9684307974e6feee495e49a",
        "type": "ACTION_SEQUENCE",
        "params": [{
            "datatype": "collection",
            "name": "eventobject"
        }, {
            "datatype": "number",
            "name": "sectionNumber"
        }, {
            "datatype": "number",
            "name": "rowNumber"
        }],
        "language": "js",
        "actions": [{
            "id": "ADD_SNIPPET__55836a0f9a4648d2bd7492c27a5c4a5e",
            "type": "ADD_SNIPPET",
            "codeSnippet": "alertcall();",
            "parentId": null,
            "callbackType": null
        }]
    }
}