{
    "AS_TextField_b8c089afec7a443db7c8edb6784b436f": {
        "id": "AS_TextField_b8c089afec7a443db7c8edb6784b436f",
        "type": "ACTION_SEQUENCE",
        "params": [{
            "datatype": "collection",
            "name": "eventobject"
        }, {
            "datatype": "string",
            "name": "changedtext"
        }],
        "contextObj": {
            "name": "frmLoginKA",
            "type": "forms",
            "platform": "",
            "KUID": "7b1aa8fceb6b4070833e9eab879b0e5e"
        },
        "language": "js",
        "actions": [{
            "id": "ADD_SNIPPET__c5f8b2ad6edc4e348ca86b8cef45b9ec",
            "type": "ADD_SNIPPET",
            "codeSnippet": "//frmLoginKA.borderBottom.skin=\"skntextFieldDividerBlue\";\nkony.print(\"Commented for testing by Afwan\");",
            "parentId": null,
            "callbackType": null
        }]
    }
}