{
    "AS_TextField_d8d982130dee4e4b9475a0ce512e286c": {
        "id": "AS_TextField_d8d982130dee4e4b9475a0ce512e286c",
        "type": "ACTION_SEQUENCE",
        "params": [{
            "datatype": "collection",
            "name": "eventobject"
        }, {
            "datatype": "string",
            "name": "changedtext"
        }],
        "language": "js",
        "actions": [{
            "id": "ADD_SNIPPET_ide_onTextChange_fd9cbf4c6b4543778a812cbde50a6d11",
            "type": "ADD_SNIPPET",
            "codeSnippet": "var Text=frmNewTransferKA.txtDesc.text;\nanimateLabel(\"UP\",\"lblDescription\",Text);",
            "callbackType": null
        }]
    }
}