{
    "AS_TextField_a1e39a29fd46486d8d22bc54ec55d525": {
        "id": "AS_TextField_a1e39a29fd46486d8d22bc54ec55d525",
        "type": "ACTION_SEQUENCE",
        "params": [{
            "datatype": "collection",
            "name": "eventobject"
        }, {
            "datatype": "string",
            "name": "changedtext"
        }],
        "contextObj": {
            "name": "frmLoginKA",
            "type": "forms",
            "platform": "",
            "KUID": "7b1aa8fceb6b4070833e9eab879b0e5e"
        },
        "language": "js",
        "actions": [{
            "id": "ADD_SNIPPET__f6d65bb912f04620bb3ab40173e04d56",
            "type": "ADD_SNIPPET",
            "codeSnippet": "frmLoginKA.borderBottom.skin=\"skntextFieldDividerGreen\";",
            "parentId": null,
            "callbackType": null
        }]
    }
}