{
    "AS_TextField_674ba3f5a92b4b92aa00d87c16dc1304": {
        "id": "AS_TextField_674ba3f5a92b4b92aa00d87c16dc1304",
        "type": "ACTION_SEQUENCE",
        "params": [{
            "datatype": "collection",
            "name": "eventobject"
        }, {
            "datatype": "string",
            "name": "changedtext"
        }],
        "language": "js",
        "actions": [{
            "id": "ADD_SNIPPET_ide_onDone_fab6c8229df54711b6f9b8d4d64f7a30",
            "type": "ADD_SNIPPET",
            "codeSnippet": "onRecurrenceNumberOfTimesSelection();",
            "callbackType": null
        }]
    }
}