{
    "AS_TextField_ab91688b2b5348c48760222fb58dbb3f": {
        "id": "AS_TextField_ab91688b2b5348c48760222fb58dbb3f",
        "type": "ACTION_SEQUENCE",
        "name": "AS_TextField_predectiveSearch",
        "params": [{
            "datatype": "collection",
            "name": "eventobject"
        }, {
            "datatype": "string",
            "name": "changedtext"
        }],
        "contextObj": {
            "name": "frmLocatorKA",
            "type": "forms",
            "platform": "",
            "KUID": "c471585baa904bb49278190a4437d425"
        },
        "language": "js",
        "actions": [{
            "id": "ADD_SNIPPET__a9d1d4604fa542408bdc713d27df7c1f",
            "type": "ADD_SNIPPET",
            "codeSnippet": "// predectiveFourChar();\ngblmapSearchKeypad = true;\nvar searcKey = frmLocatorKA.locatorSearchTextField.text;\nif(!isEmpty(searcKey) && searcKey.length>3)\nsearchStringmap(frmLocatorKA.locatorSearchTextField.text);",
            "parentId": null,
            "callbackType": null
        }]
    }
}