{
    "AS_TextField_bb0d0bf83be8492aa2ba6d3e081f1b6b": {
        "id": "AS_TextField_bb0d0bf83be8492aa2ba6d3e081f1b6b",
        "type": "ACTION_SEQUENCE",
        "params": [{
            "datatype": "collection",
            "name": "eventobject"
        }, {
            "datatype": "string",
            "name": "changedtext"
        }],
        "contextObj": {
            "name": "frmNewUserOnboardVerificationKA",
            "type": "forms",
            "platform": "",
            "KUID": "ie7b921fac134bd8a8afb16afc085409"
        },
        "language": "js",
        "actions": [{
            "id": "ADD_SNIPPET_ide_onTextChange_ia1512af43484313a4bb8b971d328107",
            "type": "ADD_SNIPPET",
            "codeSnippet": "onTextChangeOTP(false);",
            "callbackType": null
        }]
    }
}