{
    "AS_TextField_h8050bcaaa8f44fcbc9ec0e6e0bbb34b": {
        "id": "AS_TextField_h8050bcaaa8f44fcbc9ec0e6e0bbb34b",
        "type": "ACTION_SEQUENCE",
        "params": [{
            "datatype": "collection",
            "name": "eventobject"
        }, {
            "datatype": "string",
            "name": "changedtext"
        }],
        "language": "js",
        "actions": [{
            "id": "ADD_SNIPPET_ide_onBeginEditing_c0fabd32c15f46e9912386ed9385f927",
            "type": "ADD_SNIPPET",
            "codeSnippet": "try{\n  animateLabel(\"UP\",\"lblEmail1\",frmUserSettingsSIRILIMIT.txtEmail1.text); \n}catch(err){\n  kony.print( \"err in pwd::\"+err);\n}",
            "callbackType": null
        }]
    }
}