{
    "AS_TextField_ce2ef31edf574aa889ed1c2f8e38cc19": {
        "id": "AS_TextField_ce2ef31edf574aa889ed1c2f8e38cc19",
        "type": "ACTION_SEQUENCE",
        "params": [{
            "datatype": "collection",
            "name": "eventobject"
        }, {
            "datatype": "string",
            "name": "changedtext"
        }],
        "language": "js",
        "actions": [{
            "id": "ADD_SNIPPET_ide_onTextChange_j84103e2ba83464e98e822cdef3c9a61",
            "type": "ADD_SNIPPET",
            "codeSnippet": "if(frmAddNewPrePayeeKA.tbxAmount.text.match(/[^0-9.]/g) === null){\n  animateLabel(\"UP\",\"lblAmount\", frmAddNewPrePayeeKA.tbxAmount.text);\n  frmAddNewPrePayeeKA.tbxAmount.text = fixDecimal(frmAddNewPrePayeeKA.tbxAmount.text, \"3\" );\n  frmAddNewPrePayeeKA.lblHiddenAmount.text = frmAddNewPrePayeeKA.tbxAmount.text;\n  nextFromNewPrepaidBene();\n  changeUnderlineskin();\n}",
            "callbackType": null
        }]
    }
}