{
    "AS_TextField_b8cdde6a76304a82ab11f0f91e9aeb49": {
        "id": "AS_TextField_b8cdde6a76304a82ab11f0f91e9aeb49",
        "type": "ACTION_SEQUENCE",
        "name": "AS_TextField_OnEndEditingIBANBeneNameEPSAndroid",
        "params": [{
            "datatype": "collection",
            "name": "eventobject"
        }, {
            "datatype": "string",
            "name": "changedtext"
        }],
        "contextObj": {
            "name": "frmEPS",
            "type": "forms",
            "platform": "",
            "KUID": "c49bbb3175be499d86d933cee301b3c4"
        },
        "language": "js",
        "actions": [{
            "id": "ADD_SNIPPET__ffde4518bd744c7c808ff27a9854c96b",
            "type": "ADD_SNIPPET",
            "codeSnippet": "animateLabel(\"DOWN\",\"lblIBANBeneName\",frmEPS.txtIBANBeneName.text);",
            "parentId": null,
            "callbackType": null
        }]
    }
}