{
    "AS_TextField_ibfd8dea3864460e97c89938b65b5871": {
        "id": "AS_TextField_ibfd8dea3864460e97c89938b65b5871",
        "type": "ACTION_SEQUENCE",
        "name": "AS_TextField_OnDoneAliasNameMobileEPSScreen",
        "params": [{
            "datatype": "collection",
            "name": "eventobject"
        }, {
            "datatype": "string",
            "name": "changedtext"
        }],
        "language": "js",
        "actions": [{
            "id": "ADD_SNIPPET_ide_onDone_ff89081612054fc4a842d09ab361611e",
            "type": "ADD_SNIPPET",
            "codeSnippet": "var gblAliasType = null;\nkony.sdk.mvvm.KonyApplicationContext.showLoadingScreen(\"\");\ngblAliasType = frmEPS.txtAliasNameMob.text;\nGetAliasInfo(gblAliasType);",
            "callbackType": null
        }]
    }
}