{
    "AS_TextField_gc448713c0884fdd83ee180df39f65b0": {
        "id": "AS_TextField_gc448713c0884fdd83ee180df39f65b0",
        "type": "ACTION_SEQUENCE",
        "params": [{
            "datatype": "collection",
            "name": "eventobject"
        }, {
            "datatype": "string",
            "name": "x"
        }, {
            "datatype": "string",
            "name": "y"
        }],
        "contextObj": {
            "name": "frmAddNewPayeeKA",
            "type": "forms",
            "platform": "",
            "KUID": "22b994296d374ff48427012b2b05feb7"
        },
        "language": "js",
        "actions": [{
            "id": "ADD_SNIPPET__b8b349cb35244af1b40484de99d7360a",
            "type": "ADD_SNIPPET",
            "codeSnippet": "//1985\nanimateLabel(\"UP\", \"lblNickName\",frmAddNewPayeeKA.tbxNickName.text);",
            "parentId": null,
            "callbackType": null
        }]
    }
}