{
    "AS_TextField_ibb30407d05042578bbd91bd92cc1727": {
        "id": "AS_TextField_ibb30407d05042578bbd91bd92cc1727",
        "type": "ACTION_SEQUENCE",
        "params": [{
            "datatype": "collection",
            "name": "eventobject"
        }, {
            "datatype": "string",
            "name": "changedtext"
        }],
        "language": "js",
        "actions": [{
            "id": "ADD_SNIPPET_ide_onEndEditing_afeb1bf5adb74564af74ef7799c0c432",
            "type": "ADD_SNIPPET",
            "codeSnippet": "animateLabel(\"DOWN\", \"lblNickName\",frmAddNewPrePayeeKA.tbxNickName.text);",
            "callbackType": null
        }]
    }
}