{
    "AS_TextField_a57dcb695d9f4919a18fb21739eac607": {
        "id": "AS_TextField_a57dcb695d9f4919a18fb21739eac607",
        "type": "ACTION_SEQUENCE",
        "params": [{
            "datatype": "collection",
            "name": "eventobject"
        }, {
            "datatype": "string",
            "name": "changedtext"
        }],
        "language": "js",
        "actions": [{
            "id": "ADD_SNIPPET_ide_onDone_b517eb9bb7d54e4492af418e06e60336",
            "type": "ADD_SNIPPET",
            "codeSnippet": "frmRegisterUser.flxLine.skin = \"sknFlxGreyLine\";",
            "callbackType": null
        }]
    }
}