{
    "AS_TextField_c3c8364f0d43400584afd1d57525b1a2": {
        "id": "AS_TextField_c3c8364f0d43400584afd1d57525b1a2",
        "type": "ACTION_SEQUENCE",
        "name": "AS_TextField_OnDoneAmountMobileEPSScreen",
        "params": [{
            "datatype": "collection",
            "name": "eventobject"
        }, {
            "datatype": "string",
            "name": "changedtext"
        }],
        "language": "js",
        "actions": [{
            "id": "ADD_SNIPPET_ide_onDone_j088fa98e61c4ec9a27f3304ba4fae6e",
            "type": "ADD_SNIPPET",
            "codeSnippet": "validateLblNext();",
            "callbackType": null
        }]
    }
}