{
    "AS_TextField_i1fd46864d6b4ee3a9d16a036ec1e7b7": {
        "id": "AS_TextField_i1fd46864d6b4ee3a9d16a036ec1e7b7",
        "type": "ACTION_SEQUENCE",
        "name": "AS_TextField_OnTextChangeIBANAmount",
        "params": [{
            "datatype": "collection",
            "name": "eventobject"
        }, {
            "datatype": "string",
            "name": "changedtext"
        }],
        "contextObj": {
            "name": "frmEPS",
            "type": "forms",
            "platform": "",
            "KUID": "c49bbb3175be499d86d933cee301b3c4"
        },
        "language": "js",
        "actions": [{
            "id": "ADD_SNIPPET__e1623bf31a1a4ca3b92925629b4162b2",
            "type": "ADD_SNIPPET",
            "codeSnippet": "validateLblNext();",
            "parentId": null,
            "callbackType": null
        }]
    }
}