{
    "AS_TextField_g3f54bcec0214265a9469b9f9409d799": {
        "id": "AS_TextField_g3f54bcec0214265a9469b9f9409d799",
        "type": "ACTION_SEQUENCE",
        "params": [{
            "datatype": "collection",
            "name": "eventobject"
        }, {
            "datatype": "string",
            "name": "changedtext"
        }],
        "language": "js",
        "actions": [{
            "id": "ADD_SNIPPET_ide_onEndEditing_c65b890068144b5bbf60cd2c204afb68",
            "type": "ADD_SNIPPET",
            "codeSnippet": "kony.boj.addBeneNextStatus();\nanimateLabel(\"DOWN\", \"lblAddressBene\", frmAddExternalAccountKA.tbxAddressBene.text);\nif(kony.boj.addBeneVar.selectedType === \"DOM\")\n  kony.boj.addBeneficiaryAnimation(\"lblAccountNumber\");\nelse\n  kony.boj.addBeneficiaryAnimation(\"lblCityName\");",
            "callbackType": null
        }]
    }
}