{
    "AS_TextField_ca56c2c6d1b64586a89f93b0acfd9d0e": {
        "id": "AS_TextField_ca56c2c6d1b64586a89f93b0acfd9d0e",
        "type": "ACTION_SEQUENCE",
        "params": [{
            "datatype": "collection",
            "name": "eventobject"
        }, {
            "datatype": "string",
            "name": "changedtext"
        }],
        "contextObj": {
            "name": "frmEPS",
            "type": "forms",
            "platform": "",
            "KUID": "c49bbb3175be499d86d933cee301b3c4"
        },
        "language": "js",
        "actions": [{
            "id": "ADD_SNIPPET__j23c79c39e6a498596a07f627d88de64",
            "type": "ADD_SNIPPET",
            "codeSnippet": "validateLblNext();",
            "parentId": null,
            "callbackType": null
        }]
    }
}