{
    "AS_TextField_ibd547201ec94ff589ac9ce199443ec9": {
        "id": "AS_TextField_ibd547201ec94ff589ac9ce199443ec9",
        "type": "ACTION_SEQUENCE",
        "params": [{
            "datatype": "collection",
            "name": "eventobject"
        }, {
            "datatype": "string",
            "name": "changedtext"
        }],
        "language": "js",
        "actions": [{
            "id": "ADD_SNIPPET_ide_onEndEditing_icdc7b68d4c643cea4c2cb82d38ad02e",
            "type": "ADD_SNIPPET",
            "codeSnippet": "// if(frmAddExternalAccountKA.txtBenficiryNameKA.text !== \"\"){\n//   frmAddExternalAccountKA.flxUnderlineBenficiryNameKA.skin = \"sknFlxGreenLine\";\n// }else{\n//   frmAddExternalAccountKA.flxUnderlineBenficiryNameKA.skin = \"sknFlxOrangeLine\";\n// }\nkony.boj.addBeneNextStatus();\nanimateLabel(\"DOWN\", \"lblBenficiryNameKA\", frmAddExternalAccountKA.txtBenficiryNameKA.text);\nkony.boj.addBeneficiaryAnimation(\"lblBenficiryNickName\");",
            "callbackType": null
        }]
    }
}