{
    "AS_TextField_f634d333d2024495867c4278bf47174e": {
        "id": "AS_TextField_f634d333d2024495867c4278bf47174e",
        "type": "ACTION_SEQUENCE",
        "params": [{
            "datatype": "collection",
            "name": "eventobject"
        }, {
            "datatype": "string",
            "name": "changedtext"
        }],
        "language": "js",
        "actions": [{
            "id": "ADD_SNIPPET_ide_onTextChange_a4d83429f1d14ebca202dfe47c8b585e",
            "type": "ADD_SNIPPET",
            "codeSnippet": "try{\n  if(frmUserSettingsSIRILIMIT.lblEmail1.top !== \"15%\")\n    animateLabel(\"UP\",\"lblEmail1\",frmUserSettingsSIRILIMIT.txtEmail1.text); \n  var currency = getDefaultTransferCurr();\n  kony.print(\"currency\"+currency );\n  if(kony.string.equalsIgnoreCase(currency,\"JOD\") || kony.string.equalsIgnoreCase(currency,\"BHD\")){\n    limit =3;\n  }\n  else{\n    limit = 2;\n  }\n\n  var value = fixDecimal(frmUserSettingsSIRILIMIT.txtEmail1.text,limit);\n  if (value.indexOf(\".\") == -1 && value.length >5){\n    frmUserSettingsSIRILIMIT.txtEmail1.text  = value.substring(0, 5);\n  }else{\n    frmUserSettingsSIRILIMIT.txtEmail1.text  = value;\n  }\n  if(frmUserSettingsSIRILIMIT.txtEmail1.text!== \"\" && frmUserSettingsSIRILIMIT.txtEmail1.text !== null)\n    frmUserSettingsSIRILIMIT.lblClose1.setVisibility(true);\n  else\n    frmUserSettingsSIRILIMIT.lblClose1.setVisibility(false);\n\n}catch(err){\n  kony.print( \"err:\"+err);\n}",
            "callbackType": null
        }]
    }
}