{
    "AS_TextField_be59354349f34ac88270c35e8f4ef429": {
        "id": "AS_TextField_be59354349f34ac88270c35e8f4ef429",
        "type": "ACTION_SEQUENCE",
        "params": [{
            "datatype": "collection",
            "name": "eventobject"
        }, {
            "datatype": "string",
            "name": "changedtext"
        }],
        "contextObj": {
            "name": "frmLoginKA",
            "type": "forms",
            "platform": "",
            "KUID": "7b1aa8fceb6b4070833e9eab879b0e5e"
        },
        "language": "js",
        "actions": [{
            "id": "ADD_SNIPPET__fb0a12e98f41448f88174189f7e07cce",
            "type": "ADD_SNIPPET",
            "codeSnippet": "frmLoginKA.borderBottom.skin=\"skntextFieldDividerGreen\";",
            "parentId": null,
            "callbackType": null
        }]
    }
}