{
    "AS_TextField_b8802017e0af4643bfd47120b5ba9352": {
        "id": "AS_TextField_b8802017e0af4643bfd47120b5ba9352",
        "type": "ACTION_SEQUENCE",
        "params": [{
            "datatype": "collection",
            "name": "eventobject"
        }, {
            "datatype": "string",
            "name": "changedtext"
        }],
        "contextObj": {
            "name": "frmNewBillDetails",
            "type": "forms",
            "platform": null,
            "KUID": "c2132c3b91ec4677ab952b729de9fc0e"
        },
        "language": "js",
        "actions": [{
            "id": "ADD_SNIPPET_ide_onTextChange_f32451321d9b41d8bc3702bf34237c7c",
            "type": "ADD_SNIPPET",
            "codeSnippet": "frmNewBillKA.lblInvalidAmount.isVisible=false;\nvalidateDecimals(frmNewBillKA.amountTextField.text);",
            "callbackType": null
        }]
    }
}