{
    "AS_TextField_c707a25edf214b26af958f7d512698ad": {
        "id": "AS_TextField_c707a25edf214b26af958f7d512698ad",
        "type": "ACTION_SEQUENCE",
        "name": "AS_TextField_OnDoneIPSAmount",
        "params": [{
            "datatype": "collection",
            "name": "eventobject"
        }, {
            "datatype": "string",
            "name": "changedtext"
        }],
        "contextObj": {
            "name": "frmEPS",
            "type": "forms",
            "platform": "",
            "KUID": "c49bbb3175be499d86d933cee301b3c4"
        },
        "language": "js",
        "actions": [{
            "id": "ADD_SNIPPET__e4af6cdf73f947898fb7d2ddbd6c8dbd",
            "type": "ADD_SNIPPET",
            "codeSnippet": "validateLblNext();",
            "parentId": null,
            "callbackType": null
        }]
    }
}