{
    "AS_TextField_4c6ac02e6edb49a89caf3572165e3150": {
        "id": "AS_TextField_4c6ac02e6edb49a89caf3572165e3150",
        "type": "ACTION_SEQUENCE",
        "params": [{
            "datatype": "collection",
            "name": "eventobject"
        }, {
            "datatype": "string",
            "name": "changedtext"
        }],
        "contextObj": {
            "type": "forms",
            "platform": "",
            "KUID": "3ef26f9acd5b475cb1fdad0f87db5781"
        },
        "language": "js",
        "actions": [{
            "id": "ADD_SNIPPET__79b7da6491d840808ca8968ed34a21dc",
            "type": "ADD_SNIPPET",
            "codeSnippet": "if (!onDoneAmountEntered())\n  alert(\"Enter Valid Amount\");",
            "parentId": null,
            "callbackType": null
        }]
    }
}