{
    "AS_TextField_df4527235840457b855c43d7ca083f03": {
        "id": "AS_TextField_df4527235840457b855c43d7ca083f03",
        "type": "ACTION_SEQUENCE",
        "params": [{
            "datatype": "collection",
            "name": "eventobject"
        }, {
            "datatype": "string",
            "name": "changedtext"
        }],
        "language": "js",
        "actions": [{
            "id": "ADD_SNIPPET_ide_onEndEditing_gabce256c797456d937da9eda0fdd41a",
            "type": "ADD_SNIPPET",
            "codeSnippet": "try{\n  animateLabel(\"UP\",\"lblEmail1\",frmUserSettingsSIRILIMIT.txtEmail1.text); \n}catch(err){\n  kony.print( \"err in pwd::\"+err);\n}",
            "callbackType": null
        }]
    }
}