{
    "AS_TextField_i92c39cb415347a986e12fbfe3a94786": {
        "id": "AS_TextField_i92c39cb415347a986e12fbfe3a94786",
        "type": "ACTION_SEQUENCE",
        "name": "AS_TextField_manageCardlessonTextChangeSearchText",
        "params": [{
            "datatype": "collection",
            "name": "eventobject"
        }, {
            "datatype": "string",
            "name": "changedtext"
        }],
        "language": "js",
        "actions": [{
            "id": "ADD_SNIPPET_ide_onTextChange_j88d8981c06d41a3ad9862e6bc1c01ea",
            "type": "ADD_SNIPPET",
            "codeSnippet": "kony.boj.searchCardlessTransactions(frmManageCardLess.tbxSearch.text);",
            "callbackType": null
        }]
    }
}