{
    "AS_TextField_ge7a0f5f5e0d42b2997eaaa01f0ae946": {
        "id": "AS_TextField_ge7a0f5f5e0d42b2997eaaa01f0ae946",
        "type": "ACTION_SEQUENCE",
        "params": [{
            "datatype": "collection",
            "name": "eventobject"
        }, {
            "datatype": "string",
            "name": "x"
        }, {
            "datatype": "string",
            "name": "y"
        }],
        "contextObj": {
            "name": "frmAddNewPrePayeeKA",
            "type": "forms",
            "platform": null,
            "KUID": "a843292d9c674ff7ba10a9b594b7e7e5"
        },
        "language": "js",
        "actions": [{
            "id": "ADD_SNIPPET_ide_onTouchEnd_i483e6f6e0e2484c90de95e079c4c2f5",
            "type": "ADD_SNIPPET",
            "codeSnippet": "animateLabel(\"DOWN\", \"lblBillerNumber\",frmAddNewPayeeKA.tbxBillerNumber.text);\nanimateLabel(\"DOWN\", \"lblBillerID\",frmAddNewPayeeKA.tbxBillerID.text);\nanimateLabel(\"UP\", \"lblAddress\",frmAddNewPayeeKA.tbxAddress.text);\nanimateLabel(\"DOWN\", \"lblNickName\",frmAddNewPayeeKA.tbxNickName.text);",
            "callbackType": null
        }]
    }
}