{
    "AS_TextField_eda36ce490714eef8c395d979758a078": {
        "id": "AS_TextField_eda36ce490714eef8c395d979758a078",
        "type": "ACTION_SEQUENCE",
        "params": [{
            "datatype": "collection",
            "name": "eventobject"
        }, {
            "datatype": "string",
            "name": "changedtext"
        }],
        "contextObj": {
            "name": "frmNewTransferKA",
            "type": "forms",
            "platform": "",
            "KUID": "2ac343500306428da0ceef91a3b44d18"
        },
        "language": "js",
        "actions": [{
            "id": "ADD_SNIPPET__f605cca87f914679a8a934c53aea5ecc",
            "type": "ADD_SNIPPET",
            "codeSnippet": "animateLabel(\"UP\",\"lblNumRecurr\", frmNewTransferKA.txtNumRecurrences.text);\nonTextChangeRecurrence();\nenableNext();",
            "parentId": null,
            "callbackType": null
        }]
    }
}