{
    "AS_TextField_e827efb40ea240978fe35ea34ccd7f57": {
        "id": "AS_TextField_e827efb40ea240978fe35ea34ccd7f57",
        "type": "ACTION_SEQUENCE",
        "params": [{
            "datatype": "collection",
            "name": "eventobject"
        }, {
            "datatype": "string",
            "name": "changedtext"
        }],
        "language": "js",
        "actions": [{
            "id": "ADD_SNIPPET_ide_onTextChange_ic362e7085e14d5badc3917edad89c6e",
            "type": "ADD_SNIPPET",
            "codeSnippet": "ontextChangeMobile();",
            "callbackType": null
        }]
    }
}