{
    "AS_TextField_d59e61308a634c959944ba5f7b2fffd8": {
        "id": "AS_TextField_d59e61308a634c959944ba5f7b2fffd8",
        "type": "ACTION_SEQUENCE",
        "params": [{
            "datatype": "collection",
            "name": "eventobject"
        }, {
            "datatype": "string",
            "name": "changedtext"
        }],
        "language": "js",
        "actions": [{
            "id": "ADD_SNIPPET_ide_onEndEditing_i3a59a32098e45eb9d874a168ad26e3f",
            "type": "ADD_SNIPPET",
            "codeSnippet": "// if(frmAddExternalAccountKA.txtBenficiryNameKA.text !== \"\"){\n//   frmAddExternalAccountKA.flxUnderlineBenficiryNameKA.skin = \"sknFlxGreenLine\";\n// }else{\n//   frmAddExternalAccountKA.flxUnderlineBenficiryNameKA.skin = \"sknFlxOrangeLine\";\n// }\nkony.boj.addBeneNextStatus();\nanimateLabel(\"DOWN\", \"lblBenficiryNickName\", frmAddExternalAccountKA.txtBenficiryNickName.text);\nif(kony.boj.addBeneVar.selectedType === \"BOJ\")\n  kony.boj.addBeneficiaryAnimation(\"lblAccountNumber\");\nelse\n  kony.boj.addBeneficiaryAnimation(\"lblAddressBene\");",
            "callbackType": null
        }]
    }
}