{
    "AS_TextField_i16a196d13784411ba59204c4b7c9e53": {
        "id": "AS_TextField_i16a196d13784411ba59204c4b7c9e53",
        "type": "ACTION_SEQUENCE",
        "name": "AS_TextField_NationalIDRegistration_CardNumber_onEndEditingIOS",
        "params": [{
            "datatype": "collection",
            "name": "eventobject"
        }, {
            "datatype": "string",
            "name": "changedtext"
        }],
        "contextObj": {
            "name": "frmRegisterUser",
            "type": "forms",
            "platform": "",
            "KUID": "cd7432ec5087404590338186c94e35d2"
        },
        "language": "js",
        "actions": [{
            "id": "ADD_SNIPPET__gac388042572488d8d3532f6011cdb3a",
            "type": "ADD_SNIPPET",
            "codeSnippet": "animateLabel(\"DOWN\", \"lblIDCardNumberTitle\", frmRegisterUser.txtIDCardNumber.text);",
            "parentId": null,
            "callbackType": null
        }]
    }
}