{
    "AS_TextField_fdf09c51ffe14e02bdded06b88a52786": {
        "id": "AS_TextField_fdf09c51ffe14e02bdded06b88a52786",
        "type": "ACTION_SEQUENCE",
        "name": "AS_TextField_onTextChangeDepositeAmount",
        "params": [{
            "datatype": "collection",
            "name": "eventobject"
        }, {
            "datatype": "string",
            "name": "changedtext"
        }],
        "contextObj": {
            "name": "frmOpenTermDeposit",
            "type": "forms",
            "platform": "",
            "KUID": "fec6fddbcf8543f2b30114c87e1a7e99"
        },
        "language": "js",
        "actions": [{
            "id": "ADD_SNIPPET__c92b08c5f76546d1839ebfa0ed8aa373",
            "type": "ADD_SNIPPET",
            "codeSnippet": "amountFieldCheck();\ncallRateService();\ncheckNextOpenDeposite();",
            "parentId": null,
            "callbackType": null
        }]
    }
}