{
    "AS_TextField_c55fbeb611f54925b520e8d75c12ffdb": {
        "id": "AS_TextField_c55fbeb611f54925b520e8d75c12ffdb",
        "type": "ACTION_SEQUENCE",
        "params": [{
            "datatype": "collection",
            "name": "eventobject"
        }, {
            "datatype": "string",
            "name": "changedtext"
        }],
        "contextObj": {
            "type": "forms",
            "platform": "",
            "KUID": "28dd657fd46d44f99b4f344da39c5ea9"
        },
        "language": "js",
        "actions": [{
            "id": "ADD_SNIPPET__e3db6796035c42e0a9f298b3fa86fe94",
            "type": "ADD_SNIPPET",
            "codeSnippet": "searchContacts();",
            "parentId": null,
            "callbackType": null
        }]
    }
}