{
    "AS_TextField_e7e93adbb32147919cb1ed7a5b54134c": {
        "id": "AS_TextField_e7e93adbb32147919cb1ed7a5b54134c",
        "type": "ACTION_SEQUENCE",
        "params": [{
            "datatype": "collection",
            "name": "eventobject"
        }, {
            "datatype": "string",
            "name": "x"
        }, {
            "datatype": "string",
            "name": "y"
        }],
        "language": "js",
        "actions": [{
            "id": "ADD_SNIPPET_ide_onTouchStart_d35e710ab33547259c6304b4d36303b0",
            "type": "ADD_SNIPPET",
            "codeSnippet": "frmCardlessTransaction.txtFieldAmount.maxTextLength = 9;\nfrmCardlessTransaction.txtFieldAmount.text=frmCardlessTransaction.lblHiddenAmount.text;",
            "callbackType": null
        }]
    }
}