{
    "AS_TextField_c9bcd7007a3f4fef86e2a8981fc348be": {
        "id": "AS_TextField_c9bcd7007a3f4fef86e2a8981fc348be",
        "type": "ACTION_SEQUENCE",
        "params": [{
            "datatype": "collection",
            "name": "eventobject"
        }, {
            "datatype": "string",
            "name": "changedtext"
        }],
        "language": "js",
        "actions": [{
            "id": "ADD_SNIPPET_ide_onDone_j16c658bdf8d4d27a55a70f9854e3c82",
            "type": "ADD_SNIPPET",
            "codeSnippet": "if(kony.boj.addBeneVar.selectedType === \"DOM\")\n  kony.boj.addBeneficiaryAnimation(\"lblAccountNumber\");\nelse\n  kony.boj.addBeneficiaryAnimation(\"lblCityName\");",
            "callbackType": null
        }]
    }
}