{
    "AS_TextField_e59976a6f0c64fb7b5cf0879bee6f8f6": {
        "id": "AS_TextField_e59976a6f0c64fb7b5cf0879bee6f8f6",
        "type": "ACTION_SEQUENCE",
        "params": [{
            "datatype": "collection",
            "name": "eventobject"
        }, {
            "datatype": "string",
            "name": "changedtext"
        }],
        "language": "js",
        "actions": [{
            "id": "ADD_SNIPPET_ide_onBeginEditing_e34d45ed27f54056b598bbfec96d479f",
            "type": "ADD_SNIPPET",
            "codeSnippet": "animate_NEWCARDSOPTIOS(\"UP\",\"lblDepositAmountTitle\",frmOpenTermDeposit.txtDepositAmount.text);\n// amountFieldCheck();",
            "callbackType": null
        }]
    }
}