{
    "AS_TextField_i49c704dd1f44532a2c515fa15018fc9": {
        "id": "AS_TextField_i49c704dd1f44532a2c515fa15018fc9",
        "type": "ACTION_SEQUENCE",
        "params": [{
            "datatype": "collection",
            "name": "eventobject"
        }, {
            "datatype": "string",
            "name": "changedtext"
        }],
        "language": "js",
        "actions": [{
            "id": "ADD_SNIPPET_ide_onTextChange_dbea3fa288c04d52bc1e036b0a90e248",
            "type": "ADD_SNIPPET",
            "codeSnippet": "searchCurrency(frmCurrency.tbxSearch.text);\nif(frmCurrency.tbxSearch.text != \"\"){\n  frmCurrency.lblClose.setVisibility(true);\n}\nelse{\n  frmCurrency.lblClose.setVisibility(false);\n}",
            "callbackType": null
        }]
    }
}