{
    "AS_TextField_h9bc1be1a4ee4459912b1b4b40278787": {
        "id": "AS_TextField_h9bc1be1a4ee4459912b1b4b40278787",
        "type": "ACTION_SEQUENCE",
        "params": [{
            "datatype": "collection",
            "name": "eventobject"
        }, {
            "datatype": "string",
            "name": "changedtext"
        }],
        "language": "js",
        "actions": [{
            "id": "ADD_SNIPPET_ide_onEndEditing_c96947d631434efda0fc6ddc6796501d",
            "type": "ADD_SNIPPET",
            "codeSnippet": "// if(frmAddExternalAccountKA.txtBenficiryNameKA.text !== \"\"){\n//   frmAddExternalAccountKA.flxUnderlineBenficiryNameKA.skin = \"sknFlxGreenLine\";\n// }else{\n//   frmAddExternalAccountKA.flxUnderlineBenficiryNameKA.skin = \"sknFlxOrangeLine\";\n// }\nkony.boj.addBeneNextStatus();\nanimateLabel(\"DOWN\", \"lblBenficiryNameKA\", frmAddExternalAccountKA.txtBenficiryNameKA.text);\nkony.boj.addBeneficiaryAnimation(\"lblBenficiryNickName\");",
            "callbackType": null
        }]
    }
}