{
    "AS_TextField_dd3dec3321d64e5994b78f5fe77925d6": {
        "id": "AS_TextField_dd3dec3321d64e5994b78f5fe77925d6",
        "type": "ACTION_SEQUENCE",
        "params": [{
            "datatype": "collection",
            "name": "eventobject"
        }, {
            "datatype": "string",
            "name": "changedtext"
        }],
        "contextObj": {
            "name": "frmLanguageChange",
            "type": "forms",
            "platform": "",
            "KUID": "gf87c4f80b864112b53423e6a7ad3af8"
        },
        "language": "js",
        "actions": [{
            "id": "ADD_SNIPPET_ide_onBeginEditing_bc48208c2a75462584015dc8a9c3f3f3",
            "type": "ADD_SNIPPET",
            "codeSnippet": "frmLanguageChange.borderBottom.skin=\"skntextFieldDividerBlue\";\n//animateLabel(\"UP\",\"lblUserName\",frmLoginKA.tbxusernameTextField.text);",
            "callbackType": null
        }]
    }
}