{
    "AS_TextField_84167c5b79c84cadb5f89843e50058a5": {
        "id": "AS_TextField_84167c5b79c84cadb5f89843e50058a5",
        "type": "ACTION_SEQUENCE",
        "params": [{
            "datatype": "collection",
            "name": "eventobject"
        }, {
            "datatype": "string",
            "name": "changedtext"
        }],
        "contextObj": {
            "name": "frmLoginKA",
            "type": "forms",
            "platform": "",
            "KUID": "7b1aa8fceb6b4070833e9eab879b0e5e"
        },
        "language": "js",
        "actions": [{
            "id": "ADD_SNIPPET__4f8c5555ef6540a8a320977c13c6572e",
            "type": "ADD_SNIPPET",
            "codeSnippet": "frmLoginKA.tbxusernameTextField.text = frmLoginKA.tbxusernameTextField.text.toUpperCase();",
            "parentId": null,
            "callbackType": null
        }]
    }
}