{
    "AS_TextField_g2d1e5f705704927a15ffe9afca2aa47": {
        "id": "AS_TextField_g2d1e5f705704927a15ffe9afca2aa47",
        "type": "ACTION_SEQUENCE",
        "params": [{
            "datatype": "collection",
            "name": "eventobject"
        }, {
            "datatype": "string",
            "name": "changedtext"
        }],
        "contextObj": {
            "name": "frmNewBillDetails",
            "type": "forms",
            "platform": null,
            "KUID": "c2132c3b91ec4677ab952b729de9fc0e"
        },
        "language": "js",
        "actions": [{
            "id": "ADD_SNIPPET_ide_onEndEditing_id9d988fa5a64590a8d76064d989f43f",
            "type": "ADD_SNIPPET",
            "codeSnippet": "onDoneBillerNum();\nanimateLabel(\"DOWN\",\"lblBillerNumber\", frmNewBillKA.tbxBillerNumber.text);",
            "callbackType": null
        }]
    }
}