{
    "AS_TextField_b474439d8f8a452bb73fd97ddfa5eae1": {
        "id": "AS_TextField_b474439d8f8a452bb73fd97ddfa5eae1",
        "type": "ACTION_SEQUENCE",
        "params": [{
            "datatype": "collection",
            "name": "eventobject"
        }, {
            "datatype": "string",
            "name": "x"
        }, {
            "datatype": "string",
            "name": "y"
        }],
        "contextObj": {
            "name": "frmLoginKA",
            "type": "forms",
            "platform": "",
            "KUID": "7b1aa8fceb6b4070833e9eab879b0e5e"
        },
        "language": "js",
        "actions": [{
            "id": "ADD_SNIPPET__j4d1cbf1eabe4b5aa6516facf58382d1",
            "type": "ADD_SNIPPET",
            "codeSnippet": "try {\n        var currentForm = kony.application.getCurrentForm();\n        if (currentForm.id === \"frmLoginKA\" || currentForm.id === \"frmLanguageChange\") {\n            currentForm.borderBottom.skin = \"skntextFieldDividerBlue\";\n            if (currentForm.passwordTextField.text !== null && currentForm.passwordTextField.text !== \"\") {\n            \tcurrentForm.lblClosePass.setVisibility(true);\n        \t\tfrmLoginKA.lblShowPass.setVisibility(true);\n                currentForm.flxbdrpwd.skin = \"skntextFieldDividerGreen\";\n            } else {\n            \tcurrentForm.lblClosePass.setVisibility(false);\n        \t\tfrmLoginKA.lblShowPass.setVisibility(false);\n                currentForm.flxbdrpwd.skin = \"skntextFieldDivider\";\n            }\n            currentForm.lblClose.setVisibility(true);\n            currentForm.lblInvalidCredentialsKA.isVisible = false;\n        }\n    } catch (err) {\n        kony.print(\"err in pwd::\" + err);\n    }",
            "parentId": null
        }]
    }
}