{
    "AS_TextField_ibbe005cf08c4f18893cedfeef0782a0": {
        "id": "AS_TextField_ibbe005cf08c4f18893cedfeef0782a0",
        "type": "ACTION_SEQUENCE",
        "params": [{
            "datatype": "collection",
            "name": "eventobject"
        }, {
            "datatype": "string",
            "name": "changedtext"
        }],
        "language": "js",
        "actions": [{
            "id": "ADD_SNIPPET_ide_onDone_f9ab2aacb191448a808fd8a41ee9281a",
            "type": "ADD_SNIPPET",
            "codeSnippet": "kony.print(\"onDone\");\namountFieldCheck();\ncallRateService();\ncheckNextOpenDeposite();",
            "callbackType": null
        }]
    }
}