{
    "AS_TextField_icddeb65c2774cfdbed93f9399540368": {
        "id": "AS_TextField_icddeb65c2774cfdbed93f9399540368",
        "type": "ACTION_SEQUENCE",
        "params": [{
            "datatype": "collection",
            "name": "eventobject"
        }, {
            "datatype": "string",
            "name": "changedtext"
        }],
        "language": "js",
        "actions": [{
            "id": "ADD_SNIPPET_ide_onEndEditing_ice39c93983d4c109957993cbfe70fb1",
            "type": "ADD_SNIPPET",
            "codeSnippet": "try{\n  animateLabel(\"UP\",\"lblEmail1\",frmUserSettingsSIRILIMIT.txtEmail1.text); \n}catch(err){\n  kony.print( \"err in pwd::\"+err);\n}\n",
            "callbackType": null
        }]
    }
}