{
    "AS_Calendar_c833479dca1d4fc291188cc271db93f9": {
        "id": "AS_Calendar_c833479dca1d4fc291188cc271db93f9",
        "type": "ACTION_SEQUENCE",
        "name": "AS_TextField_NationalIDRegistration_DateOfBirth_onTouchStart",
        "params": [{
            "datatype": "collection",
            "name": "eventobject"
        }, {
            "datatype": "string",
            "name": "x"
        }, {
            "datatype": "string",
            "name": "y"
        }],
        "contextObj": {
            "name": "frmRegisterUser",
            "type": "forms",
            "platform": "",
            "KUID": "cd7432ec5087404590338186c94e35d2"
        },
        "language": "js",
        "actions": [{
            "id": "ADD_SNIPPET__ic11de9a8e3a4d2b808c56c30b25ab3b",
            "type": "ADD_SNIPPET",
            "codeSnippet": "var caldate = new Date();\nfrmRegisterUser.calDateOfBirth.validStartDate=[caldate.getDate(),caldate.getMonth()+1,caldate.getFullYear()-118];\nfrmRegisterUser.calDateOfBirth.validEndDate=[caldate.getDate(),caldate.getMonth()+1,caldate.getFullYear()-18];",
            "parentId": null,
            "callbackType": null
        }]
    }
}