{
    "AS_TextField_iadcb73be5b64a06aa366770af8c36f6": {
        "id": "AS_TextField_iadcb73be5b64a06aa366770af8c36f6",
        "type": "ACTION_SEQUENCE",
        "params": [{
            "datatype": "collection",
            "name": "eventobject"
        }, {
            "datatype": "string",
            "name": "changedtext"
        }],
        "contextObj": {
            "type": "forms",
            "platform": "",
            "KUID": "j5b785df0035464583579f3b55f4dfbd"
        },
        "language": "js",
        "actions": [{
            "id": "ADD_SNIPPET__ae960c1337be4f76813bace2766cc896",
            "type": "ADD_SNIPPET",
            "codeSnippet": "// frmNUOAddressDetailsKA.flxSuggestionsKA.setVisibility(true);\n// var VC = applicationManager.getFrmNUOAddressDetailsKAViewController();\n// VC.onTextChangeKA();\nkony.print(\"deleted\");",
            "parentId": null,
            "callbackType": null
        }]
    }
}