{
    "AS_Button_c54c2a798bc54336be0df6db26052f5e": {
        "id": "AS_Button_c54c2a798bc54336be0df6db26052f5e",
        "type": "ACTION_SEQUENCE",
        "name": "backcreditcardpayment",
        "params": [{
            "datatype": "collection",
            "name": "eventobject"
        }],
        "contextObj": {
            "name": "frmCreditCardPayment",
            "type": "forms",
            "platform": "",
            "KUID": "ifc6e17e00ef473bb51f2718c349cfba"
        },
        "language": "js",
        "actions": [{
            "id": "ADD_SNIPPET__acb41791dd19488ab5a76a12609f1b06",
            "type": "ADD_SNIPPET",
            "codeSnippet": "frmManageCardsKA.show();\n//frmCreditCardPayment.destroy();\nfrmCreditCardPayment.txtFieldAmount.text=\"\";",
            "parentId": null,
            "callbackType": null
        }]
    }
}