{
    "AS_Button_ca3168b6946e42a59d6797846224310c": {
        "id": "AS_Button_ca3168b6946e42a59d6797846224310c",
        "type": "ACTION_SEQUENCE",
        "name": "backtoJPLandingfromRegJP",
        "params": [{
            "datatype": "collection",
            "name": "eventobject"
        }],
        "contextObj": {
            "name": "frmJoMoPayRegistration",
            "type": "forms",
            "platform": "",
            "KUID": "h0b4f51069c74c7bbbbd6798301d77d6"
        },
        "language": "js",
        "actions": [{
            "id": "ADD_SNIPPET__c14e70f1db504d38ac4b7401d43f92b8",
            "type": "ADD_SNIPPET",
            "codeSnippet": "frmJoMoPayLanding.show();\n//frmJoMoPayRegistration.destroy();",
            "parentId": null,
            "callbackType": null
        }]
    }
}