{
    "AS_Button_e9974676939f4a33bf210df0d7638323": {
        "id": "AS_Button_e9974676939f4a33bf210df0d7638323",
        "type": "ACTION_SEQUENCE",
        "name": "bckBtn_frmSetUpPinLogin",
        "params": [{
            "datatype": "collection",
            "name": "eventobject"
        }],
        "language": "js",
        "actions": [{
            "id": "ADD_SNIPPET__ee97e92cdf74426aa29f61cd5d7552b4",
            "type": "ADD_SNIPPET",
            "codeSnippet": "kony.print(\"removed\");",
            "parentId": null,
            "callbackType": null
        }]
    }
}