{
    "AS_AppEvents_a1f7494243ba459d87b81e142176930a": {
        "id": "AS_AppEvents_a1f7494243ba459d87b81e142176930a",
        "type": "ACTION_SEQUENCE",
        "name": "BOJPostAppInitAction",
        "params": [{
            "datatype": "collection",
            "name": "eventobject"
        }],
        "language": "js",
        "actions": [{
            "id": "ADD_SNIPPET__ja9a907a4193441ab7c123ac7a442419",
            "type": "ADD_SNIPPET",
            "codeSnippet": "try {\n  kony.print(\"Inside of BOJPostAppInitAction :: \");\n  if (kony.sdk.isNetworkAvailable()) {\n    isLoggedIn = false;\n    kony.lang.setUncaughtExceptionHandler(uncaughtExceptionHandler);\n    kony.application.setApplicationBehaviors({\n      \"hideDefaultLoadingIndicator\": true\n    });\n    kony.application.setApplicationProperties({\n      statusBarColor: \"000000\",\n      statusBarForegroundColor: \"ffffff\",\n      statusBarHidden: false,\n      statusBarStyle: constants.STATUS_BAR_STYLE_LIGHT_CONTENT\n    });\n    layoutManagerInit();\n\n    var langFlag = kony.store.getItem(\"langFlagSettingObj\");\n    if (langFlag) {\n      var langSelected = kony.store.getItem(\"langPrefObj\");\n      if (langSelected === \"en\") {\n        onClickEnglish(\"en\");\n      } else {\n        onClickArabic(\"ar\");\n      }\n      checkme = true;\n    }\n  }else{\n    customAlertPopup(geti18Value(\"i18n.maps.Info\"), kony.i18n.getLocalizedString(\"i18n.common.appalaunchnointernet\"), popupCommonAlertDimissclose, \"\");\n    kony.sdk.mvvm.KonyApplicationContext.dismissLoadingScreen();\n  }\n} catch (err) {\n  kony.print(\"In catch of BOJPostAppInitAction :: \" + err);\n}",
            "parentId": null,
            "callbackType": null
        }]
    }
}