{
    "AS_Button_d368314bd6a24a22842e6e5a88479196": {
        "id": "AS_Button_d368314bd6a24a22842e6e5a88479196",
        "type": "ACTION_SEQUENCE",
        "name": "btn0_frmPinLoginSuccessKA",
        "params": [{
            "datatype": "collection",
            "name": "eventobject"
        }],
        "contextObj": {
            "type": "forms",
            "platform": "",
            "KUID": "4dc207cd9ba542e880a7fee434e24ecb"
        },
        "language": "js",
        "actions": [{
            "id": "ADD_SNIPPET__5416e9d05b3946e7b14a1c46b95f7c96",
            "type": "ADD_SNIPPET",
            "codeSnippet": "check_updated(0);",
            "parentId": null,
            "callbackType": null
        }]
    }
}