{
    "AS_Button_64258710958244c797163a548ad52f93": {
        "id": "AS_Button_64258710958244c797163a548ad52f93",
        "type": "ACTION_SEQUENCE",
        "name": "btnBack_frmLoginKA",
        "params": [{
            "datatype": "collection",
            "name": "eventobject"
        }],
        "contextObj": {
            "name": "frmLoginKA",
            "type": "forms",
            "platform": "",
            "KUID": "7b1aa8fceb6b4070833e9eab879b0e5e"
        },
        "language": "js",
        "actions": [{
            "id": "ADD_SNIPPET__9620ecccc7a34b06bfdb7367b2ca4a5c",
            "type": "ADD_SNIPPET",
            "codeSnippet": "frmLoginKA.loginMainScreen.setEnabled(true);\nfrmLoginKA.skin=\"sknLoginMainPage\";\nfrmLoginKA.loginMainScreen.opacity=1;\nforgotPinNavigation();\n//ChangeUserPinFlex();",
            "parentId": null,
            "callbackType": null
        }]
    }
}