{
    "AS_Button_2bebe10c50834570887b1bb9692f4413": {
        "id": "AS_Button_2bebe10c50834570887b1bb9692f4413",
        "type": "ACTION_SEQUENCE",
        "name": "btnClear_frmLoginKA",
        "params": [{
            "datatype": "collection",
            "name": "eventobject"
        }],
        "contextObj": {
            "name": "frmLoginKA",
            "type": "forms",
            "platform": "",
            "KUID": "7b1aa8fceb6b4070833e9eab879b0e5e"
        },
        "language": "js",
        "actions": [{
            "id": "ADD_SNIPPET__2d6a4a9fa53b406a86ecc30090bef5d9",
            "type": "ADD_SNIPPET",
            "codeSnippet": "clearBtnClickedFromLogin();",
            "parentId": null,
            "callbackType": null
        }]
    }
}