{
    "AS_Button_ed718b3e424144eca0aeddaf92847f0d": {
        "id": "AS_Button_ed718b3e424144eca0aeddaf92847f0d",
        "type": "ACTION_SEQUENCE",
        "name": "btnDiableOnClickQB",
        "params": [{
            "datatype": "collection",
            "name": "eventobject"
        }],
        "contextObj": {
            "name": "frmLoginKA",
            "type": "forms",
            "platform": "",
            "KUID": "7b1aa8fceb6b4070833e9eab879b0e5e"
        },
        "language": "js",
        "actions": [{
            "id": "ADD_SNIPPET__ea05a5bbfd58498492e4a4c0336c670e",
            "type": "ADD_SNIPPET",
            "codeSnippet": "DiableQBPLFeature();",
            "parentId": null,
            "callbackType": null
        }]
    }
}