{
    "AS_Button_b01ede2c7d5e41d0b5f412e75d42e33a": {
        "id": "AS_Button_b01ede2c7d5e41d0b5f412e75d42e33a",
        "type": "ACTION_SEQUENCE",
        "name": "continueDevRegSucess",
        "params": [{
            "datatype": "collection",
            "name": "eventobject"
        }],
        "language": "js",
        "actions": [{
            "id": "ADD_SNIPPET_ide_onClick_767822b5abd34d5ea191a25905b301b5",
            "type": "ADD_SNIPPET",
            "codeSnippet": "gotoLoginFeatures();",
            "callbackType": null
        }]
    }
}