{
    "AS_Form_5661b0311bfe4bc694c99238cbe0a7f5": {
        "id": "AS_Form_5661b0311bfe4bc694c99238cbe0a7f5",
        "type": "ACTION_SEQUENCE",
        "name": "DevBackFromConfirmtra",
        "params": [{
            "datatype": "collection",
            "name": "eventobject"
        }],
        "contextObj": {
            "name": "frmConfirmTransferKA",
            "type": "forms",
            "platform": "",
            "KUID": "79e9f0ae27394db6b3b371dc6ca4520b"
        },
        "language": "js",
        "actions": [{
            "id": "ADD_SNIPPET__c21dacdba46b47e8be42face4aeb7df2",
            "type": "ADD_SNIPPET",
            "codeSnippet": "if(gblTModule!=\"web\"){\n  frmNewTransferKA.show();\n}\nelse{\n  frmWebCharge.show();\n}",
            "parentId": null,
            "callbackType": null
        }]
    }
}