{
    "AS_FlexContainer_febead9dc46e42dfbc6c5d8ea48eeeec": {
        "id": "AS_FlexContainer_febead9dc46e42dfbc6c5d8ea48eeeec",
        "type": "ACTION_SEQUENCE",
        "name": "devBackFromAlertHis",
        "params": [{
            "datatype": "collection",
            "name": "eventobject"
        }],
        "contextObj": {
            "name": "frmAlertHistory",
            "type": "forms",
            "platform": "",
            "KUID": "g45c06a5981f4c72a82d82a0d9282d35"
        },
        "language": "js",
        "actions": [{
            "id": "ADD_SNIPPET__g211774b7826455caf8d3e50e22937e6",
            "type": "ADD_SNIPPET",
            "codeSnippet": "frmSettingsKA.show();",
            "parentId": null,
            "callbackType": null
        }]
    }
}