{
    "AS_Form_b89a884fc43b48598781872c1c15bd19": {
        "id": "AS_Form_b89a884fc43b48598781872c1c15bd19",
        "type": "ACTION_SEQUENCE",
        "name": "disableddevicebackjomopay",
        "params": [{
            "datatype": "collection",
            "name": "eventobject"
        }],
        "contextObj": {
            "name": "frmJomoPayAccountList",
            "type": "forms",
            "platform": "",
            "KUID": "e443c597a4024db3b7a9281defc970cc"
        },
        "language": "js",
        "actions": [{
            "id": "ADD_SNIPPET__e6e99030ba244559addec698b7adc10b",
            "type": "ADD_SNIPPET",
            "codeSnippet": "kony.print(\"Device BACK DISABLED\");",
            "parentId": null,
            "callbackType": null
        }]
    }
}