{
    "AS_Segment_971b946f471b45a5b6118b9465ab254a": {
        "id": "AS_Segment_971b946f471b45a5b6118b9465ab254a",
        "type": "ACTION_SEQUENCE",
        "name": "forTransfersOnrowclickAndroid",
        "params": [{
            "datatype": "collection",
            "name": "eventobject"
        }, {
            "datatype": "number",
            "name": "sectionNumber"
        }, {
            "datatype": "number",
            "name": "rowNumber"
        }],
        "contextObj": {
            "name": "frmPreferredAccountsKA",
            "type": "forms",
            "platform": "",
            "KUID": "7a9e568cea85447086c10e8f96c76840"
        },
        "language": "js",
        "actions": [{
            "id": "ADD_SNIPPET__449358eb72614890a895374798ade565",
            "type": "ADD_SNIPPET",
            "codeSnippet": "onSelectPreferedAcnt();",
            "parentId": null,
            "callbackType": null
        }]
    }
}