{
    "AS_FlexContainer_ce557a5e60c44fb6a01f5d82cdc9c2f7": {
        "id": "AS_FlexContainer_ce557a5e60c44fb6a01f5d82cdc9c2f7",
        "type": "ACTION_SEQUENCE",
        "name": "frmAccountDetailKA_flxRightSSC_onClick",
        "params": [{
            "datatype": "collection",
            "name": "eventobject"
        }],
        "contextObj": {
            "name": "frmAccountDetailKA",
            "type": "forms",
            "platform": "",
            "KUID": "5ed703cad63c441882fc4a36f5ea0c28"
        },
        "language": "js",
        "actions": [{
            "id": "ADD_SNIPPET__d267b26e058f4189b4b6a9b69e42a99d",
            "type": "ADD_SNIPPET",
            "codeSnippet": "frmAccountDetailKA.tabsWrapper.setVisibility(false);\nfrmAccountDetailKA.imgDivSett.setVisibility(false);\nfrmAccountDetailKA.flxAccountOptions.setVisibility(false);\nfrmAccountDetailKA.flxSSCInformation.setVisibility(true);\nfrmAccountDetailKA.lblBoj.text = geti18Value(\"i18n.SSC.BackBtn\");\n",
            "parentId": null,
            "callbackType": null
        }]
    }
}