{
    "AS_FlexContainer_a83f5d9c6c234ff39649c015ac67bd58": {
        "id": "AS_FlexContainer_a83f5d9c6c234ff39649c015ac67bd58",
        "type": "ACTION_SEQUENCE",
        "name": "frmauthaltPinLoginClick",
        "params": [{
            "datatype": "collection",
            "name": "eventobject"
        }],
        "contextObj": {
            "name": "frmAuthorizationAlternatives",
            "type": "forms",
            "platform": "",
            "KUID": "d410b4cb8325465eb5a9cb0f8e472aec"
        },
        "language": "js",
        "actions": [{
            "id": "ADD_SNIPPET__j266a244f61a4762b37afd292720c8c8",
            "type": "ADD_SNIPPET",
            "codeSnippet": "onclickPinSet();",
            "parentId": null,
            "callbackType": null
        }]
    }
}