{
    "AS_Button_c849c18530654752bd3fee820d4ade62": {
        "id": "AS_Button_c849c18530654752bd3fee820d4ade62",
        "type": "ACTION_SEQUENCE",
        "name": "frmAccountRecentTransactionsOnIOSBack",
        "params": [{
            "datatype": "collection",
            "name": "eventobject"
        }],
        "contextObj": {
            "type": "forms",
            "platform": null,
            "KUID": "0d68842a63044b0aad261ca209bb8f12"
        },
        "language": "js",
        "actions": [{
            "id": "NAVIGATE_TO_FORM__ide_onClick_24f7679567f947478692a2f9b026dad8",
            "type": "NAVIGATE_TO_FORM",
            "formId": "frmAccountDetailKA",
            "formKUID": "5ed703cad63c441882fc4a36f5ea0c28",
            "mappings": {},
            "mappingsOrder": [],
            "parentId": "",
            "callbackType": null,
            "enableMappingEditor": true,
            "package": "",
            "navigationObj": "{\n    \"_meta_\": {\n        \"eventName\": \"\",\n        \"widgetId\": \"\"\n    }\n}",
            "isCustomInput": false
        }]
    }
}