{
    "AS_Button_f18358ad8ab24e5186bc2fd517a282d4": {
        "id": "AS_Button_f18358ad8ab24e5186bc2fd517a282d4",
        "type": "ACTION_SEQUENCE",
        "name": "frmAccountInfoKA_btnShareSSC_onClick",
        "params": [{
            "datatype": "collection",
            "name": "eventobject"
        }],
        "contextObj": {
            "name": "frmAccountInfoKA",
            "type": "forms",
            "platform": "",
            "KUID": "b2f984d11c5244e6ae5f81fe393d837e"
        },
        "language": "js",
        "actions": [{
            "id": "ADD_SNIPPET__c920c83cd6b64d7ca38ca83253d30b8a",
            "type": "ADD_SNIPPET",
            "codeSnippet": "sendInformaionSharingtoSSC();\nfrmAccountInfoKA.flxSSCInformation.setVisibility(false);\nfrmAccountInfoKA.lblLoanAccountInfo.text = geti18Value(\"i18.accounts.accounts\");",
            "parentId": null,
            "callbackType": null
        }]
    }
}