{
    "AS_Form_359d5f9a8a1c4b529755fedce4d6fa9e": {
        "id": "AS_Form_359d5f9a8a1c4b529755fedce4d6fa9e",
        "type": "ACTION_SEQUENCE",
        "name": "frmEnrolluserLandingKAdeviceback",
        "params": [{
            "datatype": "collection",
            "name": "eventobject"
        }],
        "contextObj": {
            "name": "frmEnrolluserLandingKA",
            "type": "forms",
            "platform": "",
            "KUID": "de724966138b4e7c9bfdd35033a0bdb3"
        },
        "language": "js",
        "actions": [{
            "id": "ADD_SNIPPET__b18978061b224c06876f31fa87c4272b",
            "type": "ADD_SNIPPET",
            "codeSnippet": "if(gblPayAppFlow && !isEmpty(gblLaunchModeOBJ.appFlow)){\n openBOJPAYAppLink();\n}else if(gblforceflag){\n  kony.sdk.mvvm.LogoutAction();\n}else{\nif(gblFromModule == \"RegisterUser\"){\n\tfrmRegisterUser.show();\n}\nelse if(gblFromModule == \"ChangeUsername\"){\n  frmSettingsKA.show();\n}\nelse if(gblFromModule == \"ChangePassword\"){\n  frmSettingsKA.show();\n}\nelse{\n  frmEnrolluserLandingKA.lblFlag.text=\"F\";\n  if(gblReqField == \"Username\"){\n    frmLoginKA.show();\n  }\n  else{\n    frmRegisterUser.show();\n  }\n}\nfrmNewUserOnboardVerificationKA.destroy();\n//frmEnrolluserLandingKA.destroy();\n}",
            "parentId": null,
            "callbackType": null
        }]
    }
}