{
    "AS_Form_i1337e43920841539f5574488c8b73cc": {
        "id": "AS_Form_i1337e43920841539f5574488c8b73cc",
        "type": "ACTION_SEQUENCE",
        "name": "frmSplashPostshow",
        "params": [{
            "datatype": "collection",
            "name": "eventobject"
        }],
        "contextObj": {
            "name": "frmSplash",
            "type": "forms",
            "platform": "",
            "KUID": "db67a9fe92674e5e9f19aa5b50fa0e6f"
        },
        "language": "js",
        "actions": [{
            "id": "ADD_SNIPPET__fcb34fca211a451fb5568c5e7813c023",
            "type": "ADD_SNIPPET",
            "codeSnippet": "//frmSplash.vdoSplash.play(); ",
            "parentId": null,
            "callbackType": null
        }]
    }
}