{
    "AS_Button_9348288555e147ffb4494209f25854c2": {
        "id": "AS_Button_9348288555e147ffb4494209f25854c2",
        "type": "ACTION_SEQUENCE",
        "name": "gotofrmPayeeTransactionsKA",
        "params": [{
            "datatype": "collection",
            "name": "eventobject"
        }],
        "language": "js",
        "actions": [{
            "id": "ADD_SNIPPET__7cf4450eaab048d599fe4b026b7a8972",
            "type": "ADD_SNIPPET",
            "codeSnippet": "    var INSTANCE = kony.sdk.mvvm.KonyApplicationContext.getAppInstance();\n    var prevController = INSTANCE.getFormController(\"frmPayeeTransactionsKA\");\n    prevController.getFormModel().showView();",
            "parentId": null,
            "callbackType": null
        }]
    }
}