{
    "AS_Form_a2f3089586c14ed09e121b2d88633ead": {
        "id": "AS_Form_a2f3089586c14ed09e121b2d88633ead",
        "type": "ACTION_SEQUENCE",
        "name": "initFrmManageCardsKA",
        "params": [{
            "datatype": "collection",
            "name": "eventobject"
        }],
        "contextObj": {
            "name": "frmManageCardsKA",
            "type": "forms",
            "platform": "",
            "KUID": "75db60b6b4944b7faf9c556f4dbcaf8d"
        },
        "language": "js",
        "actions": [{
            "id": "ADD_SNIPPET__c6c4b7047ea242859c90930eae9c7063",
            "type": "ADD_SNIPPET",
            "codeSnippet": "init_frmManageCardsKA();",
            "parentId": null,
            "callbackType": null
        }]
    }
}