{
    "AS_Form_ea7167d2fc894057b3c8384ec63c9b51": {
        "id": "AS_Form_ea7167d2fc894057b3c8384ec63c9b51",
        "type": "ACTION_SEQUENCE",
        "name": "initcard",
        "params": [{
            "datatype": "collection",
            "name": "eventobject"
        }],
        "contextObj": {
            "name": "frmCreditCardPayment",
            "type": "forms",
            "platform": null,
            "KUID": "ifc6e17e00ef473bb51f2718c349cfba"
        },
        "language": "js",
        "actions": [{
            "id": "ADD_SNIPPET__e0810e89a9424cf48048d33734f0e9cc",
            "type": "ADD_SNIPPET",
            "codeSnippet": "// initcreditcardpayment();\nkony.print(\"nothing\");",
            "parentId": null,
            "callbackType": null
        }]
    }
}