{
    "AS_TextField_ie9351a01ad54f7292cd7f00c6950ca3": {
        "id": "AS_TextField_ie9351a01ad54f7292cd7f00c6950ca3",
        "type": "ACTION_SEQUENCE",
        "name": "iphonebegineditingweb",
        "params": [{
            "datatype": "collection",
            "name": "eventobject"
        }, {
            "datatype": "string",
            "name": "changedtext"
        }],
        "language": "js",
        "actions": [{
            "id": "ADD_SNIPPET_ide_onBeginEditing_bb3b653525144a698d14cd447e59a0a9",
            "type": "ADD_SNIPPET",
            "codeSnippet": "frmWebCharge.flxBorderAmount.skin=\"skntextFieldDividerBlue\";",
            "callbackType": null
        }]
    }
}