{
    "AS_FlexContainer_b07c48a28eeb4c1e89635dc3eaa69155": {
        "id": "AS_FlexContainer_b07c48a28eeb4c1e89635dc3eaa69155",
        "type": "ACTION_SEQUENCE",
        "name": "IPS_PaymentHistory_Back_Onclick",
        "params": [{
            "datatype": "collection",
            "name": "eventobject"
        }],
        "language": "js",
        "actions": [{
            "id": "ADD_SNIPPET_ide_onClick_h4b40e79a55c436aa641b6164ca652b5",
            "type": "ADD_SNIPPET",
            "codeSnippet": "//Mai 5/1/2021\nif(gblTModule===\"IPSReturn\")\n{\n  frmIPSRequests.flxPaymentHistory.isVisible=true;\n  frmIPSRequests.flxReturnPayment.isVisible=false;\n  frmIPSRequests.flxRequestToPay.isVisible=false;\n  frmIPSRequests.flxConfirmEPS.setVisibility(false);\n}\nelse\n{\n  frmIPSManageBene.show();\n  frmIPSRequests.destroy();\n}",
            "callbackType": null
        }]
    }
}