{
    "AS_Button_c7c5c2d47d1c4ef78db8777e0b657b56": {
        "id": "AS_Button_c7c5c2d47d1c4ef78db8777e0b657b56",
        "type": "ACTION_SEQUENCE",
        "name": "IPS_PaymentHistory_RequestToPayOnCLick",
        "params": [{
            "datatype": "collection",
            "name": "eventobject"
        }],
        "language": "js",
        "actions": [{
            "id": "ADD_SNIPPET_ide_onClick_g317a1286a284e958be538f9feb0444f",
            "type": "ADD_SNIPPET",
            "codeSnippet": "frmIPSRequests.btnAll.skin = \"slButtonWhiteTabDisabled\";\nfrmIPSRequests.btnIncoming.skin = \"slButtonWhiteTabDisabled\";\nfrmIPSRequests.btnOutgoing.skin = \"slButtonWhiteTabDisabled\";\nfrmIPSRequests.btnRequestToPay.skin = \"slButtonWhiteTab\";\nkony.sdk.mvvm.KonyApplicationContext.showLoadingScreen(\"\");\nloadPaymentHistory(\"REQUESTTOPAY\");\nkony.sdk.mvvm.KonyApplicationContext.dismissLoadingScreen();\n/*kony.boj.selectedBillerType = \"PrePaid\";\nselectedIndex_BULK_PAYMENT = [];\nvalidate_BULK_BILL_SELECTION();\nshow_BILLER_LIST(\"prepaid\");*/\n// serv_getPrePaidBillerData();",
            "callbackType": null
        }]
    }
}