{
    "AS_FlexContainer_ea493460bd8b42eaaa9ec7a0e15eaeef": {
        "id": "AS_FlexContainer_ea493460bd8b42eaaa9ec7a0e15eaeef",
        "type": "ACTION_SEQUENCE",
        "name": "IPSRetunrPaymentConfirm_Back_OnClick",
        "params": [{
            "datatype": "collection",
            "name": "eventobject"
        }],
        "language": "js",
        "actions": [{
            "id": "ADD_SNIPPET_ide_onClick_d8075ec538de40f28240290ff9b39fc6",
            "type": "ADD_SNIPPET",
            "codeSnippet": "frmIPSRequests.flxConfirmEPS.setVisibility(false);\nfrmIPSRequests.flxPaymentHistory.setVisibility(false);\nfrmIPSRequests.flxReturnPayment.setVisibility(true);\nfrmIPSRequests.flxRequestToPay.setVisibility(false);\n//Omar ALnajjar\nfrmIPSRequests.skin = \"sknmainGradient\";",
            "callbackType": null
        }]
    }
}