{
    "AS_TextField_ba8e9b7f1a554ac788564b1f34bb4bb7": {
        "id": "AS_TextField_ba8e9b7f1a554ac788564b1f34bb4bb7",
        "type": "ACTION_SEQUENCE",
        "name": "jomopayonBeginEditing",
        "params": [{
            "datatype": "collection",
            "name": "eventobject"
        }, {
            "datatype": "string",
            "name": "changedtext"
        }],
        "contextObj": {
            "name": "frmJoMoPay",
            "type": "forms",
            "platform": "",
            "KUID": "d41a38dfc97d4e0a8f3b1db96d6a1ca0"
        },
        "language": "js",
        "actions": [{
            "id": "ADD_SNIPPET__c1e3f81a31ba4edaa6ede02297535cab",
            "type": "ADD_SNIPPET",
            "codeSnippet": "frmJoMoPay.flxBorderAmount.skin=\"skntextFieldDividerBlue\";",
            "parentId": null,
            "callbackType": null
        }]
    }
}