{
    "AS_TextField_b98e1e414a9e45049fc396a621618634": {
        "id": "AS_TextField_b98e1e414a9e45049fc396a621618634",
        "type": "ACTION_SEQUENCE",
        "name": "jomopayontextchangeofalias",
        "params": [{
            "datatype": "collection",
            "name": "eventobject"
        }, {
            "datatype": "string",
            "name": "changedtext"
        }],
        "contextObj": {
            "name": "frmJoMoPay",
            "type": "forms",
            "platform": "",
            "KUID": "d41a38dfc97d4e0a8f3b1db96d6a1ca0"
        },
        "language": "js",
        "actions": [{
            "id": "ADD_SNIPPET__c7dfef1aa248434d9151288ed094fbc8",
            "type": "ADD_SNIPPET",
            "codeSnippet": "if(!/^[0-9a-zA-Z\\s]+$/.test(frmJoMoPay.txtAliasDetail.text))\n  frmJoMoPay.txtAliasDetail.text = frmJoMoPay.txtAliasDetail.text.substring(0, frmJoMoPay.txtAliasDetail.text.length - 1);\nif(frmJoMoPay.txtAliasDetail!==null&&frmJoMoPay.txtAliasDetail!==\"\"&&frmJoMoPay.txtFieldAmount.text!=null&&frmJoMoPay.txtFieldAmount.text!=\"\"&&frmJoMoPay.txtFieldAmount.text!==\"0\"&&frmJoMoPay.txtPhoneNo.text!=null&&frmJoMoPay.txtPhoneNo.text!=\"\")\n  {\n    frmJoMoPay.btnNext.skin=\"jomopaynextEnabled\";\n    frmJoMoPay.btnNext.focusSkin=\"jomopaynextEnabled\";\n  }\nelse\n  {\n    frmJoMoPay.btnNext.skin=\"jomopaynextDisabled\";\n    frmJoMoPay.btnNext.focusSkin=\"jomopaynextDisabled\";\n  }",
            "parentId": null,
            "callbackType": null
        }]
    }
}