{
    "AS_TextField_e013c5c189214f11a3806466279302d2": {
        "id": "AS_TextField_e013c5c189214f11a3806466279302d2",
        "type": "ACTION_SEQUENCE",
        "name": "jomopayonDoneDescription",
        "params": [{
            "datatype": "collection",
            "name": "eventobject"
        }, {
            "datatype": "string",
            "name": "changedtext"
        }],
        "contextObj": {
            "name": "frmJoMoPay",
            "type": "forms",
            "platform": "",
            "KUID": "d41a38dfc97d4e0a8f3b1db96d6a1ca0"
        },
        "language": "js",
        "actions": [{
            "id": "ADD_SNIPPET__g421d384b0b44498bfa4d9841f272727",
            "type": "ADD_SNIPPET",
            "codeSnippet": "// animateLabel(\"DOWN\",\"lblstaticdescription\",frmJoMoPay.txtDescription.text);\nanimate_NEWCARDSOPTIOS(\"DOWN\",\"lblstaticdescription\",frmJoMoPay.txtDescription.text);",
            "parentId": null,
            "callbackType": null
        }]
    }
}