{
    "AS_Form_cc5efc6acd8048749dd69ade1e35dc5e": {
        "id": "AS_Form_cc5efc6acd8048749dd69ade1e35dc5e",
        "type": "ACTION_SEQUENCE",
        "name": "landingpreshow",
        "params": [{
            "datatype": "collection",
            "name": "eventobject"
        }],
        "contextObj": {
            "name": "frmAccountsLandingKA",
            "type": "forms",
            "platform": "",
            "KUID": "d62a2a0906c64d2281addc95893a6544"
        },
        "language": "js",
        "actions": [{
            "id": "ADD_SNIPPET__af9585e7088e4cedbc06ed04cb2547d9",
            "type": "ADD_SNIPPET",
            "codeSnippet": "diffFlowFlag = \"OTHERFLOW\";\nfrmAccountsLandingKA.flxAccntLandingNavOptKA.isVisible=false;\naccountsLandingPreShow();\ngblOtpFromforRemovingOTP=\"\";\nkony.store.setItem(\"isAppUpdated\", appConfig.appVersion);\nSetupAccountslandingTalkbackFeature();\nif (frmAccountsLandingKA.flxAccountsMain.isVisible=== true)\n   frmAccountsLandingKA.btnNewAccount.setVisibility(true);//hide open sub account\nelse\n  frmAccountsLandingKA.btnNewAccount.setVisibility(false);//hide open sub account\n///Added by ahmad For set up labiba widget\nfrmAccountsLandingKA.flxIconMove1.onTouchStart = chatbuttonTouchStart;\nfrmAccountsLandingKA.flxIconMove1.onTouchMove = chatbuttonDashboardTouchMove;\nfrmAccountsLandingKA.flxIconMove1.left = \"43%\";\nfrmAccountsLandingKA.flxIconMove1.top = \"77%\";\n\n//GetLabibaFlag();// hassan \nkony.print(\"hassan custID \"+glbGetLabiba);\nif (glbGetLabiba===\"T\"){\n  kony.print(\"hassan custID true\");\n  frmAccountsLandingKA.flxIconMove1.setVisibility(true);\n}\nelse{\n  kony.print(\"hassan custID false\");\n  frmAccountsLandingKA.flxIconMove1.setVisibility(false);\n}\n",
            "parentId": null,
            "callbackType": null
        }]
    }
}