{
    "AS_TextField_dfc9bf669f264c949603888b212615d8": {
        "id": "AS_TextField_dfc9bf669f264c949603888b212615d8",
        "type": "ACTION_SEQUENCE",
        "name": "loginAndroidonBeginEditing",
        "params": [{
            "datatype": "collection",
            "name": "eventobject"
        }, {
            "datatype": "string",
            "name": "changedtext"
        }],
        "contextObj": {
            "name": "frmLoginKA",
            "type": "forms",
            "platform": "",
            "KUID": "7b1aa8fceb6b4070833e9eab879b0e5e"
        },
        "language": "js",
        "actions": [{
            "id": "ADD_SNIPPET__d616e94e912047d59a9541926d6c9c9b",
            "type": "ADD_SNIPPET",
            "codeSnippet": "try{\n  frmLoginKA.borderBottom.skin=\"skntextFieldDividerBlue\";\n}catch(err){\n  kony.print( \"err in pwd::\"+err);\n}",
            "parentId": null,
            "callbackType": null
        }]
    }
}