{
    "AS_TextField_gfa2f2c86581414c9fd63b9786d7eab4": {
        "id": "AS_TextField_gfa2f2c86581414c9fd63b9786d7eab4",
        "type": "ACTION_SEQUENCE",
        "name": "loginAnimationiPhoneOnBeginEditing",
        "params": [{
            "datatype": "collection",
            "name": "eventobject"
        }, {
            "datatype": "string",
            "name": "changedtext"
        }],
        "contextObj": {
            "name": "frmLoginKA",
            "type": "forms",
            "platform": "",
            "KUID": "7b1aa8fceb6b4070833e9eab879b0e5e"
        },
        "language": "js",
        "actions": [{
            "id": "ADD_SNIPPET__a42caa80f51e40dd851953f1a18aa221",
            "type": "ADD_SNIPPET",
            "codeSnippet": "try{\n  frmLoginKA.borderBottom.skin=\"skntextFieldDividerBlue\";\n}catch(err){\n  kony.print( \"err in pwd::\"+err);\n}",
            "parentId": null,
            "callbackType": null
        }]
    }
}