{
    "AS_Label_i6716b8e1a5242968a4ca100220c4696": {
        "id": "AS_Label_i6716b8e1a5242968a4ca100220c4696",
        "type": "ACTION_SEQUENCE",
        "name": "moveToTransactionStudioAction",
        "params": [{
            "datatype": "collection",
            "name": "eventobject"
        }, {
            "datatype": "string",
            "name": "x"
        }, {
            "datatype": "string",
            "name": "y"
        }],
        "contextObj": {
            "name": "frmAccountInfoKA",
            "type": "forms",
            "platform": "",
            "KUID": "b2f984d11c5244e6ae5f81fe393d837e"
        },
        "language": "js",
        "actions": [{
            "id": "ADD_SNIPPET__g37a426d47b6407c85053a1d31322693",
            "type": "ADD_SNIPPET",
            "codeSnippet": "transactionMove();",
            "parentId": null,
            "callbackType": null
        }]
    }
}