{
    "AS_Button_j9d0013315ce422c8dd37c48067fe023": {
        "id": "AS_Button_j9d0013315ce422c8dd37c48067fe023",
        "type": "ACTION_SEQUENCE",
        "name": "navfrmMore",
        "params": [{
            "datatype": "collection",
            "name": "eventobject"
        }],
        "contextObj": {
            "name": "frmMyMoneyListKA",
            "type": "forms",
            "platform": "",
            "KUID": "4c6f3d4dd57b4bc3a51ee85d32b7cd14"
        },
        "language": "js",
        "actions": [{
            "id": "ADD_SNIPPET__f5b7ddf4d05644c090802905e2236815",
            "type": "ADD_SNIPPET",
            "codeSnippet": "frmMyMoneyListKA.flxLineChart.removeAll();\nfrmMore.show();\n",
            "parentId": null,
            "callbackType": null
        }]
    }
}