{
    "AS_Button_i849b678d06241e2b25c63165220f81b": {
        "id": "AS_Button_i849b678d06241e2b25c63165220f81b",
        "type": "ACTION_SEQUENCE",
        "name": "onAndroidBackfrmUSerSettingsFaceIDKA",
        "params": [{
            "datatype": "collection",
            "name": "eventobject"
        }],
        "contextObj": {
            "type": "forms",
            "platform": "",
            "KUID": "h33d1f3b10e240a5905eff93ee52b623"
        },
        "language": "js",
        "actions": [{
            "id": "ADD_SNIPPET__d47563c166c8411790e32e855b01365d",
            "type": "ADD_SNIPPET",
            "codeSnippet": "kony.print(\"removed\");",
            "parentId": null,
            "callbackType": null
        }]
    }
}