{
    "AS_FlexContainer_a520c6cbd057488590eeb3e2b0e091ba": {
        "id": "AS_FlexContainer_a520c6cbd057488590eeb3e2b0e091ba",
        "type": "ACTION_SEQUENCE",
        "name": "onBackDevReglist",
        "params": [{
            "datatype": "collection",
            "name": "eventobject"
        }],
        "contextObj": {
            "name": "frmDeviceRegistration",
            "type": "forms",
            "platform": "",
            "KUID": "d3f5bb6d97f641aa9040a4a3bbbb5f11"
        },
        "language": "js",
        "actions": [{
            "id": "ADD_SNIPPET__h7fe84c138ce4c76b5095fde219c777e",
            "type": "ADD_SNIPPET",
            "codeSnippet": "frmSettingsKA.show();",
            "parentId": null,
            "callbackType": null
        }]
    }
}