{
    "AS_FlexContainer_b70de31ff4984a2ba116f1f68c5de504": {
        "id": "AS_FlexContainer_b70de31ff4984a2ba116f1f68c5de504",
        "type": "ACTION_SEQUENCE",
        "name": "onBackCCs",
        "params": [{
            "datatype": "collection",
            "name": "eventobject"
        }],
        "contextObj": {
            "name": "frmCreditCardNumber",
            "type": "forms",
            "platform": "",
            "KUID": "a036edc0edf6449ebfdbd2bf3d6667cd"
        },
        "language": "js",
        "actions": [{
            "id": "ADD_SNIPPET__jb70f881ca174b6aa3484fea109af2ef",
            "type": "ADD_SNIPPET",
            "codeSnippet": "if(gblRequestStatementCrediCards){\n  frmRequestStatementAccounts.show();\n}else{\nif(kony.newCARD.applyCardsOption === true){\n\tfrmApplyNewCardsKA.show();\n\tkony.newCARD.applyCardsOption = false;\n}else{\nfrmCreditCardPayment.show();\n}\n}",
            "parentId": null,
            "callbackType": null
        }]
    }
}