{
    "AS_FlexContainer_af10ade971ff4f5aa1a02ebf442edf55": {
        "id": "AS_FlexContainer_af10ade971ff4f5aa1a02ebf442edf55",
        "type": "ACTION_SEQUENCE",
        "name": "onBackinforma",
        "params": [{
            "datatype": "collection",
            "name": "eventobject"
        }],
        "contextObj": {
            "name": "frmInformationKA",
            "type": "forms",
            "platform": "",
            "KUID": "f18169832ba24ba09c8780278abfc207"
        },
        "language": "js",
        "actions": [{
            "id": "ADD_SNIPPET__jf25036adbdf4e618250d655c1a03e5b",
            "type": "ADD_SNIPPET",
            "codeSnippet": "if(isLoggedIn){\n  frmMore.show();  \n}else{\n  frmLoginKA.show();\n}",
            "parentId": null,
            "callbackType": null
        }]
    }
}