{
    "AS_FlexContainer_c5f00d906c7541bc8f4a2f4815cfb543": {
        "id": "AS_FlexContainer_c5f00d906c7541bc8f4a2f4815cfb543",
        "type": "ACTION_SEQUENCE",
        "name": "onBackBackJomoCont",
        "params": [{
            "datatype": "collection",
            "name": "eventobject"
        }],
        "contextObj": {
            "name": "frmJomopayContacts",
            "type": "forms",
            "platform": "",
            "KUID": "e87eb38e1ea54c6586c26f1aee3e02d4"
        },
        "language": "js",
        "actions": [{
            "id": "ADD_SNIPPET__e482b15d45914957ab04bb95f8fcefdb",
            "type": "ADD_SNIPPET",
            "codeSnippet": "kony.application.getPreviousForm().show();\nfrmJomopayContacts.txtSearch.text = \"\";\n// frmJoMoPay.show();",
            "parentId": null,
            "callbackType": null
        }]
    }
}