{
    "AS_TextField_d6dcb83d1fd14845880a418e1bb62685": {
        "id": "AS_TextField_d6dcb83d1fd14845880a418e1bb62685",
        "type": "ACTION_SEQUENCE",
        "name": "onbegineditingpasswordandroidlogin",
        "params": [{
            "datatype": "collection",
            "name": "eventobject"
        }, {
            "datatype": "string",
            "name": "changedtext"
        }],
        "contextObj": {
            "name": "frmLoginKA",
            "type": "forms",
            "platform": "",
            "KUID": "7b1aa8fceb6b4070833e9eab879b0e5e"
        },
        "language": "js",
        "actions": [{
            "id": "ADD_SNIPPET__j5d17e2222c64321b7859965f638f116",
            "type": "ADD_SNIPPET",
            "codeSnippet": "frmLoginKA.flxbdrpwd.skin=\"skntextFieldDividerBlue\";\n//animateLabel(\"UP\",\"lblPassword\",frmLoginKA.passwordTextField.text);",
            "parentId": null,
            "callbackType": null
        }]
    }
}