{
    "AS_TextField_i041ec0aaebe479b9dff0feb7fcbb8cb": {
        "id": "AS_TextField_i041ec0aaebe479b9dff0feb7fcbb8cb",
        "type": "ACTION_SEQUENCE",
        "name": "onBeginEditingJomopayNameiPhone",
        "params": [{
            "datatype": "collection",
            "name": "eventobject"
        }, {
            "datatype": "string",
            "name": "changedtext"
        }],
        "contextObj": {
            "name": "frmJOMOPayAddBiller",
            "type": "forms",
            "platform": null,
            "KUID": "df7e7935cb6a4e5c8a9dad110f300c3c"
        },
        "language": "js",
        "actions": [{
            "id": "ADD_SNIPPET__d15324a02c9b4204b682b4d96d34601e",
            "type": "ADD_SNIPPET",
            "codeSnippet": "animate_NEWCARDSOPTIOS(\"UP\", \"lblNameTitle\", frmJOMOPayAddBiller.txtName.text);",
            "parentId": null,
            "callbackType": null
        }]
    }
}