{
    "AS_TextField_f776956ac6bc4746999272ecd9ad92e6": {
        "id": "AS_TextField_f776956ac6bc4746999272ecd9ad92e6",
        "type": "ACTION_SEQUENCE",
        "name": "onBEandroidemailRegJP",
        "params": [{
            "datatype": "collection",
            "name": "eventobject"
        }, {
            "datatype": "string",
            "name": "changedtext"
        }],
        "language": "js",
        "actions": [{
            "id": "ADD_SNIPPET_ide_onBeginEditing_ib59a8b4e26a484fb6c0a054956b8e8b",
            "type": "ADD_SNIPPET",
            "codeSnippet": "frmJoMoPayRegistration.flxBorderEmail.skin=\"skntextFieldDividerBlue\";",
            "callbackType": null
        }]
    }
}