{
    "AS_TextField_c866a1ca042c4bafa7bc64c557cbf678": {
        "id": "AS_TextField_c866a1ca042c4bafa7bc64c557cbf678",
        "type": "ACTION_SEQUENCE",
        "name": "onBeginEditingAddressAndroid",
        "params": [{
            "datatype": "collection",
            "name": "eventobject"
        }, {
            "datatype": "string",
            "name": "changedtext"
        }],
        "contextObj": {
            "name": "frmApplyNewCardsKA",
            "type": "forms",
            "platform": "",
            "KUID": "a05ce8d2e4404e40bfbc8dad585d28dc"
        },
        "language": "js",
        "actions": [{
            "id": "ADD_SNIPPET__c6ae6fb52d104badbacd696784f54acc",
            "type": "ADD_SNIPPET",
            "codeSnippet": "animate_NEWCARDSOPTIOS(\"UP\",kony.newCARD.fields.Address[0],frmApplyNewCardsKA[kony.newCARD.fields.Address[1]].text);",
            "parentId": null
        }]
    }
}