{
    "AS_TextField_i06461dfaec6486995bcfc06ed6ef6f9": {
        "id": "AS_TextField_i06461dfaec6486995bcfc06ed6ef6f9",
        "type": "ACTION_SEQUENCE",
        "name": "onBeginEditingNotesiPhone",
        "params": [{
            "datatype": "collection",
            "name": "eventobject"
        }, {
            "datatype": "string",
            "name": "changedtext"
        }],
        "contextObj": {
            "name": "frmApplyNewCardsKA",
            "type": "forms",
            "platform": "",
            "KUID": "a05ce8d2e4404e40bfbc8dad585d28dc"
        },
        "language": "js",
        "actions": [{
            "id": "ADD_SNIPPET__h61d4c00f0364f1baa102c09f37df30e",
            "type": "ADD_SNIPPET",
            "codeSnippet": "animate_NEWCARDSOPTIOS(\"UP\",kony.newCARD.fields.Notes[0],frmApplyNewCardsKA[kony.newCARD.fields.Notes[1]].text);",
            "parentId": null
        }]
    }
}