{
    "AS_FlexContainer_d2ad7610b0154381a21ac4a56f336fcc": {
        "id": "AS_FlexContainer_d2ad7610b0154381a21ac4a56f336fcc",
        "type": "ACTION_SEQUENCE",
        "name": "onClickBackTransactionRemitDetails",
        "params": [{
            "datatype": "collection",
            "name": "eventobject"
        }],
        "contextObj": {
            "name": "frmTransactionDetailKA",
            "type": "forms",
            "platform": "",
            "KUID": "87d9d190bddb4e9f8cba4ba5b785309e"
        },
        "language": "js",
        "actions": [{
            "id": "ADD_SNIPPET__b48a064d7a7241be865b07bc11cf7f3b",
            "type": "ADD_SNIPPET",
            "codeSnippet": "frmTransferStatus.show();",
            "parentId": null,
            "callbackType": null
        }]
    }
}