{
    "AS_Button_g6dd03ea303d447a8bc4fb6b128e460e": {
        "id": "AS_Button_g6dd03ea303d447a8bc4fb6b128e460e",
        "type": "ACTION_SEQUENCE",
        "name": "onClickCardChequeBookApplyNewCards",
        "params": [{
            "datatype": "collection",
            "name": "eventobject"
        }],
        "contextObj": {
            "name": "frmApplyNewCardsKA",
            "type": "forms",
            "platform": "",
            "KUID": "a05ce8d2e4404e40bfbc8dad585d28dc"
        },
        "language": "js",
        "actions": [{
            "id": "ADD_SNIPPET__adffda09b1a34b2e9b5253db77568655",
            "type": "ADD_SNIPPET",
            "codeSnippet": "onClick_RADIOBUTTON_APPLYNEWCARDSTYPE(frmApplyNewCardsKA.btnChequeBook,frmApplyNewCardsKA.lblChequeBookTitle,\"ChequeBook\");",
            "parentId": null,
            "callbackType": null
        }]
    }
}