{
    "AS_FlexContainer_i91ccfe93cea405cb3c77fcc5648b5b8": {
        "id": "AS_FlexContainer_i91ccfe93cea405cb3c77fcc5648b5b8",
        "type": "ACTION_SEQUENCE",
        "name": "onClickPaymentTransactionSortDateAscending",
        "params": [{
            "datatype": "collection",
            "name": "eventobject"
        }],
        "language": "js",
        "actions": [{
            "id": "INVOKE_FUNCTION__ide_onClick_e7cfcc67d57748e080994b71f54ced2e",
            "type": "INVOKE_FUNCTION",
            "sequenceKUID": "accountInfoSorting",
            "display": "accountInfoSorting",
            "inputparams": [{
                "name": "widget",
                "value": "frmJoMoPayLanding.imgSortDateAsc"
            }, {
                "name": "sortby",
                "value": "\"Date\""
            }, {
                "name": "type",
                "value": "\"ascending\""
            }],
            "callbackType": null,
            "disabled": false,
            "source": "module"
        }]
    }
}