{
    "AS_FlexContainer_afceb6f2082646f08e40fd5b9f995706": {
        "id": "AS_FlexContainer_afceb6f2082646f08e40fd5b9f995706",
        "type": "ACTION_SEQUENCE",
        "name": "onClickBackCCChequeBook",
        "params": [{
            "datatype": "collection",
            "name": "eventobject"
        }],
        "contextObj": {
            "type": "forms",
            "platform": "",
            "KUID": "ib2e03e5c6294f6f8a03b02f75dedd07"
        },
        "language": "js",
        "actions": [{
            "id": "ADD_SNIPPET__b9c322a9d9bf481eac6b8aebd0df2e48",
            "type": "ADD_SNIPPET",
            "codeSnippet": "frmManageCardsKA.show();\ngblTModule = \"\";\nfrmCardsChequeBook.destroy();",
            "parentId": null,
            "callbackType": null
        }]
    }
}