{
    "AS_FlexContainer_i59cd9225d8e450d8ba19a032d9b59c7": {
        "id": "AS_FlexContainer_i59cd9225d8e450d8ba19a032d9b59c7",
        "type": "ACTION_SEQUENCE",
        "name": "onClickBackInstantcash",
        "params": [{
            "datatype": "collection",
            "name": "eventobject"
        }],
        "contextObj": {
            "name": "frmInstantCash",
            "type": "forms",
            "platform": "",
            "KUID": "e4cbb34fffb6463894c6ceaa9b9831c9"
        },
        "language": "js",
        "actions": [{
            "id": "ADD_SNIPPET__j5f0c483f4a84ae98c7455f87a2b8fb5",
            "type": "ADD_SNIPPET",
            "codeSnippet": "onClick_BACK_INSTANTCASHFORM();",
            "parentId": null,
            "callbackType": null
        }]
    }
}