{
    "AS_Button_bc2f34feeb23416599f2830f49e9d548": {
        "id": "AS_Button_bc2f34feeb23416599f2830f49e9d548",
        "type": "ACTION_SEQUENCE",
        "name": "onClickLoanPostPoneConfirm",
        "params": [{
            "datatype": "collection",
            "name": "eventobject"
        }],
        "contextObj": {
            "name": "frmLoanPostpone",
            "type": "forms",
            "platform": "",
            "KUID": "c4f50ee093794ef7af792ffce1e5562c"
        },
        "language": "js",
        "actions": [{
            "id": "ADD_SNIPPET__a1802a67fb714613aab96869b21de65f",
            "type": "ADD_SNIPPET",
            "codeSnippet": "if(frmLoanPostpone.lblTermsandConditionsCheckBox.text === \"p\")\n\tserv_LOAN_POSTPONE();\nelse\n\tcustomAlertPopup(geti18Value(\"i18n.maps.Info\"), geti18Value(\"i18n.tnc.checkerrormsg\"),popupCommonAlertDimiss, \"\");",
            "parentId": null,
            "callbackType": null
        }]
    }
}