{
    "AS_FlexContainer_b501f925e01f4370b08ed210deba99be": {
        "id": "AS_FlexContainer_b501f925e01f4370b08ed210deba99be",
        "type": "ACTION_SEQUENCE",
        "name": "onClickSwitchOFFONEcommerceLimit",
        "params": [{
            "datatype": "collection",
            "name": "eventobject"
        }],
        "contextObj": {
            "name": "frmEnableInternetTransactionKA",
            "type": "forms",
            "platform": "",
            "KUID": "fc2ebd4d755e4e999be8a252c972d865"
        },
        "language": "js",
        "actions": [{
            "id": "ADD_SNIPPET__e77dade1de51436f971c90ce7eb7def7",
            "type": "ADD_SNIPPET",
            "codeSnippet": "switch_ONOFF_ECOMMERCE(frmEnableInternetTransactionKA.flxSwitchOffET, \"eCommerceLimit\");",
            "parentId": null,
            "callbackType": null
        }]
    }
}