{
    "AS_FlexContainer_cef97b6be7f9415a9ee398d832efb5b3": {
        "id": "AS_FlexContainer_cef97b6be7f9415a9ee398d832efb5b3",
        "type": "ACTION_SEQUENCE",
        "name": "onClikPinLogin",
        "params": [{
            "datatype": "collection",
            "name": "eventobject"
        }],
        "contextObj": {
            "name": "frmLoginKA",
            "type": "forms",
            "platform": "",
            "KUID": "7b1aa8fceb6b4070833e9eab879b0e5e"
        },
        "language": "js",
        "actions": [{
            "id": "ADD_SNIPPET__b7db00e2d27a461dab6e35f5c47d8ee7",
            "type": "ADD_SNIPPET",
            "codeSnippet": " if(isSettingsFlagEnabled(\"isPinEnabledFlag\"))\n        showLoginorPinScreen(\"pinLogin\");",
            "parentId": null,
            "callbackType": null
        }]
    }
}