{
    "AS_Button_de3367f304744fbf9af77b93ef2b50c3": {
        "id": "AS_Button_de3367f304744fbf9af77b93ef2b50c3",
        "type": "ACTION_SEQUENCE",
        "name": "onclickaccountweb",
        "params": [{
            "datatype": "collection",
            "name": "eventobject"
        }],
        "language": "js",
        "actions": [{
            "id": "ADD_SNIPPET_ide_onClick_e1b5b30336854292ba3084888e8b051a",
            "type": "ADD_SNIPPET",
            "codeSnippet": "var fromAccounts = kony.retailBanking.globalData.accountsDashboardData.accountsData;\ngblTModule=\"web\";\nfrmAccountDetailsScreen.lblHead.text = geti18Value(\"i18n.Transfers.SendMoneyFrom\");\naccountsScreenPreshow(fromAccounts);\nfrmAccountDetailsScreen.show();",
            "callbackType": null
        }]
    }
}