{
    "AS_FlexContainer_ca6db6e4c79a408cb9b13cd9534cdd1c": {
        "id": "AS_FlexContainer_ca6db6e4c79a408cb9b13cd9534cdd1c",
        "type": "ACTION_SEQUENCE",
        "name": "onClickToggleEnabledSMSALERT",
        "params": [{
            "name": "eventobject",
            "datatype": "collection"
        }],
        "contextObj": {
            "name": "tmpAccountSMSEnabled",
            "type": "templates",
            "platform": "",
            "KUID": "c4de9b07bcbf4d75b7fb8ea905d7e7d3"
        },
        "language": "js",
        "actions": [{
            "id": "ADD_SNIPPET__j8df97b9ea0d4a76b07607f1f23286ce",
            "type": "ADD_SNIPPET",
            "codeSnippet": "optAll = false;\nactivateordeactivate_SMSNOTIFICATION(eventobject,context);",
            "parentId": null,
            "callbackType": null
        }]
    }
}