{
    "AS_Button_b64d48f008f64a67a5eddd596e8b7dd4": {
        "id": "AS_Button_b64d48f008f64a67a5eddd596e8b7dd4",
        "type": "ACTION_SEQUENCE",
        "name": "onClickTouchLoginLang",
        "params": [{
            "datatype": "collection",
            "name": "eventobject"
        }],
        "language": "js",
        "actions": [{
            "id": "ADD_SNIPPET_ide_onClick_g0e45f1c34b54dde86c8ccdcd2c6a219",
            "type": "ADD_SNIPPET",
            "codeSnippet": "isAlternateLoginEnabled(\"T\");",
            "callbackType": null
        }]
    }
}