{
    "AS_FlexContainer_e746481533d84725929b8854585d280d": {
        "id": "AS_FlexContainer_e746481533d84725929b8854585d280d",
        "type": "ACTION_SEQUENCE",
        "name": "onClickEnableAlertAll",
        "params": [{
            "datatype": "collection",
            "name": "eventobject"
        }],
        "contextObj": {
            "name": "frmAlertsKA",
            "type": "forms",
            "platform": "",
            "KUID": "8f4fb6ef80f34f5f861f12908e1a5309"
        },
        "language": "js",
        "actions": [{
            "id": "ADD_SNIPPET__ed15e0d365974e3fa472e56914eeb46f",
            "type": "ADD_SNIPPET",
            "codeSnippet": "show_optalert(\"all\",frmAlertsKA.lblAlertDisable);",
            "parentId": null,
            "callbackType": null
        }]
    }
}