{
    "AS_FlexContainer_e1bff9ec879642459df7f5d7f4db94eb": {
        "id": "AS_FlexContainer_e1bff9ec879642459df7f5d7f4db94eb",
        "type": "ACTION_SEQUENCE",
        "name": "onClickBackApplyNewCardsConfirm",
        "params": [{
            "datatype": "collection",
            "name": "eventobject"
        }],
        "contextObj": {
            "name": "frmApplyNewCardsConfirmKA",
            "type": "forms",
            "platform": null,
            "KUID": "f25354a4fc4e472da6c697e8a8382592"
        },
        "language": "js",
        "actions": [{
            "id": "ADD_SNIPPET__hc9ec3a3ea0a4727a4c2117852aad95d",
            "type": "ADD_SNIPPET",
            "codeSnippet": "onClick_BACK_APPLYCARDS_CONFIRMATION();",
            "parentId": null,
            "callbackType": null
        }]
    }
}