{
    "AS_Button_jcf3d5634bc2448aa8d7658bfe79f5ca": {
        "id": "AS_Button_jcf3d5634bc2448aa8d7658bfe79f5ca",
        "type": "ACTION_SEQUENCE",
        "name": "onclickofnextweb",
        "params": [{
            "datatype": "collection",
            "name": "eventobject"
        }],
        "contextObj": {
            "name": "frmWebCharge",
            "type": "forms",
            "platform": "",
            "KUID": "i9ea7101c04f4b03aabeac1fe8d65589"
        },
        "language": "js",
        "actions": [{
            "id": "ADD_SNIPPET__e650e1f29469417aaed498c7bbc622ee",
            "type": "ADD_SNIPPET",
            "codeSnippet": "onclicknextweb();",
            "parentId": null,
            "callbackType": null
        }]
    }
}