{
    "AS_Label_ecd8dfd4f91f4d50aebfb74ccce3a212": {
        "id": "AS_Label_ecd8dfd4f91f4d50aebfb74ccce3a212",
        "type": "ACTION_SEQUENCE",
        "name": "onClickNextFromNewTransfer",
        "params": [{
            "datatype": "collection",
            "name": "eventobject"
        }, {
            "datatype": "string",
            "name": "x"
        }, {
            "datatype": "string",
            "name": "y"
        }],
        "contextObj": {
            "name": "frmNewTransferKA",
            "type": "forms",
            "platform": "",
            "KUID": "2ac343500306428da0ceef91a3b44d18"
        },
        "language": "js",
        "actions": [{
            "id": "ADD_SNIPPET__bd7443d7c16c4c13bf3e7c7049e8c0d2",
            "type": "ADD_SNIPPET",
            "codeSnippet": "frmNewTransferKA.txtBox.text=formatAmountwithcomma(frmNewTransferKA.lblHiddenAmount.text,getDecimalNumForCurr(frmNewTransferKA.lblCurrency.text || \"JOD\"));\nif(frmNewTransferKA.lblNext.skin == sknLblNextEnabled ){\n  if(validateSelectedDay()){\n    var x = onClickNextTransfers();\n  if(x)\n    if(gblSelectedBene.benType== \"ITB\" || gblSelectedBene.benType== \"DTB\"){\n    \tserv_getExternalTraComm();//vadivel 14/06/2019\n    }else{\n    \tgotoConfirmTransfer();  \n    }\n  }\n \n}\n",
            "parentId": null,
            "callbackType": null
        }]
    }
}