{
    "AS_FlexContainer_d3193ec00cd34e9294cac8b6f679259d": {
        "id": "AS_FlexContainer_d3193ec00cd34e9294cac8b6f679259d",
        "type": "ACTION_SEQUENCE",
        "name": "onClickPinManagementManangeCards",
        "params": [{
            "datatype": "collection",
            "name": "eventobject"
        }],
        "contextObj": {
            "name": "frmManageCardsKA",
            "type": "forms",
            "platform": "",
            "KUID": "75db60b6b4944b7faf9c556f4dbcaf8d"
        },
        "language": "js",
        "actions": [{
            "id": "ADD_SNIPPET__hf81cd6011c0467a94eb2e9a3d2d4ff4",
            "type": "ADD_SNIPPET",
            "codeSnippet": "navigate_PIN_MANAGEMENT_SCREEN();",
            "parentId": null,
            "callbackType": null
        }]
    }
}