{
    "AS_FlexContainer_i56b4c48809f49498b4f87ca977eed74": {
        "id": "AS_FlexContainer_i56b4c48809f49498b4f87ca977eed74",
        "type": "ACTION_SEQUENCE",
        "name": "onClickEditProfile",
        "params": [{
            "datatype": "collection",
            "name": "eventobject"
        }],
        "language": "js",
        "actions": [{
            "id": "ADD_SNIPPET_ide_onClick_e7f02a023ed74d929313497b6cf7270c",
            "type": "ADD_SNIPPET",
            "codeSnippet": "if(frmUserSettingsMyProfileKA.lblEditProfile.text == \"Save\"){\n\tfrmUserSettingsMyProfileKA.flxProfileEdit.isVisible = false;\n\tfrmUserSettingsMyProfileKA.mainContent.isVisible = true;\n    frmUserSettingsMyProfileKA.lblEditProfile.text = \"Edit\";\n}else{\n\tfrmUserSettingsMyProfileKA.mainContent.isVisible = false;\n    frmUserSettingsMyProfileKA.flxProfileEdit.isVisible = true;\n    frmUserSettingsMyProfileKA.lblEditProfile.text = \"Save\";\n}",
            "parentId": null,
            "callbackType": null
        }]
    }
}