{
    "AS_Button_fee409a807bf40c19f398f7a2b5b87a2": {
        "id": "AS_Button_fee409a807bf40c19f398f7a2b5b87a2",
        "type": "ACTION_SEQUENCE",
        "name": "onClickPrepaidfrmQuickPay",
        "params": [{
            "datatype": "collection",
            "name": "eventobject"
        }],
        "contextObj": {
            "name": "frmNewBillKA",
            "type": "forms",
            "platform": "",
            "KUID": "94b57de480514c9f98e1f6979b71a37b"
        },
        "language": "js",
        "actions": [{
            "id": "ADD_SNIPPET__g8254f8f0bce41c4a95bdf1a34aabc59",
            "type": "ADD_SNIPPET",
            "codeSnippet": "nextFromNewBillScreen();\nkony.boj.selectedBillerType = \"PrePaid\";\nrestoreBillerTabDetails();\nonClickPrePaidQuickPay();\nclearNewBillScreen();\nchangeUnderlineskin();\ngblTModule = \"BillPayNewBillKA\";\ncheck_numberOfAccounts();",
            "parentId": null,
            "callbackType": null
        }]
    }
}