{
    "AS_Button_b556f1c31d1841f6be38c5d00ef3cd6b": {
        "id": "AS_Button_b556f1c31d1841f6be38c5d00ef3cd6b",
        "type": "ACTION_SEQUENCE",
        "name": "onClickPrimayCardNumberApplyCards",
        "params": [{
            "datatype": "collection",
            "name": "eventobject"
        }],
        "contextObj": {
            "name": "frmApplyNewCardsKA",
            "type": "forms",
            "platform": "",
            "KUID": "a05ce8d2e4404e40bfbc8dad585d28dc"
        },
        "language": "js",
        "actions": [{
            "id": "ADD_SNIPPET__e0be7ffc91c941038277d61b8a835c6a",
            "type": "ADD_SNIPPET",
            "codeSnippet": "onChoose_OPTIONS_APPLYNEWCARDS(\"CreditCardNumber\");",
            "parentId": null
        }]
    }
}