{
    "AS_FlexContainer_iff5da8f601d45a582d3a5f91f486faa": {
        "id": "AS_FlexContainer_iff5da8f601d45a582d3a5f91f486faa",
        "type": "ACTION_SEQUENCE",
        "name": "onClickofEstmtRegfromSettings",
        "params": [{
            "datatype": "collection",
            "name": "eventobject"
        }],
        "contextObj": {
            "name": "frmSettingsKA",
            "type": "forms",
            "platform": "",
            "KUID": "hb0fb66c0c224ed284a1334d78669bfa"
        },
        "language": "js",
        "actions": [{
            "id": "ADD_SNIPPET_ide_onClick_cc64596613d64a709e5e1e5e317d5e2d",
            "type": "ADD_SNIPPET",
            "codeSnippet": "kony.print(\" removed as this is in Sprint 1 not in CR\");\nfrmEstatementLandingKA.destroy();\nEstmtpopupFlag = true;\nkony.sdk.mvvm.KonyApplicationContext.showLoadingScreen(\"\");\ncallGetEstmt();",
            "callbackType": null,
            "disabled": false
        }]
    }
}