{
    "AS_Button_d3045aa8403f4be5b6be67af835bedd7": {
        "id": "AS_Button_d3045aa8403f4be5b6be67af835bedd7",
        "type": "ACTION_SEQUENCE",
        "name": "onClickPopupNotificationInfo",
        "params": [{
            "datatype": "collection",
            "name": "eventobject"
        }],
        "language": "js",
        "actions": [{
            "id": "ADD_SNIPPET_ide_onClick_dfad7980d99e4543b099ecf2aca46b6f",
            "type": "ADD_SNIPPET",
            "codeSnippet": "popupNotificationInfo.dismiss();",
            "callbackType": null
        }]
    }
}