{
    "AS_FlexContainer_77d8823fbd2e4a00b83d51d4e5a51c5d": {
        "id": "AS_FlexContainer_77d8823fbd2e4a00b83d51d4e5a51c5d",
        "type": "ACTION_SEQUENCE",
        "name": "onClickopenemail",
        "params": [{
            "datatype": "collection",
            "name": "eventobject"
        }],
        "contextObj": {
            "name": "frmLocatorBranchDetailsKA",
            "type": "forms",
            "platform": "",
            "KUID": "413f08375ca14d89a7755001885d1014"
        },
        "language": "js",
        "actions": [{
            "id": "ADD_SNIPPET__9a92feaf06704fee9906ab95110b82db",
            "type": "ADD_SNIPPET",
            "codeSnippet": "openEmail();",
            "parentId": null,
            "callbackType": null
        }]
    }
}