{
    "AS_Button_g61003af099b4e6c94e8b683300c5157": {
        "id": "AS_Button_g61003af099b4e6c94e8b683300c5157",
        "type": "ACTION_SEQUENCE",
        "name": "onClickApplySuplementryCreditCard",
        "params": [{
            "datatype": "collection",
            "name": "eventobject"
        }],
        "contextObj": {
            "name": "frmApplyNewCardsKA",
            "type": "forms",
            "platform": "",
            "KUID": "a05ce8d2e4404e40bfbc8dad585d28dc"
        },
        "language": "js",
        "actions": [{
            "id": "ADD_SNIPPET__ief760c6cb6649559ddd23579a96ac90",
            "type": "ADD_SNIPPET",
            "codeSnippet": "onClick_RADIOBUTTON_APPLYNEWCARDSTYPE(frmApplyNewCardsKA.btnSuplementryCreditCard,frmApplyNewCardsKA.lblSuplementryCreditCardTitle,\"SuplementryCreditCard\");",
            "parentId": null,
            "callbackType": null
        }]
    }
}