{
    "AS_FlexContainer_d9e1958ddf1d4996a48955f75dc1131a": {
        "id": "AS_FlexContainer_d9e1958ddf1d4996a48955f75dc1131a",
        "type": "ACTION_SEQUENCE",
        "name": "onClickPaymentModeNewBillKA",
        "params": [{
            "datatype": "collection",
            "name": "eventobject"
        }],
        "contextObj": {
            "name": "frmNewBillKA",
            "type": "forms",
            "platform": "",
            "KUID": "94b57de480514c9f98e1f6979b71a37b"
        },
        "language": "js",
        "actions": [{
            "id": "ADD_SNIPPET__aa560458d9c941f1b4f06bfdbb16cdf5",
            "type": "ADD_SNIPPET",
            "codeSnippet": "frmAccountDetailsScreen.lblHead.text = \"Accounts\";\ngblTModule = \"BillPayNewBillKA\";\ngotoAccountDetailsScreen(1);",
            "parentId": null,
            "callbackType": null
        }]
    }
}