{
    "AS_FlexContainer_be673e4f00254a4fb3f6e23caf690a85": {
        "id": "AS_FlexContainer_be673e4f00254a4fb3f6e23caf690a85",
        "type": "ACTION_SEQUENCE",
        "name": "onClickBackIPSManageBene",
        "params": [{
            "datatype": "collection",
            "name": "eventobject"
        }],
        "contextObj": {
            "name": "frmIPSManageBene",
            "type": "forms",
            "platform": "",
            "KUID": "d198f3888a0d4e49b2778593248a3f42"
        },
        "language": "js",
        "actions": [{
            "id": "ADD_SNIPPET__hf09f59dd1374697b839b8e555231ad2",
            "type": "ADD_SNIPPET",
            "codeSnippet": "frmPaymentDashboard.show();",
            "parentId": null,
            "callbackType": null
        }]
    }
}