{
    "AS_Button_de0624bb628d4b769328fe20d9627607": {
        "id": "AS_Button_de0624bb628d4b769328fe20d9627607",
        "type": "ACTION_SEQUENCE",
        "name": "onClickapplyUpgradeCreditCard",
        "params": [{
            "datatype": "collection",
            "name": "eventobject"
        }],
        "contextObj": {
            "name": "frmApplyNewCardsKA",
            "type": "forms",
            "platform": "",
            "KUID": "a05ce8d2e4404e40bfbc8dad585d28dc"
        },
        "language": "js",
        "actions": [{
            "id": "ADD_SNIPPET__f3881bd1ff0c4fd5b05aa49b24ac05b1",
            "type": "ADD_SNIPPET",
            "codeSnippet": "onChoose_OPTIONS_APPLYNEWCARDS(\"UpgradeCard\");",
            "parentId": null,
            "callbackType": null
        }]
    }
}