{
    "AS_FlexContainer_bc6eab6059b0481e86141054b550d290": {
        "id": "AS_FlexContainer_bc6eab6059b0481e86141054b550d290",
        "type": "ACTION_SEQUENCE",
        "name": "onClickManageCardsSortAmountDescending",
        "params": [{
            "datatype": "collection",
            "name": "eventobject"
        }],
        "language": "js",
        "actions": [{
            "id": "INVOKE_FUNCTION__ide_onClick_aaa1c37d6d5446a58455f4babafd12ed",
            "type": "INVOKE_FUNCTION",
            "sequenceKUID": "accountInfoSorting",
            "display": "accountInfoSorting",
            "inputparams": [{
                "name": "widget",
                "value": "frmManageCardsKA.imgSortAmountDesc"
            }, {
                "name": "sortby",
                "value": "\"Amount\""
            }, {
                "name": "type",
                "value": "\"descending\""
            }],
            "callbackType": null,
            "disabled": false,
            "source": "module"
        }]
    }
}