{
    "AS_Button_f6fbea97248c4af7a21bb033a35d4840": {
        "id": "AS_Button_f6fbea97248c4af7a21bb033a35d4840",
        "type": "ACTION_SEQUENCE",
        "name": "onclicknewsinfo",
        "params": [{
            "datatype": "collection",
            "name": "eventobject"
        }],
        "language": "js",
        "actions": [{
            "id": "ADD_SNIPPET_ide_onClick_d749f623dfa044daaa6343a45e4a641b",
            "type": "ADD_SNIPPET",
            "codeSnippet": "// getATMLocations();\nkony.print(\"News Need to be added\");",
            "callbackType": null
        }]
    }
}