{
    "AS_Button_c67378e555b64860b9e50a7638f7e289": {
        "id": "AS_Button_c67378e555b64860b9e50a7638f7e289",
        "type": "ACTION_SEQUENCE",
        "name": "onClickNextIPSRegistration",
        "params": [{
            "datatype": "collection",
            "name": "eventobject"
        }],
        "contextObj": {
            "name": "frmIPSRegistration",
            "type": "forms",
            "platform": "",
            "KUID": "d9019aaca9814c4fb7b2e6f1a98cc411"
        },
        "language": "js",
        "actions": [{
            "id": "ADD_SNIPPET__a2bcb05c2bdd4e148405c9bd84f91bb4",
            "type": "ADD_SNIPPET",
            "codeSnippet": "if(frmIPSRegistration.btnNext.skin === \"jomopaynextEnabled\"){\n\tnavigate_TO_IPS_REGISTRATION_CONFIRMATION();\n}",
            "parentId": null,
            "callbackType": null
        }]
    }
}