{
    "AS_FlexContainer_h58f754d30154631ad25eb2f6379bb6f": {
        "id": "AS_FlexContainer_h58f754d30154631ad25eb2f6379bb6f",
        "type": "ACTION_SEQUENCE",
        "name": "onClickFilterDone",
        "params": [{
            "datatype": "collection",
            "name": "eventobject"
        }],
        "contextObj": {
            "name": "frmFilterTransaction",
            "type": "forms",
            "platform": null,
            "KUID": "ff5ea79e22414b03ba4cca716d18a58c"
        },
        "language": "js",
        "actions": [{
            "id": "IF_CONDITION__b722fd6bea9c499dafa4353c75035dcd",
            "type": "IF_CONDITION",
            "conditions": [{
                "leftValueType": "expression",
                "leftValue": "frmFilterTransaction.flxDatePicker.isVisible == true"
            }],
            "parentId": null,
            "callbackType": null,
            "criteria": "all"
        }, {
            "id": "ADD_SNIPPET__c260d2b57fba4090bd94de2e2f5df1b8",
            "type": "ADD_SNIPPET",
            "codeSnippet": "// clearForm.filterTransactions();\nif(frmFilterTransaction.lblDateRange.text == geti18nkey(\"i18n.FilterTransaction.pickadate\")){\n\tcustomAlertPopup(geti18nkey(\"i18n.maps.Info\"), geti18nkey(\"i18n.common.enterdate\"), popupCommonAlertDimiss, null, geti18nkey(\"i18n.settings.ok\"), null);\n}else{\n\tif(validate_FILTERDATESELECTION()){\n        frmFilterTransaction.flxDatePicker.isVisible = false;\n        frmFilterTransaction.flxFilterTransaction.isVisible = true;\n        frmFilterTransaction.lblFilterHeader.text = kony.i18n.getLocalizedString(\"i18n.FilterTransaction\");\n    }else\n    \tcustomAlertPopup(geti18nkey(\"i18n.maps.Info\"), geti18nkey(\"i18n.filter.validatedate\"), popupCommonAlertDimiss, null, geti18nkey(\"i18n.settings.ok\"), null);\n}",
            "parentId": "IF_CONDITION__b722fd6bea9c499dafa4353c75035dcd",
            "callbackType": null
        }, {
            "id": "ELSE_IF_CONDITION__h411c116d40e4aad88436a6b8c19a111",
            "type": "ELSE_IF_CONDITION",
            "conditions": [{
                "leftValueType": "expression",
                "leftValue": "frmFilterTransaction.flxFilterTransaction.isVisible == true"
            }],
            "parentId": null,
            "callbackType": null,
            "criteria": "all"
        }, {
            "id": "ADD_SNIPPET__bd1e43914b0a4ed3a759bcaa9c0550be",
            "type": "ADD_SNIPPET",
            "codeSnippet": "searchTransation();",
            "parentId": "ELSE_IF_CONDITION__h411c116d40e4aad88436a6b8c19a111",
            "callbackType": null
        }]
    }
}