{
    "AS_FlexContainer_g14e13003aad489b833b5d519a1cfd18": {
        "id": "AS_FlexContainer_g14e13003aad489b833b5d519a1cfd18",
        "type": "ACTION_SEQUENCE",
        "name": "onClickCardStatementSortDateDescending",
        "params": [{
            "datatype": "collection",
            "name": "eventobject"
        }],
        "language": "js",
        "actions": [{
            "id": "ADD_SNIPPET__ed3e3d5d69a641c99bdf3ac47f599bb3",
            "type": "ADD_SNIPPET",
            "codeSnippet": "accountInfoSorting(frmCardStatementKA.imgSortDateDesc,\"Date\",\"descending\");",
            "parentId": null,
            "callbackType": null
        }]
    }
}