{
    "AS_FlexContainer_c93343ea6dbd47a8bac98774f099dd62": {
        "id": "AS_FlexContainer_c93343ea6dbd47a8bac98774f099dd62",
        "type": "ACTION_SEQUENCE",
        "name": "onClickLast30days",
        "params": [{
            "datatype": "collection",
            "name": "eventobject"
        }],
        "contextObj": {
            "name": "frmFilterTransaction",
            "type": "forms",
            "platform": "",
            "KUID": "ff5ea79e22414b03ba4cca716d18a58c"
        },
        "language": "js",
        "actions": [{
            "id": "ADD_SNIPPET__f73c592bea0a41a09aeb726faad4aeb8",
            "type": "ADD_SNIPPET",
            "codeSnippet": "setTimePeriod(frmFilterTransaction.lblLast30days,frmFilterTransaction.lblLast30daystext.text);",
            "parentId": null,
            "callbackType": null
        }]
    }
}