{
    "AS_FlexContainer_e2ee8caf238b4cc5a5e8c85c9212d672": {
        "id": "AS_FlexContainer_e2ee8caf238b4cc5a5e8c85c9212d672",
        "type": "ACTION_SEQUENCE",
        "name": "onClickCardStatementFilterDone",
        "params": [{
            "datatype": "collection",
            "name": "eventobject"
        }],
        "contextObj": {
            "name": "frmCardStatementKA",
            "type": "forms",
            "platform": null,
            "KUID": "ebef3c7798e64ac49c7cc83d9df0b4f2"
        },
        "language": "js",
        "actions": [{
            "id": "ADD_SNIPPET__bce88783e6ed4cb5896a16272eeeaf84",
            "type": "ADD_SNIPPET",
            "codeSnippet": "gblDownloadPDFFlow = false;\nvalidate_cardStatementFilterDone();",
            "parentId": null,
            "callbackType": null
        }]
    }
}