{
    "AS_Button_d71b09906c6644798b54816a4d974cce": {
        "id": "AS_Button_d71b09906c6644798b54816a4d974cce",
        "type": "ACTION_SEQUENCE",
        "name": "onconfirmWebCharge",
        "params": [{
            "datatype": "collection",
            "name": "eventobject"
        }],
        "contextObj": {
            "name": "frmWebCharge",
            "type": "forms",
            "platform": "",
            "KUID": "i9ea7101c04f4b03aabeac1fe8d65589"
        },
        "language": "js",
        "actions": [{
            "id": "ADD_SNIPPET__e6021937f5fa4f95af484b14a78af27e",
            "type": "ADD_SNIPPET",
            "codeSnippet": "if(kony.sdk.isNetworkAvailable())\n{ \n  gblToOTPFrom = \"web\";\n  ShowLoadingScreen();\n  callRequestOTP(); \n}else{\n  kony.sdk.mvvm.KonyApplicationContext.dismissLoadingScreen();\n  customAlertPopup(\"\", kony.i18n.getLocalizedString(\"i18n.errorMsg.deviceConnectionError\"), popupCommonAlertDimiss, \"\");\n}",
            "parentId": null,
            "callbackType": null
        }]
    }
}