{
    "AS_Form_d3dd6301df74412f85df3bd9fc9ba693": {
        "id": "AS_Form_d3dd6301df74412f85df3bd9fc9ba693",
        "type": "ACTION_SEQUENCE",
        "name": "onDeviceBackNewBillsPay",
        "params": [{
            "datatype": "collection",
            "name": "eventobject"
        }],
        "contextObj": {
            "name": "frmNewBillKA",
            "type": "forms",
            "platform": "",
            "KUID": "94b57de480514c9f98e1f6979b71a37b"
        },
        "language": "js",
        "actions": [{
            "id": "ADD_SNIPPET__a4326713c19a4186ab9a616214d85a9d",
            "type": "ADD_SNIPPET",
            "codeSnippet": "back_NEWBILLSPAY();",
            "parentId": null,
            "callbackType": null
        }]
    }
}