{
    "AS_Form_dde306b8260947ad905111b4b9214c71": {
        "id": "AS_Form_dde306b8260947ad905111b4b9214c71",
        "type": "ACTION_SEQUENCE",
        "name": "onDeviceBackCardLinkedAccountsConfirmation",
        "params": [{
            "datatype": "collection",
            "name": "eventobject"
        }],
        "contextObj": {
            "name": "frmCardLinkedAccountsConfirm",
            "type": "forms",
            "platform": "",
            "KUID": "h942f65045b843dab657f26a4409ec78"
        },
        "language": "js",
        "actions": [{
            "id": "ADD_SNIPPET__a9c5c74fbd9948c28b7b1205f33eb64d",
            "type": "ADD_SNIPPET",
            "codeSnippet": "if(frmCardLinkedAccountsConfirm.btnConfirm.text === geti18Value(\"i18n.transfers.CONFIRM\")){\n\tfrmCardLinkedAccounts.show();\n\tfrmCardLinkedAccountsConfirm.destroy();\n}",
            "parentId": null,
            "callbackType": null
        }]
    }
}