{
    "AS_Form_b301254bb0ec4268b8ae81eafe34b507": {
        "id": "AS_Form_b301254bb0ec4268b8ae81eafe34b507",
        "type": "ACTION_SEQUENCE",
        "name": "onDeviceBackFrequecyTransferAndroid",
        "params": [{
            "datatype": "collection",
            "name": "eventobject"
        }],
        "contextObj": {
            "name": "frmFrequencyList",
            "type": "forms",
            "platform": "",
            "KUID": "g0d1e2711c2c41b3b485f9bbdce5d771"
        },
        "language": "js",
        "actions": [{
            "id": "ADD_SNIPPET__e4bbfb8a946443a38efcbda859fbeb7d",
            "type": "ADD_SNIPPET",
            "codeSnippet": "frmNewTransferKA.show();",
            "parentId": null,
            "callbackType": null
        }]
    }
}