{
    "AS_TextField_d70bb41e9137426488144173c27385bd": {
        "id": "AS_TextField_d70bb41e9137426488144173c27385bd",
        "type": "ACTION_SEQUENCE",
        "name": "onDoneSearchRegJP",
        "params": [{
            "datatype": "collection",
            "name": "eventobject"
        }, {
            "datatype": "string",
            "name": "changedtext"
        }],
        "language": "js",
        "actions": [{
            "id": "ADD_SNIPPET_ide_onDone_e889c898778744f5b818969333f8670e",
            "type": "ADD_SNIPPET",
            "codeSnippet": "kony.boj.searchDetailsJP(frmJomopayRegCountry.tbxSearch.text);",
            "callbackType": null
        }]
    }
}