{
    "AS_TextField_cd07318128654403a104f8346064d68d": {
        "id": "AS_TextField_cd07318128654403a104f8346064d68d",
        "type": "ACTION_SEQUENCE",
        "name": "onDoneTbxAmntNewBillKA",
        "params": [{
            "datatype": "collection",
            "name": "eventobject"
        }, {
            "datatype": "string",
            "name": "changedtext"
        }],
        "contextObj": {
            "name": "frmNewBillKA",
            "type": "forms",
            "platform": "",
            "KUID": "94b57de480514c9f98e1f6979b71a37b"
        },
        "language": "js",
        "actions": [{
            "id": "ADD_SNIPPET__f218b0e0dda144e394250580b26a4123",
            "type": "ADD_SNIPPET",
            "codeSnippet": "frmNewBillKA.lblHiddenAmount.text = frmNewBillKA.tbxAmount.text;\nvar amount = frmNewBillKA.tbxAmount.text;\nif (amount === null || amount === \"\" || amount == \".\" || (Number(amount) < 0.01) || amount === 0.00) {\n}\nelse{\n  if(kony.store.getItem(\"BillPayfromAcc\") !== null && kony.store.getItem(\"BillPayfromAcc\") !== undefined){\n    var currency = \"\";\n    if(frmNewBillKA.btnBillsPayAccounts.text === \"t\")\n      currency = kony.store.getItem(\"BillPayfromAcc\").currencyCode;\n    else{\n      if (isNullorEmptyorUndefined(kony.store.getItem(\"BillPayfromAcc\").balance))// hassan pay from credit card\n          customAlertPopup(\"\", kony.i18n.getLocalizedString(\"i18n.cards.selectCard\"), popupCommonAlertDimiss, \"\");\n      else\n          currency = kony.store.getItem(\"BillPayfromAcc\").balance.split(\" \")[1];\n      }\n  \tfrmNewBillKA.tbxAmount.text = formatamountwithCurrency(frmNewBillKA.tbxAmount.text,currency === undefined?\"JOD\":currency);\n  }\n}\n",
            "parentId": null,
            "callbackType": null
        }]
    }
}