{
    "AS_TextField_hb7ab4ea13ba4c13843b6456a477ee2c": {
        "id": "AS_TextField_hb7ab4ea13ba4c13843b6456a477ee2c",
        "type": "ACTION_SEQUENCE",
        "name": "onEEAndroidJIDRegJP",
        "params": [{
            "datatype": "collection",
            "name": "eventobject"
        }, {
            "datatype": "string",
            "name": "changedtext"
        }],
        "language": "js",
        "actions": [{
            "id": "ADD_SNIPPET_ide_onEndEditing_c7cdf33268df4b8cba621452a88f0122",
            "type": "ADD_SNIPPET",
            "codeSnippet": "animate_NEWCARDSOPTIOS(\"DOWN\",\"lblJomopayIDstatic\",frmJoMoPayRegistration.txtJomopayID.text);\nif(frmJoMoPayRegistration.txtJomopayID.text!==\"\"&&frmJoMoPayRegistration.txtJomopayID.text!==null)\n  {\nfrmJoMoPayRegistration.flxBorderjomopayID.skin=\"skntextFieldDividerGreen\";\n  }\nelse\n  {\n   frmJoMoPayRegistration.flxBorderjomopayID.skin=\"skntextFieldDividerJomoPay\";\n  }",
            "callbackType": null
        }]
    }
}