{
    "AS_TextField_a19dd96bdab54ae19fa6afccb40f6b76": {
        "id": "AS_TextField_a19dd96bdab54ae19fa6afccb40f6b76",
        "type": "ACTION_SEQUENCE",
        "name": "onendeditingandroidpasswordlogin",
        "params": [{
            "datatype": "collection",
            "name": "eventobject"
        }, {
            "datatype": "string",
            "name": "changedtext"
        }],
        "contextObj": {
            "name": "frmLoginKA",
            "type": "forms",
            "platform": "",
            "KUID": "7b1aa8fceb6b4070833e9eab879b0e5e"
        },
        "language": "js",
        "actions": [{
            "id": "ADD_SNIPPET__g7e7ae08da0444b7b3819af303b9b1da",
            "type": "ADD_SNIPPET",
            "codeSnippet": "if(frmLoginKA.passwordTextField.text!==null&&frmLoginKA.passwordTextField.text!==\"\")\n{\n  frmLoginKA.flxbdrpwd.skin=\"skntextFieldDividerGreen\";\n}\nelse\n  {\n   frmLoginKA.flxbdrpwd.skin=\"skntextFieldDivider\";\n  }\nanimateLabel(\"DOWN\",\"lblPassword\",frmLoginKA.passwordTextField.text);",
            "parentId": null,
            "callbackType": null
        }]
    }
}