{
    "AS_TextField_2d3001a2377b4f35bbf1ad00cd40134b": {
        "id": "AS_TextField_2d3001a2377b4f35bbf1ad00cd40134b",
        "type": "ACTION_SEQUENCE",
        "name": "onFocusToamount",
        "params": [{
            "datatype": "collection",
            "name": "eventobject"
        }, {
            "datatype": "string",
            "name": "x"
        }, {
            "datatype": "string",
            "name": "y"
        }],
        "contextObj": {
            "type": "forms",
            "platform": "",
            "KUID": "400a0ee97eb04e5897318084b1271b8a"
        },
        "language": "js",
        "actions": [{
            "id": "ADD_SNIPPET__a484cd89a2e148dbacb432e40cc7c706",
            "type": "ADD_SNIPPET",
            "codeSnippet": "offInvalidAmountorDate(\"lblInvalidAmntRange\");",
            "parentId": null,
            "callbackType": null
        }]
    }
}