{
    "AS_RadioButtonGroup_d4ecf8aa6980451190ec586733bcd7fa": {
        "id": "AS_RadioButtonGroup_d4ecf8aa6980451190ec586733bcd7fa",
        "type": "ACTION_SEQUENCE",
        "name": "onRbnCategoryKASelection",
        "params": [{
            "datatype": "collection",
            "name": "eventobject"
        }],
        "contextObj": {
            "type": "forms",
            "platform": "",
            "KUID": "2e63134c7cd34ec9801fa53d362efd33"
        },
        "language": "js",
        "actions": [{
            "id": "ADD_SNIPPET__b3b02b7ecc504dad9bf91c9a9b1296d8",
            "type": "ADD_SNIPPET",
            "codeSnippet": "kony.print(\"Deleted\");",
            "parentId": null,
            "callbackType": null
        }]
    }
}