{
    "AS_Segment_af4054e07e9149c780af5df1c11d9b23": {
        "id": "AS_Segment_af4054e07e9149c780af5df1c11d9b23",
        "type": "ACTION_SEQUENCE",
        "name": "onRowClickDeviceDeRegistrationSettings",
        "params": [{
            "datatype": "collection",
            "name": "eventobject"
        }, {
            "datatype": "number",
            "name": "sectionNumber"
        }, {
            "datatype": "number",
            "name": "rowNumber"
        }],
        "contextObj": {
            "name": "frmDeviceRegistration",
            "type": "forms",
            "platform": "",
            "KUID": "d3f5bb6d97f641aa9040a4a3bbbb5f11"
        },
        "language": "js",
        "actions": [{
            "id": "ADD_SNIPPET__d54f2dbf442e4fec965e9e3812476568",
            "type": "ADD_SNIPPET",
            "codeSnippet": "devlistSelectedObj = \"\";\ndevlistSelectedObj = frmDeviceRegistration.segRegisteredDevices.selectedItems[0];\nif(kony.sdk.isNetworkAvailable()){\n  changeRegistrationStatus(frmDeviceRegistration.segRegisteredDevices.selectedItems[0], frmDeviceRegistration.segRegisteredDevices.selectedIndex);\n}else{\n  kony.sdk.mvvm.KonyApplicationContext.dismissLoadingScreen();\n  customAlertPopup(\"\", kony.i18n.getLocalizedString(\"i18n.errorMsg.deviceConnectionError\"), popupCommonAlertDimiss, \"\");\n}",
            "parentId": null,
            "callbackType": null
        }]
    }
}