{
    "AS_Segment_i1a72f5e0a384b6ab96bf3bdfee16da1": {
        "id": "AS_Segment_i1a72f5e0a384b6ab96bf3bdfee16da1",
        "type": "ACTION_SEQUENCE",
        "name": "onRowClickReasonsScreen",
        "params": [{
            "datatype": "collection",
            "name": "eventobject"
        }, {
            "datatype": "number",
            "name": "sectionNumber"
        }, {
            "datatype": "number",
            "name": "rowNumber"
        }],
        "contextObj": {
            "name": "frmReasonsListScreen",
            "type": "forms",
            "platform": null,
            "KUID": "a632c7af93a742b199502020ddeb0a01"
        },
        "language": "js",
        "actions": [{
            "id": "ADD_SNIPPET__b6696b99294340f4a5a9db63b126b163",
            "type": "ADD_SNIPPET",
            "codeSnippet": "onClickReasonsegment();",
            "parentId": null,
            "callbackType": null
        }]
    }
}