{
    "AS_Segment_gd17be748dc64f8ab6d613c1e64ffe22": {
        "id": "AS_Segment_gd17be748dc64f8ab6d613c1e64ffe22",
        "type": "ACTION_SEQUENCE",
        "name": "onRowClickTransferStatusSegment",
        "params": [{
            "datatype": "collection",
            "name": "eventobject"
        }, {
            "datatype": "number",
            "name": "sectionNumber"
        }, {
            "datatype": "number",
            "name": "rowNumber"
        }],
        "contextObj": {
            "name": "frmTransferStatus",
            "type": "forms",
            "platform": "",
            "KUID": "cb53baea48874043a47d535a2e20ccc3"
        },
        "language": "js",
        "actions": [{
            "id": "ADD_SNIPPET__h9777fff578a43808dbf5fcf6f91f76a",
            "type": "ADD_SNIPPET",
            "codeSnippet": "kony.print(\"Remit Details ::\"+JSON.stringify(frmTransferStatus.segTransferStatus.selectedItems));\nif(frmTransferStatus.btnInwards.skin === \"slButtonWhiteTab\"){\n\tset_TRANSACTIONDETAILS(\"inRemitDetails\",frmTransferStatus.segTransferStatus.selectedItems[0].inRemitDetails);\n}else if(frmTransferStatus.btnOutwards.skin === \"slButtonWhiteTab\"){\n\tset_TRANSACTIONDETAILS(\"outRemitDetails\",frmTransferStatus.segTransferStatus.selectedItems[0].outRemitDetails)\n}",
            "parentId": null,
            "callbackType": null
        }]
    }
}