{
    "AS_CheckBoxGroup_c19a3ef1d26449e9825f54b9e9d5d006": {
        "id": "AS_CheckBoxGroup_c19a3ef1d26449e9825f54b9e9d5d006",
        "type": "ACTION_SEQUENCE",
        "name": "onselectCheckboxfrmUserSettingsFaceIDKA",
        "params": [{
            "datatype": "collection",
            "name": "eventobject"
        }, {
            "datatype": "string",
            "name": "x"
        }, {
            "datatype": "string",
            "name": "y"
        }],
        "contextObj": {
            "type": "forms",
            "platform": "",
            "KUID": "h33d1f3b10e240a5905eff93ee52b623"
        },
        "language": "js",
        "actions": [{
            "id": "ADD_SNIPPET__h5a71b1523e34a169db075446c7e5b82",
            "type": "ADD_SNIPPET",
            "codeSnippet": "kony.print(\"Removed\");",
            "parentId": null,
            "callbackType": null
        }]
    }
}