{
    "AS_Calendar_h0bb159340504e548b3715dc9e0eae02": {
        "id": "AS_Calendar_h0bb159340504e548b3715dc9e0eae02",
        "type": "ACTION_SEQUENCE",
        "name": "onSelectionCalendarDateFrom",
        "params": [{
            "datatype": "collection",
            "name": "eventobject"
        }, {
            "datatype": "boolean",
            "name": "isValidDateSelected"
        }],
        "language": "js",
        "actions": [{
            "id": "ADD_SNIPPET_ide_onSelection_i090e7a97ddf4831a33c06654fe0dcd5",
            "type": "ADD_SNIPPET",
            "codeSnippet": "calendar_DateRange(frmFilterTransaction.calDatefrom, \"From\", \"Others\");\nkony.print(\"Onselection\");",
            "callbackType": null
        }]
    }
}