{
    "AS_Switch_3764b64391b44429bd86ff546597d15f": {
        "id": "AS_Switch_3764b64391b44429bd86ff546597d15f",
        "type": "ACTION_SEQUENCE",
        "name": "onSlideSwitchAlerts",
        "params": [{
            "datatype": "collection",
            "name": "eventobject"
        }],
        "contextObj": {
            "name": "frmAlertsKA",
            "type": "forms",
            "platform": "",
            "KUID": "8f4fb6ef80f34f5f861f12908e1a5309"
        },
        "language": "js",
        "actions": [{
            "id": "ADD_SNIPPET__a8c7219aa56a426da24807b569a28436",
            "type": "ADD_SNIPPET",
            "codeSnippet": "onClickAlertsSwitchOption();",
            "parentId": null,
            "callbackType": null
        }]
    }
}