{
    "AS_TextField_cf222c5878b444aa885df2bc71375aee": {
        "id": "AS_TextField_cf222c5878b444aa885df2bc71375aee",
        "type": "ACTION_SEQUENCE",
        "name": "onTextChangeFilterTransactionMaxAmount",
        "params": [{
            "datatype": "collection",
            "name": "eventobject"
        }, {
            "datatype": "string",
            "name": "changedtext"
        }],
        "contextObj": {
            "name": "frmFilterTransaction",
            "type": "forms",
            "platform": "",
            "KUID": "ff5ea79e22414b03ba4cca716d18a58c"
        },
        "language": "js",
        "actions": [{
            "id": "ADD_SNIPPET__b832cd479b85441fab934034a771a873",
            "type": "ADD_SNIPPET",
            "codeSnippet": "textbox_AmountOnly(frmFilterTransaction.txtAmountRangeTo);",
            "parentId": null,
            "callbackType": null
        }]
    }
}