{
    "AS_TextField_i0277a740492477aac6742914cc998ae": {
        "id": "AS_TextField_i0277a740492477aac6742914cc998ae",
        "type": "ACTION_SEQUENCE",
        "name": "onTextChangeApplyCardsValidation",
        "params": [{
            "datatype": "collection",
            "name": "eventobject"
        }, {
            "datatype": "string",
            "name": "changedtext"
        }],
        "contextObj": {
            "name": "frmApplyNewCardsKA",
            "type": "forms",
            "platform": "",
            "KUID": "a05ce8d2e4404e40bfbc8dad585d28dc"
        },
        "language": "js",
        "actions": [{
            "id": "ADD_SNIPPET__ad00ead1c1cf4f22ab73b503eb070dc3",
            "type": "ADD_SNIPPET",
            "codeSnippet": "if(new RegExp(/[^A-Za-z\\s]/g).test(frmApplyNewCardsKA.txtCardHolder.text)){\n   frmApplyNewCardsKA.lblHintCardHolder.setVisibility(true);\n   frmApplyNewCardsKA.flxBorderCardHolder.skin = \"sknFlxOrangeLine\";\n}else{\n  frmApplyNewCardsKA.lblHintCardHolder.setVisibility(false);\n  frmApplyNewCardsKA.flxBorderCardHolder.skin = \"skntextFieldDividerGreen\";\n}\nvalidate_APPLYCARDSDETAILS();",
            "parentId": null,
            "callbackType": null
        }]
    }
}