{
    "AS_TextField_af1ec3ff1e524a47913a0b359223ba0b": {
        "id": "AS_TextField_af1ec3ff1e524a47913a0b359223ba0b",
        "type": "ACTION_SEQUENCE",
        "name": "onTextChangeApplyNewCardsAddress",
        "params": [{
            "datatype": "collection",
            "name": "eventobject"
        }, {
            "datatype": "string",
            "name": "changedtext"
        }],
        "contextObj": {
            "name": "frmApplyNewCardsKA",
            "type": "forms",
            "platform": "",
            "KUID": "a05ce8d2e4404e40bfbc8dad585d28dc"
        },
        "language": "js",
        "actions": [{
            "id": "ADD_SNIPPET__b10f2ab6ed5649c48741f97bbda911b4",
            "type": "ADD_SNIPPET",
            "codeSnippet": "if(new RegExp(/[^A-Za-z\\s]/g).test(frmApplyNewCardsKA.txtAddress.text)){\n   frmApplyNewCardsKA.flxBorderAddress.skin = \"sknFlxOrangeLine\";\n}else{\n  frmApplyNewCardsKA.flxBorderAddress.skin = \"skntextFieldDividerGreen\";\n}\nvalidate_APPLYCARDSDETAILS();",
            "parentId": null
        }]
    }
}