{
    "AS_TextField_f2e65402127f4df890f4e326fc5f84fc": {
        "id": "AS_TextField_f2e65402127f4df890f4e326fc5f84fc",
        "type": "ACTION_SEQUENCE",
        "name": "onTextChangeFilterTransactionMinAmount",
        "params": [{
            "datatype": "collection",
            "name": "eventobject"
        }, {
            "datatype": "string",
            "name": "changedtext"
        }],
        "contextObj": {
            "name": "frmFilterTransaction",
            "type": "forms",
            "platform": "",
            "KUID": "ff5ea79e22414b03ba4cca716d18a58c"
        },
        "language": "js",
        "actions": [{
            "id": "ADD_SNIPPET__a3f8e3e322364063a5cb9449728ee3d2",
            "type": "ADD_SNIPPET",
            "codeSnippet": "textbox_AmountOnly(frmFilterTransaction.txtAmountRangeFrom);",
            "parentId": null,
            "callbackType": null
        }]
    }
}