{
    "AS_TextField_g3066e67b0554a08826c1524c5b8b3c8": {
        "id": "AS_TextField_g3066e67b0554a08826c1524c5b8b3c8",
        "type": "ACTION_SEQUENCE",
        "name": "onTextChangeAgeApplyNewCards",
        "params": [{
            "datatype": "collection",
            "name": "eventobject"
        }, {
            "datatype": "string",
            "name": "changedtext"
        }],
        "contextObj": {
            "name": "frmApplyNewCardsKA",
            "type": "forms",
            "platform": "",
            "KUID": "a05ce8d2e4404e40bfbc8dad585d28dc"
        },
        "language": "js",
        "actions": [{
            "id": "ADD_SNIPPET__dbb63b92ce6a4f179a6a4ad160eb0150",
            "type": "ADD_SNIPPET",
            "codeSnippet": "animate_NEWCARDSOPTIOS(\"UP\",kony.newCARD.fields.Age[0],frmApplyNewCardsKA[kony.newCARD.fields.Age[1]].text);\nif(new RegExp(/[^0-9\\s]/g).test(frmApplyNewCardsKA.txtAge.text)){\n   frmApplyNewCardsKA.flxBorderAge.skin = \"sknFlxOrangeLine\";\n}else{\n  frmApplyNewCardsKA.flxBorderAge.skin = \"skntextFieldDividerGreen\";\n}\nvalidate_APPLYCARDSDETAILS();",
            "parentId": null,
            "callbackType": null
        }]
    }
}