{
    "AS_TextField_d277a2b5a6b24574a04955f3d531f874": {
        "id": "AS_TextField_d277a2b5a6b24574a04955f3d531f874",
        "type": "ACTION_SEQUENCE",
        "name": "onTouchEndAliasJomopay",
        "params": [{
            "datatype": "collection",
            "name": "eventobject"
        }, {
            "datatype": "string",
            "name": "x"
        }, {
            "datatype": "string",
            "name": "y"
        }],
        "contextObj": {
            "name": "frmJoMoPay",
            "type": "forms",
            "platform": "",
            "KUID": "d41a38dfc97d4e0a8f3b1db96d6a1ca0"
        },
        "language": "js",
        "actions": [{
            "id": "ADD_SNIPPET__h6b1193e7a854e90b3ab3e4dd081bdfc",
            "type": "ADD_SNIPPET",
            "codeSnippet": "animateLabel(\"UP\",\"lblBeneficiaryStaticText\",frmJoMoPay.txtAliasDetail.text);",
            "parentId": null,
            "callbackType": null
        }]
    }
}