{
    "AS_Label_fa984e91e5bb4b6d9c19e156b03e30a3": {
        "id": "AS_Label_fa984e91e5bb4b6d9c19e156b03e30a3",
        "type": "ACTION_SEQUENCE",
        "name": "onTouchEndTncApplyCardsConfirmation",
        "params": [{
            "datatype": "collection",
            "name": "eventobject"
        }, {
            "datatype": "string",
            "name": "x"
        }, {
            "datatype": "string",
            "name": "y"
        }],
        "contextObj": {
            "name": "frmApplyNewCardsConfirmKA",
            "type": "forms",
            "platform": "",
            "KUID": "f25354a4fc4e472da6c697e8a8382592"
        },
        "language": "js",
        "actions": [{
            "id": "ADD_SNIPPET__f5c65a6ba16b4dde83141ddb0c68bf6d",
            "type": "ADD_SNIPPET",
            "codeSnippet": "onSelection_TNC_APPLYCARDS_CONFIRMATION();",
            "parentId": null,
            "callbackType": null
        }]
    }
}