{
    "AS_Label_fa017bcba5074991b0526f59eaf371c1": {
        "id": "AS_Label_fa017bcba5074991b0526f59eaf371c1",
        "type": "ACTION_SEQUENCE",
        "name": "onTouchEndNextBulkPaymentConfirmation",
        "params": [{
            "datatype": "collection",
            "name": "eventobject"
        }, {
            "datatype": "string",
            "name": "x"
        }, {
            "datatype": "string",
            "name": "y"
        }],
        "contextObj": {
            "name": "frmBulkPaymentKA",
            "type": "forms",
            "platform": "",
            "KUID": "a03d9f2c684c4a609513e3446a2ec3e9"
        },
        "language": "js",
        "actions": [{
            "id": "ADD_SNIPPET__b2b06aaca4224c52ae71a886f7a10f87",
            "type": "ADD_SNIPPET",
            "codeSnippet": "if (frmBulkPaymentKA.lblHiddenSelBillsAmt.text > 0){\n    frmBulkPaymentKA.tbxAmount.text = frmBulkPaymentKA.lblHiddenSelBillsAmt.text;\n    frmBulkPaymentKA.tbxAmount.setEnabled(false);\n    frmBulkPaymentKA.flxConfirmPayment.isVisible = true;\n    frmBulkPaymentKA.flxMainContainer.isVisible = false;\n    frmBulkPaymentKA.lblNextPayNow.setEnabled(true);\n}\nelse\n  customAlertPopup(geti18Value(\"i18n.common.alert\"), geti18Value(\"i18n.bills.bulkPaymentPay\"),popupCommonAlertDimiss,\"\", geti18nkey(\"i18n.settings.ok\"), \"\");\n\n/*if (frmBulkPaymentKA.lblHiddenSelBillsAmt.text === '0' || frmBulkPaymentKA.lblHiddenSelBillsAmt.text === 0)\n  {\n    customAlertPopup(\"\", kony.i18n.getLocalizedString(\"i18n.bills.bulkPaymentPay\"), popupCommonAlertDimiss, \"\");\n  }*/\n\n",
            "parentId": null
        }]
    }
}