{
    "AS_Label_d10f105b9a994ffbb9368c805737626c": {
        "id": "AS_Label_d10f105b9a994ffbb9368c805737626c",
        "type": "ACTION_SEQUENCE",
        "name": "onTouchEndAccountDetailsLoanSort",
        "params": [{
            "datatype": "collection",
            "name": "eventobject"
        }, {
            "datatype": "string",
            "name": "x"
        }, {
            "datatype": "string",
            "name": "y"
        }],
        "contextObj": {
            "name": "frmAccountDetailKA",
            "type": "forms",
            "platform": "",
            "KUID": "5ed703cad63c441882fc4a36f5ea0c28"
        },
        "language": "js",
        "actions": [{
            "id": "ADD_SNIPPET__b6dc2d23efe8465381f09a6c84c34650",
            "type": "ADD_SNIPPET",
            "codeSnippet": "animatePopup_Sort();",
            "parentId": null,
            "callbackType": null
        }]
    }
}