{
    "AS_TextField_a98377b5b43a4fce8c24d5c670e35bea": {
        "id": "AS_TextField_a98377b5b43a4fce8c24d5c670e35bea",
        "type": "ACTION_SEQUENCE",
        "name": "onTouchEndAddressApplyCards",
        "params": [{
            "datatype": "collection",
            "name": "eventobject"
        }, {
            "datatype": "string",
            "name": "x"
        }, {
            "datatype": "string",
            "name": "y"
        }],
        "contextObj": {
            "name": "frmApplyNewCardsKA",
            "type": "forms",
            "platform": "",
            "KUID": "a05ce8d2e4404e40bfbc8dad585d28dc"
        },
        "language": "js",
        "actions": [{
            "id": "ADD_SNIPPET__d6f891b7c8654c55a6408a8e7290692c",
            "type": "ADD_SNIPPET",
            "codeSnippet": "animate_NEWCARDSOPTIOS(\"UP\",kony.newCARD.fields.Address[0],frmApplyNewCardsKA[kony.newCARD.fields.Address[1]].text);",
            "parentId": null,
            "callbackType": null
        }]
    }
}