{
    "AS_TextField_f317c3e80a974cc2891a50fa44508762": {
        "id": "AS_TextField_f317c3e80a974cc2891a50fa44508762",
        "type": "ACTION_SEQUENCE",
        "name": "onTouchStartAmntBills",
        "params": [{
            "datatype": "collection",
            "name": "eventobject"
        }, {
            "datatype": "string",
            "name": "x"
        }, {
            "datatype": "string",
            "name": "y"
        }],
        "contextObj": {
            "name": "frmBills",
            "type": "forms",
            "platform": "",
            "KUID": "ade6df6ecf3c4acba302ea54bc0a2e56"
        },
        "language": "js",
        "actions": [{
            "id": "ADD_SNIPPET__dbd82481e7074c949f25ddad32366c4e",
            "type": "ADD_SNIPPET",
            "codeSnippet": "frmNewBillDetails.tbxAmount.text = frmBills.lblHiddenAmnt.text;\nanimateLabel(\"UP\",\"lblAmount\",frmBills.tbxAmount.text);",
            "parentId": null,
            "callbackType": null
        }]
    }
}