{
    "AS_TextField_bea7af23e8fe4318aa64634e1feb3fd1": {
        "id": "AS_TextField_bea7af23e8fe4318aa64634e1feb3fd1",
        "type": "ACTION_SEQUENCE",
        "name": "onTouchEndAddressState",
        "params": [{
            "datatype": "collection",
            "name": "eventobject"
        }, {
            "datatype": "string",
            "name": "x"
        }, {
            "datatype": "string",
            "name": "y"
        }],
        "contextObj": {
            "name": "frmUserSettingsMyProfileKA",
            "type": "forms",
            "platform": "",
            "KUID": "469d331305a541b8b65c6d8bdf903828"
        },
        "language": "js",
        "actions": [{
            "id": "ADD_SNIPPET__d87b635185ff42f7ada9171d4d032f84",
            "type": "ADD_SNIPPET",
            "codeSnippet": "animateLabel(\"UP\",\"lblState\",frmUserSettingsMyProfileKA.txtState.text);",
            "parentId": null
        }]
    }
}