{
    "AS_Label_idf25a9034c64002b77400650c0e0f3b": {
        "id": "AS_Label_idf25a9034c64002b77400650c0e0f3b",
        "type": "ACTION_SEQUENCE",
        "name": "onTouchEndViewTermsandConditionsInternal",
        "params": [{
            "datatype": "collection",
            "name": "eventobject"
        }, {
            "datatype": "string",
            "name": "x"
        }, {
            "datatype": "string",
            "name": "y"
        }],
        "contextObj": {
            "name": "frmApplyNewCardsConfirmKA",
            "type": "forms",
            "platform": "",
            "KUID": "f25354a4fc4e472da6c697e8a8382592"
        },
        "language": "js",
        "actions": [{
            "id": "ADD_SNIPPET__cf14cb33df1f478eadc76e3ad4e698ca",
            "type": "ADD_SNIPPET",
            "codeSnippet": "navigate_INTERNAL_TERMSANDCONDITION_SCREEN(kony.application.getCurrentForm(), kony.newCARD.cardTYPE);",
            "parentId": null,
            "callbackType": null
        }]
    }
}