{
    "AS_Segment_ef182e9bd69845269f08bc53f75c0a0b": {
        "id": "AS_Segment_ef182e9bd69845269f08bc53f75c0a0b",
        "type": "ACTION_SEQUENCE",
        "name": "OpenTermDeposite",
        "params": [{
            "datatype": "collection",
            "name": "eventobject"
        }, {
            "datatype": "number",
            "name": "sectionNumber"
        }, {
            "datatype": "number",
            "name": "rowNumber"
        }],
        "contextObj": {
            "name": "frmAccountDetailsScreen",
            "type": "forms",
            "platform": "",
            "KUID": "fed0ec30912249989a34e309123440c9"
        },
        "language": "js",
        "actions": [{
            "id": "ADD_SNIPPET__d47879085dcf43248ce868a8692e004b",
            "type": "ADD_SNIPPET",
            "codeSnippet": "kony.print(\"global:\" + gblTModule);\nif(gblTModule === \"AccNumberStatement\"){\n  onClickAccReqStmntScreen();\n}else if(gblTModule === \"AccountOrder\"){\n  onClickAccSegToOrderCheckBookScreen();\n}else if(gblTModule === \"OpenTermDepositInterestAccount\"){\n  onClickAccountDetSegInterestToAccountDeposit();\n}else if(gblTModule === \"OpenTermDeposite\"){\n  onClickAccountDetSegDeposite();\n}else{\nonClickAccountDetailsSegment(2);\n}\n",
            "parentId": null,
            "callbackType": null
        }]
    }
}