{
    "AS_FlexContainer_g14c9e38f3b04a03884164d429d4b7e5": {
        "id": "AS_FlexContainer_g14c9e38f3b04a03884164d429d4b7e5",
        "type": "ACTION_SEQUENCE",
        "name": "OuterflexforPopup",
        "params": [{
            "datatype": "collection",
            "name": "eventobject"
        }],
        "contextObj": {
            "name": "frmJoMoPay",
            "type": "forms",
            "platform": null,
            "KUID": "d41a38dfc97d4e0a8f3b1db96d6a1ca0"
        },
        "language": "js",
        "actions": [{
            "id": "ADD_SNIPPET__g8c3debc253146d8be2433bb8e55c9a7",
            "type": "ADD_SNIPPET",
            "codeSnippet": "kony.print(\"On Click of Outer Flex\");",
            "parentId": null,
            "callbackType": null
        }]
    }
}