{
    "AS_Form_ac1757ccde8846a18b3616d01cc5d533": {
        "id": "AS_Form_ac1757ccde8846a18b3616d01cc5d533",
        "type": "ACTION_SEQUENCE",
        "name": "postshowenrolluser",
        "params": [{
            "datatype": "collection",
            "name": "eventobject"
        }],
        "contextObj": {
            "name": "frmEnrolluserLandingKA",
            "type": "forms",
            "platform": "",
            "KUID": "de724966138b4e7c9bfdd35033a0bdb3"
        },
        "language": "js",
        "actions": [{
            "id": "ADD_SNIPPET__edc48533584f42e48da0630c0958f02a",
            "type": "ADD_SNIPPET",
            "codeSnippet": "enrolluserPostShow();",
            "parentId": null,
            "callbackType": null
        }]
    }
}