{
    "AS_Form_d8093a4ba4d745c4908d0a6853f2db03": {
        "id": "AS_Form_d8093a4ba4d745c4908d0a6853f2db03",
        "type": "ACTION_SEQUENCE",
        "name": "preshowNewBillKA",
        "params": [{
            "datatype": "collection",
            "name": "eventobject"
        }],
        "contextObj": {
            "name": "frmNewBillKA",
            "type": "forms",
            "platform": "",
            "KUID": "94b57de480514c9f98e1f6979b71a37b"
        },
        "language": "js",
        "actions": [{
            "id": "ADD_SNIPPET__c25361a2d6874e279882c1b7967d4f32",
            "type": "ADD_SNIPPET",
            "codeSnippet": "if(kony.store.getItem(\"langPrefObj\") === \"en\")\n    kony.boj.lang = \"eng\";\n  else\n    kony.boj.lang = \"ara\";\nanimateLabel(\"DOWN\",\"lblAmount\", frmNewBillKA.tbxAmount.text);\nanimateLabel(\"DOWN\",\"lblBillerNumber\", frmNewBillKA.tbxBillerNumber.text);\nkony.print(\"Biller Reset Flag ::\"+kony.boj.BillerResetFlag);\nif(kony.boj.BillerResetFlag){\n  resetBiller();\n  kony.boj.resetSelectedItemsBiller(\"PrePaid\");\n  kony.boj.resetSelectedItemsBiller(\"PostPaid\");\n  kony.boj.selectedBillerType = \"PostPaid\";\n  kony.boj.BillerResetFlag = false;\n}\nif(frmNewBillKA.lblPaymentMode.text ==  \"Accounts\"){\n  frmNewBillKA.lblPaymentMode.skin = \"sknLblNextDisabled\"\n}\nnextFromNewBillScreen();\nvar amount = frmNewBillKA.tbxAmount.text;\nif (amount === null || amount === \"\" || amount == \".\" || (Number(amount) < 0.01) || amount === 0.00) {\n}\nelse{\n  frmNewBillKA.tbxAmount.text = setDecimal(frmNewBillKA.tbxAmount.text.replace(/,/g,\"\"),3);\n}\nchangeUnderlineskin();\n\nfrmNewBillKA.flxMain.showFadingEdges = false;\nfrmNewBillKA.flxInnerPopup.showFadingEdges = false;\n//frmNewBillKA.btnBillsPayAccounts.text = \"t\"; // hassan pay from credit card\n//frmNewBillKA.btnBillsPayCards.text = \"s\"; // hassan pay from credit card",
            "parentId": null,
            "callbackType": null
        }]
    }
}