{
    "AS_TextField_b9007188ec284e4e9bd0284d2a401e45": {
        "id": "AS_TextField_b9007188ec284e4e9bd0284d2a401e45",
        "type": "ACTION_SEQUENCE",
        "name": "RetunrPayment_Amount_OnDone",
        "params": [{
            "datatype": "collection",
            "name": "eventobject"
        }, {
            "datatype": "string",
            "name": "changedtext"
        }],
        "language": "js",
        "actions": [{
            "id": "ADD_SNIPPET_ide_onDone_cc1d87bcbd404faca319fdbb69654dd7",
            "type": "ADD_SNIPPET",
            "codeSnippet": "gblTModule= \"IPSReturn\";\nvalidateLblNext();",
            "callbackType": null
        }]
    }
}