{
    "AS_Segment_d6d4bc3b6e7e442b9f9d2a902ba925da": {
        "id": "AS_Segment_d6d4bc3b6e7e442b9f9d2a902ba925da",
        "type": "ACTION_SEQUENCE",
        "name": "searchSegRowClick",
        "params": [{
            "datatype": "collection",
            "name": "eventobject"
        }, {
            "datatype": "number",
            "name": "sectionNumber"
        }, {
            "datatype": "number",
            "name": "rowNumber"
        }],
        "contextObj": {
            "name": "frmInformationKA",
            "type": "forms",
            "platform": "",
            "KUID": "f18169832ba24ba09c8780278abfc207"
        },
        "language": "js",
        "actions": [{
            "id": "ADD_SNIPPET__acb149dadf0542118fc67df78b755792",
            "type": "ADD_SNIPPET",
            "codeSnippet": "onRowClickSearchFAQ();",
            "parentId": null,
            "callbackType": null
        }]
    }
}