{
    "AS_Button_d2047e9cb59e498b92a754d50709c068": {
        "id": "AS_Button_d2047e9cb59e498b92a754d50709c068",
        "type": "ACTION_SEQUENCE",
        "name": "securityQuestionsValidate",
        "params": [{
            "datatype": "collection",
            "name": "eventobject"
        }],
        "contextObj": {
            "type": "forms",
            "platform": null,
            "KUID": "f6857ccc7dc3462791659bccc5a32b4e"
        },
        "language": "js",
        "actions": [{
            "id": "ADD_SNIPPET__bdfe73a4705247f6932a34ac8392d2ed",
            "type": "ADD_SNIPPET",
            "codeSnippet": "ValidateSecurityQuestions();\n",
            "parentId": null,
            "callbackType": null
        }]
    }
}