{
    "AS_Button_a1c821d2f7134fc286be4f75a5c840c6": {
        "id": "AS_Button_a1c821d2f7134fc286be4f75a5c840c6",
        "type": "ACTION_SEQUENCE",
        "name": "selectAccountCardClick",
        "params": [{
            "datatype": "collection",
            "name": "eventobject"
        }],
        "language": "js",
        "actions": [{
            "id": "ADD_SNIPPET_onClick_2bc3d546120b406ab536318b6216f3e1",
            "type": "ADD_SNIPPET",
            "codeSnippet": "kony.print(\"deleted\");",
            "callbackType": null
        }]
    }
}