{
    "AS_Label_f1a563b73db34019bf8526ea5be2031a": {
        "id": "AS_Label_f1a563b73db34019bf8526ea5be2031a",
        "type": "ACTION_SEQUENCE",
        "name": "TransfertoFrequecyList",
        "params": [{
            "datatype": "collection",
            "name": "eventobject"
        }, {
            "datatype": "string",
            "name": "x"
        }, {
            "datatype": "string",
            "name": "y"
        }],
        "contextObj": {
            "name": "frmNewTransferKA",
            "type": "forms",
            "platform": "",
            "KUID": "2ac343500306428da0ceef91a3b44d18"
        },
        "language": "js",
        "actions": [{
            "id": "ADD_SNIPPET__he9f3717fdc248aaa0060e256e208590",
            "type": "ADD_SNIPPET",
            "codeSnippet": "var amount = frmNewTransferKA.txtBox.text;\nif (amount === null || amount === \"\" || amount == \".\" || (Number(amount) < 0.01) || amount === 0.00) {\n    kony.print(\"Amount is either null or empty\");\n} else {\n    frmNewTransferKA.lblHiddenAmount.text = frmNewTransferKA.txtBox.text;\n    frmNewTransferKA.txtBox.text = formatAmountwithcomma(amount, frmNewTransferKA.lblDecimal.text);\n}\nenableNext();\nfrmFrequencyList.show();",
            "parentId": null,
            "callbackType": null
        }]
    }
}