{
    "@class": "com.kony.gen.viz.model.component.KVizButton",
    "DNDConfig": null,
    "__parentReadjusting__": false,
    "_height_": {
        "type": "string",
        "value": "100%"
    },
    "_margin_": [
        6,
        6,
        6,
        6
    ],
    "_padding_": [
        0,
        0,
        0,
        0
    ],
    "_right_": {
        "type": "string",
        "value": "0%"
    },
    "_skin_": "sef0e6318cb74729a63354552567c681",
    "_text_": "Next",
    "_top_": {
        "type": "string",
        "value": "0%"
    },
    "_width_": {
        "type": "string",
        "value": "20%"
    },
    "canUpdateUI": true,
    "centery": {
        "type": "string",
        "value": "50%"
    },
    "containerweight": 100,
    "contentalignment": 5,
    "displaytext": true,
    "focusskin": "s10149300144466da99cbf92f4fdacc8",
    "id": "btnNextCardless",
    "info": null,
    "isvisible": false,
    "kuid": "jd2e409196ed4d1e8e9e753e81e2f2d8",
    "name": "kony.ui.Button",
    "parent": "flxTop",
    "pf": "frmManageCardLess",
    "texti18n": "i18n.login.next",
    "wType": "Button",
    "zindex": 2
}