{
    "AS_Button_g10a6994274d4f668bda72f31eaa9b39": {
        "id": "AS_Button_g10a6994274d4f668bda72f31eaa9b39",
        "type": "ACTION_SEQUENCE",
        "params": [{
            "datatype": "FormController",
            "name": "form"
        }],
        "contextObj": {
            "name": "frmWatMenu",
            "type": "forms",
            "platform": null,
            "KUID": "ea59f4de6a074958ad1b469a50249501"
        },
        "language": "swift",
        "actions": [{
            "id": "ADD_SNIPPET__df7fe9d0da814bc99e91be6dac2a0d8c",
            "type": "ADD_SNIPPET",
            "codeSnippet": "let context = [\"token\": \"3\"]\nform.pushController(withName: \"frmWatMenuItemList\", context: context);",
            "parentId": null,
            "callbackType": null
        }]
    }
}