{
    "DNDConfig": null,
    "__parentReadjusting__": false,
    "_height_": {
        "type": "string",
        "value": "100%"
    },
    "_left_": {
        "type": "string",
        "value": "0%"
    },
    "_margin_": [
        0,
        0,
        0,
        0
    ],
    "_padding_": [
        0,
        0,
        0,
        0
    ],
    "_skin_": "s1d6765e152540efaccdc209eca1a859",
    "_top_": {
        "type": "string",
        "value": "0dp"
    },
    "_width_": {
        "type": "string",
        "value": "100%"
    },
    "allboxes": [],
    "allowhorizontalbounce": false,
    "allowverticalbounce": true,
    "bounces": false,
    "canUpdateUI": true,
    "children": [
        "segAccountKA",
        "yourAccount4"
    ],
    "clipbounds": true,
    "containerweight": 100,
    "decelerat": false,
    "dragg": false,
    "enabled": false,
    "enablescrolling": true,
    "horizontalscrollindicator": true,
    "id": "accountsInnerScroll",
    "info": null,
    "isvisible": true,
    "kuid": "ce3eacd015c34c7f9fa68d3eee1fc642",
    "layouttype": 4,
    "name": "kony.ui.FlexScrollContainer",
    "onscrollend": "AS_FlexScrollContainer_750b5012c89947a499fb7cc6e7552e85",
    "onscrolling": "AS_FlexScrollContainer_9f37cc907dd84bc9a4968295a25158fb",
    "orientation": 6,
    "pagingenabled": false,
    "parent": "accountsOuterScroll",
    "percent": true,
    "pf": "frmPickAProductKA",
    "scrolldirection": 2,
    "snapgridsize": 10,
    "snaptogrid": true,
    "track": false,
    "verticalscrollindicator": false,
    "vizProps": {
        "hide": false
    },
    "wType": "FlexScrollContainer",
    "widgetalignment": 1
}