{
    "@class": "com.kony.gen.viz.model.container.KVizSegment2",
    "DNDConfig": null,
    "__parentReadjusting__": false,
    "_bounces_": false,
    "_data_": [
        {
            "CopylblAmount0a2751be25d5944": {
                "@class": "com.viz.ide.model.segment.SimpleTextSegmentData",
                "text": "o"
            },
            "lblAmount": {
                "@class": "com.viz.ide.model.segment.SimpleTextSegmentData",
                "text": "13244 JOD"
            },
            "lblInitial": {
                "@class": "com.viz.ide.model.segment.SimpleTextSegmentData",
                "text": "JW"
            },
            "lblTransactionDesc": {
                "@class": "com.viz.ide.model.segment.SimpleTextSegmentData",
                "text": "Jordan Water"
            },
            "lblTransactiondate": {
                "@class": "com.viz.ide.model.segment.SimpleTextSegmentData",
                "text": "10 Feb 2010"
            }
        },
        {
            "CopylblAmount0a2751be25d5944": {
                "@class": "com.viz.ide.model.segment.SimpleTextSegmentData",
                "text": "o"
            },
            "lblAmount": {
                "@class": "com.viz.ide.model.segment.SimpleTextSegmentData",
                "text": "13244 JOD"
            },
            "lblInitial": {
                "@class": "com.viz.ide.model.segment.SimpleTextSegmentData",
                "text": "JW"
            },
            "lblTransactionDesc": {
                "@class": "com.viz.ide.model.segment.SimpleTextSegmentData",
                "text": "Jordan Water"
            },
            "lblTransactiondate": {
                "@class": "com.viz.ide.model.segment.SimpleTextSegmentData",
                "text": "10 Feb 2010"
            }
        },
        {
            "CopylblAmount0a2751be25d5944": {
                "@class": "com.viz.ide.model.segment.SimpleTextSegmentData",
                "text": "o"
            },
            "lblAmount": {
                "@class": "com.viz.ide.model.segment.SimpleTextSegmentData",
                "text": "13244 JOD"
            },
            "lblInitial": {
                "@class": "com.viz.ide.model.segment.SimpleTextSegmentData",
                "text": "JW"
            },
            "lblTransactionDesc": {
                "@class": "com.viz.ide.model.segment.SimpleTextSegmentData",
                "text": "Jordan Water"
            },
            "lblTransactiondate": {
                "@class": "com.viz.ide.model.segment.SimpleTextSegmentData",
                "text": "10 Feb 2010"
            }
        }
    ],
    "_height_": {
        "type": "string",
        "value": "100%"
    },
    "_indicator_": "none",
    "_left_": {
        "type": "string",
        "value": "0%"
    },
    "_margin_": [
        0,
        0,
        0,
        0
    ],
    "_orientation_": 2,
    "_padding_": [
        0,
        0,
        0,
        0
    ],
    "_top_": {
        "type": "string",
        "value": "0%"
    },
    "_width_": {
        "type": "ref",
        "value": "preferred"
    },
    "autogrowmode": 0,
    "canUpdateUI": true,
    "containerweight": 100,
    "counter": "02",
    "disabledSkins": {},
    "focusedindex": null,
    "focuseditem": null,
    "groupcells": false,
    "hasSections": false,
    "id": "segSIList",
    "ide_onRowClick": "AS_Segment_efe741d62b2d40ba9bab8c4a6bbaf03a",
    "info": null,
    "ipad": {
        "psp": {
            "indicator": "rowselect"
        }
    },
    "iphone": {
        "psp": {
            "bounces": false,
            "indicator": "none"
        }
    },
    "isvisible": true,
    "kuid": "he0a406fd5ba4568a75464af5ea6a463",
    "masterdata": {},
    "name": "kony.ui.SegmentedUI2",
    "needpageindicator": true,
    "pageoffdotimage": "pageoffdot.png",
    "pageondotimage": "pageondot.png",
    "paginationconfig": {
        "position": "bottom"
    },
    "parent": "flxSIList",
    "pf": "frmStandingInstructions",
    "retainselection": false,
    "rowTemplateId": "b0daa2c6604745feb741a6da16b651e3",
    "rowcounter": 2,
    "rowfocusskin": "sf11e43ab7bd4b70939ed7671368f2a8",
    "rowskin": "sf11e43ab7bd4b70939ed7671368f2a8",
    "rowtemplate": "flxtmpSIList",
    "screenlevelwidget": false,
    "seccounter": 0,
    "sectionHeaderTemplateId": null,
    "sectionheaderskin": "s67621b8a82d49f285da06b4f5a0c993",
    "selectedRows": null,
    "selectedState": false,
    "selectedindex": null,
    "selectedindices": null,
    "selecteditems": null,
    "selectedsectionindex": 0,
    "selectionbehavior": "default",
    "separatorcolor": "1e415b00",
    "separatorrequired": true,
    "separatorthickness": 1,
    "showscrollbars": false,
    "viewtype": "tableview",
    "vizProps": {},
    "wType": "Segment",
    "widgetalignment": 5,
    "widgetdatamap": {
        "CopyflxTAmount0bc17ffab355945": "CopyflxTAmount0bc17ffab355945",
        "CopylblAmount0a2751be25d5944": "CopylblAmount0a2751be25d5944",
        "flxIcon1": "flxIcon1",
        "flxTAmount": "flxTAmount",
        "flxUserDetails": "flxUserDetails",
        "flxtmpSIList": "flxtmpSIList",
        "lblAmount": "lblAmount",
        "lblInitial": "lblInitial",
        "lblTransactionDesc": "lblTransactionDesc",
        "lblTransactiondate": "lblTransactiondate"
    },
    "zindex": 1
}