{
    "@class": "com.kony.gen.viz.model.component.KVizButton",
    "DNDConfig": null,
    "__parentReadjusting__": false,
    "_height_": {
        "type": "string",
        "value": "75%"
    },
    "_left_": {
        "type": "string",
        "value": "35%"
    },
    "_margin_": [
        6,
        6,
        6,
        6
    ],
    "_padding_": [
        0,
        0,
        0,
        0
    ],
    "_skin_": "s17e292d54bd48bd8bd8a070c6c1819a",
    "_text_": "Text",
    "_top_": {
        "type": "string",
        "value": "2%"
    },
    "_width_": {
        "type": "string",
        "value": "30%"
    },
    "android": {
        "psp": {}
    },
    "canUpdateUI": true,
    "centery": {
        "type": "string",
        "value": "50%"
    },
    "containerweight": 100,
    "contentalignment": 5,
    "disabledSkins": {},
    "displaytext": true,
    "focusskin": "sbe1e969bc9948e288db010580bd90b0",
    "id": "btntext",
    "ide_onClick": "AS_Button_a3ecc24341644f45aef4b5c73ef13d47",
    "info": null,
    "isvisible": true,
    "kuid": "daaddcea5a474837bd366010d9107993",
    "name": "kony.ui.Button",
    "parent": "flxAliasTypes",
    "pf": "frmEPS",
    "wType": "Button",
    "zindex": 1
}