{
    "@class": "com.kony.gen.viz.model.component.KVizTextBox2",
    "DNDConfig": null,
    "__parentReadjusting__": false,
    "_bottom_": {
        "type": "string",
        "value": "4.00%"
    },
    "_height_": {
        "type": "string",
        "value": "60%"
    },
    "_margin_": [
        0,
        0,
        0,
        0
    ],
    "_padding_": [
        3,
        0,
        0,
        0
    ],
    "_placeholder_": "",
    "_skin_": "s029998596d3421892d0917ea7492e1d",
    "_text_": "",
    "_width_": {
        "type": "string",
        "value": "100%"
    },
    "accessibilityconfig": {
        "a11yLabel": "Enter your Username"
    },
    "android": {
        "ide_onEndEditing": "AS_TextField_i3decf745ebf460c91e812d07692e1d5",
        "psp": {
            "keyboardActionLabel": 12
        }
    },
    "autocapitalize": "all",
    "autocomplete": false,
    "autocorrect": false,
    "autofilter": false,
    "canUpdateUI": true,
    "centerx": {
        "type": "string",
        "value": "49.98%"
    },
    "containerheight": "",
    "containerheightmode": 1,
    "containerweight": 100,
    "contentalignment": 4,
    "disabledSkins": {},
    "focusskin": "s029998596d3421892d0917ea7492e1d",
    "id": "txtAliasName",
    "ide_onDone": "AS_TextField_bbda995544a54b028734549a89352363",
    "ide_onTextChange": "AS_TextField_dea4865cb373423fb3710fc0e4f4d0f0",
    "ide_onTouchEnd": "AS_TextField_a3e6c9fe63bc41fe8449f9e446116974",
    "info": null,
    "iphone": {
        "ide_onEndEditing": "AS_TextField_ac714b94f11d449084c84019bf0e886b",
        "psp": {
            "keyboardActionLabel": 1,
            "showClearButton": false,
            "showCloseButton": false
        }
    },
    "isvisible": true,
    "keyboardactionlabel": 4,
    "keyboardtype": "A",
    "kuid": "eedf72fc5e364d5b8bf5ec587baf2220",
    "maxtextlength": 15,
    "mode": "A",
    "name": "kony.ui.TextBox2",
    "parent": "flxAliassName",
    "pf": "frmEPS",
    "securetextentry": false,
    "showclearbutton": false,
    "textinputmode": "A",
    "viewtype": "default",
    "wType": "TextField",
    "zindex": 1
}