{
    "@class": "com.kony.gen.viz.model.component.KVizTextBox2",
    "DNDConfig": null,
    "__parentReadjusting__": false,
    "_bottom_": {
        "type": "string",
        "value": "4%"
    },
    "_height_": {
        "type": "string",
        "value": "60%"
    },
    "_margin_": [
        0,
        0,
        0,
        0
    ],
    "_padding_": [
        3,
        0,
        0,
        0
    ],
    "_placeholder_": "",
    "_skin_": "s029998596d3421892d0917ea7492e1d",
    "_text_": "",
    "_width_": {
        "type": "string",
        "value": "100%"
    },
    "android": {
        "ide_onBeginEditing": "AS_TextField_b3996fe6ba2b424d925c542af97cb61e",
        "ide_onEndEditing": "AS_TextField_b977082ceeec41adadd2f0d795124d23"
    },
    "autocapitalize": "none",
    "autocomplete": false,
    "autocorrect": false,
    "autofilter": false,
    "canUpdateUI": true,
    "centerx": {
        "type": "string",
        "value": "50%"
    },
    "containerheight": "",
    "containerheightmode": 1,
    "containerweight": 100,
    "contentalignment": 4,
    "disabledSkins": {},
    "focusskin": "s029998596d3421892d0917ea7492e1d",
    "id": "txtEmail2",
    "ide_onDone": "AS_TextField_e9c586fa1e6a477a92f66b9d7f4fb480",
    "ide_onTextChange": "AS_TextField_h56fcccb056144b4b1d494add2b2cf3b",
    "ide_onTouchEnd": "AS_TextField_g3345678d58247899db56ce093064d38",
    "ide_onTouchStart": "AS_TextField_jd357dbb293b467abd4f16b16897da42",
    "info": null,
    "iphone": {
        "ide_onBeginEditing": "AS_TextField_j27bd31af4844a7a81caa2a47a6d8584",
        "ide_onEndEditing": "AS_TextField_fd91cd4910f54e308b0741f8073565b6"
    },
    "isvisible": true,
    "keyboardtype": "A",
    "kuid": "fe125406a3d04e95bc84a08fa8651d19",
    "mode": "A",
    "name": "kony.ui.TextBox2",
    "parent": "FlxEmail2",
    "pf": "frmEstatementLandingKA",
    "placeholderskin": "sfa36c5ffd8f4b39894ae352f59c3406",
    "securetextentry": false,
    "textinputmode": "A",
    "viewtype": "default",
    "wType": "TextField",
    "zindex": 10
}