{
    "@class": "com.kony.gen.viz.model.component.KVizButton",
    "DNDConfig": null,
    "__parentReadjusting__": false,
    "_height_": {
        "type": "string",
        "value": "50dp"
    },
    "_left_": {
        "type": "string",
        "value": "0dp"
    },
    "_margin_": [
        6,
        6,
        6,
        6
    ],
    "_padding_": [
        0,
        0,
        0,
        0
    ],
    "_skin_": "s1a96e0a6f17402ca691f55c7b41e893",
    "_text_": "Cancel",
    "_width_": {
        "type": "string",
        "value": "70dp"
    },
    "canUpdateUI": true,
    "centery": {
        "type": "string",
        "value": "50%"
    },
    "containerweight": 100,
    "contentalignment": 5,
    "displaytext": true,
    "focusskin": "s55cab51ac7b40b5a2db38b7b9c5822a",
    "id": "btnCancel",
    "ide_onClick": "AS_Button_ec2995699abc47aa9218dac928e78320",
    "info": null,
    "iphone": {
        "psp": {
            "showProgressIndicator": false
        }
    },
    "isvisible": true,
    "kuid": "i827857df92b47639ddfc76dcdb4f49b",
    "minwidth": {
        "type": "string",
        "value": "50dp"
    },
    "name": "kony.ui.Button",
    "onclick": "AS_Button_40016ebff35f4a0abcdfe300a0bf7a38",
    "paddinginpixel": false,
    "parent": "flxHeader",
    "pf": "frmNewUserOnboardVerificationKA",
    "showprogressindicator": false,
    "texti18n": "i18n.common.cancel",
    "wType": "Button",
    "zindex": 1
}