{
    "@class": "com.kony.gen.viz.model.component.KVizButton",
    "DNDConfig": null,
    "__parentReadjusting__": false,
    "_height_": {
        "type": "string",
        "value": "40dp"
    },
    "_margin_": [
        6,
        6,
        6,
        6
    ],
    "_padding_": [
        0,
        0,
        0,
        0
    ],
    "_skin_": "sbb397d3e31447f9b565b21a3ae882ef",
    "_text_": "RE-SEND ",
    "_top_": {
        "type": "string",
        "value": "0%"
    },
    "_width_": {
        "type": "string",
        "value": "120dp"
    },
    "canUpdateUI": true,
    "centerx": {
        "type": "string",
        "value": "50.00%"
    },
    "containerweight": 100,
    "contentalignment": 5,
    "disabledSkins": {},
    "displaytext": true,
    "focusskin": "safd2e944a324c729bda666e43e199cd",
    "id": "buttonResendotpKA",
    "ide_onClick": "AS_Button_d61984d35b724f1f8cf194a150ddbb53",
    "info": null,
    "isvisible": true,
    "kuid": "abc09a6b89a14857b839c04d25837c9b",
    "name": "kony.ui.Button",
    "parent": "flxButtonsWrapper",
    "pf": "frmNewUserOnboardVerificationKA",
    "texti18n": "i18n.NewUserOnboarding.RESENDOTP",
    "wType": "Button",
    "zindex": 1
}