{
    "DNDConfig": null,
    "__parentReadjusting__": false,
    "_height_": {
        "type": "string",
        "value": "92%"
    },
    "_left_": {
        "type": "string",
        "value": "0dp"
    },
    "_margin_": [
        0,
        0,
        0,
        0
    ],
    "_orientation_": 6,
    "_padding_": [
        0,
        0,
        0,
        0
    ],
    "_percent_": true,
    "_skin_": "s68c6a00fb1440c7ad8eafdfa9e188cf",
    "_top_": {
        "type": "string",
        "value": "8%"
    },
    "_width_": {
        "type": "string",
        "value": "100%"
    },
    "allboxes": [],
    "autogrowmode": 0,
    "canUpdateUI": true,
    "children": [
        "tabsWrapper",
        "lblOTPKA",
        "flxOTPinBoxes",
        "lblDescriptionKA",
        "lblDescriptionContinuationKA",
        "TextfieldenterpinKA",
        "lblLineKA",
        "lblInCorrectpinKA",
        "flxButtonsWrapper"
    ],
    "clipbounds": true,
    "containerweight": 100,
    "enablescrolling": true,
    "id": "flxMainKA",
    "info": null,
    "isvisible": true,
    "kuid": "b8f064862eee4fdaa73cd2c8b58f5889",
    "layouttype": 4,
    "name": "kony.ui.FlexContainer",
    "parent": "FlxMain",
    "pf": "frmNewUserOnboardVerificationKA",
    "snapgridsize": 10,
    "snaptogrid": true,
    "wType": "FlexContainer",
    "widgetalignment": 1,
    "zindex": 1
}