{
    "@class": "com.kony.gen.viz.model.component.KVizTextBox2",
    "DNDConfig": null,
    "__parentReadjusting__": false,
    "_height_": {
        "type": "string",
        "value": "40dp"
    },
    "_margin_": [
        0,
        0,
        0,
        0
    ],
    "_padding_": [
        3,
        0,
        0,
        0
    ],
    "_placeholder_": "X X X X X ",
    "_skin_": "sfeb20d5233a455582c84c14f5ec1de2",
    "_text_": "",
    "_top_": {
        "type": "string",
        "value": "5%"
    },
    "_width_": {
        "type": "string",
        "value": "50%"
    },
    "android": {},
    "autocapitalize": "none",
    "autocomplete": false,
    "autocorrect": false,
    "autofilter": false,
    "canUpdateUI": true,
    "centerx": {
        "type": "string",
        "value": "50%"
    },
    "containerheight": "",
    "containerheightmode": 1,
    "containerweight": 100,
    "contentalignment": 5,
    "focusskin": "s16addfe9da944a3add187c9cd34aa56",
    "id": "TextfieldenterpinKA",
    "ide_onTextChange": "AS_TextField_ic6dca93b74646aeb036f044ff9c6f17",
    "info": null,
    "iphone": {
        "psp": {
            "pasteboardType": 4,
            "showClearButton": true
        }
    },
    "isvisible": true,
    "keyboardstyle": "A",
    "keyboardtype": "A",
    "kuid": "h109777e05b946b79a4c49d81b9314e5",
    "maxtextlength": 5,
    "mode": "N",
    "name": "kony.ui.TextBox2",
    "parent": "flxMainKA",
    "pf": "frmNewUserOnboardVerificationKA",
    "placeholderi18n": "i18n.NUO.XXXXX",
    "placeholderskin": "sfa36c5ffd8f4b39894ae352f59c3406",
    "securetextentry": false,
    "textinputmode": "N",
    "viewtype": "default",
    "wType": "TextField",
    "zindex": 1
}