{
    "@class": "com.kony.gen.viz.model.component.KVizTextBox2",
    "DNDConfig": null,
    "__parentReadjusting__": false,
    "_height_": {
        "type": "string",
        "value": "40dp"
    },
    "_left_": {
        "type": "string",
        "value": "10%"
    },
    "_margin_": [
        0,
        0,
        0,
        0
    ],
    "_padding_": [
        3,
        0,
        0,
        0
    ],
    "_placeholder_": "",
    "_skin_": "sf877c4652534e40b40e74b79f9b1115",
    "_text_": "",
    "_width_": {
        "type": "string",
        "value": "12%"
    },
    "autocapitalize": "none",
    "autocomplete": false,
    "autocorrect": false,
    "autofilter": false,
    "canUpdateUI": true,
    "centery": {
        "type": "string",
        "value": "50%"
    },
    "containerheight": "",
    "containerheightmode": 1,
    "containerweight": 100,
    "contentalignment": 4,
    "id": "txtbox1KA",
    "info": null,
    "isvisible": true,
    "keyboardtype": "A",
    "kuid": "e140d9a8b86d44ea8532742dd7f481ed",
    "mode": "A",
    "name": "kony.ui.TextBox2",
    "parent": "flxOTPinBoxes",
    "pf": "frmNewUserOnboardVerificationKA",
    "securetextentry": false,
    "textinputmode": "A",
    "viewtype": "default",
    "wType": "TextField",
    "zindex": 1
}