{
  "operationConfig" : {
    "name" : "prAddBeneficiary2722",
    "type" : "MappedToBackend",
    "cachable" : false,
    "smsEnabled" : false,
    "security" : "public",
    "responseEncoding" : "UTF-8",
    "httpMethod" : "GET",
    "decodeResponseBody" : false,
    "iMapping" : "<?xml version=\"1.0\" encoding=\"UTF-8\" standalone=\"yes\"?><mapper xmlns=\"http://www.kony.com/ns/mapper\">      <map inputpath=\"request_in\" outputpath=\"request_out\">            <set-param inputpath=\"BENE_BANK_COUNTRY\" outputpath=\"BENE_BANK_COUNTRY\"/>            <set-param inputpath=\"P_BENE_TYPE\" outputpath=\"P_BENE_TYPE\"/>            <set-param inputpath=\"bene_email\" outputpath=\"bene_email\"/>            <set-param inputpath=\"Fav_flag\" outputpath=\"Fav_flag\"/>            <set-param inputpath=\"nickName\" outputpath=\"nickName\"/>            <set-param inputpath=\"bene_city\" outputpath=\"bene_city\"/>            <set-param inputpath=\"benBranchNo\" outputpath=\"benBranchNo\"/>            <set-param inputpath=\"bankName\" outputpath=\"bankName\"/>            <set-param inputpath=\"BENE_BANK_SWIFT\" outputpath=\"BENE_BANK_SWIFT\"/>            <set-param inputpath=\"bene_bank_city\" outputpath=\"bene_bank_city\"/>            <set-param inputpath=\"beneficiaryName\" outputpath=\"beneficiaryName\"/>            <set-param inputpath=\"custId\" outputpath=\"custId\"/>            <set-param inputpath=\"benAcctNo\" outputpath=\"benAcctNo\"/>            <set-param inputpath=\"bene_address1\" outputpath=\"bene_address1\"/>            <set-param inputpath=\"bene_address2\" outputpath=\"bene_address2\"/>      </map></mapper>",
    "oMapping" : "<?xml version=\"1.0\" encoding=\"UTF-8\" standalone=\"yes\"?><mapper xmlns=\"http://www.kony.com/ns/mapper\">        <map inputpath=\"response_in\" outputpath=\"response_out\">                <set-param inputpath=\"ReferenceNumber\" outputpath=\"ReferenceNumber\"/>                <set-param inputpath=\"ErrorCode\" outputpath=\"ErrorCode\"/>        </map></mapper>",
    "applyCommonMapping" : false,
    "backendMeta" : {
      "serviceVersion" : "1.0",
      "operationName" : "prAddBeneficiary",
      "serviceName" : "prAddBeneficiary"
    },
    "relationshipHierarchyMapping" : {
      "children" : [ ],
      "name" : "ExternalAccounts",
      "selected" : true
    },
    "requestXmlMappingOverride" : true,
    "responseXmlMappingOverride" : true
  }
}