{
    "@class": "com.kony.gen.viz.model.component.KVizTextBox2",
    "DNDConfig": null,
    "__parentReadjusting__": false,
    "_height_": {
        "type": "string",
        "value": "60%"
    },
    "_left_": {
        "type": "string",
        "value": "0%"
    },
    "_margin_": [
        0,
        0,
        0,
        0
    ],
    "_padding_": [
        0,
        0,
        0,
        0
    ],
    "_placeholder_": "",
    "_skin_": "sa25e426dcb94c13ab46f59a2b31a09a",
    "_text_": "",
    "_top_": {
        "type": "string",
        "value": "35%"
    },
    "_width_": {
        "type": "string",
        "value": "100%"
    },
    "android": {
        "ide_onBeginEditing": "AS_TextField_b2492f65ca644af69de91444fc412c3d",
        "ide_onEndEditing": "AS_TextField_ada3321807a4426388fef976421e1c4e"
    },
    "autocapitalize": "none",
    "autocomplete": false,
    "autocorrect": false,
    "autofilter": false,
    "canUpdateUI": true,
    "containerheight": "",
    "containerheightmode": 1,
    "containerweight": 100,
    "contentalignment": 4,
    "focusskin": "sa25e426dcb94c13ab46f59a2b31a09a",
    "id": "txtNationalID",
    "ide_onDone": "AS_TextField_b19efdcf634b442fa6bf5568337a879c",
    "ide_onTextChange": "AS_TextField_gf77d5b26c0045e48a0245fd4238c090",
    "info": null,
    "iphone": {
        "ide_onBeginEditing": "AS_TextField_e10fab45dd734a7fbb3530c814671a9a",
        "ide_onEndEditing": "AS_TextField_b8d4f87f26ec4539bb794a266471e215",
        "psp": {
            "inputAccessoryViewType": 3,
            "keyboardActionLabel": 1
        }
    },
    "isvisible": true,
    "keyboardstyle": "digitpad",
    "keyboardtype": "A",
    "kuid": "d977a4da825f4725a3fa457da9d65cc1",
    "maxtextlength": 10,
    "mode": "N",
    "name": "kony.ui.TextBox2",
    "paddinginpixel": false,
    "parent": "flxNationalID",
    "pf": "frmRegisterUser",
    "securetextentry": false,
    "textinputmode": "N",
    "viewtype": "default",
    "wType": "TextField",
    "zindex": 1
}