{
    "@class": "com.kony.gen.viz.model.component.KVizLabel",
    "DNDConfig": null,
    "__parentReadjusting__": false,
    "_height_": {
        "type": "ref",
        "value": "preferred"
    },
    "_left_": {
        "type": "string",
        "value": "35%"
    },
    "_margin_": [
        1,
        1,
        1,
        1
    ],
    "_padding_": [
        0,
        0,
        0,
        0
    ],
    "_skin_": "s88fa9c8adb74f2ab6c5ba41197df9a1",
    "_text_": "password",
    "_width_": {
        "type": "ref",
        "value": "preferred"
    },
    "_wrapping_": 2,
    "android": {
        "textStyle": {
            "letterSpacing": 0,
            "strikeThrough": false
        }
    },
    "canUpdateUI": true,
    "centery": {
        "type": "string",
        "value": "60%"
    },
    "containerId": true,
    "containerweight": 100,
    "contentalignment": 4,
    "id": "tmpAuthMode",
    "info": null,
    "ipad": {
        "psp": {
            "wrapping": 2
        }
    },
    "iphone": {
        "psp": {
            "wrapping": 2
        }
    },
    "isvisible": false,
    "kuid": "a76f7f8d51f64c12a79bdb68d81edbc0",
    "name": "kony.ui.Label",
    "parent": "flxtmpMain",
    "pf": "tmpSegLoginMethods",
    "tooltip": "",
    "wType": "Label",
    "zindex": 1
}