{
    "@class": "com.kony.gen.viz.model.component.KVizButton",
    "DNDConfig": null,
    "__parentReadjusting__": false,
    "_height_": {
        "type": "string",
        "value": "100%"
    },
    "_left_": {
        "type": "string",
        "value": "0%"
    },
    "_margin_": [
        6,
        6,
        6,
        6
    ],
    "_padding_": [
        0,
        0,
        0,
        1
    ],
    "_skin_": "s41fb5693a024ca6af3b2c8c71179333",
    "_text_": "outwards",
    "_top_": {
        "type": "string",
        "value": "0%"
    },
    "_width_": {
        "type": "string",
        "value": "50%"
    },
    "canUpdateUI": true,
    "containerweight": 100,
    "contentalignment": 5,
    "displaytext": true,
    "focusskin": "s0eacd0585e64c81a58d225fcf6cd7c5",
    "id": "btnOutwards",
    "ide_onClick": "AS_Button_d830a62d5d784c96a60ea69a43b08802",
    "info": null,
    "isvisible": true,
    "kuid": "gfffc28abebf4c17aa17e2c2ff8330a0",
    "name": "kony.ui.Button",
    "paddinginpixel": false,
    "parent": "flxTab",
    "pf": "frmTransferStatus",
    "texti18n": "i18n.transferstatus.outward",
    "wType": "Button",
    "zindex": 1
}