{
    "@class": "com.kony.gen.viz.model.container.KVizSegment2",
    "DNDConfig": null,
    "__parentReadjusting__": false,
    "_bounces_": false,
    "_data_": [
        {
            "lblAccountNumber": {
                "@class": "com.viz.ide.model.segment.SimpleTextSegmentData",
                "text": "Account Number"
            },
            "lblAmount": {
                "@class": "com.viz.ide.model.segment.SimpleTextSegmentData",
                "text": "Account Number"
            },
            "lblBeneficiaryName": {
                "@class": "com.viz.ide.model.segment.SimpleTextSegmentData",
                "text": "Nick Name"
            },
            "lblDate": {
                "@class": "com.viz.ide.model.segment.SimpleTextSegmentData",
                "text": "11/11/2019"
            },
            "lblInitial": {
                "@class": "com.viz.ide.model.segment.SimpleTextSegmentData",
                "text": "BH"
            },
            "lblRightIcon": {
                "@class": "com.viz.ide.model.segment.SimpleTextSegmentData",
                "i18nkey": "i18n.appsettings.more",
                "text": ""
            }
        }
    ],
    "_height_": {
        "type": "string",
        "value": "89%"
    },
    "_indicator_": "none",
    "_left_": {
        "type": "string",
        "value": "0%"
    },
    "_margin_": [
        0,
        0,
        0,
        0
    ],
    "_orientation_": 2,
    "_padding_": [
        0,
        0,
        0,
        0
    ],
    "_top_": {
        "type": "string",
        "value": "11%"
    },
    "_width_": {
        "type": "string",
        "value": "100%"
    },
    "autogrowmode": 0,
    "canUpdateUI": true,
    "containerweight": 100,
    "counter": "00",
    "focusedindex": null,
    "focuseditem": null,
    "groupcells": false,
    "hasSections": false,
    "id": "segTransferStatus",
    "ide_onRowClick": "AS_Segment_gd17be748dc64f8ab6d613c1e64ffe22",
    "info": null,
    "ipad": {
        "psp": {
            "indicator": "rowselect"
        }
    },
    "iphone": {
        "psp": {
            "bounces": false,
            "indicator": "none"
        }
    },
    "isvisible": true,
    "kuid": "b6ed67bcef7f460aa449b84dc3bc8775",
    "masterdata": {},
    "name": "kony.ui.SegmentedUI2",
    "needpageindicator": true,
    "pageoffdotimage": "pageoffdot.png",
    "pageondotimage": "pageondot.png",
    "paginationconfig": {
        "position": "bottom"
    },
    "parent": "flxTransferStatusBody",
    "pf": "frmTransferStatus",
    "retainselection": false,
    "rowTemplateId": "a3b585c09a4a487e91d44fc64513f1d8",
    "rowcounter": 0,
    "rowfocusskin": "s8903f6623d243928a3e3fa499a4830a",
    "rowskin": "s8903f6623d243928a3e3fa499a4830a",
    "rowtemplate": "flxTransactionStatusSegDetails",
    "screenlevelwidget": false,
    "seccounter": 0,
    "sectionheaderskin": "s67621b8a82d49f285da06b4f5a0c993",
    "selectedRows": null,
    "selectedState": false,
    "selectedindex": null,
    "selectedindices": null,
    "selecteditems": null,
    "selectedsectionindex": 0,
    "selectionbehavior": "default",
    "separatorrequired": false,
    "showscrollbars": false,
    "viewtype": "tableview",
    "wType": "Segment",
    "widgetalignment": 5,
    "widgetdatamap": {
        "contactListDivider": "contactListDivider",
        "flxIcon1": "flxIcon1",
        "flxTransactionStatusDetails": "flxTransactionStatusDetails",
        "flxTransactionStatusSegDetails": "flxTransactionStatusSegDetails",
        "lblAccountNumber": "lblAccountNumber",
        "lblAmount": "lblAmount",
        "lblBeneficiaryName": "lblBeneficiaryName",
        "lblDate": "lblDate",
        "lblInitial": "lblInitial",
        "lblRightIcon": "lblRightIcon"
    },
    "zindex": 1
}