{
    "@class": "com.kony.gen.viz.model.component.KVizButton",
    "DNDConfig": null,
    "__parentReadjusting__": false,
    "_height_": {
        "type": "string",
        "value": "50dp"
    },
    "_left_": {
        "type": "string",
        "value": "0dp"
    },
    "_margin_": [
        6,
        6,
        6,
        6
    ],
    "_padding_": [
        0,
        0,
        0,
        0
    ],
    "_render_": true,
    "_skin_": "s42097848aa844c9a25e6237b1b50a5b",
    "_text_": "",
    "_top_": {
        "type": "string",
        "value": "0dp"
    },
    "_width_": {
        "type": "string",
        "value": "50dp"
    },
    "android": {
        "render": false
    },
    "canUpdateUI": true,
    "containerweight": 100,
    "contentalignment": 5,
    "displaytext": true,
    "focusskin": "s15223d3cb2a4a3ebea2e75e550bfa3e",
    "id": "CopyhamburgerButton04a4b0742ce0647",
    "ide_onClick": "AS_Button_5d4936cc6f914befbd37d9fbc81756e8",
    "info": null,
    "iphone": {
        "psp": {
            "showProgressIndicator": false
        },
        "render": true
    },
    "isvisible": false,
    "kuid": "f6c48ea9cf0d4b358ec3aee2654fde34",
    "name": "kony.ui.Button",
    "onclick": "AS_Button_297af52fc4aa41feac936a91240f0dfc",
    "parent": "iosTitleBar",
    "pf": "frmDepositPayLandingKA",
    "showprogressindicator": false,
    "spaan": {
        "render": false
    },
    "spabb": {
        "render": false
    },
    "spaip": {
        "render": true
    },
    "spawinphone8": {
        "render": false
    },
    "wType": "Button",
    "winphone8": {
        "render": false
    },
    "zindex": 1
}