{
    "@class": "com.kony.gen.viz.model.component.KVizButton",
    "DNDConfig": null,
    "__parentReadjusting__": false,
    "_height_": {
        "type": "string",
        "value": "35dp"
    },
    "_margin_": [
        6,
        6,
        6,
        6
    ],
    "_padding_": [
        0,
        0,
        0,
        0
    ],
    "_skin_": "s94d80e187a44bd9bb9ce6db5e729010",
    "_text_": "Edit",
    "_top_": {
        "type": "string",
        "value": "5dp"
    },
    "_width_": {
        "type": "string",
        "value": "260dp"
    },
    "canUpdateUI": true,
    "centerx": {
        "type": "string",
        "value": "50%"
    },
    "containerweight": 100,
    "contentalignment": 5,
    "displaytext": true,
    "focusskin": "s6e8459b84e349d98629a088bbfe1304",
    "id": "btnEditTranscation",
    "ide_onClick": "AS_Button_d211ec7638604dd8ac10babfc6a22381",
    "info": null,
    "isvisible": true,
    "kuid": "e6c97afbbc714f8f96f922a6b7946813",
    "name": "kony.ui.Button",
    "parent": "FlexContainerConfirmandEditBtns",
    "pf": "frmConfirmCashWithDrawQRCodeKA",
    "texti18n": "i18n.cashWithdraw.edit",
    "wType": "Button",
    "zindex": 1
}