{
    "@class": "com.kony.gen.viz.model.component.KVizButton",
    "DNDConfig": null,
    "__parentReadjusting__": false,
    "_height_": {
        "type": "string",
        "value": "8%"
    },
    "_margin_": [
        6,
        6,
        6,
        6
    ],
    "_padding_": [
        0,
        0,
        0,
        0
    ],
    "_skin_": "sf7766faf6e34d0789442a84c1e76e1a",
    "_text_": "Edit Beneficiary",
    "_width_": {
        "type": "string",
        "value": "70%"
    },
    "canUpdateUI": true,
    "centerx": {
        "type": "string",
        "value": "50%"
    },
    "centery": {
        "type": "string",
        "value": "90%"
    },
    "containerweight": 100,
    "contentalignment": 5,
    "displaytext": true,
    "focusskin": "sad5d6d4890b44858a39e4bf8a290332",
    "id": "btnEditBeneficiary",
    "ide_onClick": "AS_Button_e19951c8c37848229c0aa62bdf8dfc5c",
    "info": null,
    "isvisible": false,
    "kuid": "bd945291ad794c0cac73cac8a8a0a452",
    "name": "kony.ui.Button",
    "parent": "frmJOMOPayAddBiller",
    "pf": "frmJOMOPayAddBiller",
    "texti18n": "i18n.jomopay.editJomoBene",
    "wType": "Button",
    "zindex": 1
}