{
    "DNDConfig": null,
    "__parentReadjusting__": false,
    "_height_": {
        "type": "string",
        "value": "90%"
    },
    "_left_": {
        "type": "string",
        "value": "0%"
    },
    "_margin_": [
        0,
        0,
        0,
        0
    ],
    "_orientation_": 6,
    "_padding_": [
        0,
        0,
        0,
        0
    ],
    "_percent_": true,
    "_skin_": "s388f0c575ef4d08ac3a5ed0a4b90085",
    "_top_": {
        "type": "string",
        "value": "10%"
    },
    "_width_": {
        "type": "string",
        "value": "100%"
    },
    "allboxes": [],
    "autogrowmode": 0,
    "canUpdateUI": true,
    "children": [
        "flxNameConfirm",
        "flxNickNameConfirm",
        "flxJoMoPayTypeConfirm",
        "flxAccountConfirm",
        "flxFavConfirm",
        "btnConfirm"
    ],
    "clipbounds": true,
    "containerweight": 100,
    "enablescrolling": true,
    "id": "flxConfirmJomopay",
    "info": null,
    "isvisible": false,
    "kuid": "c75691d75b07470bbc0d237e6c4c198c",
    "layouttype": 2,
    "name": "kony.ui.FlexContainer",
    "parent": "frmJOMOPayAddBiller",
    "pf": "frmJOMOPayAddBiller",
    "snapgridsize": 10,
    "snaptogrid": true,
    "wType": "FlexContainer",
    "widgetalignment": 1,
    "zindex": 2
}