{
    "@class": "com.kony.gen.viz.model.container.KVizHBox",
    "DNDConfig": null,
    "_margin_": [
        0,
        0,
        0,
        0
    ],
    "_orientation_": 1,
    "_padding_": [
        0,
        0,
        0,
        0
    ],
    "_percent_": true,
    "_position_": 3,
    "_skin_": "s066e1f55806426ca40936afa9e01f49",
    "allboxes": [],
    "canUpdateUI": true,
    "children": [],
    "containerId": true,
    "containerweight": 100,
    "contextmenu": null,
    "id": "HBox0be5e43c45e4748",
    "info": null,
    "isvisible": true,
    "kuid": "f065d0c0d5e040208999dcf66a49d07f",
    "layouttype": 0,
    "name": "kony.ui.Box",
    "parent": "Temp0da2fb8b2bfdc47",
    "pf": "Temp0da2fb8b2bfdc47",
    "wType": "HBox",
    "widgetalignment": 1
}