{
    "@class": "com.kony.gen.viz.model.component.KVizLabel",
    "DNDConfig": null,
    "__markedForDelete__": true,
    "__parentReadjusting__": false,
    "_height_": {
        "type": "ref",
        "value": "preferred"
    },
    "_margin_": [
        1,
        1,
        1,
        1
    ],
    "_padding_": [
        0,
        0,
        0,
        0
    ],
    "_right_": {
        "type": "string",
        "value": "5%"
    },
    "_skin_": "se033b4241724171afff711026194d8f",
    "_text_": "1234567",
    "_top_": {
        "type": "string",
        "value": "45%"
    },
    "_width_": {
        "type": "ref",
        "value": "preferred"
    },
    "_wrapping_": 2,
    "canUpdateUI": true,
    "containerweight": 100,
    "contentalignment": 4,
    "enabled": false,
    "id": "lblBSBNumberValue",
    "info": null,
    "ipad": {
        "psp": {
            "wrapping": 2
        }
    },
    "iphone": {
        "psp": {
            "wrapping": 2
        }
    },
    "isvisible": true,
    "kuid": "aa6d7a5284464626841b1192e9a8e6e0",
    "name": "kony.ui.Label",
    "parent": "flxAccDetails",
    "pf": "frmConfirmP2PRegistrationKA",
    "texti18n": "i18n.NPP.accNum",
    "tooltip": "",
    "wType": "Label"
}