{
    "DNDConfig": null,
    "__parentReadjusting__": false,
    "_height_": {
        "type": "string",
        "value": "50%"
    },
    "_margin_": [
        0,
        0,
        0,
        0
    ],
    "_orientation_": 6,
    "_padding_": [
        0,
        0,
        0,
        0
    ],
    "_percent_": true,
    "_right_": {
        "type": "string",
        "value": "3%"
    },
    "_skin_": "s414e69da37546e3b7860fb763b8dee7",
    "_width_": {
        "type": "string",
        "value": "12.50%"
    },
    "allboxes": [],
    "autogrowmode": 0,
    "canUpdateUI": true,
    "centery": {
        "type": "string",
        "value": "50%"
    },
    "children": [
        "CopyflxRoundDBlue0c9046f1b78ce46",
        "Copyflxlakeer0c9567e34bf9746"
    ],
    "clipbounds": true,
    "containerweight": 100,
    "enablescrolling": true,
    "id": "CopyflxTouchIDSwitchOn0je479136a4024b",
    "info": null,
    "isvisible": false,
    "kuid": "c553d879e92048ff9a6fca99da16f5f7",
    "layouttype": 2,
    "name": "kony.ui.FlexContainer",
    "parent": "flxPinKA",
    "pf": "frmManageCardsKA",
    "snapgridsize": 10,
    "snaptogrid": true,
    "wType": "FlexContainer",
    "widgetalignment": 1,
    "zindex": 1
}