{
    "DNDConfig": null,
    "__parentReadjusting__": false,
    "_height_": {
        "type": "string",
        "value": "22%"
    },
    "_left_": {
        "type": "string",
        "value": "0%"
    },
    "_margin_": [
        0,
        0,
        0,
        0
    ],
    "_padding_": [
        0,
        0,
        0,
        0
    ],
    "_skin_": "s15e4ac2d02f475fbc70f4dcf387a73a",
    "_top_": {
        "type": "string",
        "value": "0%"
    },
    "_width_": {
        "type": "string",
        "value": "100%"
    },
    "allboxes": [],
    "autogrowmode": 0,
    "canUpdateUI": true,
    "children": [
        "CopyLabel0b434f9f1641447",
        "lblEarnedRewardPoints",
        "CopyinterestRateLabel0d5c033ed251945",
        "lblCcMobileNumber",
        "lblCcMobileNumberTitle"
    ],
    "clipbounds": true,
    "containerweight": 100,
    "enabled": false,
    "enablescrolling": true,
    "id": "CopyflxIBAN0hd4c5a6edeee48",
    "info": null,
    "isvisible": true,
    "kuid": "ecd799bd8c1747c0840a6f43fce7a95e",
    "layouttype": 2,
    "name": "kony.ui.FlexContainer",
    "orientation": 6,
    "parent": "flxaccountdetailsfordeposits",
    "percent": true,
    "pf": "frmManageCardsKA",
    "snapgridsize": 10,
    "snaptogrid": true,
    "wType": "FlexContainer",
    "widgetalignment": 1,
    "zindex": 1
}