{
    "DNDConfig": null,
    "__parentReadjusting__": false,
    "_height_": {
        "type": "string",
        "value": "50%"
    },
    "_margin_": [
        0,
        0,
        0,
        0
    ],
    "_orientation_": 6,
    "_padding_": [
        0,
        0,
        0,
        0
    ],
    "_percent_": true,
    "_right_": {
        "type": "string",
        "value": "3%"
    },
    "_skin_": "s414e69da37546e3b7860fb763b8dee7",
    "_width_": {
        "type": "string",
        "value": "12.50%"
    },
    "allboxes": [],
    "autogrowmode": 0,
    "canUpdateUI": true,
    "centery": {
        "type": "string",
        "value": "50%"
    },
    "children": [
        "CopyflxRoundDBlueOff0b260bd101a6346",
        "CopyflxNaveenbhaiKiLakeer0h80f8ceb396a49"
    ],
    "clipbounds": true,
    "containerweight": 100,
    "enablescrolling": true,
    "id": "CopyflxTouchIDSwitchOff0e66d0041dba045",
    "info": null,
    "isvisible": true,
    "kuid": "ie3d5d7058674229b3a5d5011581b5f4",
    "layouttype": 2,
    "name": "kony.ui.FlexContainer",
    "parent": "flxPinKA",
    "pf": "frmManageCardsKA",
    "snapgridsize": 10,
    "snaptogrid": true,
    "wType": "FlexContainer",
    "widgetalignment": 1,
    "zindex": 1
}