{
    "DNDConfig": null,
    "__parentReadjusting__": false,
    "_height_": {
        "type": "string",
        "value": "22%"
    },
    "_left_": {
        "type": "string",
        "value": "0%"
    },
    "_margin_": [
        0,
        0,
        0,
        0
    ],
    "_orientation_": 6,
    "_padding_": [
        0,
        0,
        0,
        0
    ],
    "_percent_": true,
    "_skin_": "s388f0c575ef4d08ac3a5ed0a4b90085",
    "_top_": {
        "type": "string",
        "value": "0%"
    },
    "_width_": {
        "type": "string",
        "value": "100%"
    },
    "allboxes": [],
    "autogrowmode": 0,
    "canUpdateUI": true,
    "children": [
        "CopylblCcPaynowIcon0ia9bd60362544a",
        "CopylblStaticPayCredit0e078b0bd4a304d",
        "Copydivider0ce2da82b3c0c4b"
    ],
    "clipbounds": true,
    "containerweight": 100,
    "enablescrolling": true,
    "id": "flxRedeemNow",
    "ide_onClick": "AS_FlexContainer_g56b1feec34e409692fadfd0b922ae1f",
    "info": null,
    "isvisible": true,
    "kuid": "bec3981a872e45448f19e1b423d39dbd",
    "layouttype": 2,
    "name": "kony.ui.FlexContainer",
    "parent": "accountsOuterScroll",
    "pf": "frmManageCardsKA",
    "snapgridsize": 10,
    "snaptogrid": true,
    "wType": "FlexContainer",
    "widgetalignment": 1,
    "zindex": 1
}