{
    "@class": "com.kony.gen.viz.model.component.KVizLabel",
    "DNDConfig": null,
    "__parentReadjusting__": false,
    "_height_": {
        "type": "string",
        "value": "100%"
    },
    "_margin_": [
        1,
        1,
        1,
        1
    ],
    "_padding_": [
        0,
        0,
        0,
        0
    ],
    "_right_": {
        "type": "string",
        "value": "22%"
    },
    "_skin_": "s54bf0258815482d9431de67438bfce0",
    "_text_": "m",
    "_top_": {
        "type": "string",
        "value": "0%"
    },
    "_width_": {
        "type": "string",
        "value": "8%"
    },
    "_wrapping_": 2,
    "android": {
        "textStyle": {
            "letterSpacing": 0,
            "strikeThrough": false
        }
    },
    "canUpdateUI": true,
    "centery": "50%",
    "containerweight": 100,
    "contentalignment": 5,
    "id": "lblCardStatement",
    "ide_onTouchEnd": "AS_Label_b2f6f14a22e34b8295b1ea40b1d103ca",
    "info": null,
    "ipad": {
        "psp": {
            "wrapping": 2
        }
    },
    "iphone": {
        "psp": {
            "wrapping": 2
        }
    },
    "isvisible": true,
    "kuid": "h768cb255fca4e799f351eff9f3d5777",
    "name": "kony.ui.Label",
    "parent": "flxExtraIcons",
    "pf": "frmManageCardsKA",
    "textstyle": {},
    "tooltip": "",
    "wType": "Label",
    "zindex": 1
}