{
    "@class": "com.kony.gen.viz.model.component.KVizLabel",
    "DNDConfig": null,
    "__parentReadjusting__": false,
    "_height_": {
        "type": "ref",
        "value": "preferred"
    },
    "_margin_": [
        1,
        1,
        1,
        1
    ],
    "_padding_": [
        0,
        0,
        0,
        0
    ],
    "_skin_": "scc230f90f1e474582c626a6937a08d5",
    "_text_": "",
    "_width_": {
        "type": "ref",
        "value": "preferred"
    },
    "_wrapping_": 2,
    "android": {
        "textStyle": {
            "letterSpacing": 0,
            "strikeThrough": false
        }
    },
    "canUpdateUI": true,
    "centerx": {
        "type": "string",
        "value": "40%"
    },
    "centery": {
        "type": "string",
        "value": "40.00%"
    },
    "containerweight": 100,
    "contentalignment": 4,
    "id": "lblSortDate",
    "info": null,
    "ipad": {
        "psp": {
            "wrapping": 2
        }
    },
    "iphone": {
        "psp": {
            "wrapping": 2
        }
    },
    "isvisible": true,
    "kuid": "e21991dfe16843199122e724133109a7",
    "name": "kony.ui.Label",
    "parent": "flxAccountDetailsSort",
    "pf": "frmManageCardsKA",
    "texti18n": "i18n.accounts.date",
    "textstyle": {},
    "tooltip": "",
    "wType": "Label",
    "zindex": 1
}