{
    "@class": "com.kony.gen.viz.model.container.KVizSegment2",
    "DNDConfig": null,
    "__parentReadjusting__": false,
    "_bounces_": false,
    "_data_": [
        {
            "CardHolder": {
                "@class": "com.viz.ide.model.segment.SimpleTextSegmentData",
                "text": ""
            },
            "ValidThru": {
                "@class": "com.viz.ide.model.segment.SimpleTextSegmentData",
                "text": ""
            },
            "cardImage": {
                "@class": "com.viz.ide.model.segment.ImageSegmentData",
                "src": ""
            },
            "cardNumber": {
                "@class": "com.viz.ide.model.segment.SimpleTextSegmentData",
                "text": ""
            },
            "cardType": {
                "@class": "com.viz.ide.model.segment.SimpleTextSegmentData",
                "text": ""
            }
        }
    ],
    "_height_": {
        "type": "string",
        "value": "40%"
    },
    "_indicator_": "none",
    "_left_": {
        "type": "string",
        "value": "0dp"
    },
    "_margin_": [
        0,
        0,
        0,
        0
    ],
    "_orientation_": 2,
    "_padding_": [
        0,
        0,
        0,
        0
    ],
    "_top_": {
        "type": "string",
        "value": "-3%"
    },
    "_width_": {
        "type": "string",
        "value": "100%"
    },
    "autogrowmode": 0,
    "canUpdateUI": true,
    "containerweight": 100,
    "counter": "00",
    "focusedindex": null,
    "focuseditem": null,
    "generatedtemplate": "a61754963ba44b46859c0bbce2e6a0d4",
    "groupcells": false,
    "hasSections": false,
    "id": "segCardsKA",
    "ide_onSwipe": "AS_Segment_35e707464fdc4f248a6509580a55c0ff",
    "info": null,
    "invokedProperty": "pageOffDotImage",
    "ipad": {
        "psp": {
            "indicator": "rowselect"
        }
    },
    "iphone": {
        "psp": {
            "bounces": false,
            "indicator": "none",
            "showProgressIndicator": false
        }
    },
    "isvisible": true,
    "kuid": "9ddee56ff0c547a6848aaee0bcd73be9",
    "masterdata": {},
    "name": "kony.ui.SegmentedUI2",
    "needpageindicator": false,
    "pageoffdotimage": "inactive.png",
    "pageondotimage": "active.png",
    "paginationconfig": {
        "position": "bottom",
        "vdistance": 1
    },
    "parent": "overview",
    "pf": "frmManageCardsKA",
    "retainselection": false,
    "rowTemplateId": "9d9bdfbc978847c083a2ace1ff2a9412",
    "rowcounter": 0,
    "rowfocusskin": "sbded94310044f4a8af0f74747158a6d",
    "rowskin": "s433a28aaf904285bc4f2131fae32fc5",
    "rowtemplate": "FlexContainer0482796baf97443",
    "screenlevelwidget": false,
    "seccounter": 0,
    "sectionheaderskin": "s166bbed35d04ad1b28badead9d39877",
    "selectedRows": null,
    "selectedState": false,
    "selectedindex": null,
    "selectedindices": null,
    "selecteditems": null,
    "selectedsectionindex": 0,
    "selectionbehavior": "default",
    "separatorrequired": true,
    "separatorthickness": 0,
    "showscrollbars": false,
    "swipeContext": {
        "currentPage": 0,
        "imageWidth": 1080,
        "widthRatio": 0
    },
    "viewtype": "pageview",
    "vizProps": {},
    "wType": "Segment",
    "widgetalignment": 5,
    "widgetdatamap": {
        "CardHolder": "CardHolder",
        "ValidThru": "ValidThru",
        "cardImage": "cardImage",
        "cardNumber": "cardNumber",
        "cardType": "cardType",
        "flxCardDetails": "flxCardDetails",
        "flxCreditCardTemplateKA": "flxCreditCardTemplateKA"
    }
}