{
    "DNDConfig": null,
    "__parentReadjusting__": false,
    "_height_": {
        "type": "string",
        "value": "90%"
    },
    "_left_": {
        "type": "string",
        "value": "0%"
    },
    "_margin_": [
        0,
        0,
        0,
        0
    ],
    "_orientation_": 6,
    "_padding_": [
        0,
        0,
        0,
        0
    ],
    "_percent_": true,
    "_skin_": "s388f0c575ef4d08ac3a5ed0a4b90085",
    "_top_": {
        "type": "string",
        "value": "10%"
    },
    "_width_": {
        "type": "string",
        "value": "100%"
    },
    "allboxes": [],
    "autogrowmode": 0,
    "canUpdateUI": true,
    "children": [
        "flxInstantCashTotalRedeemPoints",
        "lblAllowedRewardTitle",
        "lblAllowedRewardPoints",
        "lblCalculatedAmountTitle",
        "flxRedeemedAmount",
        "flxRedeemingPoints",
        "flxRedeemedPoints",
        "lblminpntsnotreachedmsg",
        "lblRedeemMinPointsHint",
        "lblRedeemPointsValue",
        "lblExceedPointLimit",
        "CopylblRedeemMinPointsHint0j73f08a35bf146"
    ],
    "clipbounds": true,
    "containerweight": 100,
    "enablescrolling": true,
    "id": "flxInstantCashBody",
    "info": null,
    "isvisible": true,
    "kuid": "faadf4a447fd4bd7ac883867ea0d1ba2",
    "layouttype": 2,
    "name": "kony.ui.FlexContainer",
    "parent": "flxInstantCash",
    "pf": "frmInstantCash",
    "snapgridsize": 10,
    "snaptogrid": true,
    "wType": "FlexContainer",
    "widgetalignment": 1,
    "zindex": 1
}