{
    "@class": "com.kony.gen.viz.model.component.KVizButton",
    "DNDConfig": null,
    "__parentReadjusting__": false,
    "_height_": {
        "type": "string",
        "value": "42dp"
    },
    "_margin_": [
        6,
        6,
        6,
        6
    ],
    "_padding_": [
        0,
        0,
        0,
        0
    ],
    "_skin_": "s51d68053cae4eba826625de179be4ae",
    "_text_": "CONTINUE...",
    "_top_": {
        "type": "string",
        "value": "20%"
    },
    "_width_": {
        "type": "string",
        "value": "80%"
    },
    "canUpdateUI": true,
    "centerx": {
        "type": "string",
        "value": "49.97%"
    },
    "containerweight": 100,
    "contentalignment": 5,
    "displaytext": true,
    "focusskin": "sbe13586f59d4a768bfe23c1b619f8c6",
    "id": "btnContinue",
    "ide_onClick": "AS_Button_i63c1b126e134f0ab9e095dc3e9bf1ab",
    "info": null,
    "iphone": {
        "psp": {
            "showProgressIndicator": false
        }
    },
    "isvisible": true,
    "kuid": "edad5bdd214a4ecf976ce793978e5d0f",
    "name": "kony.ui.Button",
    "onclick": "AS_Button_b9bdaa9f9f044b07a3cc0b9a37121d52",
    "parent": "flxFooter",
    "pf": "frmDefaultLoginMethodKA",
    "showprogressindicator": false,
    "texti18n": "i18n.common.btnContinuee",
    "wType": "Button",
    "zindex": 1
}