{
    "@class": "com.kony.gen.viz.model.component.KVizImage2",
    "DNDConfig": null,
    "__parentReadjusting__": false,
    "_base64_": null,
    "_height_": {
        "type": "string",
        "value": "38dp"
    },
    "_margin_": [
        0,
        0,
        0,
        0
    ],
    "_padding_": [
        0,
        0,
        0,
        0
    ],
    "_right_": {
        "type": "string",
        "value": "0%"
    },
    "_skin_": "sa625024fef740fea5133ed43bbfac5f",
    "_src_": "close.png",
    "_top_": {
        "type": "string",
        "value": "-8dp"
    },
    "_width_": {
        "type": "string",
        "value": "37dp"
    },
    "canUpdateUI": true,
    "containerweight": 100,
    "context": {
        "channel": "mobile",
        "formID": "frmUserSettingsTouchIdKA",
        "ispercent": true,
        "platform": "android",
        "templateType": "forms",
        "topLevelBox": null
    },
    "id": "imgCloseTouchId",
    "ide_onTouchStart": "AS_Image_bb169652645c4ce1abfca9550bbad8ab",
    "imagescalemode": 1,
    "info": null,
    "invokedProperty": "src",
    "isvisible": true,
    "kuid": "a516575dba2e44c193d270c85698dea5",
    "name": "kony.ui.Image2",
    "parent": "coseTouchId",
    "pf": "frmUserSettingsTouchIdKA",
    "srcType": 1,
    "wType": "Image",
    "widgetalignment": 5,
    "zindex": 1
}