{
    "@class": "com.kony.gen.viz.model.component.KVizButton",
    "DNDConfig": null,
    "__parentReadjusting__": false,
    "_height_": {
        "type": "string",
        "value": "50dp"
    },
    "_left_": {
        "type": "string",
        "value": "0dp"
    },
    "_margin_": [
        6,
        6,
        6,
        6
    ],
    "_padding_": [
        0,
        0,
        0,
        0
    ],
    "_skin_": "see68cd63ba243d98af2bd9f497e474c",
    "_text_": "F",
    "_top_": {
        "type": "string",
        "value": "0dp"
    },
    "_width_": {
        "type": "string",
        "value": "40dp"
    },
    "canUpdateUI": true,
    "containerweight": 100,
    "contentalignment": 5,
    "displaytext": true,
    "focusskin": "see68cd63ba243d98af2bd9f497e474c",
    "id": "btnProfile",
    "ide_onClick": "AS_Button_bba8c120bf874164a97988b5fe6f9a83",
    "info": null,
    "iphone": {
        "psp": {
            "showProgressIndicator": false
        }
    },
    "iscustomlayout": false,
    "isvisible": true,
    "kuid": "c7a8bbfc50e94662bbc378bf39e1dce3",
    "name": "kony.ui.Button",
    "parent": "FlexContainer0b9fde1e61d3c44",
    "pf": "frmCardsLandingKA",
    "retainflexpositionproperties": false,
    "showprogressindicator": false,
    "wType": "Button",
    "zindex": 1
}