{
    "DNDConfig": null,
    "__parentReadjusting__": false,
    "_height_": {
        "type": "ref",
        "value": "preferred"
    },
    "_left_": {
        "type": "string",
        "value": "0%"
    },
    "_margin_": [
        0,
        0,
        0,
        0
    ],
    "_orientation_": 6,
    "_padding_": [
        0,
        0,
        0,
        0
    ],
    "_percent_": true,
    "_skin_": "s388f0c575ef4d08ac3a5ed0a4b90085",
    "_top_": {
        "type": "string",
        "value": "5dp"
    },
    "_width_": {
        "type": "string",
        "value": "100%"
    },
    "allboxes": [],
    "autogrowmode": 1,
    "canUpdateUI": true,
    "children": [
        "CopyLabel0dfc75d0e4cf843",
        "CopyLabel0bc135f67b07c49",
        "CopyLabel0hbaeeddfaec740",
        "CopyLabel0id23ea7cb4534b"
    ],
    "clipbounds": true,
    "containerweight": 100,
    "enablescrolling": true,
    "id": "CopyflxAmount0ia2541c374fc46",
    "info": null,
    "isvisible": true,
    "kuid": "j65cd998ad1d4cec873ddee330a9a2cd",
    "layouttype": 2,
    "name": "kony.ui.FlexContainer",
    "parent": "flxTransactionDetailsContent",
    "pf": "frmTransactionDetails",
    "snapgridsize": 10,
    "snaptogrid": true,
    "wType": "FlexContainer",
    "widgetalignment": 1,
    "zindex": 1
}