{
    "DNDConfig": null,
    "__parentReadjusting__": false,
    "_height_": {
        "type": "string",
        "value": "62dp"
    },
    "_left_": {
        "type": "string",
        "value": "5%"
    },
    "_margin_": [
        0,
        0,
        0,
        0
    ],
    "_padding_": [
        0,
        0,
        0,
        0
    ],
    "_render_": true,
    "_skin_": "sd71d196025543d4a06972669a62082f",
    "_top_": {
        "type": "string",
        "value": "0dp"
    },
    "_width_": {
        "type": "string",
        "value": "100%"
    },
    "allboxes": [],
    "android": {
        "render": true
    },
    "autogrowmode": 0,
    "canUpdateUI": true,
    "children": [
        "colorAccount1",
        "nameContainer",
        "amountAccount1",
        "amtOutsatndingBal",
        "amountcurrBal",
        "typeAccount",
        "typeKA",
        "typeAccountBalanceView"
    ],
    "clipbounds": true,
    "containerId": true,
    "containerweight": 100,
    "enabled": false,
    "enablescrolling": true,
    "focusskin": "s039b0db44684175898d2b36b25aa7d8",
    "id": "yourAccount",
    "info": null,
    "iphone": {
        "render": true
    },
    "isTemplate": true,
    "isvisible": true,
    "kuid": "d45f1dbab78c41758fbfadf173ada69c",
    "layouttype": 2,
    "name": "kony.ui.FlexContainer",
    "orientation": 6,
    "parent": "tmpAccountsPayBill",
    "percent": true,
    "pf": "tmpAccountsPayBill",
    "snapgridsize": 10,
    "snaptogrid": true,
    "spaan": {
        "render": true
    },
    "spabb": {
        "render": true
    },
    "spaip": {
        "render": true
    },
    "spawinphone8": {
        "render": true
    },
    "wType": "FlexContainer",
    "widgetalignment": 1,
    "winphone8": {
        "render": true
    },
    "zindex": 1
}