{
    "DNDConfig": null,
    "_height_": {
        "type": "string",
        "value": "70dp"
    },
    "_margin_": [
        0,
        0,
        0,
        0
    ],
    "_padding_": [
        0,
        0,
        0,
        0
    ],
    "_skin_": "s9c14c5cfa624594965bca8fa71d4023",
    "allboxes": [],
    "autogrowmode": 0,
    "canUpdateUI": true,
    "children": [
        "lblAccountTypeKA",
        "chevron",
        "lblAccountType",
        "transactionAmount",
        "lblSepKA",
        "AccountTypeKA",
        "FlexContainer093a8eea8c55f4a",
        "FlexContainer0c2ca3ef38dbd43",
        "lblNotesKA",
        "cashlessPhone",
        "cashlessEmail",
        "cashlessPersonName",
        "fromAccountName",
        "transactionID"
    ],
    "clipbounds": true,
    "containerId": true,
    "containerweight": 100,
    "disabledSkins": {
        "focusSkin": "s1e6f36d09a04693ac1b1b738e6c3aa4"
    },
    "enabled": false,
    "enablescrolling": true,
    "id": "CopyFlexContainer047db9e4d3aaf43",
    "info": null,
    "isTemplate": true,
    "isvisible": true,
    "kuid": "f26898014791409e8aea459888599fc3",
    "layouttype": 2,
    "name": "kony.ui.FlexContainer",
    "orientation": 6,
    "parent": "transactionTemplateColor",
    "percent": true,
    "pf": "transactionTemplateColor",
    "snapgridsize": 10,
    "snaptogrid": true,
    "wType": "FlexContainer",
    "widgetalignment": 1
}