{
    "@class": "com.kony.gen.viz.model.component.KVizLabel",
    "DNDConfig": null,
    "__markedForDelete__": true,
    "__parentReadjusting__": false,
    "_height_": {
        "type": "string",
        "value": "27%"
    },
    "_left_": {
        "type": "string",
        "value": "4%"
    },
    "_margin_": [
        1,
        1,
        1,
        1
    ],
    "_padding_": [
        0,
        0,
        0,
        0
    ],
    "_skin_": "s2b0e438cef942759c2ef6ae2b59dc7b",
    "_text_": "",
    "_width_": {
        "type": "string",
        "value": "84%"
    },
    "_wrapping_": 2,
    "canUpdateUI": true,
    "centery": {
        "type": "string",
        "value": "75%"
    },
    "containerId": true,
    "containerweight": 100,
    "contentalignment": 7,
    "enabled": false,
    "id": "lblAccountNumber",
    "info": null,
    "ipad": {
        "psp": {
            "wrapping": 2
        }
    },
    "iphone": {
        "psp": {
            "wrapping": 2
        }
    },
    "isvisible": true,
    "kuid": "cec919a74dfa400d8a5dbffc8608b49a",
    "maxnumberoflines": 1,
    "name": "kony.ui.Label",
    "parent": "flxTransactionStatusDetails",
    "pf": "tmpTransactionStatus",
    "texttruncateposition": 3,
    "tooltip": "",
    "wType": "Label",
    "zindex": 2
}