{
    "@class": "com.kony.gen.viz.model.component.KVizButton",
    "DNDConfig": null,
    "__parentReadjusting__": false,
    "_height_": {
        "type": "string",
        "value": "100%"
    },
    "_left_": {
        "type": "string",
        "value": "5%"
    },
    "_margin_": [
        6,
        6,
        6,
        6
    ],
    "_padding_": [
        0,
        0,
        0,
        0
    ],
    "_right_": {
        "type": "number",
        "value": "0"
    },
    "_skin_": "s75738ad78f243d8989795b8e4f66994",
    "_text_": "",
    "_top_": {
        "type": "string",
        "value": "0dp"
    },
    "_width_": {
        "type": "string",
        "value": "90%"
    },
    "canUpdateUI": true,
    "containerweight": 100,
    "contentalignment": 6,
    "disabledSkins": {},
    "displaytext": true,
    "focusskin": "s75738ad78f243d8989795b8e4f66994",
    "id": "btnRPRForward",
    "ide_onClick": "AS_Button_fadfabddb5ed4cd594865aca819d02c6",
    "info": null,
    "isvisible": true,
    "kuid": "cbeb7c286c4f419e9ef9af9a362af50d",
    "masterType": 1,
    "name": "kony.ui.Button",
    "parent": "flxRPRAcc",
    "pf": "frmIPSRequests",
    "texti18n": "i18n.common.reverseback",
    "wType": "Button",
    "zindex": 1
}