{
    "DNDConfig": null,
    "__parentReadjusting__": false,
    "_height_": {
        "type": "string",
        "value": "31dp"
    },
    "_margin_": [
        0,
        0,
        0,
        0
    ],
    "_orientation_": 6,
    "_padding_": [
        0,
        0,
        0,
        0
    ],
    "_percent_": true,
    "_right_": {
        "type": "string",
        "value": "2.04%"
    },
    "_skin_": "s388f0c575ef4d08ac3a5ed0a4b90085",
    "_top_": {
        "type": "string",
        "value": "11.75%"
    },
    "_width_": {
        "type": "string",
        "value": "17.33%"
    },
    "allboxes": [],
    "autogrowmode": 0,
    "canUpdateUI": true,
    "centery": {
        "type": "string",
        "value": "50%"
    },
    "children": [
        "lblNextHistory"
    ],
    "clipbounds": true,
    "containerweight": 100,
    "enablescrolling": true,
    "id": "flxNextHistory",
    "ide_onClick": "AS_FlexContainer_a3643f46ad6e42cba56cd990ac96779c",
    "info": null,
    "iscustomlayout": true,
    "isvisible": true,
    "kuid": "ef79c479ea234ba4b72f034aefa8a5d7",
    "layouttype": 2,
    "name": "kony.ui.FlexContainer",
    "parent": "flxHdrMain",
    "pf": "frmIPSRequests",
    "retainflexpositionproperties": true,
    "snapgridsize": 10,
    "snaptogrid": true,
    "wType": "FlexContainer",
    "widgetalignment": 1,
    "zindex": 1
}