{
    "@class": "com.kony.gen.viz.model.component.KVizTextBox2",
    "DNDConfig": null,
    "__parentReadjusting__": false,
    "_bottom_": {
        "type": "string",
        "value": "4%"
    },
    "_height_": {
        "type": "string",
        "value": "50%"
    },
    "_left_": {
        "type": "string",
        "value": "0%"
    },
    "_margin_": [
        0,
        0,
        0,
        0
    ],
    "_padding_": [
        3,
        0,
        0,
        0
    ],
    "_placeholder_": "0.000",
    "_skin_": "s029998596d3421892d0917ea7492e1d",
    "_text_": "",
    "_width_": {
        "type": "string",
        "value": "100%"
    },
    "android": {
        "psp": {
            "keyboardActionLabel": 1
        }
    },
    "autocapitalize": "none",
    "autocomplete": false,
    "autocorrect": false,
    "autofilter": false,
    "canUpdateUI": true,
    "containerheight": "",
    "containerheightmode": 1,
    "containerweight": 100,
    "contentalignment": 4,
    "disabledSkins": {},
    "focusskin": "s5dc7ab5f2094c178f9df4b115ee49a4",
    "id": "txtAmountRP",
    "ide_onDone": "AS_TextField_b9007188ec284e4e9bd0284d2a401e45",
    "ide_onTextChange": "AS_TextField_d8bf3f576c664f3db4f78a43e163637e",
    "info": null,
    "iphone": {
        "psp": {
            "keyboardActionLabel": 4,
            "showCloseButton": true
        }
    },
    "isvisible": true,
    "keyboardactionlabel": 4,
    "keyboardstyle": "number",
    "keyboardtype": "A",
    "kuid": "a909647bba5947cda9cb831cf3754fbc",
    "mode": "N",
    "name": "kony.ui.TextBox2",
    "parent": "flxRPAmount",
    "pf": "frmIPSRequests",
    "securetextentry": false,
    "textinputmode": "N",
    "viewtype": "default",
    "wType": "TextField",
    "zindex": 1
}