{
    "@class": "com.kony.gen.viz.model.component.KVizTextBox2",
    "DNDConfig": null,
    "__parentReadjusting__": false,
    "_bottom_": {
        "type": "string",
        "value": "-6%"
    },
    "_height_": {
        "type": "string",
        "value": "50%"
    },
    "_left_": {
        "type": "string",
        "value": "10%"
    },
    "_margin_": [
        0,
        0,
        0,
        0
    ],
    "_padding_": [
        3,
        0,
        0,
        0
    ],
    "_placeholder_": "0.000",
    "_skin_": "s029998596d3421892d0917ea7492e1d",
    "_text_": "",
    "_width_": {
        "type": "string",
        "value": "100%"
    },
    "autocapitalize": "none",
    "autocomplete": false,
    "autocorrect": false,
    "autofilter": false,
    "canUpdateUI": true,
    "containerheight": "",
    "containerheightmode": 1,
    "containerweight": 100,
    "contentalignment": 4,
    "disabledSkins": {},
    "focusskin": "s5dc7ab5f2094c178f9df4b115ee49a4",
    "id": "txtAmountRPOriginal",
    "ide_onDone": "AS_TextField_daa0a20d476643679e5be84812be43e4",
    "ide_onTextChange": "AS_TextField_a14225524b8b455f991bc6c0b1e4426b",
    "info": null,
    "iphone": {
        "psp": {
            "keyboardActionLabel": 4,
            "showCloseButton": true
        }
    },
    "isvisible": false,
    "keyboardactionlabel": 4,
    "keyboardstyle": "number",
    "keyboardtype": "A",
    "kuid": "aeff0c25703441519f66bb287b3a4046",
    "mode": "N",
    "name": "kony.ui.TextBox2",
    "parent": "flxRPAmount",
    "pf": "frmIPSRequests",
    "securetextentry": false,
    "textinputmode": "N",
    "viewtype": "default",
    "wType": "TextField",
    "zindex": 1
}