{
  "operationConfig" : {
    "name" : "prDcReqNewPin8991",
    "type" : "MappedToBackend",
    "cachable" : false,
    "smsEnabled" : false,
    "security" : "authorized_app_user",
    "responseEncoding" : "UTF-8",
    "httpMethod" : "GET",
    "decodeResponseBody" : false,
    "iMapping" : "<?xml version=\"1.0\" encoding=\"UTF-8\" standalone=\"yes\"?><mapper xmlns=\"http://www.kony.com/ns/mapper\">  <map inputpath=\"request_in\" outputpath=\"request_out\">    <set-param inputpath=\"acctno\" outputpath=\"acctno\"/>    <set-param inputpath=\"p_delv_br\" outputpath=\"p_delv_br\"/>    <set-param inputpath=\"usr\" outputpath=\"usr\"/>    <set-param inputpath=\"pass\" outputpath=\"pass\"/>    <set-param inputpath=\"p_acc_br\" outputpath=\"p_acc_br\"/>    <set-param inputpath=\"custId\" outputpath=\"custId\"/>    <set-param inputpath=\"CardNum\" outputpath=\"CardNum\"/>    <set-param inputpath=\"userId\" outputpath=\"userId\"/>    <set-param inputpath=\"p_channel\" outputpath=\"p_channel\"/>  </map></mapper>",
    "oMapping" : "<?xml version=\"1.0\" encoding=\"UTF-8\" standalone=\"yes\"?><mapper xmlns=\"http://www.kony.com/ns/mapper\">  <map inputpath=\"response_in\" outputpath=\"response_out\">    <set-param inputpath=\"ErrorCode\" outputpath=\"ErrorCode\"/>    <set-param inputpath=\"referenceId\" outputpath=\"referenceId\"/>  </map></mapper>",
    "applyCommonMapping" : false,
    "backendMeta" : {
      "serviceVersion" : "1.0",
      "operationName" : "prDcReqNewPin",
      "serviceName" : "BOJprDcReqNewPin"
    },
    "relationshipHierarchyMapping" : {
      "children" : [ ],
      "name" : "Cards",
      "selected" : true
    },
    "requestXmlMappingOverride" : true,
    "responseXmlMappingOverride" : true
  }
}