{
  "operationConfig" : {
    "name" : "getAllCardTypeList3271",
    "type" : "MappedToBackend",
    "cachable" : false,
    "smsEnabled" : false,
    "security" : "public",
    "responseEncoding" : "UTF-8",
    "httpMethod" : "GET",
    "decodeResponseBody" : false,
    "odata" : [ {
      "id" : "$select",
      "dataType" : "string",
      "encode" : true,
      "accessType" : "readonly"
    }, {
      "id" : "$filter",
      "dataType" : "string",
      "encode" : true,
      "accessType" : "readonly"
    }, {
      "id" : "$orderby",
      "dataType" : "string",
      "encode" : true,
      "accessType" : "readonly"
    }, {
      "id" : "$top",
      "dataType" : "string",
      "encode" : true,
      "accessType" : "readonly"
    }, {
      "id" : "$skip",
      "dataType" : "string",
      "encode" : true,
      "accessType" : "readonly"
    }, {
      "id" : "$expand",
      "dataType" : "string",
      "encode" : true,
      "accessType" : "readonly"
    }, {
      "id" : "$batchsize",
      "dataType" : "string",
      "encode" : true,
      "accessType" : "readonly"
    }, {
      "id" : "$batchid",
      "dataType" : "string",
      "encode" : true,
      "accessType" : "readonly"
    } ],
    "iMapping" : "<?xml version=\"1.0\" encoding=\"UTF-8\" standalone=\"yes\"?><mapper xmlns=\"http://www.kony.com/ns/mapper\">            <map inputpath=\"request_in\" outputpath=\"request_out\">                        <set-param inputpath=\"acctno\" outputpath=\"acctno\"/>                        <set-param inputpath=\"acctbr\" outputpath=\"acctbr\"/>                        <set-param inputpath=\"usr\" outputpath=\"usr\"/>                        <set-param inputpath=\"pass\" outputpath=\"pass\"/>                        <set-param inputpath=\"custId\" outputpath=\"custId\"/>                        <set-param inputpath=\"Cardflag\" outputpath=\"Cardflag\"/>                        <set-param inputpath=\"p_fcdb_ref_no\" outputpath=\"p_fcdb_ref_no\"/>                        <set-param inputpath=\"CardNum\" outputpath=\"CardNum\"/>                        <set-param inputpath=\"lang\" outputpath=\"lang\"/>            </map></mapper>",
    "oMapping" : "<?xml version=\"1.0\" encoding=\"UTF-8\" standalone=\"yes\"?><mapper xmlns=\"http://www.kony.com/ns/mapper\">          <map inputpath=\"response_in\" outputpath=\"response_out\">                    <set-param inputpath=\"statusType\" outputpath=\"statusType\"/>                    <set-param inputpath=\"statusMessage\" outputpath=\"statusMessage\"/>                    <set-param inputpath=\"statusCode\" outputpath=\"statusCode\"/>                        <set-param inputpath=\"CardDetails\" outputpath=\"CardDetails\"/>                <set-param inputpath=\"DWCardList\" outputpath=\"DWCardList\"/>                <set-param inputpath=\"cardPrefList\" outputpath=\"cardPrefList\"/>                <set-param inputpath=\"WebChrgCardList\" outputpath=\"WebChrgCardList\"/>                <set-param inputpath=\"AllCardList\" outputpath=\"AllCardList\"/>          </map></mapper>",
    "applyCommonMapping" : false,
    "backendMeta" : {
      "serviceVersion" : "1.0",
      "operationName" : "getAllCardTypeList",
      "serviceName" : "AllCardList"
    },
    "relationshipHierarchyMapping" : {
      "children" : [ ],
      "name" : "Cards",
      "selected" : true
    },
    "requestXmlMappingOverride" : false,
    "responseXmlMappingOverride" : false
  }
}