{
  "operationConfig" : {
    "name" : "setCardPref2859",
    "type" : "MappedToBackend",
    "cachable" : false,
    "smsEnabled" : false,
    "security" : "public",
    "responseEncoding" : "UTF-8",
    "httpMethod" : "GET",
    "decodeResponseBody" : false,
    "iMapping" : "<?xml version=\"1.0\" encoding=\"UTF-8\" standalone=\"yes\"?><mapper xmlns=\"http://www.kony.com/ns/mapper\">  <map inputpath=\"request_in\" outputpath=\"request_out\">    <set-param inputpath=\"cardList\" outputpath=\"cardList\"/>    <set-param inputpath=\"language\" outputpath=\"Language\"/>    <set-param inputpath=\"user_id\" outputpath=\"user_id\"/>    <set-param inputpath=\"custId\" outputpath=\"custId\"/>  </map></mapper>",
    "oMapping" : "<?xml version=\"1.0\" encoding=\"UTF-8\" standalone=\"yes\"?><mapper xmlns=\"http://www.kony.com/ns/mapper\">  <map inputpath=\"response_in\" outputpath=\"response_out\">    <set-param inputpath=\"statusType\" outputpath=\"statusType\"/>    <set-param inputpath=\"statusMessage\" outputpath=\"statusMessage\"/>    <set-param inputpath=\"statusCode\" outputpath=\"statusCode\"/>  </map></mapper>",
    "applyCommonMapping" : true,
    "backendMeta" : {
      "serviceVersion" : "1.0",
      "operationName" : "setCardPref",
      "serviceName" : "BOJRestServices"
    },
    "relationshipHierarchyMapping" : {
      "children" : [ ],
      "name" : "Cards",
      "selected" : true
    },
    "requestXmlMappingOverride" : true,
    "responseXmlMappingOverride" : true
  }
}