{
    "DNDConfig": null,
    "__parentReadjusting__": false,
    "_height_": {
        "type": "string",
        "value": "25dp"
    },
    "_margin_": [
        0,
        0,
        0,
        0
    ],
    "_orientation_": 6,
    "_padding_": [
        0,
        0,
        0,
        0
    ],
    "_percent_": true,
    "_right_": {
        "type": "string",
        "value": "0%"
    },
    "_skin_": "s5384c55ad894841ae78a8cff35309bf",
    "_top_": {
        "type": "string",
        "value": "0dp"
    },
    "_width_": {
        "type": "string",
        "value": "44dp"
    },
    "allboxes": [],
    "autogrowmode": 0,
    "canUpdateUI": true,
    "centery": {
        "type": "string",
        "value": "50%"
    },
    "children": [
        "CopyflxRoundDBlueOff0e8b58421c63a4c",
        "CopyflxNaveenbhaiKiLakeer0f2f2096cb53a42"
    ],
    "clipbounds": true,
    "containerweight": 100,
    "enablescrolling": true,
    "id": "flxDefaultPaymentSwitchOff",
    "ide_onClick": "AS_FlexContainer_b775da9af89345a7a2d89ade7d0a7a46",
    "info": null,
    "isvisible": true,
    "kuid": "b572b487cda24f178617c5cabf65388c",
    "layouttype": 2,
    "name": "kony.ui.FlexContainer",
    "parent": "CopyflxAcc0cec509a35a9347",
    "pf": "frmEditAccountSettings",
    "snapgridsize": 10,
    "snaptogrid": true,
    "wType": "FlexContainer",
    "widgetalignment": 1,
    "zindex": 1
}